0.0 2.002074478 0.219864468683 0.0
0.0 2.00368257 0.219768326212 0.0
0.0 2.005290662 0.2196720118 0.0
0.0 2.006898754 0.219575525972 0.0
0.0 2.008506846 0.21947886925 0.0
0.0 2.010114938 0.21938204216 0.0
0.0 2.01172303 0.219285045225 0.0
0.0 2.013331122 0.21918787897 0.0
0.0 2.014939214 0.219090543919 0.0
0.0 2.016547306 0.218993040597 0.0
0.0 2.018155398 0.218895369529 0.0
0.0 2.01976349 0.21879753124 0.0
0.0 2.021371582 0.218699526253 0.0
0.0 2.022979674 0.218601355095 0.0
0.0 2.024587766 0.218503018291 0.0
0.0 2.026195858 0.218404516364 0.0
0.0 2.027803949 0.218305849904 0.0
0.0 2.029412041 0.218207019311 0.0
0.0 2.031020133 0.218108025172 0.0
0.0 2.032628225 0.218008868014 0.0
0.0 2.034236317 0.217909548361 0.0
0.0 2.035844409 0.21781006674 0.0
0.0 2.037452501 0.217710423675 0.0
0.0 2.039060593 0.217610619694 0.0
0.0 2.040668685 0.217510655321 0.0
0.0 2.042276777 0.217410531083 0.0
0.0 2.043884869 0.217310247505 0.0
0.0 2.045492961 0.217209805114 0.0
0.0 2.047101053 0.217109204436 0.0
0.0 2.048709145 0.217008445997 0.0
0.0 2.050317237 0.216907530323 0.0
0.0 2.051925329 0.216806457941 0.0
0.0 2.053533421 0.216705229376 0.0
0.0 2.055141513 0.216603845155 0.0
0.0 2.056749605 0.216502305804 0.0
0.0 2.058357697 0.216400611851 0.0
0.0 2.059965788 0.216298763884 0.0
0.0 2.06157388 0.216196762303 0.0
0.0 2.063181972 0.216094607699 0.0
0.0 2.064790064 0.215992300598 0.0
0.0 2.066398156 0.215889841526 0.0
0.0 2.068006248 0.215787231011 0.0
0.0 2.06961434 0.215684469578 0.0
0.0 2.071222432 0.215581557754 0.0
0.0 2.072830524 0.215478496066 0.0
0.0 2.074438616 0.215375285041 0.0
0.0 2.076046708 0.215271925206 0.0
0.0 2.0776548 0.215168417086 0.0
0.0 2.079262892 0.215064761209 0.0
0.0 2.080870984 0.214960958102 0.0
0.0 2.082479076 0.214857008291 0.0
0.0 2.084087168 0.214752912303 0.0
0.0 2.08569526 0.214648670664 0.0
0.0 2.087303352 0.214544283902 0.0
0.0 2.088911444 0.214439752543 0.0
0.0 2.090519536 0.214335077113 0.0
0.0 2.092127627 0.214230258205 0.0
0.0 2.093735719 0.214125296216 0.0
0.0 2.095343811 0.214020191735 0.0
0.0 2.096951903 0.213914945291 0.0
0.0 2.098559995 0.213809557411 0.0
0.0 2.100168087 0.213704028619 0.0
0.0 2.101776179 0.213598359444 0.0
0.0 2.103384271 0.213492550411 0.0
0.0 2.104992363 0.213386602048 0.0
0.0 2.106600455 0.21328051488 0.0
0.0 2.108208547 0.213174289435 0.0
0.0 2.109816639 0.213067926238 0.0
0.0 2.111424731 0.212961425815 0.0
0.0 2.113032823 0.212854788695 0.0
0.0 2.114640915 0.212748015401 0.0
0.0 2.116249007 0.212641106462 0.0
0.0 2.117857099 0.212534062402 0.0
0.0 2.119465191 0.212426883749 0.0
0.0 2.121073283 0.212319571028 0.0
0.0 2.122681375 0.212212124765 0.0
0.0 2.124289466 0.212104545553 0.0
0.0 2.125897558 0.211996833785 0.0
0.0 2.12750565 0.211888990053 0.0
0.0 2.129113742 0.211781014883 0.0
0.0 2.130721834 0.211672908801 0.0
0.0 2.132329926 0.211564672333 0.0
0.0 2.133938018 0.211456306003 0.0
0.0 2.13554611 0.211347810339 0.0
0.0 2.137154202 0.211239185864 0.0
0.0 2.138762294 0.211130433105 0.0
0.0 2.140370386 0.211021552587 0.0
0.0 2.141978478 0.210912544836 0.0
0.0 2.14358657 0.210803410376 0.0
0.0 2.145194662 0.210694149732 0.0
0.0 2.146802754 0.21058476343 0.0
0.0 2.148410846 0.210475251995 0.0
0.0 2.150018938 0.210365615952 0.0
0.0 2.15162703 0.210255855824 0.0
0.0 2.153235122 0.210145972138 0.0
0.0 2.154843214 0.210035965417 0.0
0.0 2.156451305 0.209925836255 0.0
0.0 2.158059397 0.20981558504 0.0
0.0 2.159667489 0.209705212363 0.0
0.0 2.161275581 0.209594718749 0.0
0.0 2.162883673 0.209484104722 0.0
0.0 2.164491765 0.209373370807 0.0
0.0 2.166099857 0.209262517527 0.0
0.0 2.167707949 0.209151545407 0.0
0.0 2.169316041 0.209040454969 0.0
0.0 2.170924133 0.208929246737 0.0
0.0 2.172532225 0.208817921236 0.0
0.0 2.174140317 0.208706478987 0.0
0.0 2.175748409 0.208594920516 0.0
0.0 2.177356501 0.208483246344 0.0
0.0 2.178964593 0.208371456995 0.0
0.0 2.180572685 0.208259552992 0.0
0.0 2.182180777 0.208147534857 0.0
0.0 2.183788869 0.208035403114 0.0
0.0 2.185396961 0.207923158284 0.0
0.0 2.187005053 0.207810800891 0.0
0.0 2.188613145 0.207698331456 0.0
0.0 2.190221236 0.207585750573 0.0
0.0 2.191829328 0.207473058622 0.0
0.0 2.19343742 0.207360256196 0.0
0.0 2.195045512 0.207247343816 0.0
0.0 2.196653604 0.207134322005 0.0
0.0 2.198261696 0.207021191284 0.0
0.0 2.199869788 0.206907952173 0.0
0.0 2.20147788 0.206794605196 0.0
0.0 2.203085972 0.206681150872 0.0
0.0 2.204694064 0.206567589722 0.0
0.0 2.206302156 0.206453922268 0.0
0.0 2.207910248 0.20634014903 0.0
0.0 2.20951834 0.206226270528 0.0
0.0 2.211126432 0.206112287284 0.0
0.0 2.212734524 0.205998199817 0.0
0.0 2.214342616 0.205884008647 0.0
0.0 2.215950708 0.205769714294 0.0
0.0 2.2175588 0.205655317279 0.0
0.0 2.219166892 0.20554081812 0.0
0.0 2.220774984 0.205426217338 0.0
0.0 2.222383075 0.205311515523 0.0
0.0 2.223991167 0.205196713051 0.0
0.0 2.225599259 0.205081810512 0.0
0.0 2.227207351 0.204966808427 0.0
0.0 2.228815443 0.204851707312 0.0
0.0 2.230423535 0.204736507688 0.0
0.0 2.232031627 0.204621210072 0.0
0.0 2.233639719 0.204505814982 0.0
0.0 2.235247811 0.204390322936 0.0
0.0 2.236855903 0.204274734453 0.0
0.0 2.238463995 0.204159050049 0.0
0.0 2.240072087 0.204043270243 0.0
0.0 2.241680179 0.203927395552 0.0
0.0 2.243288271 0.203811426493 0.0
0.0 2.244896363 0.203695363583 0.0
0.0 2.246504455 0.203579207339 0.0
0.0 2.248112547 0.203462958277 0.0
0.0 2.249720639 0.203346616914 0.0
0.0 2.251328731 0.203230183766 0.0
0.0 2.252936823 0.203113659349 0.0
0.0 2.254544914 0.202997044253 0.0
0.0 2.256153006 0.202880338846 0.0
0.0 2.257761098 0.202763543719 0.0
0.0 2.25936919 0.202646659385 0.0
0.0 2.260977282 0.20252968636 0.0
0.0 2.262585374 0.20241262516 0.0
0.0 2.264193466 0.202295476298 0.0
0.0 2.265801558 0.202178240291 0.0
0.0 2.26740965 0.202060917651 0.0
0.0 2.269017742 0.201943508893 0.0
0.0 2.270625834 0.201826014531 0.0
0.0 2.272233926 0.201708435079 0.0
0.0 2.273842018 0.201590771051 0.0
0.0 2.27545011 0.20147302296 0.0
0.0 2.277058202 0.20135519132 0.0
0.0 2.278666294 0.201237276643 0.0
0.0 2.280274386 0.201119279443 0.0
0.0 2.281882478 0.201001200232 0.0
0.0 2.28349057 0.200883039522 0.0
0.0 2.285098662 0.200764797826 0.0
0.0 2.286706753 0.200646475731 0.0
0.0 2.288314845 0.200528073599 0.0
0.0 2.289922937 0.200409592018 0.0
0.0 2.291531029 0.200291031496 0.0
0.0 2.293139121 0.200172392548 0.0
0.0 2.294747213 0.200053675681 0.0
0.0 2.296355305 0.199934881407 0.0
0.0 2.297963397 0.19981601024 0.0
0.0 2.299571489 0.199697062687 0.0
0.0 2.301179581 0.199578039261 0.0
0.0 2.302787673 0.199458940468 0.0
0.0 2.304395765 0.19933976682 0.0
0.0 2.306003857 0.199220518828 0.0
0.0 2.307611949 0.199101197 0.0
0.0 2.309220041 0.198981801845 0.0
0.0 2.310828133 0.198862333872 0.0
0.0 2.312436225 0.19874279359 0.0
0.0 2.314044317 0.198623181507 0.0
0.0 2.315652409 0.198503498131 0.0
0.0 2.317260501 0.198383743972 0.0
0.0 2.318868592 0.19826391961 0.0
0.0 2.320476684 0.198144025406 0.0
0.0 2.322084776 0.198024061943 0.0
0.0 2.323692868 0.197904029729 0.0
0.0 2.32530096 0.197783929259 0.0
0.0 2.326909052 0.19766376105 0.0
0.0 2.328517144 0.197543525608 0.0
0.0 2.330125236 0.197423223441 0.0
0.0 2.331733328 0.197302855062 0.0
0.0 2.33334142 0.197182420955 0.0
0.0 2.334949512 0.197061921644 0.0
0.0 2.336557604 0.196941357598 0.0
0.0 2.338165696 0.196820729366 0.0
0.0 2.339773788 0.196700037446 0.0
0.0 2.34138188 0.196579282341 0.0
0.0 2.342989972 0.196458464555 0.0
0.0 2.344598064 0.196337584582 0.0
0.0 2.346206156 0.196216642923 0.0
0.0 2.347814248 0.196095640097 0.0
0.0 2.34942234 0.195974576607 0.0
0.0 2.351030431 0.195853453064 0.0
0.0 2.352638523 0.195732269874 0.0
0.0 2.354246615 0.195611027229 0.0
0.0 2.355854707 0.195489726068 0.0
0.0 2.357462799 0.19536836677 0.0
0.0 2.359070891 0.195246949822 0.0
0.0 2.360678983 0.195125475738 0.0
0.0 2.362287075 0.195003944973 0.0
0.0 2.363895167 0.194882358067 0.0
0.0 2.365503259 0.19476071552 0.0
0.0 2.367111351 0.194639017829 0.0
0.0 2.368719443 0.194517265494 0.0
0.0 2.370327535 0.194395459023 0.0
0.0 2.371935627 0.194273599044 0.0
0.0 2.373543719 0.194151687544 0.0
0.0 2.375151811 0.19402972027 0.0
0.0 2.376759903 0.193907701712 0.0
0.0 2.378367995 0.193785631953 0.0
0.0 2.379976087 0.193663511233 0.0
0.0 2.381584179 0.193541341606 0.0
0.0 2.383192271 0.193419122571 0.0
0.0 2.384800362 0.193296847189 0.0
0.0 2.386408454 0.193174526339 0.0
0.0 2.388016546 0.193052157248 0.0
0.0 2.389624638 0.192929740337 0.0
0.0 2.39123273 0.192807278668 0.0
0.0 2.392840822 0.192684769898 0.0
0.0 2.394448914 0.192562216227 0.0
0.0 2.396057006 0.192439617542 0.0
0.0 2.397665098 0.192316951093 0.0
0.0 2.39927319 0.1921942533 0.0
0.0 2.400881282 0.192071512909 0.0
0.0 2.402489374 0.191948733883 0.0
0.0 2.404097466 0.191825993115 0.0
0.0 2.405705558 0.191703085794 0.0
0.0 2.40731365 0.19158011902 0.0
0.0 2.408921742 0.191457157974 0.0
0.0 2.410529834 0.191334161273 0.0
0.0 2.412137926 0.191211141697 0.0
0.0 2.413746018 0.191088247675 0.0
0.0 2.41535411 0.190964941503 0.0
0.0 2.416962201 0.190841762366 0.0
0.0 2.418570293 0.190718561484 0.0
0.0 2.420178385 0.190595327068 0.0
0.0 2.421786477 0.190472085441 0.0
0.0 2.423394569 0.190348788833 0.0
0.0 2.425002661 0.190225389225 0.0
0.0 2.426610753 0.190101994952 0.0
0.0 2.428218845 0.189978570268 0.0
0.0 2.429826937 0.189855110346 0.0
0.0 2.431435029 0.189731615148 0.0
0.0 2.433043121 0.189608093013 0.0
0.0 2.434651213 0.189484635226 0.0
0.0 2.436259305 0.189362381041 0.0
0.0 2.437867397 0.189237470665 0.0
0.0 2.439475489 0.189113642528 0.0
0.0 2.441083581 0.18898993113 0.0
0.0 2.442691673 0.188866249249 0.0
0.0 2.444299765 0.18874308802 0.0
0.0 2.445907857 0.188621279711 0.0
0.0 2.447515949 0.18849504759 0.0
0.0 2.44912404 0.188370993587 0.0
0.0 2.450732132 0.188247100714 0.0
0.0 2.452340224 0.188123234722 0.0
0.0 2.453948316 0.18799968396 0.0
0.0 2.455556408 0.187875782659 0.0
0.0 2.4571645 0.187751345115 0.0
0.0 2.458772592 0.187627273793 0.0
0.0 2.460380684 0.187503226989 0.0
0.0 2.461988776 0.187379189884 0.0
0.0 2.463596868 0.187255351683 0.0
0.0 2.46520496 0.187131712129 0.0
0.0 2.466813052 0.187008073646 0.0
0.0 2.468421144 0.186885114547 0.0
0.0 2.470029236 0.186758921487 0.0
0.0 2.471637328 0.186634236502 0.0
0.0 2.47324542 0.186509952503 0.0
0.0 2.474853512 0.186385713117 0.0
0.0 2.476461604 0.186261733877 0.0
0.0 2.478069696 0.186140877098 0.0
0.0 2.479677788 0.186013380831 0.0
0.0 2.481285879 0.185888472747 0.0
0.0 2.482893971 0.18576405543 0.0
0.0 2.484502063 0.185639702496 0.0
0.0 2.486110155 0.185515684043 0.0
0.0 2.487718247 0.18539559791 0.0
0.0 2.489326339 0.185268314148 0.0
0.0 2.490934431 0.185143046914 0.0
0.0 2.492542523 0.185018187614 0.0
0.0 2.494150615 0.184893957223 0.0
0.0 2.495758707 0.184770016773 0.0
0.0 2.497366799 0.184648287926 0.0
0.0 2.498974891 0.184523511102 0.0
0.0 2.499778162 0.184457193834 0.0
0.0 2.501129393 0.184352536167 0.0
0.0 2.502480624 0.184247876536 0.0
0.0 2.503831856 0.184143755286 0.0
0.0 2.505183087 0.184039170314 0.0
0.0 2.506534319 0.183934707893 0.0
0.0 2.50788555 0.183830833757 0.0
0.0 2.509236782 0.183725460678 0.0
0.0 2.510588013 0.183619643288 0.0
0.0 2.511939244 0.183516596959 0.0
0.0 2.513290476 0.183411556014 0.0
0.0 2.514641707 0.183308130648 0.0
0.0 2.515992939 0.183203402858 0.0
0.0 2.51734417 0.183097037783 0.0
0.0 2.518695402 0.182991447019 0.0
0.0 2.520046633 0.182888249416 0.0
0.0 2.521397865 0.182782146453 0.0
0.0 2.522749096 0.182677837189 0.0
0.0 2.524100327 0.18257323851 0.0
0.0 2.525451559 0.182467230669 0.0
0.0 2.52680279 0.182362432884 0.0
0.0 2.528154022 0.182258865164 0.0
0.0 2.529505253 0.182152827502 0.0
0.0 2.530856485 0.182048014678 0.0
0.0 2.532207716 0.18194408715 0.0
0.0 2.533558948 0.181840688757 0.0
0.0 2.534910179 0.181735603327 0.0
0.0 2.53626141 0.181629673151 0.0
0.0 2.537612642 0.18152499693 0.0
0.0 2.538963873 0.181420276341 0.0
0.0 2.540315105 0.181314342028 0.0
0.0 2.541666336 0.1812110918 0.0
0.0 2.543017568 0.181106215353 0.0
0.0 2.544368799 0.181000846082 0.0
0.0 2.54572003 0.180896876048 0.0
0.0 2.547071262 0.180790107409 0.0
0.0 2.548422493 0.180686161755 0.0
0.0 2.549773725 0.180581079861 0.0
0.0 2.551124956 0.180476578359 0.0
0.0 2.552476188 0.180370787683 0.0
0.0 2.553827419 0.180268622518 0.0
0.0 2.555178651 0.18016417495 0.0
0.0 2.556529882 0.180057958623 0.0
0.0 2.557881113 0.179954822578 0.0
0.0 2.559232345 0.179851388559 0.0
0.0 2.560583576 0.179741907773 0.0
0.0 2.561934808 0.179637078328 0.0
0.0 2.563286039 0.179534948329 0.0
0.0 2.564637271 0.179428457382 0.0
0.0 2.565988502 0.179326981406 0.0
0.0 2.567339733 0.179224288722 0.0
0.0 2.568690965 0.17911526339 0.0
0.0 2.570042196 0.17901016291 0.0
0.0 2.571393428 0.178906192688 0.0
0.0 2.572744659 0.178800244353 0.0
0.0 2.574095891 0.178695359355 0.0
0.0 2.575447122 0.178591516046 0.0
0.0 2.576798354 0.178484868485 0.0
0.0 2.578149585 0.178380753056 0.0
0.0 2.579500816 0.178278103034 0.0
0.0 2.580852048 0.178174174435 0.0
0.0 2.582203279 0.178069300247 0.0
0.0 2.583554511 0.177964828307 0.0
0.0 2.584905742 0.177857753305 0.0
0.0 2.586256974 0.177752703747 0.0
0.0 2.587608205 0.177648755201 0.0
0.0 2.588959437 0.177545026952 0.0
0.0 2.590310668 0.177438715027 0.0
0.0 2.591661899 0.177334138409 0.0
0.0 2.593013131 0.17723017947 0.0
0.0 2.594364362 0.177124874166 0.0
0.0 2.595715594 0.177022341919 0.0
0.0 2.597066825 0.176917252919 0.0
0.0 2.598418057 0.176809913 0.0
0.0 2.599769288 0.176705133752 0.0
0.0 2.601120519 0.176601355333 0.0
0.0 2.602471751 0.176495726739 0.0
0.0 2.603822982 0.176391087902 0.0
0.0 2.605174214 0.17629084974 0.0
0.0 2.606525445 0.176183048168 0.0
0.0 2.607876677 0.176079174168 0.0
0.0 2.609227908 0.175974240403 0.0
0.0 2.61057914 0.175868717311 0.0
0.0 2.611930371 0.175764123199 0.0
0.0 2.613281602 0.175661120511 0.0
0.0 2.614632834 0.175555529961 0.0
0.0 2.615984065 0.175449748489 0.0
0.0 2.617335297 0.175347365396 0.0
0.0 2.618686528 0.175243092006 0.0
0.0 2.62003776 0.175136467107 0.0
0.0 2.621388991 0.17503197909 0.0
0.0 2.622740222 0.174927566704 0.0
0.0 2.624091454 0.174824296122 0.0
0.0 2.625442685 0.174723370659 0.0
0.0 2.626793917 0.174616915327 0.0
0.0 2.628145148 0.174512035467 0.0
0.0 2.62949638 0.174406577112 0.0
0.0 2.630847611 0.174302521622 0.0
0.0 2.632198843 0.174200683106 0.0
0.0 2.633550074 0.174093775858 0.0
0.0 2.634901305 0.173990511015 0.0
0.0 2.636252537 0.173886957649 0.0
0.0 2.637603768 0.173780368004 0.0
0.0 2.638955 0.173678905614 0.0
0.0 2.640306231 0.173573037014 0.0
0.0 2.641657463 0.173469114588 0.0
0.0 2.643008694 0.173364084905 0.0
0.0 2.644359925 0.173263789741 0.0
0.0 2.645711157 0.173161088437 0.0
0.0 2.647062388 0.17305309381 0.0
0.0 2.64841362 0.172949372243 0.0
0.0 2.649764851 0.172845838718 0.0
0.0 2.651116083 0.172741943019 0.0
0.0 2.652467314 0.172637901954 0.0
0.0 2.653818546 0.172536221682 0.0
0.0 2.655169777 0.172429545527 0.0
0.0 2.656521008 0.172325770615 0.0
0.0 2.65787224 0.172221818253 0.0
0.0 2.659223471 0.172115415713 0.0
0.0 2.660574703 0.172012414383 0.0
0.0 2.661925934 0.171913314446 0.0
0.0 2.663277166 0.171808511254 0.0
0.0 2.664628397 0.171703295829 0.0
0.0 2.665979629 0.171596804519 0.0
0.0 2.66733086 0.171493068753 0.0
0.0 2.668682091 0.171390784971 0.0
0.0 2.670033323 0.171285174262 0.0
0.0 2.671384554 0.171182923289 0.0
0.0 2.672735786 0.171079214328 0.0
0.0 2.674087017 0.170974999134 0.0
0.0 2.675438249 0.170872724111 0.0
0.0 2.67678948 0.170768382337 0.0
0.0 2.678140711 0.170664747116 0.0
0.0 2.679491943 0.170561749774 0.0
0.0 2.680843174 0.170458311255 0.0
0.0 2.682194406 0.170353034749 0.0
0.0 2.683545637 0.170250410556 0.0
0.0 2.684896869 0.170148406307 0.0
0.0 2.6862481 0.170046470224 0.0
0.0 2.687599332 0.169941744183 0.0
0.0 2.688950563 0.169838055541 0.0
0.0 2.690301794 0.169733498416 0.0
0.0 2.691653026 0.169630803987 0.0
0.0 2.693004257 0.169529656056 0.0
0.0 2.694355489 0.169427018822 0.0
0.0 2.69570672 0.169320863819 0.0
0.0 2.697057952 0.169220259903 0.0
0.0 2.698409183 0.169117018406 0.0
0.0 2.699760414 0.16901187878 0.0
0.0 2.701111646 0.168909495863 0.0
0.0 2.702462877 0.168806616985 0.0
0.0 2.703814109 0.168701616126 0.0
0.0 2.70516534 0.16859939973 0.0
0.0 2.706516572 0.16849585154 0.0
0.0 2.707867803 0.1683939063 0.0
0.0 2.709219035 0.168291934024 0.0
0.0 2.710570266 0.168189039853 0.0
0.0 2.711921497 0.168086704693 0.0
0.0 2.713272729 0.167983830601 0.0
0.0 2.71462396 0.167880227571 0.0
0.0 2.715975192 0.167777007704 0.0
0.0 2.717326423 0.167673573161 0.0
0.0 2.718677655 0.167570955561 0.0
0.0 2.720028886 0.167468373057 0.0
0.0 2.721380117 0.167365825901 0.0
0.0 2.722731349 0.167263314265 0.0
0.0 2.72408258 0.167162054276 0.0
0.0 2.725433812 0.167059700326 0.0
0.0 2.726785043 0.166956042502 0.0
0.0 2.728136275 0.166855144862 0.0
0.0 2.729487506 0.166752595221 0.0
0.0 2.730838738 0.166651538666 0.0
0.0 2.732189969 0.166546755107 0.0
0.0 2.7335412 0.166444657891 0.0
0.0 2.734892432 0.16634341095 0.0
0.0 2.736243663 0.166240410953 0.0
0.0 2.737594895 0.166139043999 0.0
0.0 2.738946126 0.166036583604 0.0
0.0 2.740297358 0.165934707348 0.0
0.0 2.741648589 0.16583367239 0.0
0.0 2.742999821 0.165731140812 0.0
0.0 2.744351052 0.165630121497 0.0
0.0 2.745702283 0.165527669832 0.0
0.0 2.747053515 0.165424738501 0.0
0.0 2.748404746 0.165322718131 0.0
0.0 2.749755978 0.16522097551 0.0
0.0 2.751107209 0.165119274267 0.0
0.0 2.752458441 0.165017614537 0.0
0.0 2.753809672 0.164917826869 0.0
0.0 2.755160903 0.164816971676 0.0
0.0 2.756512135 0.164714056205 0.0
0.0 2.757863366 0.164612430093 0.0
0.0 2.759214598 0.164510708203 0.0
0.0 2.760565829 0.164409514518 0.0
0.0 2.761917061 0.164307517915 0.0
0.0 2.763268292 0.164207167067 0.0
0.0 2.764619524 0.164105725491 0.0
0.0 2.765970755 0.164003365 0.0
0.0 2.767321986 0.163902180799 0.0
0.0 2.768673218 0.163801353333 0.0
0.0 2.770024449 0.163701722043 0.0
0.0 2.771375681 0.163601375413 0.0
0.0 2.772726912 0.163499316167 0.0
0.0 2.774078144 0.163400018378 0.0
0.0 2.775429375 0.163299125843 0.0
0.0 2.776780606 0.163196240159 0.0
0.0 2.778131838 0.163098177498 0.0
0.0 2.779483069 0.16299806119 0.0
0.0 2.780834301 0.162895524332 0.0
0.0 2.782185532 0.162795991542 0.0
0.0 2.783536764 0.162696048304 0.0
0.0 2.784887995 0.162594359948 0.0
0.0 2.786239227 0.162493828528 0.0
0.0 2.787590458 0.162393887817 0.0
0.0 2.788941689 0.162292752568 0.0
0.0 2.790292921 0.162191828827 0.0
0.0 2.791644152 0.162090152561 0.0
0.0 2.792995384 0.161990259012 0.0
0.0 2.794346615 0.161889050399 0.0
0.0 2.795697847 0.161789478336 0.0
0.0 2.797049078 0.161689853095 0.0
0.0 2.798400309 0.161590798522 0.0
0.0 2.799751541 0.161490584842 0.0
0.0 2.801102772 0.161390830068 0.0
0.0 2.802454004 0.161291308919 0.0
0.0 2.803805235 0.161188066229 0.0
0.0 2.805156467 0.161088231714 0.0
0.0 2.806507698 0.16098856177 0.0
0.0 2.80785893 0.160889615127 0.0
0.0 2.809210161 0.160792302948 0.0
0.0 2.810561392 0.160692088175 0.0
0.0 2.811912624 0.160590938138 0.0
0.0 2.813263855 0.160491186391 0.0
0.0 2.814615087 0.16039094158 0.0
0.0 2.815966318 0.160291544079 0.0
0.0 2.81731755 0.160193453816 0.0
0.0 2.818668781 0.160093948913 0.0
0.0 2.820020013 0.159993937625 0.0
0.0 2.821371244 0.159894616126 0.0
0.0 2.822722475 0.159797319916 0.0
0.0 2.824073707 0.15969746815 0.0
0.0 2.825424938 0.159597308635 0.0
0.0 2.82677617 0.159498356322 0.0
0.0 2.828127401 0.159400255418 0.0
0.0 2.829478633 0.159304005711 0.0
0.0 2.830829864 0.159205189223 0.0
0.0 2.832181095 0.159104566396 0.0
0.0 2.833532327 0.159004767594 0.0
0.0 2.834883558 0.15890803142 0.0
0.0 2.83623479 0.15881072594 0.0
0.0 2.837586021 0.158712247036 0.0
0.0 2.838937253 0.158612114014 0.0
0.0 2.840288484 0.158512117522 0.0
0.0 2.841639716 0.158413695784 0.0
0.0 2.842990947 0.158317622187 0.0
0.0 2.844342178 0.158219163726 0.0
0.0 2.84569341 0.158119121424 0.0
0.0 2.847044641 0.15802105115 0.0
0.0 2.848395873 0.157923117927 0.0
0.0 2.849747104 0.157825216139 0.0
0.0 2.851098336 0.15772830391 0.0
0.0 2.852449567 0.157629384189 0.0
0.0 2.853800798 0.157531620048 0.0
0.0 2.85515203 0.157433983038 0.0
0.0 2.856503261 0.157336282262 0.0
0.0 2.857854493 0.157238707577 0.0
0.0 2.859205724 0.157141219335 0.0
0.0 2.860556956 0.157046516797 0.0
0.0 2.861908187 0.156948592512 0.0
0.0 2.863259419 0.156849425385 0.0
0.0 2.86461065 0.15675178785 0.0
0.0 2.865961881 0.156655291661 0.0
0.0 2.867313113 0.156559102324 0.0
0.0 2.868664344 0.156460448387 0.0
0.0 2.870015576 0.156363412772 0.0
0.0 2.871366807 0.15626648255 0.0
0.0 2.872718039 0.156169618216 0.0
0.0 2.87406927 0.156072823159 0.0
0.0 2.875420501 0.155977353829 0.0
0.0 2.876771733 0.155879469594 0.0
0.0 2.878122964 0.155783822708 0.0
0.0 2.879474196 0.155687242018 0.0
0.0 2.880825427 0.155589833116 0.0
0.0 2.882176659 0.15549404482 0.0
0.0 2.88352789 0.155397654106 0.0
0.0 2.884879122 0.155300853355 0.0
0.0 2.886230353 0.155204663899 0.0
0.0 2.887581584 0.155108543453 0.0
0.0 2.888932816 0.15501249222 0.0
0.0 2.890284047 0.154916510621 0.0
0.0 2.891635279 0.154820712785 0.0
0.0 2.89298651 0.154724757156 0.0
0.0 2.894337742 0.154628985841 0.0
0.0 2.895688973 0.154533515454 0.0
0.0 2.897040205 0.154437848568 0.0
0.0 2.898391436 0.154342097199 0.0
0.0 2.899742667 0.154247256195 0.0
0.0 2.901093899 0.154151766703 0.0
0.0 2.90244513 0.154057073112 0.0
0.0 2.903796362 0.153965018976 0.0
0.0 2.905147593 0.153868435004 0.0
0.0 2.906498825 0.153773501168 0.0
0.0 2.907850056 0.153677319931 0.0
0.0 2.909201287 0.153586794742 0.0
0.0 2.910552519 0.153489584255 0.0
0.0 2.91190375 0.153391992555 0.0
0.0 2.913254982 0.153298646357 0.0
0.0 2.914606213 0.153208057162 0.0
0.0 2.915957445 0.153111690036 0.0
0.0 2.917308676 0.153015661854 0.0
0.0 2.918659908 0.152919665815 0.0
0.0 2.920011139 0.152827913351 0.0
0.0 2.92136237 0.152737987489 0.0
0.0 2.922713602 0.152640921984 0.0
0.0 2.924064833 0.152544133217 0.0
0.0 2.925416065 0.152450711209 0.0
0.0 2.926767296 0.152361831454 0.0
0.0 2.928118528 0.152271680438 0.0
0.0 2.929469759 0.152179139669 0.0
0.0 2.93082099 0.152083066331 0.0
0.0 2.932172222 0.151985628519 0.0
0.0 2.933523453 0.151889183238 0.0
0.0 2.934874685 0.151794099531 0.0
0.0 2.936225916 0.151701949401 0.0
0.0 2.937577148 0.151608391011 0.0
0.0 2.938928379 0.151514820368 0.0
0.0 2.940279611 0.151422322747 0.0
0.0 2.941630842 0.151326801881 0.0
0.0 2.942982073 0.151231920552 0.0
0.0 2.944333305 0.151139834207 0.0
0.0 2.945684536 0.151047807759 0.0
0.0 2.947035768 0.15095629111 0.0
0.0 2.948386999 0.150865125186 0.0
0.0 2.949738231 0.150773069969 0.0
0.0 2.951089462 0.150679046827 0.0
0.0 2.952440694 0.150587009311 0.0
0.0 2.953791925 0.150492401023 0.0
0.0 2.955143156 0.150398746533 0.0
0.0 2.956494388 0.150306305499 0.0
0.0 2.957845619 0.150213137092 0.0
0.0 2.959196851 0.150120236538 0.0
0.0 2.960548082 0.150028348776 0.0
0.0 2.961899314 0.14993767875 0.0
0.0 2.963250545 0.149844559827 0.0
0.0 2.964601776 0.149752831543 0.0
0.0 2.965953008 0.149661192928 0.0
0.0 2.967304239 0.149570119309 0.0
0.0 2.968655471 0.149478691134 0.0
0.0 2.970006702 0.149387832075 0.0
0.0 2.971357934 0.149297103333 0.0
0.0 2.972709165 0.149205235604 0.0
0.0 2.974060397 0.149115660419 0.0
0.0 2.975411628 0.149025103611 0.0
0.0 2.976762859 0.148933292196 0.0
0.0 2.978114091 0.148843422307 0.0
0.0 2.979465322 0.148756033054 0.0
0.0 2.980816554 0.148663688722 0.0
0.0 2.982167785 0.148571662967 0.0
0.0 2.983519017 0.148482500597 0.0
0.0 2.984870248 0.148394247989 0.0
0.0 2.986221479 0.148300257507 0.0
0.0 2.987572711 0.148209679648 0.0
0.0 2.988923942 0.148119397291 0.0
0.0 2.990275174 0.148029589367 0.0
0.0 2.991626405 0.147939720156 0.0
0.0 2.992977637 0.147850045892 0.0
0.0 2.994328868 0.14775884653 0.0
0.0 2.9956801 0.147668536862 0.0
0.0 2.997031331 0.147579504242 0.0
0.0 2.998382562 0.14748822727 0.0
0.0 2.999733794 0.147398818417 0.0
0.0 3.001085025 0.147311493492 0.0
0.0 3.002436257 0.147221666058 0.0
0.0 3.003787488 0.14713145348 0.0
0.0 3.00513872 0.147043673439 0.0
0.0 3.006489951 0.146954112919 0.0
0.0 3.007841182 0.146865201357 0.0
0.0 3.009192414 0.146776966887 0.0
0.0 3.010543645 0.146688971675 0.0
0.0 3.011894877 0.146599524371 0.0
0.0 3.013246108 0.146511641434 0.0
0.0 3.01459734 0.146424811169 0.0
0.0 3.015948571 0.146335621089 0.0
0.0 3.017299803 0.146248865551 0.0
0.0 3.018651034 0.146161785097 0.0
0.0 3.020002265 0.146073694653 0.0
0.0 3.021353497 0.145985461072 0.0
0.0 3.022704728 0.145898334751 0.0
0.0 3.02405596 0.145812384472 0.0
0.0 3.025407191 0.145726941553 0.0
0.0 3.026758423 0.145637204512 0.0
0.0 3.028109654 0.145550263159 0.0
0.0 3.029460886 0.145467505998 0.0
0.0 3.030812117 0.145384286575 0.0
0.0 3.032163348 0.145297727746 0.0
0.0 3.03351458 0.145213087863 0.0
0.0 3.034865811 0.145127357314 0.0
0.0 3.036217043 0.145036663115 0.0
0.0 3.037568274 0.144945584389 0.0
0.0 3.038919506 0.14485857792 0.0
0.0 3.040270737 0.144767376611 0.0
0.0 3.041621968 0.144675449241 0.0
0.0 3.0429732 0.144589114246 0.0
0.0 3.044324431 0.144503051078 0.0
0.0 3.045675663 0.144416028923 0.0
0.0 3.047026894 0.144330057065 0.0
0.0 3.048378126 0.144244346034 0.0
0.0 3.049729357 0.144158360452 0.0
0.0 3.051080589 0.144072685677 0.0
0.0 3.05243182 0.143987115175 0.0
0.0 3.053783051 0.14390171823 0.0
0.0 3.055134283 0.143816287611 0.0
0.0 3.056485514 0.143731034436 0.0
0.0 3.057836746 0.143645886793 0.0
0.0 3.059187977 0.143560835115 0.0
0.0 3.060539209 0.143475895855 0.0
0.0 3.06189044 0.143391775923 0.0
0.0 3.063241671 0.143307048934 0.0
0.0 3.064592903 0.143221731619 0.0
0.0 3.065944134 0.143137204508 0.0
0.0 3.067295366 0.143052799627 0.0
0.0 3.068646597 0.142968502615 0.0
0.0 3.069997829 0.142884313652 0.0
0.0 3.07134906 0.142800233167 0.0
0.0 3.072700292 0.142716261344 0.0
0.0 3.074051523 0.142632398617 0.0
0.0 3.075402754 0.142548645229 0.0
0.0 3.076753986 0.14246500143 0.0
0.0 3.078105217 0.142381467647 0.0
0.0 3.079456449 0.142298250826 0.0
0.0 3.08080768 0.142216010584 0.0
0.0 3.082158912 0.142132857628 0.0
0.0 3.083510143 0.14204933911 0.0
0.0 3.084861374 0.141966573098 0.0
0.0 3.086212606 0.141883614224 0.0
0.0 3.087563837 0.141801792418 0.0
0.0 3.088915069 0.141720391767 0.0
0.0 3.0902663 0.1416384944 0.0
0.0 3.091617532 0.141556566975 0.0
0.0 3.092968763 0.141476252302 0.0
0.0 3.094319995 0.141393523441 0.0
0.0 3.095671226 0.141309037442 0.0
0.0 3.097022457 0.141226028346 0.0
0.0 3.098373689 0.14114491249 0.0
0.0 3.09972492 0.141064400508 0.0
0.0 3.101076152 0.140981965881 0.0
0.0 3.102427383 0.140899884685 0.0
0.0 3.103778615 0.140818176815 0.0
0.0 3.105129846 0.140736946708 0.0
0.0 3.106481078 0.14065631648 0.0
0.0 3.107832309 0.140574563579 0.0
0.0 3.10918354 0.140495275155 0.0
0.0 3.110534772 0.140414428775 0.0
0.0 3.111886003 0.140333350783 0.0
0.0 3.113237235 0.140253399445 0.0
0.0 3.114588466 0.140175628312 0.0
0.0 3.115939698 0.140097531197 0.0
0.0 3.117290929 0.140023259906 0.0
0.0 3.11864216 0.1399515266 0.0
0.0 3.119993392 0.139874940804 0.0
0.0 3.121344623 0.139791029597 0.0
0.0 3.122695855 0.139704751113 0.0
0.0 3.124047086 0.139617785849 0.0
0.0 3.125398318 0.139532415963 0.0
0.0 3.126749549 0.139452560424 0.0
0.0 3.128100781 0.139372845305 0.0
0.0 3.129452012 0.139292450261 0.0
0.0 3.130803243 0.139214026208 0.0
0.0 3.132154475 0.139137894799 0.0
0.0 3.133505706 0.139064522366 0.0
0.0 3.134856938 0.13898948301 0.0
0.0 3.136208169 0.138913834657 0.0
0.0 3.137559401 0.138836848641 0.0
0.0 3.138910632 0.138757849007 0.0
0.0 3.140261863 0.138677385819 0.0
0.0 3.141613095 0.138597745513 0.0
0.0 3.142964326 0.138516983177 0.0
0.0 3.144315558 0.138436424795 0.0
0.0 3.145666789 0.138357712342 0.0
0.0 3.147018021 0.13828008115 0.0
0.0 3.148369252 0.138201363711 0.0
0.0 3.149720484 0.138124549889 0.0
0.0 3.151071715 0.138047746829 0.0
0.0 3.152422946 0.137972549774 0.0
0.0 3.153774178 0.137900135553 0.0
0.0 3.155125409 0.137827997936 0.0
0.0 3.156476641 0.137752681589 0.0
0.0 3.157827872 0.137680215213 0.0
0.0 3.159179104 0.137605553808 0.0
0.0 3.160530335 0.137527849542 0.0
0.0 3.161881566 0.137450944803 0.0
0.0 3.163232798 0.137376730708 0.0
0.0 3.164584029 0.13730660315 0.0
0.0 3.165935261 0.137238298419 0.0
0.0 3.167286492 0.137169028987 0.0
0.0 3.168637724 0.137104062084 0.0
0.0 3.169988955 0.137037332919 0.0
0.0 3.171340187 0.136969272852 0.0
0.0 3.172691418 0.136901509336 0.0
0.0 3.174042649 0.136830273266 0.0
0.0 3.175393881 0.136757089125 0.0
0.0 3.176745112 0.136682912041 0.0
0.0 3.178096344 0.136609156645 0.0
0.0 3.179447575 0.136538438231 0.0
0.0 3.180798807 0.136464496613 0.0
0.0 3.182150038 0.136388128125 0.0
0.0 3.18350127 0.136318463438 0.0
0.0 3.184852501 0.136256098982 0.0
0.0 3.186203732 0.136204179314 0.0
0.0 3.187554964 0.136164285376 0.0
0.0 3.188906195 0.136137740417 0.0
0.0 3.190257427 0.136113267746 0.0
0.0 3.191608658 0.136090809487 0.0
0.0 3.19295989 0.13607610365 0.0
0.0 3.194311121 0.136080823705 0.0
0.0 3.195662352 0.136110916508 0.0
0.0 3.197013584 0.136177774871 0.0
0.0 3.198364815 0.136293674163 0.0
0.0 3.199716047 0.136482028879 0.0
0.0 3.201067278 0.136767601127 0.0
0.0 3.20241851 0.137200637152 0.0
0.0 3.203769741 0.137863686615 0.0
0.0 3.205120973 0.138872572215 0.0
0.0 3.206472204 0.140436444231 0.0
0.0 3.207823435 0.142921368587 0.0
0.0 3.209174667 0.146940777189 0.0
0.0 3.210525898 0.153703133281 0.0
0.0 3.21187713 0.165253695783 0.0
0.0 3.213228361 0.184953390825 0.0
0.0 3.214579593 0.217407414227 0.0
0.0 3.215930824 0.265465807166 0.0
0.0 3.217282055 0.324778785047 0.0
0.0 3.218633287 0.37728192916 0.0
0.0 3.219984518 0.411686627223 0.0
0.0 3.22133575 0.424555444445 0.0
0.0 3.222686981 0.424362485577 0.0
0.0 3.224038213 0.42111758981 0.0
0.0 3.225389444 0.419896059823 0.0
0.0 3.226740676 0.422485636077 0.0
0.0 3.228091907 0.428267922876 0.0
0.0 3.229443138 0.435970358405 0.0
0.0 3.23079437 0.443408183136 0.0
0.0 3.232145601 0.448938900663 0.0
0.0 3.233496833 0.451181190139 0.0
0.0 3.234848064 0.450256644596 0.0
0.0 3.236199296 0.44703430691 0.0
0.0 3.237550527 0.442657891942 0.0
0.0 3.238901759 0.438701844492 0.0
0.0 3.24025299 0.436350143001 0.0
0.0 3.241604221 0.436705915371 0.0
0.0 3.242955453 0.439807599936 0.0
0.0 3.244306684 0.444988473093 0.0
0.0 3.245657916 0.45034285558 0.0
0.0 3.247009147 0.451859269749 0.0
0.0 3.248360379 0.446223746614 0.0
0.0 3.24971161 0.428853753221 0.0
0.0 3.251062841 0.400160915872 0.0
0.0 3.252414073 0.363445420223 0.0
0.0 3.253765304 0.322124145446 0.0
0.0 3.255116536 0.282059679903 0.0
0.0 3.256467767 0.247166732884 0.0
0.0 3.257818999 0.218744353739 0.0
0.0 3.25917023 0.19683585304 0.0
0.0 3.260521462 0.180463155671 0.0
0.0 3.261872693 0.168388064231 0.0
0.0 3.263223924 0.159519319518 0.0
0.0 3.264575156 0.152956695201 0.0
0.0 3.265926387 0.148067558225 0.0
0.0 3.267277619 0.144405201985 0.0
0.0 3.26862885 0.141617377002 0.0
0.0 3.269980082 0.139462935526 0.0
0.0 3.271331313 0.137796780582 0.0
0.0 3.272682544 0.13649478323 0.0
0.0 3.274033776 0.135470466473 0.0
0.0 3.275385007 0.134655845067 0.0
0.0 3.276736239 0.133999909367 0.0
0.0 3.27808747 0.133465718339 0.0
0.0 3.279438702 0.133027070792 0.0
0.0 3.280789933 0.13266110599 0.0
0.0 3.282141165 0.13235606656 0.0
0.0 3.283492396 0.13209448939 0.0
0.0 3.284843627 0.131867166592 0.0
0.0 3.286194859 0.131673852153 0.0
0.0 3.28754609 0.131503517456 0.0
0.0 3.288897322 0.131353973172 0.0
0.0 3.290248553 0.131222880404 0.0
0.0 3.291599785 0.131104627819 0.0
0.0 3.292951016 0.13099396962 0.0
0.0 3.294302247 0.130893743786 0.0
0.0 3.295653479 0.130802366299 0.0
0.0 3.29700471 0.13071472245 0.0
0.0 3.298355942 0.130629530051 0.0
0.0 3.299707173 0.130546800735 0.0
0.0 3.301058405 0.13046633379 0.0
0.0 3.302409636 0.130390356417 0.0
0.0 3.303760868 0.130319300173 0.0
0.0 3.305112099 0.130248156283 0.0
0.0 3.30646333 0.130179921526 0.0
0.0 3.307814562 0.130112574896 0.0
0.0 3.309165793 0.130046868863 0.0
0.0 3.310517025 0.129982709654 0.0
0.0 3.311868256 0.129918815979 0.0
0.0 3.313219488 0.129854895292 0.0
0.0 3.314570719 0.129789994258 0.0
0.0 3.315921951 0.129728708429 0.0
0.0 3.317273182 0.129666390157 0.0
0.0 3.318624413 0.129603724 0.0
0.0 3.319975645 0.129542604862 0.0
0.0 3.321326876 0.129483241853 0.0
0.0 3.322678108 0.129419936637 0.0
0.0 3.324029339 0.12935396265 0.0
0.0 3.325380571 0.129296197523 0.0
0.0 3.326731802 0.129239244288 0.0
0.0 3.328083033 0.12917664057 0.0
0.0 3.329434265 0.129113771051 0.0
0.0 3.330785496 0.129056597966 0.0
0.0 3.332136728 0.128999969817 0.0
0.0 3.333487959 0.128944136943 0.0
0.0 3.334839191 0.128887687494 0.0
0.0 3.336190422 0.128830623503 0.0
0.0 3.337541654 0.128774023436 0.0
0.0 3.338892885 0.128718311845 0.0
0.0 3.340244116 0.128664998762 0.0
0.0 3.341595348 0.128612114659 0.0
0.0 3.342946579 0.12855945665 0.0
0.0 3.344297811 0.128505539949 0.0
0.0 3.345649042 0.128447659642 0.0
0.0 3.347000274 0.128392538144 0.0
0.0 3.348351505 0.128340259134 0.0
0.0 3.349702736 0.128287693607 0.0
0.0 3.351053968 0.128233738605 0.0
0.0 3.352405199 0.128176720644 0.0
0.0 3.353756431 0.128120194738 0.0
0.0 3.355107662 0.128064673628 0.0
0.0 3.356458894 0.128008942971 0.0
0.0 3.357810125 0.127953763229 0.0
0.0 3.359161357 0.127899394184 0.0
0.0 3.360512588 0.127847482429 0.0
0.0 3.361863819 0.127797953498 0.0
0.0 3.363215051 0.127745326824 0.0
0.0 3.364566282 0.127692659115 0.0
0.0 3.365917514 0.127639616523 0.0
0.0 3.367268745 0.127587858661 0.0
0.0 3.368619977 0.12753808694 0.0
0.0 3.369971208 0.127486855374 0.0
0.0 3.371322439 0.127434667538 0.0
0.0 3.372673671 0.127382477413 0.0
0.0 3.374024902 0.127329940799 0.0
0.0 3.375376134 0.127279096102 0.0
0.0 3.376727365 0.127230262428 0.0
0.0 3.378078597 0.127179789826 0.0
0.0 3.379429828 0.127128790888 0.0
0.0 3.38078106 0.127079499231 0.0
0.0 3.382132291 0.127031013228 0.0
0.0 3.383483522 0.126982125811 0.0
0.0 3.384834754 0.126932242481 0.0
0.0 3.386185985 0.126884114917 0.0
0.0 3.387537217 0.12683417491 0.0
0.0 3.388888448 0.126785307691 0.0
0.0 3.39023968 0.126736472469 0.0
0.0 3.391590911 0.126686199227 0.0
0.0 3.392942143 0.126636642803 0.0
0.0 3.394293374 0.126589967914 0.0
0.0 3.395644605 0.126542465472 0.0
0.0 3.396995837 0.126494832525 0.0
0.0 3.398347068 0.126446315039 0.0
0.0 3.3996983 0.126396247482 0.0
0.0 3.401049531 0.126347562806 0.0
0.0 3.402400763 0.126299829772 0.0
0.0 3.403751994 0.126252339107 0.0
0.0 3.405103225 0.126205868167 0.0
0.0 3.406454457 0.126160517728 0.0
0.0 3.407805688 0.126114567103 0.0
0.0 3.40915692 0.126070542533 0.0
0.0 3.410508151 0.126025438838 0.0
0.0 3.411859383 0.125978328225 0.0
0.0 3.413210614 0.125933848985 0.0
0.0 3.414561846 0.125889447197 0.0
0.0 3.415913077 0.125849515094 0.0
0.0 3.417264308 0.125812766715 0.0
0.0 3.41861554 0.125771807911 0.0
0.0 3.419966771 0.12572918903 0.0
0.0 3.421318003 0.125684842992 0.0
0.0 3.422669234 0.125638186499 0.0
0.0 3.424020466 0.125592687236 0.0
0.0 3.425371697 0.125546952729 0.0
0.0 3.426722928 0.125500004924 0.0
0.0 3.42807416 0.125455384244 0.0
0.0 3.429425391 0.125409970128 0.0
0.0 3.430776623 0.125363091987 0.0
0.0 3.432127854 0.12532112003 0.0
0.0 3.433479086 0.125279270601 0.0
0.0 3.434830317 0.125232691761 0.0
0.0 3.436181549 0.125191344536 0.0
0.0 3.43753278 0.125152071977 0.0
0.0 3.438884011 0.125110558971 0.0
0.0 3.440235243 0.125070643319 0.0
0.0 3.441586474 0.125029767483 0.0
0.0 3.442937706 0.12498602412 0.0
0.0 3.444288937 0.124943372161 0.0
0.0 3.445640169 0.124904606995 0.0
0.0 3.4469914 0.124866876762 0.0
0.0 3.448342631 0.124824762904 0.0
0.0 3.449693863 0.124780453573 0.0
0.0 3.451045094 0.124737230646 0.0
0.0 3.452396326 0.124697198932 0.0
0.0 3.453747557 0.124655592887 0.0
0.0 3.455098789 0.124615784157 0.0
0.0 3.45645002 0.124576832017 0.0
0.0 3.457801252 0.124537765028 0.0
0.0 3.459152483 0.12449938206 0.0
0.0 3.460503714 0.124461535637 0.0
0.0 3.461854946 0.124423425087 0.0
0.0 3.463206177 0.124386100635 0.0
0.0 3.464557409 0.124348550737 0.0
0.0 3.46590864 0.124310721877 0.0
0.0 3.467259872 0.12427367729 0.0
0.0 3.468611103 0.124238145542 0.0
0.0 3.469962335 0.124202570243 0.0
0.0 3.471313566 0.124169184281 0.0
0.0 3.472664797 0.124139158101 0.0
0.0 3.474016029 0.124106163078 0.0
0.0 3.47536726 0.124070255603 0.0
0.0 3.476718492 0.124033401647 0.0
0.0 3.478069723 0.12399782639 0.0
0.0 3.479420955 0.123962118288 0.0
0.0 3.480772186 0.12392596249 0.0
0.0 3.482123417 0.123896136134 0.0
0.0 3.483474649 0.123867290203 0.0
0.0 3.48482588 0.123835479539 0.0
0.0 3.486177112 0.123800681622 0.0
0.0 3.487528343 0.123765729602 0.0
0.0 3.488879575 0.123731448136 0.0
0.0 3.490230806 0.123696051703 0.0
0.0 3.491582038 0.123661088385 0.0
0.0 3.492933269 0.123628005624 0.0
0.0 3.4942845 0.123595849796 0.0
0.0 3.495635732 0.123562935182 0.0
0.0 3.496986963 0.123530849034 0.0
0.0 3.498338195 0.123501025795 0.0
0.0 3.499689426 0.123472087129 0.0
0.0 3.501040658 0.123442408304 0.0
0.0 3.502391889 0.123412960047 0.0
0.0 3.50374312 0.123384622226 0.0
0.0 3.505094352 0.123356550466 0.0
0.0 3.506445583 0.123329330822 0.0
0.0 3.507796815 0.123303407331 0.0
0.0 3.509148046 0.123275993453 0.0
0.0 3.510499278 0.123246120083 0.0
0.0 3.511850509 0.123215150723 0.0
0.0 3.513201741 0.123184146441 0.0
0.0 3.514552972 0.12315428781 0.0
0.0 3.515904203 0.123125022774 0.0
0.0 3.517255435 0.123095383417 0.0
0.0 3.518606666 0.123067373903 0.0
0.0 3.519957898 0.123037463084 0.0
0.0 3.521309129 0.123004207883 0.0
0.0 3.522660361 0.122973261498 0.0
0.0 3.524011592 0.122945477484 0.0
0.0 3.525362824 0.122919663887 0.0
0.0 3.526714055 0.122895302217 0.0
0.0 3.528065286 0.122867747461 0.0
0.0 3.529416518 0.122838055581 0.0
0.0 3.530767749 0.122809542601 0.0
0.0 3.532118981 0.122782749607 0.0
0.0 3.533470212 0.122756415063 0.0
0.0 3.534821444 0.122729523345 0.0
0.0 3.536172675 0.122703045716 0.0
0.0 3.537523906 0.12267699352 0.0
0.0 3.538875138 0.12265424611 0.0
0.0 3.540226369 0.122629082869 0.0
0.0 3.541577601 0.122602325244 0.0
0.0 3.542928832 0.122576732104 0.0
0.0 3.544280064 0.122553746797 0.0
0.0 3.545631295 0.122532878687 0.0
0.0 3.546982527 0.122510712705 0.0
0.0 3.548333758 0.122486899283 0.0
0.0 3.549684989 0.122463869857 0.0
0.0 3.551036221 0.122441387248 0.0
0.0 3.552387452 0.122418696233 0.0
0.0 3.553738684 0.122394506596 0.0
0.0 3.555089915 0.122373061478 0.0
0.0 3.556441147 0.122351537221 0.0
0.0 3.557792378 0.12232762793 0.0
0.0 3.559143609 0.122304794674 0.0
0.0 3.560494841 0.122284370872 0.0
0.0 3.561846072 0.122262448247 0.0
0.0 3.563197304 0.122240621555 0.0
0.0 3.564548535 0.122220854154 0.0
0.0 3.565899767 0.122203109763 0.0
0.0 3.567250998 0.122181829683 0.0
0.0 3.56860223 0.122162560341 0.0
0.0 3.569953461 0.122143861545 0.0
0.0 3.571304692 0.122125452889 0.0
0.0 3.572655924 0.122107262042 0.0
0.0 3.574007155 0.122089346456 0.0
0.0 3.575358387 0.122071703827 0.0
0.0 3.576709618 0.122054326736 0.0
0.0 3.57806085 0.122037215756 0.0
0.0 3.579412081 0.122020373923 0.0
0.0 3.580763312 0.122005330046 0.0
0.0 3.582114544 0.121989274938 0.0
0.0 3.583465775 0.121972541949 0.0
0.0 3.584817007 0.1219570702 0.0
0.0 3.586168238 0.121942346546 0.0
0.0 3.58751947 0.12192706697 0.0
0.0 3.588870701 0.121911240802 0.0
0.0 3.590221933 0.121895293584 0.0
0.0 3.591573164 0.121880874166 0.0
0.0 3.592924395 0.121866730087 0.0
0.0 3.594275627 0.121852861178 0.0
0.0 3.595626858 0.121840305218 0.0
0.0 3.59697809 0.121826063077 0.0
0.0 3.598329321 0.121812893378 0.0
0.0 3.599680553 0.12180012217 0.0
0.0 3.601031784 0.121787627392 0.0
0.0 3.602383016 0.121775409644 0.0
0.0 3.603734247 0.121763469568 0.0
0.0 3.605085478 0.121751916265 0.0
0.0 3.60643671 0.121741122423 0.0
0.0 3.607787941 0.121729322585 0.0
0.0 3.609139173 0.121718498244 0.0
0.0 3.610490404 0.121707955792 0.0
0.0 3.611841636 0.121697694733 0.0
0.0 3.613192867 0.121687715716 0.0
0.0 3.614544098 0.12167801936 0.0
0.0 3.61589533 0.121668606291 0.0
0.0 3.617246561 0.121659477157 0.0
0.0 3.618597793 0.121650632578 0.0
0.0 3.619949024 0.121642073207 0.0
0.0 3.621300256 0.121633799662 0.0
0.0 3.622651487 0.121625812595 0.0
0.0 3.624002719 0.121618112636 0.0
0.0 3.62535395 0.121610700439 0.0
0.0 3.626705181 0.12160357664 0.0
0.0 3.628056413 0.12159674188 0.0
0.0 3.629407644 0.121590196812 0.0
0.0 3.630758876 0.121583942076 0.0
0.0 3.632110107 0.12157797833 0.0
0.0 3.633461339 0.121572306214 0.0
0.0 3.63481257 0.121566926388 0.0
0.0 3.636163801 0.121561839502 0.0
0.0 3.637515033 0.121557046206 0.0
0.0 3.638866264 0.121552547164 0.0
0.0 3.640217496 0.121548343024 0.0
0.0 3.641568727 0.121544434454 0.0
0.0 3.642919959 0.121540822107 0.0
0.0 3.64427119 0.12153750665 0.0
0.0 3.645622422 0.121534488742 0.0
0.0 3.646973653 0.121531769051 0.0
0.0 3.648324884 0.121529348242 0.0
0.0 3.649676116 0.12152729276 0.0
0.0 3.651027347 0.121525406279 0.0
0.0 3.652378579 0.121523885789 0.0
0.0 3.65372981 0.121522667872 0.0
0.0 3.655081042 0.121522105762 0.0
0.0 3.656432273 0.121521138966 0.0
0.0 3.657783504 0.121520877687 0.0
0.0 3.659134736 0.121520830078 0.0
0.0 3.660485967 0.121522017033 0.0
0.0 3.661837199 0.121525079592 0.0
0.0 3.66318843 0.121525727203 0.0
0.0 3.664539662 0.121526985639 0.0
0.0 3.665890893 0.121528980416 0.0
0.0 3.667242125 0.121530964858 0.0
0.0 3.668593356 0.121531476475 0.0
0.0 3.669944587 0.12153257641 0.0
0.0 3.671295819 0.121535583506 0.0
0.0 3.67264705 0.121539874418 0.0
0.0 3.673998282 0.12154385915 0.0
0.0 3.675349513 0.121547101802 0.0
0.0 3.676700745 0.121549212661 0.0
0.0 3.678051976 0.121553077039 0.0
0.0 3.679403208 0.121557715219 0.0
0.0 3.680754439 0.121562912185 0.0
0.0 3.68210567 0.121568891656 0.0
0.0 3.683456902 0.12157503434 0.0
0.0 3.684808133 0.121582307472 0.0
0.0 3.686159365 0.121588138356 0.0
0.0 3.687510596 0.121592807883 0.0
0.0 3.688861828 0.121599068877 0.0
0.0 3.690213059 0.12160625351 0.0
0.0 3.69156429 0.121613980362 0.0
0.0 3.692915522 0.121623553286 0.0
0.0 3.694266753 0.121630543331 0.0
0.0 3.695617985 0.121639462618 0.0
0.0 3.696969216 0.121647239756 0.0
0.0 3.698320448 0.121656116539 0.0
0.0 3.699671679 0.121665569947 0.0
0.0 3.701022911 0.121676097774 0.0
0.0 3.702374142 0.121687694527 0.0
0.0 3.703725373 0.121699986257 0.0
0.0 3.705076605 0.121707269349 0.0
0.0 3.706427836 0.121717864628 0.0
0.0 3.707779068 0.121729574088 0.0
0.0 3.709130299 0.121743156351 0.0
0.0 3.710481531 0.121754842607 0.0
0.0 3.711832762 0.121767082465 0.0
0.0 3.713183993 0.121780132072 0.0
0.0 3.714535225 0.121793461343 0.0
0.0 3.715886456 0.121807569923 0.0
0.0 3.717237688 0.121820411502 0.0
0.0 3.718588919 0.121833232608 0.0
0.0 3.719940151 0.121848601362 0.0
0.0 3.721291382 0.121864874968 0.0
0.0 3.722642614 0.121880682089 0.0
0.0 3.723993845 0.121896440739 0.0
0.0 3.725345076 0.121908926065 0.0
0.0 3.726696308 0.121926564525 0.0
0.0 3.728047539 0.121941084479 0.0
0.0 3.729398771 0.121957677867 0.0
0.0 3.730750002 0.121975350381 0.0
0.0 3.732101234 0.121996979772 0.0
0.0 3.733452465 0.12201476562 0.0
0.0 3.734803696 0.122032163294 0.0
0.0 3.736154928 0.122050864326 0.0
0.0 3.737506159 0.122068315918 0.0
0.0 3.738857391 0.122086646135 0.0
0.0 3.740208622 0.122104954672 0.0
0.0 3.741559854 0.1221245456 0.0
0.0 3.742911085 0.122145124695 0.0
0.0 3.744262317 0.1221680133 0.0
0.0 3.745613548 0.122191945406 0.0
0.0 3.746964779 0.122213972587 0.0
0.0 3.748316011 0.122234164028 0.0
0.0 3.749667242 0.122253907284 0.0
0.0 3.751018474 0.122275422119 0.0
0.0 3.752369705 0.122296716235 0.0
0.0 3.753720937 0.122318739567 0.0
0.0 3.755072168 0.122342512781 0.0
0.0 3.7564234 0.122368234377 0.0
0.0 3.757774631 0.122394364993 0.0
0.0 3.759125862 0.122418742998 0.0
0.0 3.760477094 0.122441621121 0.0
0.0 3.761828325 0.122465072956 0.0
0.0 3.763179557 0.122490764877 0.0
0.0 3.764530788 0.122518846668 0.0
0.0 3.76588202 0.122546412672 0.0
0.0 3.767233251 0.122572040828 0.0
0.0 3.768584482 0.122596508754 0.0
0.0 3.769935714 0.122623543427 0.0
0.0 3.771286945 0.122651354702 0.0
0.0 3.772638177 0.122681522899 0.0
0.0 3.773989408 0.122711137422 0.0
0.0 3.77534064 0.122740569257 0.0
0.0 3.776691871 0.122769304498 0.0
0.0 3.778043103 0.122798191621 0.0
0.0 3.779394334 0.12282746578 0.0
0.0 3.780745565 0.122857802458 0.0
0.0 3.782096797 0.12288846106 0.0
0.0 3.783448028 0.1229189921 0.0
0.0 3.78479926 0.122950394276 0.0
0.0 3.786150491 0.122982982996 0.0
0.0 3.787501723 0.123016282361 0.0
0.0 3.788852954 0.123049887723 0.0
0.0 3.790204185 0.123082755936 0.0
0.0 3.791555417 0.123114110229 0.0
0.0 3.792906648 0.123147126024 0.0
0.0 3.79425788 0.123181108877 0.0
0.0 3.795609111 0.123217049019 0.0
0.0 3.796960343 0.1232533092 0.0
0.0 3.798311574 0.123287752764 0.0
0.0 3.799662806 0.123323331011 0.0
0.0 3.801014037 0.123360433479 0.0
0.0 3.802365268 0.123395954213 0.0
0.0 3.8037165 0.123432189317 0.0
0.0 3.805067731 0.123470567761 0.0
0.0 3.806418963 0.123509790905 0.0
0.0 3.807770194 0.123547329349 0.0
0.0 3.809121426 0.123584265835 0.0
0.0 3.810472657 0.123622394426 0.0
0.0 3.811823889 0.123661185554 0.0
0.0 3.81317512 0.123700044312 0.0
0.0 3.814526351 0.123739078722 0.0
0.0 3.815877583 0.123780771491 0.0
0.0 3.817228814 0.123822241813 0.0
0.0 3.818580046 0.123861827598 0.0
0.0 3.819931277 0.123901827187 0.0
0.0 3.821282509 0.123943700374 0.0
0.0 3.82263374 0.123986013655 0.0
0.0 3.823984971 0.124029007748 0.0
0.0 3.825336203 0.124072564341 0.0
0.0 3.826687434 0.124115420862 0.0
0.0 3.828038666 0.124159214649 0.0
0.0 3.829389897 0.124203526317 0.0
0.0 3.830741129 0.124248415988 0.0
0.0 3.83209236 0.124293414757 0.0
0.0 3.833443592 0.124338874529 0.0
0.0 3.834794823 0.124384945916 0.0
0.0 3.836146054 0.124432797936 0.0
0.0 3.837497286 0.124482235816 0.0
0.0 3.838848517 0.124529071221 0.0
0.0 3.840199749 0.124574935465 0.0
0.0 3.84155098 0.124622411769 0.0
0.0 3.842902212 0.124670908943 0.0
0.0 3.844253443 0.124719984137 0.0
0.0 3.845604674 0.124768610509 0.0
0.0 3.846955906 0.124818958983 0.0
0.0 3.848307137 0.12486888016 0.0
0.0 3.849658369 0.124917672067 0.0
0.0 3.8510096 0.124968306199 0.0
0.0 3.852360832 0.125020355481 0.0
0.0 3.853712063 0.125072731494 0.0
0.0 3.855063295 0.125124424695 0.0
0.0 3.856414526 0.12517698416 0.0
0.0 3.857765757 0.125229574384 0.0
0.0 3.859116989 0.125282350295 0.0
0.0 3.86046822 0.125335911335 0.0
0.0 3.861819452 0.125391073403 0.0
0.0 3.863170683 0.125447023879 0.0
0.0 3.864521915 0.125501928481 0.0
0.0 3.865873146 0.125556116434 0.0
0.0 3.867224377 0.125611449647 0.0
0.0 3.868575609 0.125668182201 0.0
0.0 3.86992684 0.125729284273 0.0
0.0 3.871278072 0.125785772949 0.0
0.0 3.872629303 0.125842673086 0.0
0.0 3.873980535 0.125901469178 0.0
0.0 3.875331766 0.125961543905 0.0
0.0 3.876682998 0.126019493521 0.0
0.0 3.878034229 0.126075254874 0.0
0.0 3.87938546 0.126134561914 0.0
0.0 3.880736692 0.12619486695 0.0
0.0 3.882087923 0.126256348577 0.0
0.0 3.883439155 0.126320800505 0.0
0.0 3.884790386 0.126383497608 0.0
0.0 3.886141618 0.126443670979 0.0
0.0 3.887492849 0.126504576991 0.0
0.0 3.888844081 0.126567300938 0.0
0.0 3.890195312 0.126630561166 0.0
0.0 3.891546543 0.126695914403 0.0
0.0 3.892897775 0.126760621581 0.0
0.0 3.894249006 0.12682565837 0.0
0.0 3.895600238 0.126890866601 0.0
0.0 3.896951469 0.126956833944 0.0
0.0 3.898302701 0.127024715797 0.0
0.0 3.899653932 0.127092420735 0.0
0.0 3.901005163 0.127158680896 0.0
0.0 3.902356395 0.127226362533 0.0
0.0 3.903707626 0.127294876977 0.0
0.0 3.905058858 0.127365391835 0.0
0.0 3.906410089 0.127433273009 0.0
0.0 3.907761321 0.127499653708 0.0
0.0 3.909112552 0.127569193011 0.0
0.0 3.910463784 0.127638742819 0.0
0.0 3.911815015 0.127708510715 0.0
0.0 3.913166246 0.127779619883 0.0
0.0 3.914517478 0.127853401376 0.0
0.0 3.915868709 0.127927567177 0.0
0.0 3.917219941 0.128000489614 0.0
0.0 3.918571172 0.128072584159 0.0
0.0 3.919922404 0.128144927998 0.0
0.0 3.921273635 0.128217759897 0.0
0.0 3.922624866 0.128293179856 0.0
0.0 3.923976098 0.128368828972 0.0
0.0 3.925327329 0.128443274073 0.0
0.0 3.926678561 0.128517760249 0.0
0.0 3.928029792 0.128595314188 0.0
0.0 3.929381024 0.128674591693 0.0
0.0 3.930732255 0.128751792 0.0
0.0 3.932083487 0.128827026423 0.0
0.0 3.933434718 0.128904687005 0.0
0.0 3.934785949 0.128983982417 0.0
0.0 3.936137181 0.129062519344 0.0
0.0 3.937488412 0.129140108857 0.0
0.0 3.938839644 0.129218529765 0.0
0.0 3.940190875 0.12929931054 0.0
0.0 3.941542107 0.129381372304 0.0
0.0 3.942893338 0.129464971325 0.0
0.0 3.944244569 0.129547778815 0.0
0.0 3.945595801 0.129628469541 0.0
0.0 3.946947032 0.129710184357 0.0
0.0 3.948298264 0.129793579955 0.0
0.0 3.949649495 0.129879592179 0.0
0.0 3.951000727 0.129963168012 0.0
0.0 3.952351958 0.130046654064 0.0
0.0 3.95370319 0.130134073536 0.0
0.0 3.955054421 0.130220985768 0.0
0.0 3.956405652 0.130306837129 0.0
0.0 3.957756884 0.130393800093 0.0
0.0 3.959108115 0.130482389673 0.0
0.0 3.960459347 0.130573418718 0.0
0.0 3.961810578 0.130663143288 0.0
0.0 3.96316181 0.13075062598 0.0
0.0 3.964513041 0.130837690616 0.0
0.0 3.965864273 0.130924874041 0.0
0.0 3.967215504 0.13101379504 0.0
0.0 3.968566735 0.131103850288 0.0
0.0 3.969917967 0.131196321539 0.0
0.0 3.971269198 0.131290724185 0.0
0.0 3.97262043 0.13138571757 0.0
0.0 3.973971661 0.131479200677 0.0
0.0 3.975322893 0.131571380254 0.0
0.0 3.976674124 0.131666452191 0.0
0.0 3.978025355 0.131761923253 0.0
0.0 3.979376587 0.131856459819 0.0
0.0 3.980727818 0.131950862008 0.0
0.0 3.98207905 0.132047091646 0.0
0.0 3.983430281 0.132144837452 0.0
0.0 3.984781513 0.132240962604 0.0
0.0 3.986132744 0.132335718305 0.0
0.0 3.987483976 0.132432915821 0.0
0.0 3.988835207 0.132532159388 0.0
0.0 3.990186438 0.13263418843 0.0
0.0 3.99153767 0.132736400563 0.0
0.0 3.992888901 0.132836685203 0.0
0.0 3.994240133 0.132935240352 0.0
0.0 3.995591364 0.133034189396 0.0
0.0 3.996942596 0.133136064453 0.0
0.0 3.998293827 0.133239429157 0.0
0.0 3.999645058 0.133342679261 0.0
0.0 4.00099629 0.133446110042 0.0
0.0 4.002347521 0.133550162895 0.0
0.0 4.003698753 0.133655276143 0.0
0.0 4.005049984 0.133760241849 0.0
0.0 4.006401216 0.133864541636 0.0
0.0 4.007752447 0.133970572256 0.0
0.0 4.009103679 0.134078193632 0.0
0.0 4.01045491 0.134186585189 0.0
0.0 4.011806141 0.134294981217 0.0
0.0 4.013157373 0.134403491903 0.0
0.0 4.014508604 0.134512152926 0.0
0.0 4.015859836 0.134620966229 0.0
0.0 4.017211067 0.134729357262 0.0
0.0 4.018562299 0.134838227374 0.0
0.0 4.01991353 0.134949050436 0.0
0.0 4.021264761 0.13506124733 0.0
0.0 4.022615993 0.135172541566 0.0
0.0 4.023967224 0.135285173726 0.0
0.0 4.025318456 0.135398500938 0.0
0.0 4.026669687 0.135512938535 0.0
0.0 4.028020919 0.135628081049 0.0
0.0 4.02937215 0.135743011372 0.0
0.0 4.030723382 0.135858495368 0.0
0.0 4.032074613 0.135974951989 0.0
0.0 4.033425844 0.136092026392 0.0
0.0 4.034777076 0.1362091942 0.0
0.0 4.036128307 0.136326841952 0.0
0.0 4.037479539 0.13644542269 0.0
0.0 4.03883077 0.136564663264 0.0
0.0 4.040182002 0.136684582488 0.0
0.0 4.041533233 0.136804225042 0.0
0.0 4.042884465 0.13692467481 0.0
0.0 4.044235696 0.137046321839 0.0
0.0 4.045586927 0.137168500564 0.0
0.0 4.046938159 0.137290524393 0.0
0.0 4.04828939 0.137413364473 0.0
0.0 4.049640622 0.137536714687 0.0
0.0 4.050991853 0.137660402735 0.0
0.0 4.052343085 0.137784831154 0.0
0.0 4.053694316 0.137909825998 0.0
0.0 4.055045547 0.138035739766 0.0
0.0 4.056396779 0.138162262551 0.0
0.0 4.05774801 0.138289638762 0.0
0.0 4.059099242 0.138417608335 0.0
0.0 4.060450473 0.138545719267 0.0
0.0 4.061801705 0.138674174137 0.0
0.0 4.063152936 0.138803255763 0.0
0.0 4.064504168 0.13893309414 0.0
0.0 4.065855399 0.139063637012 0.0
0.0 4.06720663 0.139194963864 0.0
0.0 4.068557862 0.139326885918 0.0
0.0 4.069909093 0.139459380873 0.0
0.0 4.071260325 0.139592412741 0.0
0.0 4.072611556 0.139725897036 0.0
0.0 4.073962788 0.139859825785 0.0
0.0 4.075314019 0.139994496405 0.0
0.0 4.07666525 0.140129842163 0.0
0.0 4.078016482 0.140266039775 0.0
0.0 4.079367713 0.14040262515 0.0
0.0 4.080718945 0.14053979558 0.0
0.0 4.082070176 0.140677490466 0.0
0.0 4.083421408 0.140815734165 0.0
0.0 4.084772639 0.140954721447 0.0
0.0 4.086123871 0.141094330796 0.0
0.0 4.087475102 0.141234668516 0.0
0.0 4.088826333 0.141375560381 0.0
0.0 4.090177565 0.14151702311 0.0
0.0 4.091528796 0.141659180525 0.0
0.0 4.092880028 0.141802016897 0.0
0.0 4.094231259 0.141945478828 0.0
0.0 4.095582491 0.142089453962 0.0
0.0 4.096933722 0.142234004142 0.0
0.0 4.098284953 0.142379245488 0.0
0.0 4.099636185 0.142525120012 0.0
0.0 4.100987416 0.142671570397 0.0
0.0 4.102338648 0.142818648893 0.0
0.0 4.103689879 0.142966380312 0.0
0.0 4.105041111 0.143114746854 0.0
0.0 4.106392342 0.143263697991 0.0
0.0 4.107743574 0.143413335442 0.0
0.0 4.109094805 0.143563653037 0.0
0.0 4.110446036 0.143714615323 0.0
0.0 4.111797268 0.143866202545 0.0
0.0 4.113148499 0.144018424835 0.0
0.0 4.114499731 0.144171304887 0.0
0.0 4.115850962 0.144324811567 0.0
0.0 4.117202194 0.14447897729 0.0
0.0 4.118553425 0.144633777702 0.0
0.0 4.119904657 0.144789206793 0.0
0.0 4.121255888 0.144945276049 0.0
0.0 4.122607119 0.145102030911 0.0
0.0 4.123958351 0.145259459587 0.0
0.0 4.125309582 0.14541753699 0.0
0.0 4.126660814 0.145576239726 0.0
0.0 4.128012045 0.145735591652 0.0
0.0 4.129363277 0.145895633699 0.0
0.0 4.130714508 0.146056339928 0.0
0.0 4.132065739 0.146217703964 0.0
0.0 4.133416971 0.14637974791 0.0
0.0 4.134768202 0.14654242453 0.0
0.0 4.136119434 0.146705754012 0.0
0.0 4.137470665 0.146869766847 0.0
0.0 4.138821897 0.147034462212 0.0
0.0 4.140173128 0.147199828244 0.0
0.0 4.14152436 0.147365868987 0.0
0.0 4.142875591 0.147532570296 0.0
0.0 4.144226822 0.14769993442 0.0
0.0 4.145578054 0.147867977137 0.0
0.0 4.146929285 0.148036706424 0.0
0.0 4.148280517 0.148206119229 0.0
0.0 4.149631748 0.148376222868 0.0
0.0 4.15098298 0.148547003945 0.0
0.0 4.152334211 0.148718460225 0.0
0.0 4.153685442 0.14889059619 0.0
0.0 4.155036674 0.14906342013 0.0
0.0 4.156387905 0.149236936325 0.0
0.0 4.157739137 0.149411143284 0.0
0.0 4.159090368 0.149586037448 0.0
0.0 4.1604416 0.14976162492 0.0
0.0 4.161792831 0.149937911171 0.0
0.0 4.163144063 0.150114892364 0.0
0.0 4.164495294 0.150292569485 0.0
0.0 4.165846525 0.150470942506 0.0
0.0 4.167197757 0.150650018522 0.0
0.0 4.168548988 0.150829798845 0.0
0.0 4.16990022 0.151010284181 0.0
0.0 4.171251451 0.151191471578 0.0
0.0 4.172602683 0.151373365925 0.0
0.0 4.173953914 0.151555968093 0.0
0.0 4.175305146 0.151739280443 0.0
0.0 4.176656377 0.151923305413 0.0
0.0 4.178007608 0.152108042537 0.0
0.0 4.17935884 0.152293491523 0.0
0.0 4.180710071 0.152479655046 0.0
0.0 4.182061303 0.152666533264 0.0
0.0 4.183412534 0.152854130098 0.0
0.0 4.184763766 0.153042450621 0.0
0.0 4.186114997 0.153231493673 0.0
0.0 4.187466228 0.153421260074 0.0
0.0 4.18881746 0.153611751904 0.0
0.0 4.190168691 0.153802971356 0.0
0.0 4.191519923 0.153994919744 0.0
0.0 4.192871154 0.154187596482 0.0
0.0 4.194222386 0.154381004858 0.0
0.0 4.195573617 0.154575146808 0.0
0.0 4.196924849 0.154770022899 0.0
0.0 4.19827608 0.154965634211 0.0
0.0 4.199627311 0.155161983764 0.0
0.0 4.200978543 0.155359073131 0.0
0.0 4.202329774 0.155556902119 0.0
0.0 4.203681006 0.155755473535 0.0
0.0 4.205032237 0.155954790556 0.0
0.0 4.206383469 0.15615485394 0.0
0.0 4.2077347 0.156355664664 0.0
0.0 4.209085931 0.156557225318 0.0
0.0 4.210437163 0.156759536648 0.0
0.0 4.211788394 0.156962599681 0.0
0.0 4.213139626 0.157166416281 0.0
0.0 4.214490857 0.157370989428 0.0
0.0 4.215842089 0.157576319912 0.0
0.0 4.21719332 0.157782408564 0.0
0.0 4.218544552 0.157989258247 0.0
0.0 4.219895783 0.158196870421 0.0
0.0 4.221247014 0.15840524625 0.0
0.0 4.222598246 0.158614387856 0.0
0.0 4.223949477 0.15882429663 0.0
0.0 4.225300709 0.159034974601 0.0
0.0 4.22665194 0.159246422838 0.0
0.0 4.228003172 0.159458643509 0.0
0.0 4.229354403 0.159671637997 0.0
0.0 4.230705634 0.159885408136 0.0
0.0 4.232056866 0.160099955618 0.0
0.0 4.233408097 0.160315281957 0.0
0.0 4.234759329 0.160531389112 0.0
0.0 4.23611056 0.160748278453 0.0
0.0 4.237461792 0.160965951997 0.0
0.0 4.238813023 0.161184411118 0.0
0.0 4.240164255 0.161403657843 0.0
0.0 4.241515486 0.161623693552 0.0
0.0 4.242866717 0.161844520114 0.0
0.0 4.244217949 0.162066139406 0.0
0.0 4.24556918 0.162288552816 0.0
0.0 4.246920412 0.162511762388 0.0
0.0 4.248271643 0.162735769515 0.0
0.0 4.249622875 0.162960576256 0.0
0.0 4.250974106 0.163186184006 0.0
0.0 4.252325338 0.16341259483 0.0
0.0 4.253676569 0.163639810128 0.0
0.0 4.2550278 0.163867831808 0.0
0.0 4.256379032 0.164096661782 0.0
0.0 4.257730263 0.164326301455 0.0
0.0 4.259081495 0.164556752918 0.0
0.0 4.260432726 0.164788017582 0.0
0.0 4.261783958 0.165020097546 0.0
0.0 4.263135189 0.165252994225 0.0
0.0 4.26448642 0.165486709555 0.0
0.0 4.265837652 0.165721245476 0.0
0.0 4.267188883 0.165956603411 0.0
0.0 4.268540115 0.166192785481 0.0
0.0 4.269891346 0.166429793115 0.0
0.0 4.271242578 0.166667628443 0.0
0.0 4.272593809 0.166906292898 0.0
0.0 4.273945041 0.16714578862 0.0
0.0 4.275296272 0.167386117046 0.0
0.0 4.276647503 0.167627280148 0.0
0.0 4.277998735 0.167869279903 0.0
0.0 4.279349966 0.168112117755 0.0
0.0 4.280701198 0.168355795867 0.0
0.0 4.282052429 0.168600315689 0.0
0.0 4.283403661 0.168845679394 0.0
0.0 4.284754892 0.169091888436 0.0
0.0 4.286106123 0.169338944814 0.0
0.0 4.287457355 0.169586850535 0.0
0.0 4.288808586 0.169835607059 0.0
0.0 4.290159818 0.170085216585 0.0
0.0 4.291511049 0.170335680576 0.0
0.0 4.292862281 0.17058700124 0.0
0.0 4.294213512 0.170839180046 0.0
0.0 4.295564744 0.171092219212 0.0
0.0 4.296915975 0.171346120212 0.0
0.0 4.298267206 0.171600885083 0.0
0.0 4.299618438 0.17185651587 0.0
0.0 4.300969669 0.172113014055 0.0
0.0 4.302320901 0.172370381878 0.0
0.0 4.303672132 0.172628620826 0.0
0.0 4.305023364 0.17288773315 0.0
0.0 4.306374595 0.173147720339 0.0
0.0 4.307725826 0.173408584463 0.0
0.0 4.309077058 0.173670327596 0.0
0.0 4.310428289 0.173932951235 0.0
0.0 4.311779521 0.174196457655 0.0
0.0 4.313130752 0.17446084836 0.0
0.0 4.314481984 0.174726125635 0.0
0.0 4.315833215 0.174992290987 0.0
0.0 4.317184447 0.175259346713 0.0
0.0 4.318535678 0.175527294322 0.0
0.0 4.319886909 0.175796135924 0.0
0.0 4.321238141 0.17606587363 0.0
0.0 4.322589372 0.17633650896 0.0
0.0 4.323940604 0.176608044234 0.0
0.0 4.325291835 0.176880480977 0.0
0.0 4.326643067 0.177153821519 0.0
0.0 4.327994298 0.177428067388 0.0
0.0 4.32934553 0.177703220927 0.0
0.0 4.330696761 0.177979283666 0.0
0.0 4.332047992 0.178256257754 0.0
0.0 4.333399224 0.178534145343 0.0
0.0 4.334750455 0.178812947973 0.0
0.0 4.336101687 0.179092668011 0.0
0.0 4.337452918 0.179373307002 0.0
0.0 4.33880415 0.179654867323 0.0
0.0 4.340155381 0.179937350523 0.0
0.0 4.341506612 0.180220758781 0.0
0.0 4.342857844 0.180505094279 0.0
0.0 4.344209075 0.180790358576 0.0
0.0 4.345560307 0.181076554073 0.0
0.0 4.346911538 0.181363682333 0.0
0.0 4.34826277 0.181651745769 0.0
0.0 4.349614001 0.181940745947 0.0
0.0 4.350965233 0.182230685292 0.0
0.0 4.352316464 0.182521565373 0.0
0.0 4.353667695 0.18281338841 0.0
0.0 4.355018927 0.183106156628 0.0
0.0 4.356370158 0.183399871603 0.0
0.0 4.35772139 0.183694535788 0.0
0.0 4.359072621 0.183990150764 0.0
0.0 4.360423853 0.184286718993 0.0
0.0 4.361775084 0.184584242062 0.0
0.0 4.363126315 0.184882722222 0.0
0.0 4.364477547 0.185182161729 0.0
0.0 4.365828778 0.185482562179 0.0
0.0 4.36718001 0.185783926059 0.0
0.0 4.368531241 0.186086254969 0.0
0.0 4.369882473 0.186389551407 0.0
0.0 4.371233704 0.186693816979 0.0
0.0 4.372584936 0.186999054192 0.0
0.0 4.373936167 0.187305264657 0.0
0.0 4.375287398 0.187612450665 0.0
0.0 4.37663863 0.187920614515 0.0
0.0 4.377989861 0.188229757825 0.0
0.0 4.379341093 0.188539883128 0.0
0.0 4.380692324 0.188850992049 0.0
0.0 4.382043556 0.189163087133 0.0
0.0 4.383394787 0.189476170008 0.0
0.0 4.384746018 0.189790242997 0.0
0.0 4.38609725 0.190105308433 0.0
0.0 4.387448481 0.190421367949 0.0
0.0 4.388799713 0.190738424118 0.0
0.0 4.390150944 0.191056478582 0.0
0.0 4.391502176 0.191375533924 0.0
0.0 4.392853407 0.19169559179 0.0
0.0 4.394204639 0.192016654773 0.0
0.0 4.39555587 0.192338724524 0.0
0.0 4.396907101 0.192661803411 0.0
0.0 4.398258333 0.192985893805 0.0
0.0 4.399609564 0.193310997366 0.0
0.0 4.400960796 0.193637116715 0.0
0.0 4.402312027 0.193964253515 0.0
0.0 4.403663259 0.1942924104 0.0
0.0 4.40501449 0.194621589037 0.0
0.0 4.406365722 0.194951792071 0.0
0.0 4.407716953 0.195283021176 0.0
0.0 4.409068184 0.19561527876 0.0
0.0 4.410419416 0.19594856724 0.0
0.0 4.411770647 0.196282888297 0.0
0.0 4.413121879 0.196618244603 0.0
0.0 4.41447311 0.196954637843 0.0
0.0 4.415824342 0.197292070702 0.0
0.0 4.417175573 0.197630544871 0.0
0.0 4.418526804 0.197970062792 0.0
0.0 4.419878036 0.198310626916 0.0
0.0 4.421229267 0.198652238942 0.0
0.0 4.422580499 0.198994901581 0.0
0.0 4.42393173 0.199338616538 0.0
0.0 4.425282962 0.199683386535 0.0
0.0 4.426634193 0.20002921328 0.0
0.0 4.427985425 0.20037609951 0.0
0.0 4.429336656 0.200724046936 0.0
0.0 4.430687887 0.201073058048 0.0
0.0 4.432039119 0.20142313534 0.0
0.0 4.43339035 0.201774280533 0.0
0.0 4.434741582 0.20212649639 0.0
0.0 4.436092813 0.202479784639 0.0
0.0 4.437444045 0.202834148053 0.0
0.0 4.438795276 0.203189588366 0.0
0.0 4.440146507 0.203546108099 0.0
0.0 4.441497739 0.203903709781 0.0
0.0 4.44284897 0.204262395153 0.0
0.0 4.444200202 0.204622167018 0.0
0.0 4.445551433 0.204983027121 0.0
0.0 4.446902665 0.205344978278 0.0
0.0 4.448253896 0.205708022238 0.0
0.0 4.449605128 0.206072161828 0.0
0.0 4.450956359 0.206437398805 0.0
0.0 4.45230759 0.206803735734 0.0
0.0 4.453658822 0.207171175192 0.0
0.0 4.455010053 0.207539718941 0.0
0.0 4.456361285 0.207909369838 0.0
0.0 4.457712516 0.20828012965 0.0
0.0 4.459063748 0.208652001248 0.0
0.0 4.460414979 0.209024986402 0.0
0.0 4.461766211 0.20939908804 0.0
0.0 4.463117442 0.209774307806 0.0
0.0 4.464468673 0.210150648446 0.0
0.0 4.465819905 0.210528112536 0.0
0.0 4.467171136 0.210906701865 0.0
0.0 4.468522368 0.211286419341 0.0
0.0 4.469873599 0.211667266757 0.0
0.0 4.471224831 0.212049247034 0.0
0.0 4.472576062 0.21243236197 0.0
0.0 4.473927293 0.212816614214 0.0
0.0 4.475278525 0.213202006423 0.0
0.0 4.476629756 0.213588540402 0.0
0.0 4.477980988 0.213976219103 0.0
0.0 4.479332219 0.214365044337 0.0
0.0 4.480683451 0.214755019069 0.0
0.0 4.482034682 0.215146145113 0.0
0.0 4.483385914 0.215538425446 0.0
0.0 4.484737145 0.21593186189 0.0
0.0 4.486088376 0.21632645714 0.0
0.0 4.487439608 0.2167222139 0.0
0.0 4.488790839 0.217119134001 0.0
0.0 4.490142071 0.217517220447 0.0
0.0 4.491493302 0.217916475075 0.0
0.0 4.492844534 0.218316900903 0.0
0.0 4.494195765 0.218718499774 0.0
0.0 4.495546996 0.219121274414 0.0
0.0 4.496898228 0.219525227569 0.0
0.0 4.498249459 0.219930361087 0.0
0.0 4.499600691 0.220336678019 0.0
0.0 4.500951922 0.220744180218 0.0
0.0 4.502303154 0.221152870736 0.0
0.0 4.503654385 0.221562751446 0.0
0.0 4.505005617 0.221973825418 0.0
0.0 4.506356848 0.222386094603 0.0
0.0 4.507708079 0.222799561521 0.0
0.0 4.509059311 0.223214229222 0.0
0.0 4.510410542 0.223630099491 0.0
0.0 4.511761774 0.224047175444 0.0
0.0 4.513113005 0.224465458932 0.0
0.0 4.514464237 0.224884953096 0.0
0.0 4.515815468 0.225305659818 0.0
0.0 4.517166699 0.225727581915 0.0
0.0 4.518517931 0.226150722207 0.0
0.0 4.519869162 0.226575082589 0.0
0.0 4.521220394 0.227000666216 0.0
0.0 4.522571625 0.227427474999 0.0
0.0 4.523922857 0.22785551207 0.0
0.0 4.525274088 0.228284779316 0.0
0.0 4.52662532 0.228715279966 0.0
0.0 4.527976551 0.229147015933 0.0
0.0 4.529327782 0.229579989996 0.0
0.0 4.530679014 0.230014205121 0.0
0.0 4.532030245 0.230449663194 0.0
0.0 4.533381477 0.230886367421 0.0
0.0 4.534732708 0.231324319726 0.0
0.0 4.53608394 0.23176352333 0.0
0.0 4.537435171 0.232203980158 0.0
0.0 4.538786403 0.232645693445 0.0
0.0 4.540137634 0.233088665127 0.0
0.0 4.541488865 0.233532898112 0.0
0.0 4.542840097 0.233978395335 0.0
0.0 4.544191328 0.234425158733 0.0
0.0 4.54554256 0.234873191576 0.0
0.0 4.546893791 0.235322495804 0.0
0.0 4.548245023 0.235773074702 0.0
0.0 4.549596254 0.236224930221 0.0
0.0 4.550947485 0.236678065317 0.0
0.0 4.552298717 0.237132482958 0.0
0.0 4.553649948 0.237588185092 0.0
0.0 4.55500118 0.238045175046 0.0
0.0 4.556352411 0.238503454781 0.0
0.0 4.557703643 0.238963027641 0.0
0.0 4.559054874 0.23942389554 0.0
0.0 4.560406106 0.239886061875 0.0
0.0 4.561757337 0.240349528613 0.0
0.0 4.563108568 0.240814298732 0.0
0.0 4.5644598 0.241280375278 0.0
0.0 4.565811031 0.241747760227 0.0
0.0 4.567162263 0.242216456951 0.0
0.0 4.568513494 0.242686467441 0.0
0.0 4.569864726 0.243157795093 0.0
0.0 4.571215957 0.243630441872 0.0
0.0 4.572567188 0.244104410857 0.0
0.0 4.57391842 0.244579705116 0.0
0.0 4.575269651 0.245056326594 0.0
0.0 4.576620883 0.24553427876 0.0
0.0 4.577972114 0.246013563618 0.0
0.0 4.579323346 0.246494184596 0.0
0.0 4.580674577 0.246976143711 0.0
0.0 4.582025809 0.247459444408 0.0
0.0 4.58337704 0.24794408871 0.0
0.0 4.584728271 0.248430079717 0.0
0.0 4.586079503 0.248917420592 0.0
0.0 4.587430734 0.249406113201 0.0
0.0 4.588781966 0.249896161189 0.0
0.0 4.590133197 0.250387566537 0.0
0.0 4.591484429 0.25088033274 0.0
0.0 4.59283566 0.25137446184 0.0
0.0 4.594186891 0.251869956977 0.0
0.0 4.595538123 0.2523668213 0.0
0.0 4.596889354 0.252865056862 0.0
0.0 4.598240586 0.253364667198 0.0
0.0 4.599591817 0.253865654338 0.0
0.0 4.600943049 0.254368021853 0.0
0.0 4.60229428 0.254871771794 0.0
0.0 4.603645512 0.25537690772 0.0
0.0 4.604996743 0.255883431697 0.0
0.0 4.606347974 0.256391346915 0.0
0.0 4.607699206 0.256900656584 0.0
0.0 4.609050437 0.257411362776 0.0
0.0 4.610401669 0.257923469097 0.0
0.0 4.6117529 0.25843697759 0.0
0.0 4.613104132 0.258951891899 0.0
0.0 4.614455363 0.259468214101 0.0
0.0 4.615806595 0.259985947816 0.0
0.0 4.617157826 0.260505095127 0.0
0.0 4.618509057 0.26102565929 0.0
0.0 4.619860289 0.261547643566 0.0
0.0 4.62121152 0.262071050054 0.0
0.0 4.622562752 0.262595882405 0.0
0.0 4.623913983 0.263122142731 0.0
0.0 4.625265215 0.263649834701 0.0
0.0 4.626616446 0.264178960433 0.0
0.0 4.627967677 0.264709523204 0.0
0.0 4.629318909 0.265241526326 0.0
0.0 4.63067014 0.265774971917 0.0
0.0 4.632021372 0.266309863683 0.0
0.0 4.633372603 0.266846203765 0.0
0.0 4.634723835 0.267383995843 0.0
0.0 4.636075066 0.267923242091 0.0
0.0 4.637426298 0.268463946229 0.0
0.0 4.638777529 0.2690061104 0.0
0.0 4.64012876 0.269549737944 0.0
0.0 4.641479992 0.270094832217 0.0
0.0 4.642831223 0.270641395371 0.0
0.0 4.644182455 0.271189431175 0.0
0.0 4.645533686 0.271738941799 0.0
0.0 4.646884918 0.272289930979 0.0
0.0 4.648236149 0.272842400925 0.0
0.0 4.64958738 0.273396355008 0.0
0.0 4.650938612 0.273951796629 0.0
0.0 4.652289843 0.274508727958 0.0
0.0 4.653641075 0.275067152806 0.0
0.0 4.654992306 0.27562707336 0.0
0.0 4.656343538 0.276188493487 0.0
0.0 4.657694769 0.276751415313 0.0
0.0 4.659046001 0.277315842647 0.0
0.0 4.660397232 0.277881777785 0.0
0.0 4.661748463 0.278449224131 0.0
0.0 4.663099695 0.279018185168 0.0
0.0 4.664450926 0.279588663018 0.0
0.0 4.665802158 0.280160661565 0.0
0.0 4.667153389 0.280734183098 0.0
0.0 4.668504621 0.28130923148 0.0
0.0 4.669855852 0.281885808915 0.0
0.0 4.671207083 0.282463918885 0.0
0.0 4.672558315 0.283043564898 0.0
0.0 4.673909546 0.283624749171 0.0
0.0 4.675260778 0.28420747565 0.0
0.0 4.676612009 0.284791746536 0.0
0.0 4.677963241 0.285377565806 0.0
0.0 4.679314472 0.28596493568 0.0
0.0 4.680665704 0.286553860133 0.0
0.0 4.682016935 0.287144341393 0.0
0.0 4.683368166 0.287736383008 0.0
0.0 4.684719398 0.288329988539 0.0
0.0 4.686070629 0.288925160227 0.0
0.0 4.687421861 0.289521902085 0.0
0.0 4.688773092 0.290120216351 0.0
0.0 4.690124324 0.290720107059 0.0
0.0 4.691475555 0.291321576463 0.0
0.0 4.692826787 0.2919246286 0.0
0.0 4.694178018 0.292529265752 0.0
0.0 4.695529249 0.293135491464 0.0
0.0 4.696880481 0.293743309412 0.0
0.0 4.698231712 0.294352721862 0.0
0.0 4.699582944 0.294963732919 0.0
0.0 4.700934175 0.295576344699 0.0
0.0 4.702285407 0.296190561454 0.0
0.0 4.703636638 0.296806385441 0.0
0.0 4.704987869 0.297423820295 0.0
0.0 4.706339101 0.298042869677 0.0
0.0 4.707690332 0.298663535878 0.0
0.0 4.709041564 0.299285823032 0.0
0.0 4.710392795 0.299909733434 0.0
0.0 4.711744027 0.300535271233 0.0
0.0 4.713095258 0.301162438733 0.0
0.0 4.71444649 0.301791240096 0.0
0.0 4.715797721 0.302421677633 0.0
0.0 4.717148952 0.303053755053 0.0
0.0 4.718500184 0.303687476079 0.0
0.0 4.719851415 0.304322843028 0.0
0.0 4.721202647 0.304959860104 0.0
0.0 4.722553878 0.305598529631 0.0
0.0 4.72390511 0.306238855862 0.0
0.0 4.725256341 0.306880841053 0.0
0.0 4.726607572 0.307524488985 0.0
0.0 4.727958804 0.308169803462 0.0
0.0 4.729310035 0.30881678681 0.0
0.0 4.730661267 0.309465443289 0.0
0.0 4.732012498 0.310115775229 0.0
0.0 4.73336373 0.310767786913 0.0
0.0 4.734714961 0.311421480698 0.0
0.0 4.736066193 0.31207686087 0.0
0.0 4.737417424 0.312733929789 0.0
0.0 4.738768655 0.313392691271 0.0
0.0 4.740119887 0.314053149147 0.0
0.0 4.741471118 0.314715305785 0.0
0.0 4.74282235 0.315379165517 0.0
0.0 4.744173581 0.316044730704 0.0
0.0 4.745524813 0.316712005708 0.0
0.0 4.746876044 0.317380992904 0.0
0.0 4.748227276 0.318051696655 0.0
0.0 4.749578507 0.318724119348 0.0
0.0 4.750929738 0.319398264859 0.0
0.0 4.75228097 0.320074137083 0.0
0.0 4.753632201 0.320751738413 0.0
0.0 4.754983433 0.321431073254 0.0
0.0 4.756334664 0.322112144006 0.0
0.0 4.757685896 0.322794955091 0.0
0.0 4.759037127 0.323479508915 0.0
0.0 4.760388358 0.324165809414 0.0
0.0 4.76173959 0.324853860538 0.0
0.0 4.763090821 0.32554366465 0.0
0.0 4.764442053 0.326235226239 0.0
0.0 4.765793284 0.326928547757 0.0
0.0 4.767144516 0.327623633661 0.0
0.0 4.768495747 0.328320486381 0.0
0.0 4.769846979 0.329019110416 0.0
0.0 4.77119821 0.329719508187 0.0
0.0 4.772549441 0.3304216837 0.0
0.0 4.773900673 0.331125640981 0.0
0.0 4.775251904 0.331831382407 0.0
0.0 4.776603136 0.33253891255 0.0
0.0 4.777954367 0.333248233876 0.0
0.0 4.779305599 0.33395935093 0.0
0.0 4.78065683 0.334672266214 0.0
0.0 4.782008061 0.33538698365 0.0
0.0 4.783359293 0.336103507358 0.0
0.0 4.784710524 0.336821839829 0.0
0.0 4.786061756 0.33754198564 0.0
0.0 4.787412987 0.338263947305 0.0
0.0 4.788764219 0.338987729322 0.0
0.0 4.79011545 0.339713334244 0.0
0.0 4.791466682 0.340440766708 0.0
0.0 4.792817913 0.341170029194 0.0
0.0 4.794169144 0.341901125811 0.0
0.0 4.795520376 0.342634060638 0.0
0.0 4.796871607 0.343368836209 0.0
0.0 4.798222839 0.344105457184 0.0
0.0 4.79957407 0.344843926062 0.0
0.0 4.800925302 0.34558424754 0.0
0.0 4.802276533 0.346326424103 0.0
0.0 4.803627764 0.347070459929 0.0
0.0 4.804978996 0.347816359182 0.0
0.0 4.806330227 0.348564124383 0.0
0.0 4.807681459 0.349313760223 0.0
0.0 4.80903269 0.350065269274 0.0
0.0 4.810383922 0.35081865627 0.0
0.0 4.811735153 0.351573923739 0.0
0.0 4.813086385 0.352331076448 0.0
0.0 4.814437616 0.353090116932 0.0
0.0 4.815788847 0.353851049413 0.0
0.0 4.817140079 0.354613878123 0.0
0.0 4.81849131 0.355378605607 0.0
0.0 4.819842542 0.356145236676 0.0
0.0 4.821193773 0.356913773878 0.0
0.0 4.822545005 0.357684222047 0.0
0.0 4.823896236 0.358456583737 0.0
0.0 4.825247468 0.359230863799 0.0
0.0 4.826598699 0.360007064787 0.0
0.0 4.82794993 0.360785190995 0.0
0.0 4.829301162 0.361565246719 0.0
0.0 4.830652393 0.362347234537 0.0
0.0 4.832003625 0.363131159382 0.0
0.0 4.833354856 0.363917023752 0.0
0.0 4.834706088 0.364704832532 0.0
0.0 4.836057319 0.365494588411 0.0
0.0 4.83740855 0.366286295692 0.0
0.0 4.838759782 0.367079958742 0.0
0.0 4.840111013 0.367875580103 0.0
0.0 4.841462245 0.368673164767 0.0
0.0 4.842813476 0.36947271532 0.0
0.0 4.844164708 0.370274236765 0.0
0.0 4.845515939 0.371077731724 0.0
0.0 4.846867171 0.371883205034 0.0
0.0 4.848218402 0.372690659457 0.0
0.0 4.849569633 0.37350009938 0.0
0.0 4.850920865 0.374311529221 0.0
0.0 4.852272096 0.375124951638 0.0
0.0 4.853623328 0.375940371529 0.0
0.0 4.854974559 0.376757791636 0.0
0.0 4.856325791 0.377577216999 0.0
0.0 4.857677022 0.37839865026 0.0
0.0 4.859028253 0.379222095893 0.0
0.0 4.860379485 0.380047558231 0.0
0.0 4.861730716 0.380875040085 0.0
0.0 4.863081948 0.381704546517 0.0
0.0 4.864433179 0.382536080145 0.0
0.0 4.865784411 0.383369646124 0.0
0.0 4.867135642 0.38420524706 0.0
0.0 4.868486874 0.385042888139 0.0
0.0 4.869838105 0.385882572007 0.0
0.0 4.871189336 0.386724303192 0.0
0.0 4.872540568 0.387568086238 0.0
0.0 4.873891799 0.388413923819 0.0
0.0 4.875243031 0.389261821116 0.0
0.0 4.876594262 0.390111780813 0.0
0.0 4.877945494 0.390963808107 0.0
0.0 4.879296725 0.391817905682 0.0
0.0 4.880647956 0.392674078129 0.0
0.0 4.881999188 0.393532330043 0.0
0.0 4.883350419 0.39439266412 0.0
0.0 4.884701651 0.395255085607 0.0
0.0 4.886052882 0.396119597212 0.0
0.0 4.887404114 0.396986204197 0.0
0.0 4.888755345 0.397854909267 0.0
0.0 4.890106577 0.398725717721 0.0
0.0 4.891457808 0.399598632249 0.0
0.0 4.892809039 0.40047365751 0.0
0.0 4.894160271 0.4013507982 0.0
0.0 4.895511502 0.402230057029 0.0
0.0 4.896862734 0.403111439328 0.0
0.0 4.898213965 0.40399494783 0.0
0.0 4.899565197 0.404880587885 0.0
0.0 4.900916428 0.405768362233 0.0
0.0 4.90226766 0.406658276243 0.0
0.0 4.903618891 0.407550332661 0.0
0.0 4.904970122 0.408444536212 0.0
0.0 4.906321354 0.409340891638 0.0
0.0 4.907672585 0.410239401693 0.0
0.0 4.909023817 0.411140071789 0.0
0.0 4.910375048 0.412042904696 0.0
0.0 4.91172628 0.412947905862 0.0
0.0 4.913077511 0.413855078024 0.0
0.0 4.914428742 0.414764425977 0.0
0.0 4.915779974 0.415675954531 0.0
0.0 4.917131205 0.416589666463 0.0
0.0 4.918482437 0.417505567273 0.0
0.0 4.919833668 0.418423659615 0.0
0.0 4.9211849 0.419343949162 0.0
0.0 4.922536131 0.420266438646 0.0
0.0 4.923887363 0.421191133594 0.0
0.0 4.925238594 0.42211803678 0.0
0.0 4.926589825 0.423047153084 0.0
0.0 4.927941057 0.423978487367 0.0
0.0 4.929292288 0.424912042435 0.0
0.0 4.93064352 0.42584782392 0.0
0.0 4.931994751 0.426785834509 0.0
0.0 4.933345983 0.427726079829 0.0
0.0 4.934697214 0.428668562769 0.0
0.0 4.936048445 0.429613288213 0.0
0.0 4.937399677 0.430560261081 0.0
0.0 4.938750908 0.431509484201 0.0
0.0 4.94010214 0.432460963217 0.0
0.0 4.941453371 0.433414700962 0.0
0.0 4.942804603 0.434370703102 0.0
0.0 4.944155834 0.43532897248 0.0
0.0 4.945507066 0.436289514798 0.0
0.0 4.946858297 0.437252332873 0.0
0.0 4.948209528 0.438217431646 0.0
0.0 4.94956076 0.439184816215 0.0
0.0 4.950911991 0.440154489397 0.0
0.0 4.952263223 0.441126456927 0.0
0.0 4.953614454 0.442100721666 0.0
0.0 4.954965686 0.443077289369 0.0
0.0 4.956316917 0.444056162913 0.0
0.0 4.957668148 0.44503734734 0.0
0.0 4.95901938 0.446020847728 0.0
0.0 4.960370611 0.447006666868 0.0
0.0 4.961721843 0.447994810672 0.0
0.0 4.963073074 0.44898528199 0.0
0.0 4.964424306 0.449978086644 0.0
0.0 4.965775537 0.450973227528 0.0
0.0 4.967126769 0.451970710486 0.0
0.0 4.968478 0.452970538419 0.0
0.0 4.969829231 0.45397271645 0.0
0.0 4.971180463 0.454977249711 0.0
0.0 4.972531694 0.455984141116 0.0
0.0 4.973882926 0.456993396559 0.0
0.0 4.975234157 0.458005018961 0.0
0.0 4.976585389 0.459019014238 0.0
0.0 4.97793662 0.46003538531 0.0
0.0 4.979287852 0.461054138109 0.0
0.0 4.980639083 0.462075275567 0.0
0.0 4.981990314 0.463098802864 0.0
0.0 4.983341546 0.464124725244 0.0
0.0 4.984692777 0.465153045646 0.0
0.0 4.986044009 0.466183770025 0.0
0.0 4.98739524 0.467216901364 0.0
0.0 4.988746472 0.46825244566 0.0
0.0 4.990097703 0.469290405865 0.0
0.0 4.991448934 0.470330787238 0.0
0.0 4.992800166 0.471373595049 0.0
0.0 4.994151397 0.472418832264 0.0
0.0 4.995502629 0.473466504942 0.0
0.0 4.99685386 0.474516616053 0.0
0.0 4.998205092 0.47556917168 0.0
0.0 4.999556323 0.476624174825 0.0
0.0 5.000907555 0.477681631536 0.0
0.0 5.002258786 0.478741544822 0.0
0.0 5.003610017 0.479803920014 0.0
0.0 5.004961249 0.480868762482 0.0
0.0 5.00631248 0.48193607521 0.0
0.0 5.007663712 0.483005864355 0.0
0.0 5.009014943 0.484078132914 0.0
0.0 5.010366175 0.485152887056 0.0
0.0 5.011717406 0.4862301298 0.0
0.0 5.013068637 0.487309866539 0.0
0.0 5.014419869 0.488392102685 0.0
0.0 5.0157711 0.489476841255 0.0
0.0 5.017122332 0.490564088479 0.0
0.0 5.018473563 0.491653847382 0.0
0.0 5.019824795 0.492746124208 0.0
0.0 5.021176026 0.493840921993 0.0
0.0 5.022527258 0.494938247009 0.0
0.0 5.023878489 0.496038102291 0.0
0.0 5.02522972 0.497140493318 0.0
0.0 5.026580952 0.498245425581 0.0
0.0 5.027932183 0.499352902128 0.0
0.0 5.029283415 0.500462929284 0.0
0.0 5.030634646 0.501575510102 0.0
0.0 5.031985878 0.502690650932 0.0
0.0 5.033337109 0.503808354831 0.0
0.0 5.034688341 0.504928628171 0.0
0.0 5.036039572 0.506051474021 0.0
0.0 5.037390803 0.507176897929 0.0
0.0 5.038742035 0.508304905478 0.0
0.0 5.040093266 0.509435499742 0.0
0.0 5.041444498 0.510568687145 0.0
0.0 5.042795729 0.511704470768 0.0
0.0 5.044146961 0.512842857061 0.0
0.0 5.045498192 0.513983849113 0.0
0.0 5.046849423 0.515127452552 0.0
0.0 5.048200655 0.516273673033 0.0
0.0 5.049551886 0.517422513579 0.0
0.0 5.050903118 0.518573980735 0.0
0.0 5.052254349 0.519728077621 0.0
0.0 5.053605581 0.520884810767 0.0
0.0 5.054956812 0.522044183273 0.0
0.0 5.056308044 0.523206201684 0.0
0.0 5.057659275 0.52437086912 0.0
0.0 5.059010506 0.525538191284 0.0
0.0 5.060361738 0.526708173896 0.0
0.0 5.061712969 0.527880820084 0.0
0.0 5.063064201 0.529056136452 0.0
0.0 5.064415432 0.530234126134 0.0
0.0 5.065766664 0.531414795754 0.0
0.0 5.067117895 0.532598148457 0.0
0.0 5.068469126 0.533784190015 0.0
0.0 5.069820358 0.534972926236 0.0
0.0 5.071171589 0.536164360239 0.0
0.0 5.072522821 0.537358498648 0.0
0.0 5.073874052 0.538555344683 0.0
0.0 5.075225284 0.539754905062 0.0
0.0 5.076576515 0.540957182951 0.0
0.0 5.077927747 0.542162185075 0.0
0.0 5.079278978 0.543369914569 0.0
0.0 5.080630209 0.544580377312 0.0
0.0 5.081981441 0.545793579169 0.0
0.0 5.083332672 0.547009523316 0.0
0.0 5.084683904 0.548228216538 0.0
0.0 5.086035135 0.549449662028 0.0
0.0 5.087386367 0.550673866597 0.0
0.0 5.088737598 0.551900833435 0.0
0.0 5.090088829 0.55313056846 0.0
0.0 5.091440061 0.554363077606 0.0
0.0 5.092791292 0.555598364077 0.0
0.0 5.094142524 0.556836434738 0.0
0.0 5.095493755 0.5580772928 0.0
0.0 5.096844987 0.559320945151 0.0
0.0 5.098196218 0.560567395007 0.0
0.0 5.09954745 0.56181664928 0.0
