0.0 2.002074478 0.199473174059 0.0
0.0 2.00368257 0.199814377974 0.0
0.0 2.005290662 0.200154153567 0.0
0.0 2.006898754 0.200492502628 0.0
0.0 2.008506846 0.200829426949 0.0
0.0 2.010114938 0.201164928319 0.0
0.0 2.01172303 0.20149900853 0.0
0.0 2.013331122 0.201831669373 0.0
0.0 2.014939214 0.202162912637 0.0
0.0 2.016547306 0.202492740113 0.0
0.0 2.018155398 0.202821153593 0.0
0.0 2.01976349 0.203148154866 0.0
0.0 2.021371582 0.203473745724 0.0
0.0 2.022979674 0.203797927956 0.0
0.0 2.024587766 0.204120703355 0.0
0.0 2.026195858 0.204442073709 0.0
0.0 2.027803949 0.204762040612 0.0
0.0 2.029412041 0.205080606253 0.0
0.0 2.031020133 0.205397772221 0.0
0.0 2.032628225 0.205713540308 0.0
0.0 2.034236317 0.206027912305 0.0
0.0 2.035844409 0.206340890001 0.0
0.0 2.037452501 0.206652475189 0.0
0.0 2.039060593 0.206962669658 0.0
0.0 2.040668685 0.207271475199 0.0
0.0 2.042276777 0.207578893603 0.0
0.0 2.043884869 0.20788492666 0.0
0.0 2.045492961 0.208189576161 0.0
0.0 2.047101053 0.208492843897 0.0
0.0 2.048709145 0.208794731658 0.0
0.0 2.050317237 0.209095241235 0.0
0.0 2.051925329 0.209394374419 0.0
0.0 2.053533421 0.209692133 0.0
0.0 2.055141513 0.209988518769 0.0
0.0 2.056749605 0.210283533516 0.0
0.0 2.058357697 0.210577179032 0.0
0.0 2.059965788 0.210869456927 0.0
0.0 2.06157388 0.211160369354 0.0
0.0 2.063181972 0.211449917923 0.0
0.0 2.064790064 0.211738104423 0.0
0.0 2.066398156 0.212024930645 0.0
0.0 2.068006248 0.212310398381 0.0
0.0 2.06961434 0.21259450942 0.0
0.0 2.071222432 0.212877265553 0.0
0.0 2.072830524 0.213158668572 0.0
0.0 2.074438616 0.213438720265 0.0
0.0 2.076046708 0.213717422425 0.0
0.0 2.0776548 0.213994776842 0.0
0.0 2.079262892 0.214270785307 0.0
0.0 2.080870984 0.214545449609 0.0
0.0 2.082479076 0.21481877154 0.0
0.0 2.084087168 0.215090752891 0.0
0.0 2.08569526 0.215361395452 0.0
0.0 2.087303352 0.215630701013 0.0
0.0 2.088911444 0.215898671366 0.0
0.0 2.090519536 0.2161653083 0.0
0.0 2.092127627 0.216430613443 0.0
0.0 2.093735719 0.216694588914 0.0
0.0 2.095343811 0.21695723634 0.0
0.0 2.096951903 0.217218557509 0.0
0.0 2.098559995 0.217478554214 0.0
0.0 2.100168087 0.217737228245 0.0
0.0 2.101776179 0.217994581392 0.0
0.0 2.103384271 0.218250615447 0.0
0.0 2.104992363 0.218505332199 0.0
0.0 2.106600455 0.218758733439 0.0
0.0 2.108208547 0.219010820959 0.0
0.0 2.109816639 0.219261596548 0.0
0.0 2.111424731 0.219511061998 0.0
0.0 2.113032823 0.219759219098 0.0
0.0 2.114640915 0.22000606964 0.0
0.0 2.116249007 0.220251615414 0.0
0.0 2.117857099 0.220495858212 0.0
0.0 2.119465191 0.220738799822 0.0
0.0 2.121073283 0.220980442037 0.0
0.0 2.122681375 0.221220786647 0.0
0.0 2.124289466 0.221459835294 0.0
0.0 2.125897558 0.221697590066 0.0
0.0 2.12750565 0.221934052605 0.0
0.0 2.129113742 0.222169224701 0.0
0.0 2.130721834 0.222403108145 0.0
0.0 2.132329926 0.222635704728 0.0
0.0 2.133938018 0.22286701624 0.0
0.0 2.13554611 0.223097044472 0.0
0.0 2.137154202 0.223325791214 0.0
0.0 2.138762294 0.223553258258 0.0
0.0 2.140370386 0.223779447394 0.0
0.0 2.141978478 0.224004360412 0.0
0.0 2.14358657 0.224227999103 0.0
0.0 2.145194662 0.224450365259 0.0
0.0 2.146802754 0.224671460668 0.0
0.0 2.148410846 0.224891287123 0.0
0.0 2.150018938 0.225109846413 0.0
0.0 2.15162703 0.22532714033 0.0
0.0 2.153235122 0.225543170664 0.0
0.0 2.154843214 0.225757939205 0.0
0.0 2.156451305 0.225971447612 0.0
0.0 2.158059397 0.226183697942 0.0
0.0 2.159667489 0.22639469185 0.0
0.0 2.161275581 0.22660443113 0.0
0.0 2.162883673 0.22681291757 0.0
0.0 2.164491765 0.227020152961 0.0
0.0 2.166099857 0.227226139095 0.0
0.0 2.167707949 0.227430877761 0.0
0.0 2.169316041 0.227634370751 0.0
0.0 2.170924133 0.227836619855 0.0
0.0 2.172532225 0.228037626863 0.0
0.0 2.174140317 0.228237393567 0.0
0.0 2.175748409 0.228435921757 0.0
0.0 2.177356501 0.228633213223 0.0
0.0 2.178964593 0.228829269757 0.0
0.0 2.180572685 0.229024093149 0.0
0.0 2.182180777 0.229217685189 0.0
0.0 2.183788869 0.229410047669 0.0
0.0 2.185396961 0.229601182378 0.0
0.0 2.187005053 0.229791091107 0.0
0.0 2.188613145 0.229979775648 0.0
0.0 2.190221236 0.230167237675 0.0
0.0 2.191829328 0.23035347921 0.0
0.0 2.19343742 0.230538501929 0.0
0.0 2.195045512 0.230722307622 0.0
0.0 2.196653604 0.230904898079 0.0
0.0 2.198261696 0.23108627509 0.0
0.0 2.199869788 0.231266440448 0.0
0.0 2.20147788 0.231445395941 0.0
0.0 2.203085972 0.231623143362 0.0
0.0 2.204694064 0.2317996845 0.0
0.0 2.206302156 0.231975021146 0.0
0.0 2.207910248 0.232149155091 0.0
0.0 2.20951834 0.232322088126 0.0
0.0 2.211126432 0.23249382204 0.0
0.0 2.212734524 0.232664358626 0.0
0.0 2.214342616 0.232833699672 0.0
0.0 2.215950708 0.233001846971 0.0
0.0 2.2175588 0.233168802313 0.0
0.0 2.219166892 0.233334567487 0.0
0.0 2.220774984 0.233499144286 0.0
0.0 2.222383075 0.233662534398 0.0
0.0 2.223991167 0.233824739818 0.0
0.0 2.225599259 0.233985762233 0.0
0.0 2.227207351 0.234145603434 0.0
0.0 2.228815443 0.234304265213 0.0
0.0 2.230423535 0.234461749361 0.0
0.0 2.232031627 0.234618057665 0.0
0.0 2.233639719 0.234773191919 0.0
0.0 2.235247811 0.234927153913 0.0
0.0 2.236855903 0.235079945437 0.0
0.0 2.238463995 0.235231568283 0.0
0.0 2.240072087 0.235382024239 0.0
0.0 2.241680179 0.235531315099 0.0
0.0 2.243288271 0.235679442651 0.0
0.0 2.244896363 0.235826408686 0.0
0.0 2.246504455 0.235972214996 0.0
0.0 2.248112547 0.236116863371 0.0
0.0 2.249720639 0.236260355602 0.0
0.0 2.251328731 0.236402693478 0.0
0.0 2.252936823 0.236543878791 0.0
0.0 2.254544914 0.236683913246 0.0
0.0 2.256153006 0.236822798806 0.0
0.0 2.257761098 0.236960537175 0.0
0.0 2.25936919 0.23709713014 0.0
0.0 2.260977282 0.237232579498 0.0
0.0 2.262585374 0.237366887036 0.0
0.0 2.264193466 0.237500054547 0.0
0.0 2.265801558 0.23763208382 0.0
0.0 2.26740965 0.237762976641 0.0
0.0 2.269017742 0.237892734808 0.0
0.0 2.270625834 0.238021360109 0.0
0.0 2.272233926 0.238148854335 0.0
0.0 2.273842018 0.238275219277 0.0
0.0 2.27545011 0.238400456722 0.0
0.0 2.277058202 0.238524568465 0.0
0.0 2.278666294 0.238647556294 0.0
0.0 2.280274386 0.238769422001 0.0
0.0 2.281882478 0.238890167377 0.0
0.0 2.28349057 0.239009794212 0.0
0.0 2.285098662 0.239128304303 0.0
0.0 2.286706753 0.239245699351 0.0
0.0 2.288314845 0.239361981309 0.0
0.0 2.289922937 0.239477151884 0.0
0.0 2.291531029 0.239591212874 0.0
0.0 2.293139121 0.23970416608 0.0
0.0 2.294747213 0.239816013253 0.0
0.0 2.296355305 0.239926756224 0.0
0.0 2.297963397 0.240036396774 0.0
0.0 2.299571489 0.240144936682 0.0
0.0 2.301179581 0.240252377754 0.0
0.0 2.302787673 0.240358721762 0.0
0.0 2.304395765 0.240463970516 0.0
0.0 2.306003857 0.240568125798 0.0
0.0 2.307611949 0.240671189394 0.0
0.0 2.309220041 0.240773163099 0.0
0.0 2.310828133 0.240874048699 0.0
0.0 2.312436225 0.240973847997 0.0
0.0 2.314044317 0.24107256278 0.0
0.0 2.315652409 0.241170194825 0.0
0.0 2.317260501 0.241266745951 0.0
0.0 2.318868592 0.241362217847 0.0
0.0 2.320476684 0.241456612458 0.0
0.0 2.322084776 0.24154993156 0.0
0.0 2.323692868 0.241642176771 0.0
0.0 2.32530096 0.241733350081 0.0
0.0 2.326909052 0.241823453169 0.0
0.0 2.328517144 0.241912487843 0.0
0.0 2.330125236 0.242000456164 0.0
0.0 2.331733328 0.242087359329 0.0
0.0 2.33334142 0.242173199524 0.0
0.0 2.334949512 0.242257978483 0.0
0.0 2.336557604 0.242341697994 0.0
0.0 2.338165696 0.242424359886 0.0
0.0 2.339773788 0.24250596591 0.0
0.0 2.34138188 0.242586517836 0.0
0.0 2.342989972 0.242666017445 0.0
0.0 2.344598064 0.242744466493 0.0
0.0 2.346206156 0.242821866922 0.0
0.0 2.347814248 0.242898220444 0.0
0.0 2.34942234 0.242973528853 0.0
0.0 2.351030431 0.243047794042 0.0
0.0 2.352638523 0.243121017407 0.0
0.0 2.354246615 0.243193201146 0.0
0.0 2.355854707 0.24326434695 0.0
0.0 2.357462799 0.243334456591 0.0
0.0 2.359070891 0.243403531954 0.0
0.0 2.360678983 0.243471574602 0.0
0.0 2.362287075 0.243538586369 0.0
0.0 2.363895167 0.243604569216 0.0
0.0 2.365503259 0.243669524855 0.0
0.0 2.367111351 0.24373345511 0.0
0.0 2.368719443 0.243796361977 0.0
0.0 2.370327535 0.243858246604 0.0
0.0 2.371935627 0.243919111323 0.0
0.0 2.373543719 0.243978957615 0.0
0.0 2.375151811 0.244037787424 0.0
0.0 2.376759903 0.24409560263 0.0
0.0 2.378367995 0.244152405002 0.0
0.0 2.379976087 0.244208196342 0.0
0.0 2.381584179 0.244262978555 0.0
0.0 2.383192271 0.244316752587 0.0
0.0 2.384800362 0.244369521216 0.0
0.0 2.386408454 0.244421285962 0.0
0.0 2.388016546 0.244472048571 0.0
0.0 2.389624638 0.244521810961 0.0
0.0 2.39123273 0.244570574546 0.0
0.0 2.392840822 0.244618341368 0.0
0.0 2.394448914 0.24466511327 0.0
0.0 2.396057006 0.244710891983 0.0
0.0 2.397665098 0.24475567931 0.0
0.0 2.39927319 0.244799477092 0.0
0.0 2.400881282 0.244842286855 0.0
0.0 2.402489374 0.244884110677 0.0
0.0 2.404097466 0.244924950266 0.0
0.0 2.405705558 0.244964807406 0.0
0.0 2.40731365 0.245003683898 0.0
0.0 2.408921742 0.245041581545 0.0
0.0 2.410529834 0.24507850213 0.0
0.0 2.412137926 0.245114447614 0.0
0.0 2.413746018 0.245149419037 0.0
0.0 2.41535411 0.245183419012 0.0
0.0 2.416962201 0.245216449098 0.0
0.0 2.418570293 0.245248511088 0.0
0.0 2.420178385 0.245279606836 0.0
0.0 2.421786477 0.245309738233 0.0
0.0 2.423394569 0.245338906202 0.0
0.0 2.425002661 0.245367113557 0.0
0.0 2.426610753 0.245394361764 0.0
0.0 2.428218845 0.245420652603 0.0
0.0 2.429826937 0.24544598806 0.0
0.0 2.431435029 0.245470369371 0.0
0.0 2.433043121 0.245493798674 0.0
0.0 2.434651213 0.245516277865 0.0
0.0 2.436259305 0.245537808632 0.0
0.0 2.437867397 0.245558392766 0.0
0.0 2.439475489 0.245578032087 0.0
0.0 2.441083581 0.245596728343 0.0
0.0 2.442691673 0.245614483378 0.0
0.0 2.444299765 0.245631299086 0.0
0.0 2.445907857 0.245647176515 0.0
0.0 2.447515949 0.245662118379 0.0
0.0 2.44912404 0.245676126159 0.0
0.0 2.450732132 0.245689201645 0.0
0.0 2.452340224 0.245701346739 0.0
0.0 2.453948316 0.245712563198 0.0
0.0 2.455556408 0.245722852145 0.0
0.0 2.4571645 0.245732216222 0.0
0.0 2.458772592 0.245740656986 0.0
0.0 2.460380684 0.245748176219 0.0
0.0 2.461988776 0.245754775896 0.0
0.0 2.463596868 0.245760457188 0.0
0.0 2.46520496 0.245765222249 0.0
0.0 2.466813052 0.245769073055 0.0
0.0 2.468421144 0.245772011258 0.0
0.0 2.470029236 0.245774038651 0.0
0.0 2.471637328 0.24577515723 0.0
0.0 2.47324542 0.24577536854 0.0
0.0 2.474853512 0.245774674153 0.0
0.0 2.476461604 0.245773076104 0.0
0.0 2.478069696 0.245770575979 0.0
0.0 2.479677788 0.24576717589 0.0
0.0 2.481285879 0.245762877573 0.0
0.0 2.482893971 0.245757682842 0.0
0.0 2.484502063 0.245751593514 0.0
0.0 2.486110155 0.245744611973 0.0
0.0 2.487718247 0.245736737442 0.0
0.0 2.489326339 0.245727974467 0.0
0.0 2.490934431 0.245718324039 0.0
0.0 2.492542523 0.245707787865 0.0
0.0 2.494150615 0.245696367799 0.0
0.0 2.495758707 0.245684067549 0.0
0.0 2.497366799 0.245670882932 0.0
0.0 2.498974891 0.245656821403 0.0
0.0 2.499778162 0.245649469016 0.0
0.0 2.500582983 0.245641883297 0.0
0.0 2.501129393 0.245636612073 0.0
0.0 2.502191075 0.245626072905 0.0
0.0 2.502480624 0.245623133109 0.0
0.0 2.503831856 0.245609039838 0.0
0.0 2.505183087 0.245594329214 0.0
0.0 2.506534319 0.24557900707 0.0
0.0 2.50788555 0.245563066209 0.0
0.0 2.509236782 0.245546517614 0.0
0.0 2.510588013 0.245529360987 0.0
0.0 2.511939244 0.245511591191 0.0
0.0 2.513290476 0.245493212138 0.0
0.0 2.514641707 0.245474222968 0.0
0.0 2.515992939 0.245454629311 0.0
0.0 2.51734417 0.245434428767 0.0
0.0 2.518695402 0.245413626897 0.0
0.0 2.520046633 0.245392219164 0.0
0.0 2.521397865 0.245370207489 0.0
0.0 2.522749096 0.245347596123 0.0
0.0 2.524100327 0.245324383529 0.0
0.0 2.525451559 0.245300573237 0.0
0.0 2.52680279 0.245276163422 0.0
0.0 2.528154022 0.24525115791 0.0
0.0 2.529505253 0.245225556983 0.0
0.0 2.530856485 0.245199357474 0.0
0.0 2.532207716 0.245172564173 0.0
0.0 2.533558948 0.245145179829 0.0
0.0 2.534910179 0.245117204339 0.0
0.0 2.53626141 0.245088638368 0.0
0.0 2.537612642 0.24505948047 0.0
0.0 2.538963873 0.245029733461 0.0
0.0 2.540315105 0.244999399888 0.0
0.0 2.541666336 0.244968479602 0.0
0.0 2.543017568 0.244936974236 0.0
0.0 2.544368799 0.244904884167 0.0
0.0 2.54572003 0.24487221107 0.0
0.0 2.547071262 0.244838955433 0.0
0.0 2.548422493 0.244805118062 0.0
0.0 2.549773725 0.244770701136 0.0
0.0 2.551124956 0.244735705168 0.0
0.0 2.552476188 0.24470013111 0.0
0.0 2.553827419 0.244663979492 0.0
0.0 2.555178651 0.244627252089 0.0
0.0 2.556529882 0.244589950104 0.0
0.0 2.557881113 0.244552073896 0.0
0.0 2.559232345 0.244513625149 0.0
0.0 2.560583576 0.2444746048 0.0
0.0 2.561934808 0.244435013734 0.0
0.0 2.563286039 0.244394853302 0.0
0.0 2.564637271 0.244354124057 0.0
0.0 2.565988502 0.244312827506 0.0
0.0 2.567339733 0.244270964524 0.0
0.0 2.568690965 0.244228536179 0.0
0.0 2.570042196 0.244185543641 0.0
0.0 2.571393428 0.244141987887 0.0
0.0 2.572744659 0.244097870033 0.0
0.0 2.574095891 0.244053191175 0.0
0.0 2.575447122 0.244007952184 0.0
0.0 2.576798354 0.243962154217 0.0
0.0 2.578149585 0.243915798439 0.0
0.0 2.579500816 0.243868885848 0.0
0.0 2.580852048 0.243821417465 0.0
0.0 2.582203279 0.24377339441 0.0
0.0 2.583554511 0.243724817689 0.0
0.0 2.584905742 0.243675688408 0.0
0.0 2.586256974 0.2436260076 0.0
0.0 2.587608205 0.243575776379 0.0
0.0 2.588959437 0.243524995729 0.0
0.0 2.590310668 0.243473666792 0.0
0.0 2.591661899 0.243421790595 0.0
0.0 2.593013131 0.243369368146 0.0
0.0 2.594364362 0.243316400625 0.0
0.0 2.595715594 0.243262888963 0.0
0.0 2.597066825 0.243208834353 0.0
0.0 2.598418057 0.243154237744 0.0
0.0 2.599769288 0.24309910028 0.0
0.0 2.601120519 0.243043422994 0.0
0.0 2.602471751 0.242987206892 0.0
0.0 2.603822982 0.242930453148 0.0
0.0 2.605174214 0.242873162736 0.0
0.0 2.606525445 0.242815336762 0.0
0.0 2.607876677 0.242756976238 0.0
0.0 2.609227908 0.242698082324 0.0
0.0 2.61057914 0.24263865598 0.0
0.0 2.611930371 0.242578698293 0.0
0.0 2.613281602 0.242518210382 0.0
0.0 2.614632834 0.24245719324 0.0
0.0 2.615984065 0.242395647971 0.0
0.0 2.617335297 0.242333575597 0.0
0.0 2.618686528 0.242270977239 0.0
0.0 2.62003776 0.242207853882 0.0
0.0 2.621388991 0.242144206691 0.0
0.0 2.622740222 0.242080036674 0.0
0.0 2.624091454 0.242015344843 0.0
0.0 2.625442685 0.241950132355 0.0
0.0 2.626793917 0.241884400178 0.0
0.0 2.628145148 0.241818149464 0.0
0.0 2.62949638 0.24175138119 0.0
0.0 2.630847611 0.241684096519 0.0
0.0 2.632198843 0.241616296389 0.0
0.0 2.633550074 0.241547981997 0.0
0.0 2.634901305 0.241479154338 0.0
0.0 2.636252537 0.241409814424 0.0
0.0 2.637603768 0.241339963394 0.0
0.0 2.638955 0.241269602264 0.0
0.0 2.640306231 0.24119873216 0.0
0.0 2.641657463 0.241127354025 0.0
0.0 2.643008694 0.241055469049 0.0
0.0 2.644359925 0.24098307827 0.0
0.0 2.645711157 0.240910182641 0.0
0.0 2.647062388 0.240836783375 0.0
0.0 2.64841362 0.240762881402 0.0
0.0 2.649764851 0.240688477913 0.0
0.0 2.651116083 0.240613573846 0.0
0.0 2.652467314 0.240538170389 0.0
0.0 2.653818546 0.240462268468 0.0
0.0 2.655169777 0.240385869275 0.0
0.0 2.656521008 0.240308973812 0.0
0.0 2.65787224 0.24023158308 0.0
0.0 2.659223471 0.240153698258 0.0
0.0 2.660574703 0.240075320307 0.0
0.0 2.661925934 0.239996450396 0.0
0.0 2.663277166 0.239917089475 0.0
0.0 2.664628397 0.239837238693 0.0
0.0 2.665979629 0.239756899026 0.0
0.0 2.66733086 0.239676071634 0.0
0.0 2.668682091 0.239594757556 0.0
0.0 2.670033323 0.239512957771 0.0
0.0 2.671384554 0.239430673453 0.0
0.0 2.672735786 0.239347905559 0.0
0.0 2.674087017 0.239264655256 0.0
0.0 2.675438249 0.239180923502 0.0
0.0 2.67678948 0.239096711475 0.0
0.0 2.678140711 0.23901202018 0.0
0.0 2.679491943 0.238926850608 0.0
0.0 2.680843174 0.238841203951 0.0
0.0 2.682194406 0.238755081143 0.0
0.0 2.683545637 0.238668483373 0.0
0.0 2.684896869 0.238581411584 0.0
0.0 2.6862481 0.238493866967 0.0
0.0 2.687599332 0.238405850443 0.0
0.0 2.688950563 0.238317363208 0.0
0.0 2.690301794 0.238228406267 0.0
0.0 2.691653026 0.238138980605 0.0
0.0 2.693004257 0.238049087428 0.0
0.0 2.694355489 0.23795872766 0.0
0.0 2.69570672 0.237867902495 0.0
0.0 2.697057952 0.237776612866 0.0
0.0 2.698409183 0.237684859966 0.0
0.0 2.699760414 0.237592644792 0.0
0.0 2.701111646 0.237499968336 0.0
0.0 2.702462877 0.237406831801 0.0
0.0 2.703814109 0.23731323611 0.0
0.0 2.70516534 0.237219182456 0.0
0.0 2.706516572 0.237124671771 0.0
0.0 2.707867803 0.237029705258 0.0
0.0 2.709219035 0.236934283839 0.0
0.0 2.710570266 0.236838408712 0.0
0.0 2.711921497 0.236742080871 0.0
0.0 2.713272729 0.236645301303 0.0
0.0 2.71462396 0.236548071222 0.0
0.0 2.715975192 0.236450391543 0.0
0.0 2.717326423 0.236352263477 0.0
0.0 2.718677655 0.236253687925 0.0
0.0 2.720028886 0.236154666111 0.0
0.0 2.721380117 0.236055199025 0.0
0.0 2.722731349 0.235955287644 0.0
0.0 2.72408258 0.235854933191 0.0
0.0 2.725433812 0.235754136564 0.0
0.0 2.726785043 0.235652898988 0.0
0.0 2.728136275 0.235551221374 0.0
0.0 2.729487506 0.235449104929 0.0
0.0 2.730838738 0.235346550572 0.0
0.0 2.732189969 0.235243559506 0.0
0.0 2.7335412 0.235140132727 0.0
0.0 2.734892432 0.23503627122 0.0
0.0 2.736243663 0.234931976201 0.0
0.0 2.737594895 0.234827248565 0.0
0.0 2.738946126 0.234722089542 0.0
0.0 2.740297358 0.234616500041 0.0
0.0 2.741648589 0.234510481274 0.0
0.0 2.742999821 0.23440403415 0.0
0.0 2.744351052 0.234297159889 0.0
0.0 2.745702283 0.23418985947 0.0
0.0 2.747053515 0.234082133879 0.0
0.0 2.748404746 0.233973984338 0.0
0.0 2.749755978 0.233865411749 0.0
0.0 2.751107209 0.233756417334 0.0
0.0 2.752458441 0.233647001996 0.0
0.0 2.753809672 0.233537166957 0.0
0.0 2.755160903 0.233426913205 0.0
0.0 2.756512135 0.233316241707 0.0
0.0 2.757863366 0.233205153703 0.0
0.0 2.759214598 0.233093650083 0.0
0.0 2.760565829 0.232981732078 0.0
0.0 2.761917061 0.232869400574 0.0
0.0 2.763268292 0.232756656817 0.0
0.0 2.764619524 0.23264350169 0.0
0.0 2.765970755 0.232529936429 0.0
0.0 2.767321986 0.23241596201 0.0
0.0 2.768673218 0.23230157941 0.0
0.0 2.770024449 0.232186789864 0.0
0.0 2.771375681 0.232071594263 0.0
0.0 2.772726912 0.231955993839 0.0
0.0 2.774078144 0.231839989483 0.0
0.0 2.775429375 0.231723582427 0.0
0.0 2.776780606 0.231606773652 0.0
0.0 2.778131838 0.231489564132 0.0
0.0 2.779483069 0.231371955102 0.0
0.0 2.780834301 0.231253947459 0.0
0.0 2.782185532 0.231135542421 0.0
0.0 2.783536764 0.231016740883 0.0
0.0 2.784887995 0.23089754409 0.0
0.0 2.786239227 0.230777952926 0.0
0.0 2.787590458 0.230657968626 0.0
0.0 2.788941689 0.230537592171 0.0
0.0 2.790292921 0.230416824525 0.0
0.0 2.791644152 0.230295666938 0.0
0.0 2.792995384 0.230174120285 0.0
0.0 2.794346615 0.230052185809 0.0
0.0 2.795697847 0.229929864392 0.0
0.0 2.797049078 0.229807157278 0.0
0.0 2.798400309 0.229684065444 0.0
0.0 2.799751541 0.229560589859 0.0
0.0 2.801102772 0.229436731767 0.0
0.0 2.802454004 0.229312492047 0.0
0.0 2.803805235 0.229187871941 0.0
0.0 2.805156467 0.229062872338 0.0
0.0 2.806507698 0.228937494471 0.0
0.0 2.80785893 0.228811739226 0.0
0.0 2.809210161 0.228685607847 0.0
0.0 2.810561392 0.228559101308 0.0
0.0 2.811912624 0.228432220579 0.0
0.0 2.813263855 0.228304966904 0.0
0.0 2.814615087 0.228177341158 0.0
0.0 2.815966318 0.228049344592 0.0
0.0 2.81731755 0.22792097808 0.0
0.0 2.818668781 0.22779224287 0.0
0.0 2.820020013 0.227663139843 0.0
0.0 2.821371244 0.227533670248 0.0
0.0 2.822722475 0.227403835052 0.0
0.0 2.824073707 0.227273635222 0.0
0.0 2.825424938 0.227143072012 0.0
0.0 2.82677617 0.227012146288 0.0
0.0 2.828127401 0.226880859311 0.0
0.0 2.829478633 0.226749211945 0.0
0.0 2.830829864 0.22661720545 0.0
0.0 2.832181095 0.226484840792 0.0
0.0 2.833532327 0.226352118931 0.0
0.0 2.834883558 0.226219041134 0.0
0.0 2.83623479 0.226085608251 0.0
0.0 2.837586021 0.225951821554 0.0
0.0 2.838937253 0.225817681904 0.0
0.0 2.840288484 0.225683190566 0.0
0.0 2.841639716 0.225548348397 0.0
0.0 2.842990947 0.225413156661 0.0
0.0 2.844342178 0.225277616323 0.0
0.0 2.84569341 0.225141728342 0.0
0.0 2.847044641 0.225005493983 0.0
0.0 2.848395873 0.224868914106 0.0
0.0 2.849747104 0.224731989975 0.0
0.0 2.851098336 0.224594722451 0.0
0.0 2.852449567 0.224457112799 0.0
0.0 2.853800798 0.224319161978 0.0
0.0 2.85515203 0.224180870953 0.0
0.0 2.856503261 0.224042240989 0.0
0.0 2.857854493 0.223903272934 0.0
0.0 2.859205724 0.223763968066 0.0
0.0 2.860556956 0.223624327242 0.0
0.0 2.861908187 0.223484351726 0.0
0.0 2.863259419 0.223344042375 0.0
0.0 2.86461065 0.22320340046 0.0
0.0 2.865961881 0.22306242694 0.0
0.0 2.867313113 0.222921122769 0.0
0.0 2.868664344 0.222779489224 0.0
0.0 2.870015576 0.222637527152 0.0
0.0 2.871366807 0.222495237827 0.0
0.0 2.872718039 0.222352622104 0.0
0.0 2.87406927 0.222209681253 0.0
0.0 2.875420501 0.222066416233 0.0
0.0 2.876771733 0.221922827999 0.0
0.0 2.878122964 0.22177891783 0.0
0.0 2.879474196 0.221634686564 0.0
0.0 2.880825427 0.221490135487 0.0
0.0 2.882176659 0.221345265447 0.0
0.0 2.88352789 0.221200077714 0.0
0.0 2.884879122 0.221054573144 0.0
0.0 2.886230353 0.220908753007 0.0
0.0 2.887581584 0.220762618263 0.0
0.0 2.888932816 0.220616169867 0.0
0.0 2.890284047 0.220469409089 0.0
0.0 2.891635279 0.220322336785 0.0
0.0 2.89298651 0.220174954231 0.0
0.0 2.894337742 0.220027262265 0.0
0.0 2.895688973 0.219879262178 0.0
0.0 2.897040205 0.219730954807 0.0
0.0 2.898391436 0.219582341437 0.0
0.0 2.899742667 0.219433423019 0.0
0.0 2.901093899 0.219284200504 0.0
0.0 2.90244513 0.219134675178 0.0
0.0 2.903796362 0.21898484788 0.0
0.0 2.905147593 0.218834719895 0.0
0.0 2.906498825 0.218684292066 0.0
0.0 2.907850056 0.218533565667 0.0
0.0 2.909201287 0.218382541657 0.0
0.0 2.910552519 0.218231220995 0.0
0.0 2.91190375 0.218079604952 0.0
0.0 2.913254982 0.217927694371 0.0
0.0 2.914606213 0.21777549054 0.0
0.0 2.915957445 0.217622994305 0.0
0.0 2.917308676 0.217470206936 0.0
0.0 2.918659908 0.21731712928 0.0
0.0 2.920011139 0.217163762628 0.0
0.0 2.92136237 0.217010107923 0.0
0.0 2.922713602 0.216856166119 0.0
0.0 2.924064833 0.216701938505 0.0
0.0 2.925416065 0.216547425908 0.0
0.0 2.926767296 0.216392629628 0.0
0.0 2.928118528 0.216237550495 0.0
0.0 2.929469759 0.216082189795 0.0
0.0 2.93082099 0.215926548489 0.0
0.0 2.932172222 0.215770627516 0.0
0.0 2.933523453 0.215614428164 0.0
0.0 2.934874685 0.215457951268 0.0
0.0 2.936225916 0.215301198123 0.0
0.0 2.937577148 0.215144169563 0.0
0.0 2.938928379 0.214986866884 0.0
0.0 2.940279611 0.214829290906 0.0
0.0 2.941630842 0.214671442927 0.0
0.0 2.942982073 0.214513323897 0.0
0.0 2.944333305 0.214354934761 0.0
0.0 2.945684536 0.214196276817 0.0
0.0 2.947035768 0.214037350883 0.0
0.0 2.948386999 0.213878158268 0.0
0.0 2.949738231 0.213718699795 0.0
0.0 2.951089462 0.213558976758 0.0
0.0 2.952440694 0.213398989988 0.0
0.0 2.953791925 0.213238740781 0.0
0.0 2.955143156 0.213078230081 0.0
0.0 2.956494388 0.212917458835 0.0
0.0 2.957845619 0.212756428342 0.0
0.0 2.959196851 0.212595139425 0.0
0.0 2.960548082 0.212433593383 0.0
0.0 2.961899314 0.212271791042 0.0
0.0 2.963250545 0.212109733702 0.0
0.0 2.964601776 0.211947422309 0.0
0.0 2.965953008 0.211784857803 0.0
0.0 2.967304239 0.211622041485 0.0
0.0 2.968655471 0.211458974179 0.0
0.0 2.970006702 0.211295657189 0.0
0.0 2.971357934 0.211132091333 0.0
0.0 2.972709165 0.210968277915 0.0
0.0 2.974060397 0.210804217758 0.0
0.0 2.975411628 0.210639912168 0.0
0.0 2.976762859 0.210475362082 0.0
0.0 2.978114091 0.210310568444 0.0
0.0 2.979465322 0.210145532558 0.0
0.0 2.980816554 0.20998025524 0.0
0.0 2.982167785 0.209814737803 0.0
0.0 2.983519017 0.209648981058 0.0
0.0 2.984870248 0.209482986317 0.0
0.0 2.986221479 0.209316754517 0.0
0.0 2.987572711 0.2091502866 0.0
0.0 2.988923942 0.208983583873 0.0
0.0 2.990275174 0.208816647153 0.0
0.0 2.991626405 0.208649477746 0.0
0.0 2.992977637 0.208482076469 0.0
0.0 2.994328868 0.208314444634 0.0
0.0 2.9956801 0.208146583052 0.0
0.0 2.997031331 0.207978493033 0.0
0.0 2.998382562 0.207810175524 0.0
0.0 2.999733794 0.207641631448 0.0
0.0 3.001085025 0.207472862131 0.0
0.0 3.002436257 0.207303868377 0.0
0.0 3.003787488 0.207134651508 0.0
0.0 3.00513872 0.206965212319 0.0
0.0 3.006489951 0.206795552129 0.0
0.0 3.007841182 0.206625671884 0.0
0.0 3.009192414 0.206455572519 0.0
0.0 3.010543645 0.206285255343 0.0
0.0 3.011894877 0.206114721166 0.0
0.0 3.013246108 0.205943971304 0.0
0.0 3.01459734 0.205773006564 0.0
0.0 3.015948571 0.20560182827 0.0
0.0 3.017299803 0.205430437223 0.0
0.0 3.018651034 0.205258834741 0.0
0.0 3.020002265 0.205087021762 0.0
0.0 3.021353497 0.204914999218 0.0
0.0 3.022704728 0.204742768426 0.0
0.0 3.02405596 0.204570330194 0.0
0.0 3.025407191 0.204397685843 0.0
0.0 3.026758423 0.204224836174 0.0
0.0 3.028109654 0.204051782503 0.0
0.0 3.029460886 0.203878525658 0.0
0.0 3.030812117 0.20370506693 0.0
0.0 3.032163348 0.203531407253 0.0
0.0 3.03351458 0.203357547586 0.0
0.0 3.034865811 0.203183489234 0.0
0.0 3.036217043 0.203009232994 0.0
0.0 3.037568274 0.202834780187 0.0
0.0 3.038919506 0.202660131635 0.0
0.0 3.040270737 0.202485288649 0.0
0.0 3.041621968 0.202310252163 0.0
0.0 3.0429732 0.202135023113 0.0
0.0 3.044324431 0.20195960281 0.0
0.0 3.045675663 0.20178399205 0.0
0.0 3.047026894 0.201608192178 0.0
0.0 3.048378126 0.201432204 0.0
0.0 3.049729357 0.201256028808 0.0
0.0 3.051080589 0.201079667416 0.0
0.0 3.05243182 0.200903121179 0.0
0.0 3.053783051 0.200726390976 0.0
0.0 3.055134283 0.200549477777 0.0
0.0 3.056485514 0.200372382892 0.0
0.0 3.057836746 0.200195107106 0.0
0.0 3.059187977 0.200017651764 0.0
0.0 3.060539209 0.199840017663 0.0
0.0 3.06189044 0.199662206125 0.0
0.0 3.063241671 0.199484218104 0.0
0.0 3.064592903 0.199306054476 0.0
0.0 3.065944134 0.199127716619 0.0
0.0 3.067295366 0.198949205313 0.0
0.0 3.068646597 0.198770521884 0.0
0.0 3.069997829 0.198591667148 0.0
0.0 3.07134906 0.198412642384 0.0
0.0 3.072700292 0.198233448428 0.0
0.0 3.074051523 0.19805408662 0.0
0.0 3.075402754 0.197874557846 0.0
0.0 3.076753986 0.197694863079 0.0
0.0 3.078105217 0.197515003622 0.0
0.0 3.079456449 0.197334980259 0.0
0.0 3.08080768 0.197154794332 0.0
0.0 3.082158912 0.196974446651 0.0
0.0 3.083510143 0.196793938527 0.0
0.0 3.084861374 0.196613270903 0.0
0.0 3.086212606 0.196432444707 0.0
0.0 3.087563837 0.196251461259 0.0
0.0 3.088915069 0.196070321346 0.0
0.0 3.0902663 0.195889026321 0.0
0.0 3.091617532 0.195707576973 0.0
0.0 3.092968763 0.195525974629 0.0
0.0 3.094319995 0.195344220058 0.0
0.0 3.095671226 0.195162314628 0.0
0.0 3.097022457 0.194980259261 0.0
0.0 3.098373689 0.194798054864 0.0
0.0 3.09972492 0.194615702793 0.0
0.0 3.101076152 0.194433203817 0.0
0.0 3.102427383 0.19425055928 0.0
0.0 3.103778615 0.194067769968 0.0
0.0 3.105129846 0.193884837216 0.0
0.0 3.106481078 0.193701761837 0.0
0.0 3.107832309 0.193518545145 0.0
0.0 3.10918354 0.193335188049 0.0
0.0 3.110534772 0.193151691507 0.0
0.0 3.111886003 0.192968056852 0.0
0.0 3.113237235 0.192784284864 0.0
0.0 3.114588466 0.192600376879 0.0
0.0 3.115939698 0.192416333667 0.0
0.0 3.117290929 0.192232156576 0.0
0.0 3.11864216 0.19204784655 0.0
0.0 3.119993392 0.19186340452 0.0
0.0 3.121344623 0.19167883178 0.0
0.0 3.122695855 0.191494129142 0.0
0.0 3.124047086 0.191309297951 0.0
0.0 3.125398318 0.19112433899 0.0
0.0 3.126749549 0.190939253607 0.0
0.0 3.128100781 0.190754042566 0.0
0.0 3.129452012 0.190568707176 0.0
0.0 3.130803243 0.190383248407 0.0
0.0 3.132154475 0.190197667209 0.0
0.0 3.133505706 0.190011964864 0.0
0.0 3.134856938 0.189826142228 0.0
0.0 3.136208169 0.189640200497 0.0
0.0 3.137559401 0.189454140608 0.0
0.0 3.138910632 0.189267963896 0.0
0.0 3.140261863 0.18908167119 0.0
0.0 3.141613095 0.188895263442 0.0
0.0 3.142964326 0.188708741999 0.0
0.0 3.144315558 0.188522107661 0.0
0.0 3.145666789 0.188335361759 0.0
0.0 3.147018021 0.188148505043 0.0
0.0 3.148369252 0.187961538908 0.0
0.0 3.149720484 0.187774464155 0.0
0.0 3.151071715 0.187587282107 0.0
0.0 3.152422946 0.187399993655 0.0
0.0 3.153774178 0.187212599723 0.0
0.0 3.155125409 0.187025101648 0.0
0.0 3.156476641 0.186837500231 0.0
0.0 3.157827872 0.18664979681 0.0
0.0 3.159179104 0.186461992184 0.0
0.0 3.160530335 0.186274087685 0.0
0.0 3.161881566 0.186086084257 0.0
0.0 3.163232798 0.185897982797 0.0
0.0 3.164584029 0.185709784633 0.0
0.0 3.165935261 0.185521490567 0.0
0.0 3.167286492 0.185333101928 0.0
0.0 3.168637724 0.185144619517 0.0
0.0 3.169988955 0.184956044677 0.0
0.0 3.171340187 0.184767378136 0.0
0.0 3.172691418 0.184578621303 0.0
0.0 3.174042649 0.184389775083 0.0
0.0 3.175393881 0.184200840391 0.0
0.0 3.176745112 0.184011818576 0.0
0.0 3.178096344 0.183822710416 0.0
0.0 3.179447575 0.183633517242 0.0
0.0 3.180798807 0.183444239852 0.0
0.0 3.182150038 0.183254879591 0.0
0.0 3.18350127 0.183065437235 0.0
0.0 3.184852501 0.182875914121 0.0
0.0 3.186203732 0.182686311182 0.0
0.0 3.187554964 0.182496629345 0.0
0.0 3.188906195 0.18230686994 0.0
0.0 3.190257427 0.182117033736 0.0
0.0 3.191608658 0.181927122086 0.0
0.0 3.19295989 0.181737135795 0.0
0.0 3.194311121 0.181547076184 0.0
0.0 3.195662352 0.18135694421 0.0
0.0 3.197013584 0.181166740706 0.0
0.0 3.198364815 0.180976467076 0.0
0.0 3.199716047 0.180786124125 0.0
0.0 3.201067278 0.180595713159 0.0
0.0 3.20241851 0.180405234978 0.0
0.0 3.203769741 0.180214690911 0.0
0.0 3.205120973 0.18002408173 0.0
0.0 3.206472204 0.179833408809 0.0
0.0 3.207823435 0.179642673093 0.0
0.0 3.209174667 0.179451875427 0.0
0.0 3.210525898 0.179261017157 0.0
0.0 3.21187713 0.179070099131 0.0
0.0 3.213228361 0.178879122703 0.0
0.0 3.214579593 0.17868808859 0.0
0.0 3.215930824 0.178496998129 0.0
0.0 3.217282055 0.178305852286 0.0
0.0 3.218633287 0.178114651971 0.0
0.0 3.219984518 0.1779233985 0.0
0.0 3.22133575 0.177732092713 0.0
0.0 3.222686981 0.177540735937 0.0
0.0 3.224038213 0.177349328895 0.0
0.0 3.225389444 0.177157872953 0.0
0.0 3.226740676 0.176966368924 0.0
0.0 3.228091907 0.176774818171 0.0
0.0 3.229443138 0.176583221555 0.0
0.0 3.23079437 0.176391580027 0.0
0.0 3.232145601 0.176199894968 0.0
0.0 3.233496833 0.176008167085 0.0
0.0 3.234848064 0.175816397719 0.0
0.0 3.236199296 0.175624587736 0.0
0.0 3.237550527 0.175432738432 0.0
0.0 3.238901759 0.17524085056 0.0
0.0 3.24025299 0.175048925513 0.0
0.0 3.241604221 0.174856964199 0.0
0.0 3.242955453 0.174664967531 0.0
0.0 3.244306684 0.174472936819 0.0
0.0 3.245657916 0.174280872849 0.0
0.0 3.247009147 0.174088777051 0.0
0.0 3.248360379 0.173896650166 0.0
0.0 3.24971161 0.173704493509 0.0
0.0 3.251062841 0.173512308007 0.0
0.0 3.252414073 0.173320094595 0.0
0.0 3.253765304 0.173127854611 0.0
0.0 3.255116536 0.172935588805 0.0
0.0 3.256467767 0.172743298541 0.0
0.0 3.257818999 0.172550984635 0.0
0.0 3.25917023 0.172358648393 0.0
0.0 3.260521462 0.172166290633 0.0
0.0 3.261872693 0.171973912677 0.0
0.0 3.263223924 0.17178151542 0.0
0.0 3.264575156 0.171589099827 0.0
0.0 3.265926387 0.171396667181 0.0
0.0 3.267277619 0.171204218337 0.0
0.0 3.26862885 0.171011754654 0.0
0.0 3.269980082 0.170819276833 0.0
0.0 3.271331313 0.170626786203 0.0
0.0 3.272682544 0.170434283731 0.0
0.0 3.274033776 0.170241770395 0.0
0.0 3.275385007 0.170049247491 0.0
0.0 3.276736239 0.169856715784 0.0
0.0 3.27808747 0.169664176612 0.0
0.0 3.279438702 0.169471630785 0.0
0.0 3.280789933 0.169279079629 0.0
0.0 3.282141165 0.169086523889 0.0
0.0 3.283492396 0.168893964927 0.0
0.0 3.284843627 0.168701403754 0.0
0.0 3.286194859 0.16850884119 0.0
0.0 3.28754609 0.168316278584 0.0
0.0 3.288897322 0.168123716782 0.0
0.0 3.290248553 0.167931157088 0.0
0.0 3.291599785 0.167738600277 0.0
0.0 3.292951016 0.167546047669 0.0
0.0 3.294302247 0.167353500217 0.0
0.0 3.295653479 0.16716095888 0.0
0.0 3.29700471 0.166968425009 0.0
0.0 3.298355942 0.166775899299 0.0
0.0 3.299707173 0.166583383143 0.0
0.0 3.301058405 0.16639087731 0.0
0.0 3.302409636 0.166198383145 0.0
0.0 3.303760868 0.166005901417 0.0
0.0 3.305112099 0.165813433493 0.0
0.0 3.30646333 0.165620980316 0.0
0.0 3.307814562 0.16542854281 0.0
0.0 3.309165793 0.165236122222 0.0
0.0 3.310517025 0.165043719364 0.0
0.0 3.311868256 0.164851335616 0.0
0.0 3.313219488 0.16465897179 0.0
0.0 3.314570719 0.164466629213 0.0
0.0 3.315921951 0.164274308705 0.0
0.0 3.317273182 0.164082011481 0.0
0.0 3.318624413 0.163889738518 0.0
0.0 3.319975645 0.163697490803 0.0
0.0 3.321326876 0.163505269588 0.0
0.0 3.322678108 0.163313075693 0.0
0.0 3.324029339 0.163120910499 0.0
0.0 3.325380571 0.162928774762 0.0
0.0 3.326731802 0.162736669827 0.0
0.0 3.328083033 0.162544596604 0.0
0.0 3.329434265 0.162352556002 0.0
0.0 3.330785496 0.162160549385 0.0
0.0 3.332136728 0.161968577505 0.0
0.0 3.333487959 0.16177664175 0.0
0.0 3.334839191 0.161584742896 0.0
0.0 3.336190422 0.161392882256 0.0
0.0 3.337541654 0.161201060624 0.0
0.0 3.338892885 0.161009279381 0.0
0.0 3.340244116 0.16081753941 0.0
0.0 3.341595348 0.16062584162 0.0
0.0 3.342946579 0.160434187335 0.0
0.0 3.344297811 0.160242577406 0.0
0.0 3.345649042 0.160051013156 0.0
0.0 3.347000274 0.159859495335 0.0
0.0 3.348351505 0.159668025339 0.0
0.0 3.349702736 0.159476604053 0.0
0.0 3.351053968 0.159285232354 0.0
0.0 3.352405199 0.159093911647 0.0
0.0 3.353756431 0.158902642677 0.0
0.0 3.355107662 0.158711426807 0.0
0.0 3.356458894 0.158520264848 0.0
0.0 3.357810125 0.158329158122 0.0
0.0 3.359161357 0.158138107426 0.0
0.0 3.360512588 0.157947114081 0.0
0.0 3.361863819 0.157756178963 0.0
0.0 3.363215051 0.157565303056 0.0
0.0 3.364566282 0.157374487746 0.0
0.0 3.365917514 0.15718373373 0.0
0.0 3.367268745 0.156993042357 0.0
0.0 3.368619977 0.156802414387 0.0
0.0 3.369971208 0.156611851209 0.0
0.0 3.371322439 0.156421353787 0.0
0.0 3.372673671 0.156230922979 0.0
0.0 3.374024902 0.156040560156 0.0
0.0 3.375376134 0.155850266116 0.0
0.0 3.376727365 0.155660042151 0.0
0.0 3.378078597 0.155469889043 0.0
0.0 3.379429828 0.155279808184 0.0
0.0 3.38078106 0.155089800331 0.0
0.0 3.382132291 0.154899866828 0.0
0.0 3.383483522 0.154710008597 0.0
0.0 3.384834754 0.154520226559 0.0
0.0 3.386185985 0.154330522057 0.0
0.0 3.387537217 0.154140895873 0.0
0.0 3.388888448 0.153951349351 0.0
0.0 3.39023968 0.153761883271 0.0
0.0 3.391590911 0.15357249898 0.0
0.0 3.392942143 0.15338319725 0.0
0.0 3.394293374 0.153193979437 0.0
0.0 3.395644605 0.153004846451 0.0
0.0 3.396995837 0.152815799222 0.0
0.0 3.398347068 0.15262683909 0.0
0.0 3.3996983 0.152437966838 0.0
0.0 3.401049531 0.152249183807 0.0
0.0 3.402400763 0.152060490782 0.0
0.0 3.403751994 0.151871889174 0.0
0.0 3.405103225 0.151683379739 0.0
0.0 3.406454457 0.151494963514 0.0
0.0 3.407805688 0.151306641794 0.0
0.0 3.40915692 0.151118415416 0.0
0.0 3.410508151 0.15093028571 0.0
0.0 3.411859383 0.150742253519 0.0
0.0 3.413210614 0.150554320144 0.0
0.0 3.414561846 0.150366486142 0.0
0.0 3.415913077 0.150178753015 0.0
0.0 3.417264308 0.149991121845 0.0
0.0 3.41861554 0.149803593476 0.0
0.0 3.419966771 0.149616169154 0.0
0.0 3.421318003 0.149428849744 0.0
0.0 3.422669234 0.149241636488 0.0
0.0 3.424020466 0.149054530246 0.0
0.0 3.425371697 0.148867532378 0.0
0.0 3.426722928 0.148680643745 0.0
0.0 3.42807416 0.148493865374 0.0
0.0 3.429425391 0.148307198568 0.0
0.0 3.430776623 0.148120644085 0.0
0.0 3.432127854 0.147934203259 0.0
0.0 3.433479086 0.147747876863 0.0
0.0 3.434830317 0.147561666176 0.0
0.0 3.436181549 0.147375572013 0.0
0.0 3.43753278 0.147189595774 0.0
0.0 3.438884011 0.147003738371 0.0
0.0 3.440235243 0.146818000708 0.0
0.0 3.441586474 0.146632384165 0.0
0.0 3.442937706 0.146446889469 0.0
0.0 3.444288937 0.146261517925 0.0
0.0 3.445640169 0.146076270355 0.0
0.0 3.4469914 0.145891148137 0.0
0.0 3.448342631 0.145706152206 0.0
0.0 3.449693863 0.145521283519 0.0
0.0 3.451045094 0.145336543383 0.0
0.0 3.452396326 0.145151932546 0.0
0.0 3.453747557 0.144967452389 0.0
0.0 3.455098789 0.144783103713 0.0
0.0 3.45645002 0.144598887796 0.0
0.0 3.457801252 0.144414805422 0.0
0.0 3.459152483 0.144230857934 0.0
0.0 3.460503714 0.144047046278 0.0
0.0 3.461854946 0.143863371361 0.0
0.0 3.463206177 0.143679834488 0.0
0.0 3.464557409 0.143496436472 0.0
0.0 3.46590864 0.143313178673 0.0
0.0 3.467259872 0.143130061875 0.0
0.0 3.468611103 0.142947087379 0.0
0.0 3.469962335 0.142764256034 0.0
0.0 3.471313566 0.14258156914 0.0
0.0 3.472664797 0.14239902755 0.0
0.0 3.474016029 0.142216632357 0.0
0.0 3.47536726 0.142034384895 0.0
0.0 3.476718492 0.141852285837 0.0
0.0 3.478069723 0.141670336454 0.0
0.0 3.479420955 0.141488537621 0.0
0.0 3.480772186 0.141306890776 0.0
0.0 3.482123417 0.141125396773 0.0
0.0 3.483474649 0.140944056495 0.0
0.0 3.48482588 0.1407628713 0.0
0.0 3.486177112 0.14058184196 0.0
0.0 3.487528343 0.140400969819 0.0
0.0 3.488879575 0.140220255731 0.0
0.0 3.490230806 0.140039700977 0.0
0.0 3.491582038 0.139859306339 0.0
0.0 3.492933269 0.139679073227 0.0
0.0 3.4942845 0.139499002425 0.0
0.0 3.495635732 0.139319094699 0.0
0.0 3.496986963 0.13913935165 0.0
0.0 3.498338195 0.138959774188 0.0
0.0 3.499689426 0.138780363535 0.0
0.0 3.501040658 0.138601120434 0.0
0.0 3.502391889 0.138422046214 0.0
0.0 3.50374312 0.138243141768 0.0
0.0 3.505094352 0.138064408016 0.0
0.0 3.506445583 0.137885846366 0.0
0.0 3.507796815 0.137707457686 0.0
0.0 3.509148046 0.137529243224 0.0
0.0 3.510499278 0.137351203745 0.0
0.0 3.511850509 0.137173340564 0.0
0.0 3.513201741 0.136995654463 0.0
0.0 3.514552972 0.136818146836 0.0
0.0 3.515904203 0.136640818601 0.0
0.0 3.517255435 0.136463670676 0.0
0.0 3.518606666 0.136286704402 0.0
0.0 3.519957898 0.13610992059 0.0
0.0 3.521309129 0.135933320555 0.0
0.0 3.522660361 0.135756904998 0.0
0.0 3.524011592 0.135580675365 0.0
0.0 3.525362824 0.13540463242 0.0
0.0 3.526714055 0.135228777527 0.0
0.0 3.528065286 0.135053111606 0.0
0.0 3.529416518 0.134877635525 0.0
0.0 3.530767749 0.134702350646 0.0
0.0 3.532118981 0.134527257786 0.0
0.0 3.533470212 0.134352358159 0.0
0.0 3.534821444 0.134177652654 0.0
0.0 3.536172675 0.134003142663 0.0
0.0 3.537523906 0.133828829096 0.0
0.0 3.538875138 0.133654712803 0.0
0.0 3.540226369 0.133480795079 0.0
0.0 3.541577601 0.133307076796 0.0
0.0 3.542928832 0.133133559289 0.0
0.0 3.544280064 0.132960243435 0.0
0.0 3.545631295 0.132787130433 0.0
0.0 3.546982527 0.132614221046 0.0
0.0 3.548333758 0.132441516647 0.0
0.0 3.549684989 0.13226901817 0.0
0.0 3.551036221 0.13209672656 0.0
0.0 3.552387452 0.13192464322 0.0
0.0 3.553738684 0.131752768966 0.0
0.0 3.555089915 0.131581105027 0.0
0.0 3.556441147 0.131409652115 0.0
0.0 3.557792378 0.131238411563 0.0
0.0 3.559143609 0.131067384453 0.0
0.0 3.560494841 0.130896571745 0.0
0.0 3.561846072 0.130725974662 0.0
0.0 3.563197304 0.130555593907 0.0
0.0 3.564548535 0.130385430846 0.0
0.0 3.565899767 0.130215486439 0.0
0.0 3.567250998 0.130045762038 0.0
0.0 3.56860223 0.129876258321 0.0
0.0 3.569953461 0.129706976495 0.0
0.0 3.571304692 0.129537917547 0.0
0.0 3.572655924 0.129369082489 0.0
0.0 3.574007155 0.129200472637 0.0
0.0 3.575358387 0.129032088842 0.0
0.0 3.576709618 0.128863932335 0.0
0.0 3.57806085 0.128696003831 0.0
0.0 3.579412081 0.128528304704 0.0
0.0 3.580763312 0.128360836018 0.0
0.0 3.582114544 0.128193598807 0.0
0.0 3.583465775 0.128026594241 0.0
0.0 3.584817007 0.127859823033 0.0
0.0 3.586168238 0.127693286539 0.0
0.0 3.58751947 0.127526985739 0.0
0.0 3.588870701 0.127360921741 0.0
0.0 3.590221933 0.127195095332 0.0
0.0 3.591573164 0.127029508001 0.0
0.0 3.592924395 0.126864160658 0.0
0.0 3.594275627 0.126699054112 0.0
0.0 3.595626858 0.126534189743 0.0
0.0 3.59697809 0.126369568434 0.0
0.0 3.598329321 0.126205191418 0.0
0.0 3.599680553 0.12604105948 0.0
0.0 3.601031784 0.125877173982 0.0
0.0 3.602383016 0.125713535767 0.0
0.0 3.603734247 0.1255501461 0.0
0.0 3.605085478 0.125387005998 0.0
0.0 3.60643671 0.125224116344 0.0
0.0 3.607787941 0.125061478268 0.0
0.0 3.609139173 0.124899092715 0.0
0.0 3.610490404 0.124736961119 0.0
0.0 3.611841636 0.124575084232 0.0
0.0 3.613192867 0.12441346333 0.0
0.0 3.614544098 0.124252099268 0.0
0.0 3.61589533 0.124090993092 0.0
0.0 3.617246561 0.123930146224 0.0
0.0 3.618597793 0.123769559327 0.0
0.0 3.619949024 0.123609233687 0.0
0.0 3.621300256 0.123449170264 0.0
0.0 3.622651487 0.123289370228 0.0
0.0 3.624002719 0.123129834434 0.0
0.0 3.62535395 0.122970564248 0.0
0.0 3.626705181 0.122811560388 0.0
0.0 3.628056413 0.122652823893 0.0
0.0 3.629407644 0.122494356223 0.0
0.0 3.630758876 0.122336158014 0.0
0.0 3.632110107 0.122178230654 0.0
0.0 3.633461339 0.122020575082 0.0
0.0 3.63481257 0.121863192543 0.0
0.0 3.636163801 0.121706083927 0.0
0.0 3.637515033 0.121549250127 0.0
0.0 3.638866264 0.121392692551 0.0
0.0 3.640217496 0.121236412104 0.0
0.0 3.641568727 0.121080409875 0.0
0.0 3.642919959 0.120924686525 0.0
0.0 3.64427119 0.12076924354 0.0
0.0 3.645622422 0.120614082054 0.0
0.0 3.646973653 0.120459203402 0.0
0.0 3.648324884 0.120304608262 0.0
0.0 3.649676116 0.120150297122 0.0
0.0 3.651027347 0.119996271615 0.0
0.0 3.652378579 0.119842532967 0.0
0.0 3.65372981 0.11968908231 0.0
0.0 3.655081042 0.119535920148 0.0
0.0 3.656432273 0.119383047671 0.0
0.0 3.657783504 0.119230466141 0.0
0.0 3.659134736 0.119078176871 0.0
0.0 3.660485967 0.118926180791 0.0
0.0 3.661837199 0.118774478644 0.0
0.0 3.66318843 0.118623071689 0.0
0.0 3.664539662 0.118471960774 0.0
0.0 3.665890893 0.118321147279 0.0
0.0 3.667242125 0.118170632112 0.0
0.0 3.668593356 0.118020416558 0.0
0.0 3.669944587 0.117870501602 0.0
0.0 3.671295819 0.117720888061 0.0
0.0 3.67264705 0.117571577268 0.0
0.0 3.673998282 0.117422569901 0.0
0.0 3.675349513 0.117273867263 0.0
0.0 3.676700745 0.117125470279 0.0
0.0 3.678051976 0.116977380606 0.0
0.0 3.679403208 0.116829598696 0.0
0.0 3.680754439 0.116682125838 0.0
0.0 3.68210567 0.116534963104 0.0
0.0 3.683456902 0.116388111455 0.0
0.0 3.684808133 0.116241572034 0.0
0.0 3.686159365 0.116095345593 0.0
0.0 3.687510596 0.115949433465 0.0
0.0 3.688861828 0.115803836593 0.0
0.0 3.690213059 0.115658556274 0.0
0.0 3.69156429 0.115513593314 0.0
0.0 3.692915522 0.115368948685 0.0
0.0 3.694266753 0.115224624015 0.0
0.0 3.695617985 0.115080620339 0.0
0.0 3.696969216 0.114936938535 0.0
0.0 3.698320448 0.114793579155 0.0
0.0 3.699671679 0.114650543523 0.0
0.0 3.701022911 0.114507832597 0.0
0.0 3.702374142 0.114365447864 0.0
0.0 3.703725373 0.114223390255 0.0
0.0 3.705076605 0.114081660665 0.0
0.0 3.706427836 0.113940260628 0.0
0.0 3.707779068 0.113799191258 0.0
0.0 3.709130299 0.113658452846 0.0
0.0 3.710481531 0.113518045906 0.0
0.0 3.711832762 0.113377972361 0.0
0.0 3.713183993 0.113238233464 0.0
0.0 3.714535225 0.11309883034 0.0
0.0 3.715886456 0.112959764053 0.0
0.0 3.717237688 0.112821035195 0.0
0.0 3.718588919 0.112682645254 0.0
0.0 3.719940151 0.112544595295 0.0
0.0 3.721291382 0.112406886119 0.0
0.0 3.722642614 0.112269517975 0.0
0.0 3.723993845 0.112132492838 0.0
0.0 3.725345076 0.11199581277 0.0
0.0 3.726696308 0.111859477687 0.0
0.0 3.728047539 0.111723488524 0.0
0.0 3.729398771 0.111587846998 0.0
0.0 3.730750002 0.111452554067 0.0
0.0 3.732101234 0.11131760955 0.0
0.0 3.733452465 0.111183015611 0.0
0.0 3.734803696 0.111048773872 0.0
0.0 3.736154928 0.110914884438 0.0
0.0 3.737506159 0.110781348071 0.0
0.0 3.738857391 0.110648166154 0.0
0.0 3.740208622 0.110515339839 0.0
0.0 3.741559854 0.110382869886 0.0
0.0 3.742911085 0.110250758514 0.0
0.0 3.744262317 0.110119006625 0.0
0.0 3.745613548 0.10998761505 0.0
0.0 3.746964779 0.10985658431 0.0
0.0 3.748316011 0.109725915602 0.0
0.0 3.749667242 0.109595611687 0.0
0.0 3.751018474 0.109465669715 0.0
0.0 3.752369705 0.109336092269 0.0
0.0 3.753720937 0.109206882473 0.0
0.0 3.755072168 0.109078039469 0.0
0.0 3.7564234 0.108949564307 0.0
0.0 3.757774631 0.108821457878 0.0
0.0 3.759125862 0.108693722657 0.0
0.0 3.760477094 0.108566359297 0.0
0.0 3.761828325 0.108439370027 0.0
0.0 3.763179557 0.108312756551 0.0
0.0 3.764530788 0.108186520011 0.0
0.0 3.76588202 0.108060657683 0.0
0.0 3.767233251 0.107935173031 0.0
0.0 3.768584482 0.107810068326 0.0
0.0 3.769935714 0.107685343635 0.0
0.0 3.771286945 0.107560996242 0.0
0.0 3.772638177 0.10743703076 0.0
0.0 3.773989408 0.107313446638 0.0
0.0 3.77534064 0.107190241843 0.0
0.0 3.776691871 0.107067423459 0.0
0.0 3.778043103 0.106944993669 0.0
0.0 3.779394334 0.106822947108 0.0
0.0 3.780745565 0.106701283166 0.0
0.0 3.782096797 0.106580005372 0.0
0.0 3.783448028 0.106459117745 0.0
0.0 3.78479926 0.106338628919 0.0
0.0 3.786150491 0.106218525941 0.0
0.0 3.787501723 0.106098812196 0.0
0.0 3.788852954 0.105979495313 0.0
0.0 3.790204185 0.105860575924 0.0
0.0 3.791555417 0.105742047926 0.0
0.0 3.792906648 0.105623930827 0.0
0.0 3.79425788 0.105506211761 0.0
0.0 3.795609111 0.105388892818 0.0
0.0 3.796960343 0.105271975959 0.0
0.0 3.798311574 0.105155464241 0.0
0.0 3.799662806 0.105039342829 0.0
0.0 3.801014037 0.104923613207 0.0
0.0 3.802365268 0.104808278655 0.0
0.0 3.8037165 0.104693358437 0.0
0.0 3.805067731 0.104578856997 0.0
0.0 3.806418963 0.104464763262 0.0
0.0 3.807770194 0.104351078459 0.0
0.0 3.809121426 0.104237803482 0.0
0.0 3.810472657 0.104124939561 0.0
0.0 3.811823889 0.104012487593 0.0
0.0 3.81317512 0.103900448804 0.0
0.0 3.814526351 0.103788824174 0.0
0.0 3.815877583 0.103677614683 0.0
0.0 3.817228814 0.103566821559 0.0
0.0 3.818580046 0.1034564457 0.0
0.0 3.819931277 0.103346488332 0.0
0.0 3.821282509 0.103236950354 0.0
0.0 3.82263374 0.103127832989 0.0
0.0 3.823984971 0.103019137222 0.0
0.0 3.825336203 0.102910864031 0.0
0.0 3.826687434 0.102803014643 0.0
0.0 3.828038666 0.102695589958 0.0
0.0 3.829389897 0.102588591197 0.0
0.0 3.830741129 0.102482019266 0.0
0.0 3.83209236 0.102375875385 0.0
0.0 3.833443592 0.102270160458 0.0
0.0 3.834794823 0.102164875703 0.0
0.0 3.836146054 0.102060022107 0.0
0.0 3.837497286 0.101955600654 0.0
0.0 3.838848517 0.101851612561 0.0
0.0 3.840199749 0.101748058735 0.0
0.0 3.84155098 0.101644940393 0.0
0.0 3.842902212 0.101542258446 0.0
0.0 3.844253443 0.101440014108 0.0
0.0 3.845604674 0.101338208365 0.0
0.0 3.846955906 0.101236842202 0.0
0.0 3.848307137 0.101135916836 0.0
0.0 3.849658369 0.101035433178 0.0
0.0 3.8510096 0.100935392439 0.0
0.0 3.852360832 0.100835795534 0.0
0.0 3.853712063 0.100736643674 0.0
0.0 3.855063295 0.100637937773 0.0
0.0 3.856414526 0.10053967904 0.0
0.0 3.857765757 0.100441868465 0.0
0.0 3.859116989 0.100344507039 0.0
0.0 3.86046822 0.100247595968 0.0
0.0 3.861819452 0.10015113617 0.0
0.0 3.863170683 0.100055128853 0.0
0.0 3.864521915 0.0999595749345 0.0
0.0 3.865873146 0.099864475621 0.0
0.0 3.867224377 0.0997698319029 0.0
0.0 3.868575609 0.0996756447729 0.0
0.0 3.86992684 0.0995819154328 0.0
0.0 3.871278072 0.0994886448062 0.0
0.0 3.872629303 0.0993958340935 0.0
0.0 3.873980535 0.0993034842187 0.0
0.0 3.875331766 0.0992115963818 0.0
0.0 3.876682998 0.0991201774791 0.0
0.0 3.878034229 0.0990301618034 0.0
0.0 3.87938546 0.0989398928761 0.0
0.0 3.880736692 0.098849492586 0.0
0.0 3.882087923 0.0987605957359 0.0
0.0 3.883439155 0.0986725941495 0.0
0.0 3.884790386 0.098583879936 0.0
0.0 3.886141618 0.0984952326065 0.0
0.0 3.887492849 0.09840800967 0.0
0.0 3.888844081 0.0983213405749 0.0
0.0 3.890195312 0.0982331833767 0.0
0.0 3.891546543 0.09814637743 0.0
0.0 3.892897775 0.0980596263149 0.0
0.0 3.894249006 0.0979742675766 0.0
0.0 3.895600238 0.0978894366183 0.0
0.0 3.896951469 0.0978050846798 0.0
0.0 3.898302701 0.0977212127027 0.0
0.0 3.899653932 0.0976378218654 0.0
0.0 3.901005163 0.097554913173 0.0
0.0 3.902356395 0.097472487625 0.0
0.0 3.903707626 0.0973905464078 0.0
0.0 3.905058858 0.0973090904615 0.0
0.0 3.906410089 0.0972281209689 0.0
0.0 3.907761321 0.0971476388746 0.0
0.0 3.909112552 0.097067645358 0.0
0.0 3.910463784 0.0969881413651 0.0
0.0 3.911815015 0.0969091280749 0.0
0.0 3.913166246 0.0968306064917 0.0
0.0 3.914517478 0.0967525776222 0.0
0.0 3.915868709 0.0966750426424 0.0
0.0 3.917219941 0.0965980024978 0.0
0.0 3.918571172 0.0965214583678 0.0
0.0 3.919922404 0.0964454112004 0.0
0.0 3.921273635 0.0963699757696 0.0
0.0 3.922624866 0.0962958961831 0.0
0.0 3.923976098 0.0962220226235 0.0
0.0 3.925327329 0.0961501708103 0.0
0.0 3.926678561 0.0960793995033 0.0
0.0 3.928029792 0.0960066058687 0.0
0.0 3.929381024 0.0959334416077 0.0
0.0 3.930732255 0.0958637832351 0.0
0.0 3.932083487 0.0957951831116 0.0
0.0 3.933434718 0.0957233514994 0.0
0.0 3.934785949 0.0956511854246 0.0
0.0 3.936137181 0.0955790434601 0.0
0.0 3.937488412 0.0955045642698 0.0
0.0 3.938839644 0.0954335974412 0.0
0.0 3.940190875 0.0953650690267 0.0
0.0 3.941542107 0.0952971186703 0.0
0.0 3.942893338 0.0952296858299 0.0
0.0 3.944244569 0.0951629648115 0.0
0.0 3.945595801 0.0950965996504 0.0
0.0 3.946947032 0.0950316651872 0.0
0.0 3.948298264 0.0949709454468 0.0
0.0 3.949649495 0.0949119858282 0.0
0.0 3.951000727 0.0948526258188 0.0
0.0 3.952351958 0.0947922481043 0.0
0.0 3.95370319 0.0947309334844 0.0
0.0 3.955054421 0.0946693710001 0.0
0.0 3.956405652 0.0946081735419 0.0
0.0 3.957756884 0.0945484026606 0.0
0.0 3.959108115 0.0944887352618 0.0
0.0 3.960459347 0.0944302718994 0.0
0.0 3.961810578 0.0943763299964 0.0
0.0 3.96316181 0.0943261177763 0.0
0.0 3.964513041 0.0942775793975 0.0
0.0 3.965864273 0.094229879603 0.0
0.0 3.967215504 0.0941829840827 0.0
0.0 3.968566735 0.0941349851366 0.0
0.0 3.969917967 0.094083799134 0.0
0.0 3.971269198 0.0940315501345 0.0
0.0 3.97262043 0.0939820704399 0.0
0.0 3.973971661 0.0939333714564 0.0
0.0 3.975322893 0.0938836273214 0.0
0.0 3.976674124 0.0938344803002 0.0
0.0 3.978025355 0.0937885862596 0.0
0.0 3.979376587 0.0937452548167 0.0
0.0 3.980727818 0.0936999041004 0.0
0.0 3.98207905 0.0936481789405 0.0
0.0 3.983430281 0.0935941585511 0.0
0.0 3.984781513 0.0935449893904 0.0
0.0 3.986132744 0.0935010150422 0.0
0.0 3.987483976 0.0934651554192 0.0
0.0 3.988835207 0.0934409381635 0.0
0.0 3.990186438 0.0934291673465 0.0
0.0 3.99153767 0.0934275352639 0.0
0.0 3.992888901 0.0934342019214 0.0
0.0 3.994240133 0.093449742253 0.0
0.0 3.995591364 0.0934716280906 0.0
0.0 3.996942596 0.0935013820666 0.0
0.0 3.998293827 0.0935431355906 0.0
0.0 3.999645058 0.0936026992355 0.0
0.0 4.00099629 0.0936880944043 0.0
0.0 4.002347521 0.0938085451267 0.0
0.0 4.003698753 0.0939725509523 0.0
0.0 4.005049984 0.0941890369566 0.0
0.0 4.006401216 0.0944799179236 0.0
0.0 4.007752447 0.094868023514 0.0
0.0 4.009103679 0.0953834426877 0.0
0.0 4.01045491 0.0960707782267 0.0
0.0 4.011806141 0.0969929337888 0.0
0.0 4.013157373 0.0982372069665 0.0
0.0 4.014508604 0.0999286693302 0.0
0.0 4.015859836 0.102260930533 0.0
0.0 4.017211067 0.105535200999 0.0
0.0 4.018562299 0.110178314421 0.0
0.0 4.01991353 0.116828288067 0.0
0.0 4.021264761 0.126458850104 0.0
0.0 4.022615993 0.140384093603 0.0
0.0 4.023967224 0.160484147824 0.0
0.0 4.025318456 0.18901515171 0.0
0.0 4.026669687 0.227497696382 0.0
0.0 4.028020919 0.275363622425 0.0
0.0 4.02937215 0.32937584066 0.0
0.0 4.030723382 0.383349559124 0.0
0.0 4.032074613 0.43001303663 0.0
0.0 4.033425844 0.463881193793 0.0
0.0 4.034777076 0.483460346276 0.0
0.0 4.036128307 0.490685170936 0.0
0.0 4.037479539 0.491409923732 0.0
0.0 4.03883077 0.490330411389 0.0
0.0 4.040182002 0.489690991703 0.0
0.0 4.041533233 0.490759006561 0.0
0.0 4.042884465 0.493964833097 0.0
0.0 4.044235696 0.499241388511 0.0
0.0 4.045586927 0.50609078894 0.0
0.0 4.046938159 0.513465516548 0.0
0.0 4.04828939 0.520374109766 0.0
0.0 4.049640622 0.526038078613 0.0
0.0 4.050991853 0.529835576516 0.0
0.0 4.052343085 0.531485799636 0.0
0.0 4.053694316 0.530959821251 0.0
0.0 4.055045547 0.528280174381 0.0
0.0 4.056396779 0.524235733723 0.0
0.0 4.05774801 0.519683290025 0.0
0.0 4.059099242 0.515239394454 0.0
0.0 4.060450473 0.511663686308 0.0
0.0 4.061801705 0.509167383111 0.0
0.0 4.063152936 0.507534560241 0.0
0.0 4.064504168 0.506565395056 0.0
0.0 4.065855399 0.504665946738 0.0
0.0 4.06720663 0.499830446182 0.0
0.0 4.068557862 0.489837716482 0.0
0.0 4.069909093 0.47272898804 0.0
0.0 4.071260325 0.447376722864 0.0
0.0 4.072611556 0.413127348641 0.0
0.0 4.073962788 0.370666966202 0.0
0.0 4.075314019 0.325274238443 0.0
0.0 4.07666525 0.280850533207 0.0
0.0 4.078016482 0.240458439649 0.0
0.0 4.079367713 0.205970078019 0.0
0.0 4.080718945 0.178019440148 0.0
0.0 4.082070176 0.156265478575 0.0
0.0 4.083421408 0.139953443898 0.0
0.0 4.084772639 0.127869616309 0.0
0.0 4.086123871 0.118957232321 0.0
0.0 4.087475102 0.112378443046 0.0
0.0 4.088826333 0.107501691692 0.0
0.0 4.090177565 0.103882516145 0.0
0.0 4.091528796 0.101160258054 0.0
0.0 4.092880028 0.0990913813102 0.0
0.0 4.094231259 0.0975080913084 0.0
0.0 4.095582491 0.0962866737735 0.0
0.0 4.096933722 0.0953350878143 0.0
0.0 4.098284953 0.0945870481072 0.0
0.0 4.099636185 0.0939927457514 0.0
0.0 4.100987416 0.0935184946039 0.0
0.0 4.102338648 0.0931379790884 0.0
0.0 4.103689879 0.092831409703 0.0
0.0 4.105041111 0.0925801125002 0.0
0.0 4.106392342 0.0923736241402 0.0
0.0 4.107743574 0.0922020105204 0.0
0.0 4.109094805 0.0920585150122 0.0
0.0 4.110446036 0.0919393123421 0.0
0.0 4.111797268 0.0918409757307 0.0
0.0 4.113148499 0.0917601021915 0.0
0.0 4.114499731 0.0916939548107 0.0
0.0 4.115850962 0.0916407444177 0.0
0.0 4.117202194 0.0915986868317 0.0
0.0 4.118553425 0.0915663989823 0.0
0.0 4.119904657 0.0915421176336 0.0
0.0 4.121255888 0.0915243729182 0.0
0.0 4.122607119 0.091512039967 0.0
0.0 4.123958351 0.091504220389 0.0
0.0 4.125309582 0.0914999606069 0.0
0.0 4.126660814 0.0914975373936 0.0
0.0 4.128012045 0.0914953700049 0.0
0.0 4.129363277 0.0914927555117 0.0
0.0 4.130714508 0.0914921975568 0.0
0.0 4.132065739 0.0914945252036 0.0
0.0 4.133416971 0.0914990784323 0.0
0.0 4.134768202 0.0915051791159 0.0
0.0 4.136119434 0.0915124464692 0.0
0.0 4.137470665 0.091520696426 0.0
0.0 4.138821897 0.0915311021512 0.0
0.0 4.140173128 0.0915440723667 0.0
0.0 4.14152436 0.0915588445121 0.0
0.0 4.142875591 0.0915744329716 0.0
0.0 4.144226822 0.0915900428788 0.0
0.0 4.145578054 0.0916053775885 0.0
0.0 4.146929285 0.0916196070597 0.0
0.0 4.148280517 0.0916339850442 0.0
0.0 4.149631748 0.0916511046538 0.0
0.0 4.15098298 0.0916729403564 0.0
0.0 4.152334211 0.0916992629739 0.0
0.0 4.153685442 0.0917248342155 0.0
0.0 4.155036674 0.0917491509456 0.0
0.0 4.156387905 0.0917733087381 0.0
0.0 4.157739137 0.0917980516327 0.0
0.0 4.159090368 0.0918237516444 0.0
0.0 4.1604416 0.09185083899 0.0
0.0 4.161792831 0.0918794427553 0.0
0.0 4.163144063 0.0919038267312 0.0
0.0 4.164495294 0.0919346944785 0.0
0.0 4.165846525 0.0919667965301 0.0
0.0 4.167197757 0.0919997287168 0.0
0.0 4.168548988 0.0920344136954 0.0
0.0 4.16990022 0.0920723263709 0.0
0.0 4.171251451 0.0921082182069 0.0
0.0 4.172602683 0.0921449049485 0.0
0.0 4.173953914 0.0921823510474 0.0
0.0 4.175305146 0.0922216981665 0.0
0.0 4.176656377 0.0922625170406 0.0
0.0 4.178007608 0.0923050052799 0.0
0.0 4.17935884 0.0923463922562 0.0
0.0 4.180710071 0.0923849432108 0.0
0.0 4.182061303 0.092423517331 0.0
0.0 4.183412534 0.0924634296733 0.0
0.0 4.184763766 0.0925050699418 0.0
0.0 4.186114997 0.0925482482751 0.0
0.0 4.187466228 0.092591951626 0.0
0.0 4.18881746 0.092636418681 0.0
0.0 4.190168691 0.092681285404 0.0
0.0 4.191519923 0.0927257431867 0.0
0.0 4.192871154 0.0927691512632 0.0
0.0 4.194222386 0.0928113981511 0.0
0.0 4.195573617 0.0928555692873 0.0
0.0 4.196924849 0.0929053052108 0.0
0.0 4.19827608 0.0929544168553 0.0
0.0 4.199627311 0.0930045719676 0.0
0.0 4.200978543 0.0930558386747 0.0
0.0 4.202329774 0.0931078764232 0.0
0.0 4.203681006 0.0931601480673 0.0
0.0 4.205032237 0.0932135041605 0.0
0.0 4.206383469 0.093266382577 0.0
0.0 4.2077347 0.0933180897522 0.0
0.0 4.209085931 0.0933704175856 0.0
0.0 4.210437163 0.0934238097569 0.0
0.0 4.211788394 0.0934784965404 0.0
0.0 4.213139626 0.0935345538456 0.0
0.0 4.214490857 0.0935933298166 0.0
0.0 4.215842089 0.093653620345 0.0
0.0 4.21719332 0.0937134249177 0.0
0.0 4.218544552 0.0937716420397 0.0
0.0 4.219895783 0.0938301837936 0.0
0.0 4.221247014 0.0938918493039 0.0
0.0 4.222598246 0.0939552245361 0.0
0.0 4.223949477 0.0940197959416 0.0
0.0 4.225300709 0.0940837894258 0.0
0.0 4.22665194 0.094146878711 0.0
0.0 4.228003172 0.0942111002426 0.0
0.0 4.229354403 0.0942769863148 0.0
0.0 4.230705634 0.0943450362137 0.0
0.0 4.232056866 0.0944132688667 0.0
0.0 4.233408097 0.0944808408207 0.0
0.0 4.234759329 0.0945492465996 0.0
0.0 4.23611056 0.0946187209181 0.0
0.0 4.237461792 0.0946891013202 0.0
0.0 4.238813023 0.0947588524185 0.0
0.0 4.240164255 0.0948293392842 0.0
0.0 4.241515486 0.0949010381197 0.0
0.0 4.242866717 0.094973771442 0.0
0.0 4.244217949 0.0950470406044 0.0
0.0 4.24556918 0.095121015401 0.0
0.0 4.246920412 0.0951964728475 0.0
0.0 4.248271643 0.0952727033667 0.0
0.0 4.249622875 0.0953520328817 0.0
0.0 4.250974106 0.0954315992969 0.0
0.0 4.252325338 0.0955101195247 0.0
0.0 4.253676569 0.0955879352893 0.0
0.0 4.2550278 0.0956667571258 0.0
0.0 4.256379032 0.0957483487727 0.0
0.0 4.257730263 0.0958326688507 0.0
0.0 4.259081495 0.0959185054648 0.0
0.0 4.260432726 0.0960068059456 0.0
0.0 4.261783958 0.0960913791434 0.0
0.0 4.263135189 0.0961726860104 0.0
0.0 4.26448642 0.0962558201347 0.0
0.0 4.265837652 0.0963414855267 0.0
0.0 4.267188883 0.0964289598063 0.0
0.0 4.268540115 0.0965165785965 0.0
0.0 4.269891346 0.0966036915497 0.0
0.0 4.271242578 0.0966914367703 0.0
0.0 4.272593809 0.0967804080956 0.0
0.0 4.273945041 0.096871434971 0.0
0.0 4.275296272 0.0969636921577 0.0
0.0 4.276647503 0.0970577119578 0.0
0.0 4.277998735 0.0971528961498 0.0
0.0 4.279349966 0.0972484041664 0.0
0.0 4.280701198 0.0973423568127 0.0
0.0 4.282052429 0.0974361831551 0.0
0.0 4.283403661 0.0975305658941 0.0
0.0 4.284754892 0.0976302150447 0.0
0.0 4.286106123 0.0977316432861 0.0
0.0 4.287457355 0.0978309879669 0.0
0.0 4.288808586 0.0979267958406 0.0
0.0 4.290159818 0.0980224896806 0.0
0.0 4.291511049 0.0981205246329 0.0
0.0 4.292862281 0.0982221059044 0.0
0.0 4.294213512 0.0983265890277 0.0
0.0 4.295564744 0.0984309770831 0.0
0.0 4.296915975 0.0985351922588 0.0
0.0 4.298267206 0.0986401089855 0.0
0.0 4.299618438 0.098746936284 0.0
0.0 4.300969669 0.0988541027591 0.0
0.0 4.302320901 0.0989615774989 0.0
0.0 4.303672132 0.0990705092189 0.0
0.0 4.305023364 0.0991812809934 0.0
0.0 4.306374595 0.0992891782546 0.0
0.0 4.307725826 0.0993962537881 0.0
0.0 4.309077058 0.09950421944 0.0
0.0 4.310428289 0.0996167980228 0.0
0.0 4.311779521 0.0997304513488 0.0
0.0 4.313130752 0.0998446560713 0.0
0.0 4.314481984 0.0999594873639 0.0
0.0 4.315833215 0.10007504416 0.0
0.0 4.317184447 0.100191290385 0.0
0.0 4.318535678 0.100308389846 0.0
0.0 4.319886909 0.100426875755 0.0
0.0 4.321238141 0.100546948794 0.0
0.0 4.322589372 0.100667166824 0.0
0.0 4.323940604 0.100787518632 0.0
0.0 4.325291835 0.100908204318 0.0
0.0 4.326643067 0.101029657209 0.0
0.0 4.327994298 0.101152302772 0.0
0.0 4.32934553 0.101275148308 0.0
0.0 4.330696761 0.101399302515 0.0
0.0 4.332047992 0.101525461131 0.0
0.0 4.333399224 0.101651852519 0.0
0.0 4.334750455 0.101778418362 0.0
0.0 4.336101687 0.101905925979 0.0
0.0 4.337452918 0.102034685654 0.0
0.0 4.33880415 0.102163193759 0.0
0.0 4.340155381 0.102291953003 0.0
0.0 4.341506612 0.102422813415 0.0
0.0 4.342857844 0.102554605785 0.0
0.0 4.344209075 0.102687010652 0.0
0.0 4.345560307 0.102819653961 0.0
0.0 4.346911538 0.102953470701 0.0
0.0 4.34826277 0.103088078562 0.0
0.0 4.349614001 0.103224212165 0.0
0.0 4.350965233 0.103361227472 0.0
0.0 4.352316464 0.10349791566 0.0
0.0 4.353667695 0.103634050233 0.0
0.0 4.355018927 0.103771705752 0.0
0.0 4.356370158 0.10391141345 0.0
0.0 4.35772139 0.104052329869 0.0
0.0 4.359072621 0.104194092504 0.0
0.0 4.360423853 0.10433669859 0.0
0.0 4.361775084 0.104480148981 0.0
0.0 4.363126315 0.10462444484 0.0
0.0 4.364477547 0.104769587341 0.0
0.0 4.365828778 0.104915577329 0.0
0.0 4.36718001 0.105062416083 0.0
0.0 4.368531241 0.105210116877 0.0
0.0 4.369882473 0.105358769288 0.0
0.0 4.371233704 0.105508036114 0.0
0.0 4.372584936 0.105658278712 0.0
0.0 4.373936167 0.105809376582 0.0
0.0 4.375287398 0.105961329482 0.0
0.0 4.37663863 0.106114138591 0.0
0.0 4.377989861 0.106267804742 0.0
0.0 4.379341093 0.106422329227 0.0
0.0 4.380692324 0.106577712878 0.0
0.0 4.382043556 0.106733956989 0.0
0.0 4.383394787 0.10689106239 0.0
0.0 4.384746018 0.107049030259 0.0
0.0 4.38609725 0.107207861776 0.0
0.0 4.387448481 0.107367557769 0.0
0.0 4.388799713 0.107528119535 0.0
0.0 4.390150944 0.107689547899 0.0
0.0 4.391502176 0.107851844165 0.0
0.0 4.392853407 0.108015009152 0.0
0.0 4.394204639 0.108179051421 0.0
0.0 4.39555587 0.108344501193 0.0
0.0 4.396907101 0.108510018226 0.0
0.0 4.398258333 0.108678167031 0.0
0.0 4.399609564 0.108845350565 0.0
0.0 4.400960796 0.109012991549 0.0
0.0 4.402312027 0.109182674195 0.0
0.0 4.403663259 0.109353352853 0.0
0.0 4.40501449 0.109523850831 0.0
0.0 4.406365722 0.10969468515 0.0
0.0 4.407716953 0.109867472067 0.0
0.0 4.409068184 0.110041146026 0.0
0.0 4.410419416 0.110215702765 0.0
0.0 4.411770647 0.110391143091 0.0
0.0 4.413121879 0.110567468326 0.0
0.0 4.41447311 0.110744679274 0.0
0.0 4.415824342 0.110922777252 0.0
0.0 4.417175573 0.111101763062 0.0
0.0 4.418526804 0.111281637898 0.0
0.0 4.419878036 0.111462402958 0.0
0.0 4.421229267 0.111644059036 0.0
0.0 4.422580499 0.111826607462 0.0
0.0 4.42393173 0.11201004903 0.0
0.0 4.425282962 0.112194385073 0.0
0.0 4.426634193 0.11237961638 0.0
0.0 4.427985425 0.112565744288 0.0
0.0 4.429336656 0.112752769584 0.0
0.0 4.430687887 0.112940693468 0.0
0.0 4.432039119 0.113129517141 0.0
0.0 4.43339035 0.113319241387 0.0
0.0 4.434741582 0.113509867551 0.0
0.0 4.436092813 0.11370139641 0.0
0.0 4.437444045 0.11389382931 0.0
0.0 4.438795276 0.114087167031 0.0
0.0 4.440146507 0.114281410776 0.0
0.0 4.441497739 0.114476561751 0.0
0.0 4.44284897 0.114672620732 0.0
0.0 4.444200202 0.114869589069 0.0
0.0 4.445551433 0.115067467534 0.0
0.0 4.446902665 0.115266257483 0.0
0.0 4.448253896 0.115465959683 0.0
0.0 4.449605128 0.115666575492 0.0
0.0 4.450956359 0.115868105675 0.0
0.0 4.45230759 0.116070551443 0.0
0.0 4.453658822 0.116273914011 0.0
0.0 4.455010053 0.116478194137 0.0
0.0 4.456361285 0.116683393188 0.0
0.0 4.457712516 0.116889511921 0.0
0.0 4.459063748 0.117096551706 0.0
0.0 4.460414979 0.117304513296 0.0
0.0 4.461766211 0.117513398063 0.0
0.0 4.463117442 0.117723206759 0.0
0.0 4.464468673 0.117933940603 0.0
0.0 4.465819905 0.11814560081 0.0
0.0 4.467171136 0.118358188133 0.0
0.0 4.468522368 0.118571703947 0.0
0.0 4.469873599 0.118786149 0.0
0.0 4.471224831 0.119001524669 0.0
0.0 4.472576062 0.119218111496 0.0
0.0 4.473927293 0.119440181427 0.0
0.0 4.475278525 0.119660725819 0.0
0.0 4.476629756 0.119881611295 0.0
0.0 4.477980988 0.120103041167 0.0
0.0 4.479332219 0.120324019449 0.0
0.0 4.480683451 0.120545328111 0.0
0.0 4.482034682 0.120767424184 0.0
0.0 4.483385914 0.120989917211 0.0
0.0 4.484737145 0.121212880448 0.0
0.0 4.486088376 0.121437320025 0.0
0.0 4.487439608 0.121664893527 0.0
0.0 4.488790839 0.121893316768 0.0
0.0 4.490142071 0.122121288935 0.0
0.0 4.491493302 0.122348719245 0.0
0.0 4.492844534 0.122580050595 0.0
0.0 4.494195765 0.122813344794 0.0
0.0 4.495546996 0.123046805295 0.0
0.0 4.496898228 0.123280464952 0.0
0.0 4.498249459 0.123514378883 0.0
0.0 4.499600691 0.123750296484 0.0
0.0 4.500951922 0.123987767574 0.0
0.0 4.502303154 0.124226630115 0.0
0.0 4.503654385 0.124465862227 0.0
0.0 4.505005617 0.124707549855 0.0
0.0 4.506356848 0.124948373296 0.0
0.0 4.507708079 0.125188448231 0.0
0.0 4.509059311 0.125429226581 0.0
0.0 4.510410542 0.125671144484 0.0
0.0 4.511761774 0.125915766911 0.0
0.0 4.513113005 0.126160466471 0.0
0.0 4.514464237 0.126403395382 0.0
0.0 4.515815468 0.126646640423 0.0
0.0 4.517166699 0.126893771484 0.0
0.0 4.518517931 0.127143218578 0.0
0.0 4.519869162 0.127394105809 0.0
0.0 4.521220394 0.127645861602 0.0
0.0 4.522571625 0.127902642106 0.0
0.0 4.523922857 0.128157282299 0.0
0.0 4.525274088 0.12841076159 0.0
0.0 4.52662532 0.128664363825 0.0
0.0 4.527976551 0.128917997152 0.0
0.0 4.529327782 0.129171964552 0.0
0.0 4.530679014 0.129428393663 0.0
0.0 4.532030245 0.129686858885 0.0
0.0 4.533381477 0.129946973759 0.0
0.0 4.534732708 0.130206915486 0.0
0.0 4.53608394 0.130466473747 0.0
0.0 4.537435171 0.130725349362 0.0
0.0 4.538786403 0.130985343834 0.0
0.0 4.540137634 0.131247492808 0.0
0.0 4.541488865 0.131511403376 0.0
0.0 4.542840097 0.131776097177 0.0
0.0 4.544191328 0.132043013979 0.0
0.0 4.54554256 0.13231117302 0.0
0.0 4.546893791 0.132580354665 0.0
0.0 4.548245023 0.132850592901 0.0
0.0 4.549596254 0.133123299345 0.0
0.0 4.550947485 0.133396977243 0.0
0.0 4.552298717 0.133674097191 0.0
0.0 4.553649948 0.133946639042 0.0
0.0 4.55500118 0.134216977632 0.0
0.0 4.556352411 0.134492692047 0.0
0.0 4.557703643 0.134770319063 0.0
0.0 4.559054874 0.135048977125 0.0
0.0 4.560406106 0.135327039872 0.0
0.0 4.561757337 0.135606933978 0.0
0.0 4.563108568 0.135888199458 0.0
0.0 4.5644598 0.136172112625 0.0
0.0 4.565811031 0.136455861849 0.0
0.0 4.567162263 0.136737537203 0.0
0.0 4.568513494 0.137022676627 0.0
0.0 4.569864726 0.137308845187 0.0
0.0 4.571215957 0.137596194135 0.0
0.0 4.572567188 0.137886044795 0.0
0.0 4.57391842 0.138175081792 0.0
0.0 4.575269651 0.138463635081 0.0
0.0 4.576620883 0.138754844682 0.0
0.0 4.577972114 0.139047083395 0.0
0.0 4.579323346 0.13934033777 0.0
0.0 4.580674577 0.139634608437 0.0
0.0 4.582025809 0.139929896892 0.0
0.0 4.58337704 0.140226203763 0.0
0.0 4.584728271 0.140523530327 0.0
0.0 4.586079503 0.140821877869 0.0
0.0 4.587430734 0.141121247012 0.0
0.0 4.588781966 0.141421639258 0.0
0.0 4.590133197 0.141723055227 0.0
0.0 4.591484429 0.142025496426 0.0
0.0 4.59283566 0.14232896347 0.0
0.0 4.594186891 0.142633457645 0.0
0.0 4.595538123 0.142938980242 0.0
0.0 4.596889354 0.143245531867 0.0
0.0 4.598240586 0.143553114039 0.0
0.0 4.599591817 0.143861727364 0.0
0.0 4.600943049 0.144171373361 0.0
0.0 4.60229428 0.144482052635 0.0
0.0 4.603645512 0.144793779873 0.0
0.0 4.604996743 0.145106533022 0.0
0.0 4.606347974 0.145420302598 0.0
0.0 4.607699206 0.145735126497 0.0
0.0 4.609050437 0.146050989234 0.0
0.0 4.610401669 0.146367892085 0.0
0.0 4.6117529 0.146685835644 0.0
0.0 4.613104132 0.147004821443 0.0
0.0 4.614455363 0.147324850073 0.0
0.0 4.615806595 0.147645923069 0.0
0.0 4.617157826 0.14796804102 0.0
0.0 4.618509057 0.148291205223 0.0
0.0 4.619860289 0.148615416983 0.0
0.0 4.62121152 0.14894067688 0.0
0.0 4.622562752 0.14926698646 0.0
0.0 4.623913983 0.149594346301 0.0
0.0 4.625265215 0.14992275795 0.0
0.0 4.626616446 0.150252221984 0.0
0.0 4.627967677 0.150582739708 0.0
0.0 4.629318909 0.15091431243 0.0
0.0 4.63067014 0.151246940721 0.0
0.0 4.632021372 0.151580626136 0.0
0.0 4.633372603 0.151915369244 0.0
0.0 4.634723835 0.152251171602 0.0
0.0 4.636075066 0.152588033776 0.0
0.0 4.637426298 0.15292595781 0.0
0.0 4.638777529 0.153265037242 0.0
0.0 4.64012876 0.153605064916 0.0
0.0 4.641479992 0.153946104889 0.0
0.0 4.642831223 0.15428828329 0.0
0.0 4.644182455 0.154631528412 0.0
0.0 4.645533686 0.15497584078 0.0
0.0 4.646884918 0.155321221967 0.0
0.0 4.648236149 0.155667672523 0.0
0.0 4.64958738 0.156015193766 0.0
0.0 4.650938612 0.156363854864 0.0
0.0 4.652289843 0.15671469335 0.0
0.0 4.653641075 0.157066888042 0.0
0.0 4.654992306 0.157419212886 0.0
0.0 4.656343538 0.157771547367 0.0
0.0 4.657694769 0.158124651 0.0
0.0 4.659046001 0.158479009737 0.0
0.0 4.660397232 0.158834472857 0.0
0.0 4.661748463 0.159191249783 0.0
0.0 4.663099695 0.159549529047 0.0
0.0 4.664450926 0.159908897969 0.0
0.0 4.665802158 0.160269350594 0.0
0.0 4.667153389 0.160630897137 0.0
0.0 4.668504621 0.160994412455 0.0
0.0 4.669855852 0.161358641501 0.0
0.0 4.671207083 0.161722465162 0.0
0.0 4.672558315 0.162087906271 0.0
0.0 4.673909546 0.16245487692 0.0
0.0 4.675260778 0.162822943345 0.0
0.0 4.676612009 0.163192101433 0.0
0.0 4.677963241 0.163562352792 0.0
0.0 4.679314472 0.163933697937 0.0
0.0 4.680665704 0.164306138478 0.0
0.0 4.682016935 0.164679674928 0.0
0.0 4.683368166 0.165054308623 0.0
0.0 4.684719398 0.165430040905 0.0
0.0 4.686070629 0.165806872279 0.0
0.0 4.687421861 0.166184804368 0.0
0.0 4.688773092 0.166563837672 0.0
0.0 4.690124324 0.166943976045 0.0
0.0 4.691475555 0.16732531932 0.0
0.0 4.692826787 0.16770819422 0.0
0.0 4.694178018 0.168092733184 0.0
0.0 4.695529249 0.168477966444 0.0
0.0 4.696880481 0.168863602444 0.0
0.0 4.698231712 0.169249770449 0.0
0.0 4.699582944 0.169635908162 0.0
0.0 4.700934175 0.170024881142 0.0
0.0 4.702285407 0.170414988121 0.0
0.0 4.703636638 0.170806207992 0.0
0.0 4.704987869 0.171198542106 0.0
0.0 4.706339101 0.171591991818 0.0
0.0 4.707690332 0.171986557606 0.0
0.0 4.709041564 0.17238224112 0.0
0.0 4.710392795 0.172779042833 0.0
0.0 4.711744027 0.173176972497 0.0
0.0 4.713095258 0.173576387008 0.0
0.0 4.71444649 0.173976652241 0.0
0.0 4.715797721 0.174377936149 0.0
0.0 4.717148952 0.174780460306 0.0
0.0 4.718500184 0.175183439583 0.0
0.0 4.719851415 0.175588062763 0.0
0.0 4.721202647 0.175993850966 0.0
0.0 4.722553878 0.176400794827 0.0
0.0 4.72390511 0.1768108575 0.0
0.0 4.725256341 0.17722166976 0.0
0.0 4.726607572 0.177633003915 0.0
0.0 4.727958804 0.178044097315 0.0
0.0 4.729310035 0.178455344886 0.0
0.0 4.730661267 0.178868228605 0.0
0.0 4.732012498 0.179281852797 0.0
0.0 4.73336373 0.179696908948 0.0
0.0 4.734714961 0.180113949594 0.0
0.0 4.736066193 0.180532229851 0.0
0.0 4.737417424 0.180951869203 0.0
0.0 4.738768655 0.18137322703 0.0
0.0 4.740119887 0.181795880627 0.0
0.0 4.741471118 0.182219636505 0.0
0.0 4.74282235 0.182644043527 0.0
0.0 4.744173581 0.18306901563 0.0
0.0 4.745524813 0.183497329211 0.0
0.0 4.746876044 0.183925243063 0.0
0.0 4.748227276 0.1843532841 0.0
0.0 4.749578507 0.184781645523 0.0
0.0 4.750929738 0.185213001231 0.0
0.0 4.75228097 0.185646727552 0.0
0.0 4.753632201 0.186082169946 0.0
0.0 4.754983433 0.186518278296 0.0
0.0 4.756334664 0.18695463632 0.0
0.0 4.757685896 0.187388477731 0.0
0.0 4.759037127 0.187823203783 0.0
0.0 4.760388358 0.188260961893 0.0
0.0 4.76173959 0.188700331755 0.0
0.0 4.763090821 0.189140876039 0.0
0.0 4.764442053 0.189582615609 0.0
0.0 4.765793284 0.190026584095 0.0
0.0 4.767144516 0.190472580888 0.0
0.0 4.768495747 0.190918976928 0.0
0.0 4.769846979 0.191366320415 0.0
0.0 4.77119821 0.19181225078 0.0
0.0 4.772549441 0.192259583254 0.0
0.0 4.773900673 0.192710417134 0.0
0.0 4.775251904 0.193161718325 0.0
0.0 4.776603136 0.193614611047 0.0
0.0 4.777954367 0.194068691901 0.0
0.0 4.779305599 0.194523945765 0.0
0.0 4.78065683 0.194980373027 0.0
0.0 4.782008061 0.195437975087 0.0
0.0 4.783359293 0.195896759568 0.0
0.0 4.784710524 0.196357057195 0.0
0.0 4.786061756 0.196819045095 0.0
0.0 4.787412987 0.197282127532 0.0
0.0 4.788764219 0.197745983459 0.0
0.0 4.79011545 0.198210948714 0.0
0.0 4.791466682 0.1986769961 0.0
0.0 4.792817913 0.199143820686 0.0
0.0 4.794169144 0.199611668494 0.0
0.0 4.795520376 0.200080446707 0.0
0.0 4.796871607 0.200550431113 0.0
0.0 4.798222839 0.201022545082 0.0
0.0 4.79957407 0.201495390265 0.0
0.0 4.800925302 0.201969918267 0.0
0.0 4.802276533 0.202444509225 0.0
0.0 4.803627764 0.202920305977 0.0
0.0 4.804978996 0.203397986262 0.0
0.0 4.806330227 0.203876916333 0.0
0.0 4.807681459 0.204357041743 0.0
0.0 4.80903269 0.204838362845 0.0
0.0 4.810383922 0.205320904467 0.0
0.0 4.811735153 0.205805484634 0.0
0.0 4.813086385 0.206290722636 0.0
0.0 4.814437616 0.206776967568 0.0
0.0 4.815788847 0.207264056149 0.0
0.0 4.817140079 0.207752698555 0.0
0.0 4.81849131 0.208242679957 0.0
0.0 4.819842542 0.208733856568 0.0
0.0 4.821193773 0.209226028716 0.0
0.0 4.822545005 0.2097191379 0.0
0.0 4.823896236 0.210213226712 0.0
0.0 4.825247468 0.210708364364 0.0
0.0 4.826598699 0.211204872277 0.0
0.0 4.82794993 0.211703048829 0.0
0.0 4.829301162 0.212202662432 0.0
0.0 4.830652393 0.212703613054 0.0
0.0 4.832003625 0.213208493851 0.0
0.0 4.833354856 0.213710455357 0.0
0.0 4.834706088 0.214212465459 0.0
0.0 4.836057319 0.214717596949 0.0
0.0 4.83740855 0.215224294575 0.0
0.0 4.838759782 0.215732377577 0.0
0.0 4.840111013 0.216241310188 0.0
0.0 4.841462245 0.216751656498 0.0
0.0 4.842813476 0.217263717194 0.0
0.0 4.844164708 0.217776057358 0.0
0.0 4.845515939 0.218290023418 0.0
0.0 4.846867171 0.218805265446 0.0
0.0 4.848218402 0.219321740715 0.0
0.0 4.849569633 0.219839841903 0.0
0.0 4.850920865 0.220360222629 0.0
0.0 4.852272096 0.220882086965 0.0
0.0 4.853623328 0.22140221949 0.0
0.0 4.854974559 0.221922851946 0.0
0.0 4.856325791 0.222446372969 0.0
0.0 4.857677022 0.222971483641 0.0
0.0 4.859028253 0.223499452523 0.0
0.0 4.860379485 0.224027003043 0.0
0.0 4.861730716 0.22455453169 0.0
0.0 4.863081948 0.225084491755 0.0
0.0 4.864433179 0.225617159595 0.0
0.0 4.865784411 0.226150674911 0.0
0.0 4.867135642 0.226684791653 0.0
0.0 4.868486874 0.227219775134 0.0
0.0 4.869838105 0.22775519158 0.0
0.0 4.871189336 0.228290601749 0.0
0.0 4.872540568 0.228829173689 0.0
0.0 4.873891799 0.229369153348 0.0
0.0 4.875243031 0.229910382379 0.0
0.0 4.876594262 0.230452860174 0.0
0.0 4.877945494 0.230996591936 0.0
0.0 4.879296725 0.23154161784 0.0
0.0 4.880647956 0.232088145753 0.0
0.0 4.881999188 0.232638282221 0.0
0.0 4.883350419 0.233186895711 0.0
0.0 4.884701651 0.233737147834 0.0
0.0 4.886052882 0.234287886635 0.0
0.0 4.887404114 0.23483988241 0.0
0.0 4.888755345 0.235393266806 0.0
0.0 4.890106577 0.235947338825 0.0
0.0 4.891457808 0.236503421281 0.0
0.0 4.892809039 0.237060980832 0.0
0.0 4.894160271 0.237620962906 0.0
0.0 4.895511502 0.238182532354 0.0
0.0 4.896862734 0.238744096705 0.0
0.0 4.898213965 0.239306571691 0.0
0.0 4.899565197 0.239869219759 0.0
0.0 4.900916428 0.240432769904 0.0
0.0 4.90226766 0.240999731141 0.0
0.0 4.903618891 0.241568469825 0.0
0.0 4.904970122 0.242138284107 0.0
0.0 4.906321354 0.242706968985 0.0
0.0 4.907672585 0.243277410593 0.0
0.0 4.909023817 0.243849858025 0.0
0.0 4.910375048 0.244423912163 0.0
0.0 4.91172628 0.244999700558 0.0
0.0 4.913077511 0.245577104393 0.0
0.0 4.914428742 0.246155723025 0.0
0.0 4.915779974 0.246735136232 0.0
0.0 4.917131205 0.247315868004 0.0
0.0 4.918482437 0.247897931061 0.0
0.0 4.919833668 0.248480365451 0.0
0.0 4.9211849 0.249064096122 0.0
0.0 4.922536131 0.249648387946 0.0
0.0 4.923887363 0.250235123243 0.0
0.0 4.925238594 0.250822977846 0.0
0.0 4.926589825 0.251412414243 0.0
0.0 4.927941057 0.252003147797 0.0
0.0 4.929292288 0.252595184057 0.0
0.0 4.93064352 0.253188745917 0.0
0.0 4.931994751 0.253783106133 0.0
0.0 4.933345983 0.254378997695 0.0
0.0 4.934697214 0.254976194399 0.0
0.0 4.936048445 0.255574687008 0.0
0.0 4.937399677 0.256174477026 0.0
0.0 4.938750908 0.256775564631 0.0
0.0 4.94010214 0.257377951772 0.0
0.0 4.941453371 0.257981638623 0.0
0.0 4.942804603 0.258586627138 0.0
0.0 4.944155834 0.259192917482 0.0
0.0 4.945507066 0.259800511616 0.0
0.0 4.946858297 0.260409409703 0.0
0.0 4.948209528 0.261019688044 0.0
0.0 4.94956076 0.261634401658 0.0
0.0 4.950911991 0.262249425858 0.0
0.0 4.952263223 0.262866359691 0.0
0.0 4.953614454 0.263483056907 0.0
0.0 4.954965686 0.264099756478 0.0
0.0 4.956316917 0.264716700724 0.0
0.0 4.957668148 0.265332508029 0.0
0.0 4.95901938 0.265952161294 0.0
0.0 4.960370611 0.266572659425 0.0
0.0 4.961721843 0.267195414145 0.0
0.0 4.963073074 0.267819820226 0.0
0.0 4.964424306 0.268446088621 0.0
0.0 4.965775537 0.269073811481 0.0
0.0 4.967126769 0.269701930466 0.0
0.0 4.968478 0.270332019704 0.0
0.0 4.969829231 0.270963058733 0.0
0.0 4.971180463 0.27159539253 0.0
0.0 4.972531694 0.272229322284 0.0
0.0 4.973882926 0.272864614938 0.0
0.0 4.975234157 0.273500724041 0.0
0.0 4.976585389 0.274137396554 0.0
0.0 4.97793662 0.274776528892 0.0
0.0 4.979287852 0.275417104235 0.0
0.0 4.980639083 0.276060090948 0.0
0.0 4.981990314 0.276703707082 0.0
0.0 4.983341546 0.277348606219 0.0
0.0 4.984692777 0.277994995034 0.0
0.0 4.986044009 0.278643010031 0.0
0.0 4.98739524 0.279291434512 0.0
0.0 4.988746472 0.279941671434 0.0
0.0 4.990097703 0.280593960504 0.0
0.0 4.991448934 0.281248500127 0.0
0.0 4.992800166 0.28190435192 0.0
0.0 4.994151397 0.282559999568 0.0
0.0 4.995502629 0.283215716598 0.0
0.0 4.99685386 0.283871932663 0.0
0.0 4.998205092 0.28452936495 0.0
0.0 4.999556323 0.285189764133 0.0
0.0 5.000907555 0.285851139241 0.0
0.0 5.002258786 0.286513242391 0.0
0.0 5.003610017 0.287176521441 0.0
0.0 5.004961249 0.287841969257 0.0
0.0 5.00631248 0.288508959484 0.0
0.0 5.007663712 0.289177677499 0.0
0.0 5.009014943 0.289848299764 0.0
0.0 5.010366175 0.290519973941 0.0
0.0 5.011717406 0.291192738909 0.0
0.0 5.013068637 0.29186647294 0.0
0.0 5.014419869 0.292542247355 0.0
0.0 5.0157711 0.293219006142 0.0
0.0 5.017122332 0.293896949992 0.0
0.0 5.018473563 0.294576166196 0.0
0.0 5.019824795 0.295257024774 0.0
0.0 5.021176026 0.295939771496 0.0
0.0 5.022527258 0.296623689651 0.0
0.0 5.023878489 0.29730862907 0.0
0.0 5.02522972 0.297994424937 0.0
0.0 5.026580952 0.298681638926 0.0
0.0 5.027932183 0.299370545879 0.0
0.0 5.029283415 0.300061021168 0.0
0.0 5.030634646 0.300753057424 0.0
0.0 5.031985878 0.301447026378 0.0
0.0 5.033337109 0.302142076328 0.0
0.0 5.034688341 0.302838168598 0.0
0.0 5.036039572 0.303535701499 0.0
0.0 5.037390803 0.304234321704 0.0
0.0 5.038742035 0.304934502252 0.0
0.0 5.040093266 0.30563589569 0.0
0.0 5.041444498 0.306338700346 0.0
0.0 5.042795729 0.307042868966 0.0
0.0 5.044146961 0.307748267759 0.0
0.0 5.045498192 0.308455173968 0.0
0.0 5.046849423 0.309163541726 0.0
0.0 5.048200655 0.309873495026 0.0
0.0 5.049551886 0.310584709853 0.0
0.0 5.050903118 0.311297722755 0.0
0.0 5.052254349 0.312011719662 0.0
0.0 5.053605581 0.3127270151 0.0
0.0 5.054956812 0.313443820448 0.0
0.0 5.056308044 0.314161975671 0.0
0.0 5.057659275 0.314881349234 0.0
0.0 5.059010506 0.315602101788 0.0
0.0 5.060361738 0.316324264392 0.0
0.0 5.061712969 0.317048102313 0.0
0.0 5.063064201 0.317773533368 0.0
0.0 5.064415432 0.318499938496 0.0
0.0 5.065766664 0.319227632866 0.0
0.0 5.067117895 0.319956343353 0.0
0.0 5.068469126 0.320686541773 0.0
0.0 5.069820358 0.321418183244 0.0
0.0 5.071171589 0.322151492316 0.0
0.0 5.072522821 0.322886402374 0.0
0.0 5.073874052 0.323622887258 0.0
0.0 5.075225284 0.324361059872 0.0
0.0 5.076576515 0.325100364613 0.0
0.0 5.077927747 0.32584101502 0.0
0.0 5.079278978 0.326582652125 0.0
0.0 5.080630209 0.32732573928 0.0
0.0 5.081981441 0.328070209643 0.0
0.0 5.083332672 0.32881618767 0.0
0.0 5.084683904 0.329563684939 0.0
0.0 5.086035135 0.330312615868 0.0
0.0 5.087386367 0.331062928113 0.0
0.0 5.088737598 0.331814665706 0.0
0.0 5.090088829 0.332567814613 0.0
0.0 5.091440061 0.333322450014 0.0
0.0 5.092791292 0.33407853741 0.0
0.0 5.094142524 0.334835966434 0.0
0.0 5.095493755 0.335594806258 0.0
0.0 5.096844987 0.33635498151 0.0
0.0 5.098196218 0.337116570845 0.0
0.0 5.09954745 0.337879623347 0.0
