0.0 2.002074478 0.219864468938 0.0
0.0 2.00368257 0.219768326444 0.0
0.0 2.005290662 0.219672012013 0.0
0.0 2.006898754 0.219575526169 0.0
0.0 2.008506846 0.219478869434 0.0
0.0 2.010114938 0.219382042332 0.0
0.0 2.01172303 0.219285045386 0.0
0.0 2.013331122 0.219187879122 0.0
0.0 2.014939214 0.219090544063 0.0
0.0 2.016547306 0.218993040732 0.0
0.0 2.018155398 0.218895369658 0.0
0.0 2.01976349 0.218797531362 0.0
0.0 2.021371582 0.218699526371 0.0
0.0 2.022979674 0.218601355209 0.0
0.0 2.024587766 0.2185030184 0.0
0.0 2.026195858 0.21840451647 0.0
0.0 2.027803949 0.218305850007 0.0
0.0 2.029412041 0.218207019412 0.0
0.0 2.031020133 0.218108025271 0.0
0.0 2.032628225 0.21800886811 0.0
0.0 2.034236317 0.217909548453 0.0
0.0 2.035844409 0.21781006683 0.0
0.0 2.037452501 0.217710423763 0.0
0.0 2.039060593 0.217610619782 0.0
0.0 2.040668685 0.217510655409 0.0
0.0 2.042276777 0.217410531171 0.0
0.0 2.043884869 0.217310247594 0.0
0.0 2.045492961 0.217209805204 0.0
0.0 2.047101053 0.217109204528 0.0
0.0 2.048709145 0.217008446091 0.0
0.0 2.050317237 0.21690753042 0.0
0.0 2.051925329 0.21680645804 0.0
0.0 2.053533421 0.216705229478 0.0
0.0 2.055141513 0.216603845261 0.0
0.0 2.056749605 0.216502305915 0.0
0.0 2.058357697 0.216400611967 0.0
0.0 2.059965788 0.216298764007 0.0
0.0 2.06157388 0.216196762433 0.0
0.0 2.063181972 0.216094607837 0.0
0.0 2.064790064 0.215992300745 0.0
0.0 2.066398156 0.215889841684 0.0
0.0 2.068006248 0.215787231181 0.0
0.0 2.06961434 0.215684469761 0.0
0.0 2.071222432 0.215581557952 0.0
0.0 2.072830524 0.215478496282 0.0
0.0 2.074438616 0.215375285276 0.0
0.0 2.076046708 0.215271925465 0.0
0.0 2.0776548 0.21516841737 0.0
0.0 2.079262892 0.215064761521 0.0
0.0 2.080870984 0.214960958447 0.0
0.0 2.082479076 0.214857008672 0.0
0.0 2.084087168 0.214752912728 0.0
0.0 2.08569526 0.214648671142 0.0
0.0 2.087303352 0.214544284443 0.0
0.0 2.088911444 0.214439753162 0.0
0.0 2.090519536 0.214335077825 0.0
0.0 2.092127627 0.214230259027 0.0
0.0 2.093735719 0.21412529717 0.0
0.0 2.095343811 0.21402019284 0.0
0.0 2.096951903 0.213914946565 0.0
0.0 2.098559995 0.213809558897 0.0
0.0 2.100168087 0.213704030367 0.0
0.0 2.101776179 0.213598361484 0.0
0.0 2.103384271 0.213492552799 0.0
0.0 2.104992363 0.213386604835 0.0
0.0 2.106600455 0.213280518098 0.0
0.0 2.108208547 0.213174293125 0.0
0.0 2.109816639 0.213067930405 0.0
0.0 2.111424731 0.212961430428 0.0
0.0 2.113032823 0.212854793655 0.0
0.0 2.114640915 0.212748020608 0.0
0.0 2.116249007 0.212641111874 0.0
0.0 2.117857099 0.212534067885 0.0
0.0 2.119465191 0.212426889322 0.0
0.0 2.121073283 0.212319576618 0.0
0.0 2.122681375 0.212212130338 0.0
0.0 2.124289466 0.212104551051 0.0
0.0 2.125897558 0.211996839201 0.0
0.0 2.12750565 0.21188899538 0.0
0.0 2.129113742 0.211781020107 0.0
0.0 2.130721834 0.211672913937 0.0
0.0 2.132329926 0.211564677356 0.0
0.0 2.133938018 0.211456310871 0.0
0.0 2.13554611 0.211347815068 0.0
0.0 2.137154202 0.211239190476 0.0
0.0 2.138762294 0.211130437604 0.0
0.0 2.140370386 0.211021556936 0.0
0.0 2.141978478 0.210912549034 0.0
0.0 2.14358657 0.210803414387 0.0
0.0 2.145194662 0.210694153554 0.0
0.0 2.146802754 0.210584767076 0.0
0.0 2.148410846 0.210475255478 0.0
0.0 2.150018938 0.210365619276 0.0
0.0 2.15162703 0.210255858982 0.0
0.0 2.153235122 0.210145975142 0.0
0.0 2.154843214 0.210035968243 0.0
0.0 2.156451305 0.209925838926 0.0
0.0 2.158059397 0.209815587544 0.0
0.0 2.159667489 0.20970521472 0.0
0.0 2.161275581 0.209594720964 0.0
0.0 2.162883673 0.209484106795 0.0
0.0 2.164491765 0.209373372732 0.0
0.0 2.166099857 0.209262519287 0.0
0.0 2.167707949 0.209151547016 0.0
0.0 2.169316041 0.209040456428 0.0
0.0 2.170924133 0.20892924806 0.0
0.0 2.172532225 0.208817922422 0.0
0.0 2.174140317 0.208706480048 0.0
0.0 2.175748409 0.208594921472 0.0
0.0 2.177356501 0.20848324721 0.0
0.0 2.178964593 0.208371457799 0.0
0.0 2.180572685 0.20825955377 0.0
0.0 2.182180777 0.208147535609 0.0
0.0 2.183788869 0.208035403816 0.0
0.0 2.185396961 0.207923158945 0.0
0.0 2.187005053 0.20781080154 0.0
0.0 2.188613145 0.207698332104 0.0
0.0 2.190221236 0.207585751179 0.0
0.0 2.191829328 0.207473059155 0.0
0.0 2.19343742 0.207360256672 0.0
0.0 2.195045512 0.207247344269 0.0
0.0 2.196653604 0.20713432245 0.0
0.0 2.198261696 0.207021191782 0.0
0.0 2.199869788 0.206907952749 0.0
0.0 2.20147788 0.206794605808 0.0
0.0 2.203085972 0.206681151482 0.0
0.0 2.204694064 0.206567590361 0.0
0.0 2.206302156 0.206453923008 0.0
0.0 2.207910248 0.206340149895 0.0
0.0 2.20951834 0.206226271409 0.0
0.0 2.211126432 0.206112288201 0.0
0.0 2.212734524 0.205998200804 0.0
0.0 2.214342616 0.205884009745 0.0
0.0 2.215950708 0.205769715521 0.0
0.0 2.2175588 0.205655318548 0.0
0.0 2.219166892 0.20554081945 0.0
0.0 2.220774984 0.205426218592 0.0
0.0 2.222383075 0.205311516725 0.0
0.0 2.223991167 0.20519671433 0.0
0.0 2.225599259 0.20508181203 0.0
0.0 2.227207351 0.204966810237 0.0
0.0 2.228815443 0.204851709289 0.0
0.0 2.230423535 0.204736509877 0.0
0.0 2.232031627 0.204621211938 0.0
0.0 2.233639719 0.204505817047 0.0
0.0 2.235247811 0.204390324955 0.0
0.0 2.236855903 0.204274735821 0.0
0.0 2.238463995 0.204159051006 0.0
0.0 2.240072087 0.204043271206 0.0
0.0 2.241680179 0.203927397021 0.0
0.0 2.243288271 0.203811429545 0.0
0.0 2.244896363 0.203695367426 0.0
0.0 2.246504455 0.203579211634 0.0
0.0 2.248112547 0.203462961114 0.0
0.0 2.249720639 0.203346619772 0.0
0.0 2.251328731 0.203230185785 0.0
0.0 2.252936823 0.203113660682 0.0
0.0 2.254544914 0.20299704623 0.0
0.0 2.256153006 0.20288034236 0.0
0.0 2.257761098 0.202763550173 0.0
0.0 2.25936919 0.202646665284 0.0
0.0 2.260977282 0.202529691949 0.0
0.0 2.262585374 0.202412627524 0.0
0.0 2.264193466 0.202295476915 0.0
0.0 2.265801558 0.202178241865 0.0
0.0 2.26740965 0.202060917976 0.0
0.0 2.269017742 0.201943508959 0.0
0.0 2.270625834 0.201826014571 0.0
0.0 2.272233926 0.201708435121 0.0
0.0 2.273842018 0.201590771095 0.0
0.0 2.27545011 0.201473023132 0.0
0.0 2.277058202 0.201355192841 0.0
0.0 2.278666294 0.20123728306 0.0
0.0 2.280274386 0.201119290188 0.0
0.0 2.281882478 0.201001236338 0.0
0.0 2.28349057 0.200883082136 0.0
0.0 2.285098662 0.200764847716 0.0
0.0 2.286706753 0.200646525806 0.0
0.0 2.288314845 0.200528124078 0.0
0.0 2.289922937 0.200409647873 0.0
0.0 2.291531029 0.200291085537 0.0
0.0 2.293139121 0.200172444935 0.0
0.0 2.294747213 0.200053726593 0.0
0.0 2.296355305 0.199934935271 0.0
0.0 2.297963397 0.199816078843 0.0
0.0 2.299571489 0.199697111276 0.0
0.0 2.301179581 0.199578084251 0.0
0.0 2.302787673 0.199458982058 0.0
0.0 2.304395765 0.199339801675 0.0
0.0 2.306003857 0.199220548269 0.0
0.0 2.307611949 0.199101211401 0.0
0.0 2.309220041 0.198981808199 0.0
0.0 2.310828133 0.198862338344 0.0
0.0 2.312436225 0.198742804362 0.0
0.0 2.314044317 0.198623207868 0.0
0.0 2.315652409 0.198503506872 0.0
0.0 2.317260501 0.198383745466 0.0
0.0 2.318868592 0.198263920247 0.0
0.0 2.320476684 0.198144026451 0.0
0.0 2.322084776 0.198024063875 0.0
0.0 2.323692868 0.197904035177 0.0
0.0 2.32530096 0.197783951739 0.0
0.0 2.326909052 0.197663861367 0.0
0.0 2.328517144 0.197543704952 0.0
0.0 2.330125236 0.197423570312 0.0
0.0 2.331733328 0.197303456777 0.0
0.0 2.33334142 0.197183203239 0.0
0.0 2.334949512 0.197062950547 0.0
0.0 2.336557604 0.196942225191 0.0
0.0 2.338165696 0.196821347386 0.0
0.0 2.339773788 0.196700487787 0.0
0.0 2.34138188 0.196579714885 0.0
0.0 2.342989972 0.196458875832 0.0
0.0 2.344598064 0.196337903244 0.0
0.0 2.346206156 0.196216842222 0.0
0.0 2.347814248 0.196095764824 0.0
0.0 2.34942234 0.195974731094 0.0
0.0 2.351030431 0.195853671318 0.0
0.0 2.352638523 0.195732464589 0.0
0.0 2.354246615 0.1956110695 0.0
0.0 2.355854707 0.195489925821 0.0
0.0 2.357462799 0.195368699294 0.0
0.0 2.359070891 0.195247058485 0.0
0.0 2.360678983 0.195125512575 0.0
0.0 2.362287075 0.195003958167 0.0
0.0 2.363895167 0.194882363933 0.0
0.0 2.365503259 0.194760720083 0.0
0.0 2.367111351 0.194639039693 0.0
0.0 2.368719443 0.194517454626 0.0
0.0 2.370327535 0.194395958582 0.0
0.0 2.371935627 0.194273953822 0.0
0.0 2.373543719 0.194151937026 0.0
0.0 2.375151811 0.194029779169 0.0
0.0 2.376759903 0.193907738882 0.0
0.0 2.378367995 0.19378576267 0.0
0.0 2.379976087 0.193663737743 0.0
0.0 2.381584179 0.193541734367 0.0
0.0 2.383192271 0.193419606509 0.0
0.0 2.384800362 0.193297182637 0.0
0.0 2.386408454 0.193174757549 0.0
0.0 2.388016546 0.193052315757 0.0
0.0 2.389624638 0.19292984843 0.0
0.0 2.39123273 0.192807349607 0.0
0.0 2.392840822 0.192684938131 0.0
0.0 2.394448914 0.192562683269 0.0
0.0 2.396057006 0.192440741915 0.0
0.0 2.397665098 0.192318189865 0.0
0.0 2.39927319 0.192195749209 0.0
0.0 2.400881282 0.192073748824 0.0
0.0 2.402489374 0.191951359563 0.0
0.0 2.404097466 0.191829000886 0.0
0.0 2.405705558 0.191705326295 0.0
0.0 2.40731365 0.19158148224 0.0
0.0 2.408921742 0.191458021955 0.0
0.0 2.410529834 0.191334298709 0.0
0.0 2.412137926 0.191211140048 0.0
0.0 2.413746018 0.191088044653 0.0
0.0 2.41535411 0.190964924394 0.0
0.0 2.416962201 0.190841764481 0.0
0.0 2.418570293 0.190718565252 0.0
0.0 2.420178385 0.190595327278 0.0
0.0 2.421786477 0.190472051057 0.0
0.0 2.423394569 0.190348742628 0.0
0.0 2.425002661 0.190225471022 0.0
0.0 2.426610753 0.190102897438 0.0
0.0 2.428218845 0.189979896052 0.0
0.0 2.429826937 0.189855998357 0.0
0.0 2.431435029 0.189732293804 0.0
0.0 2.433043121 0.18960820654 0.0
0.0 2.434651213 0.18948453615 0.0
0.0 2.436259305 0.189360925068 0.0
0.0 2.437867397 0.189237293192 0.0
0.0 2.439475489 0.189113628654 0.0
0.0 2.441083581 0.18898993242 0.0
0.0 2.442691673 0.188866229035 0.0
0.0 2.444299765 0.188742667594 0.0
0.0 2.445907857 0.188619727121 0.0
0.0 2.447515949 0.188495809232 0.0
0.0 2.44912404 0.188371984404 0.0
0.0 2.450732132 0.18824808803 0.0
0.0 2.452340224 0.188124132313 0.0
0.0 2.453948316 0.188000242753 0.0
0.0 2.455556408 0.18787644574 0.0
0.0 2.4571645 0.187752831996 0.0
0.0 2.458772592 0.187629700382 0.0
0.0 2.460380684 0.187506405194 0.0
0.0 2.461988776 0.187381829095 0.0
0.0 2.463596868 0.187257311121 0.0
0.0 2.46520496 0.187132475299 0.0
0.0 2.466813052 0.187007903558 0.0
0.0 2.468421144 0.186883750754 0.0
0.0 2.470029236 0.186759919914 0.0
0.0 2.471637328 0.186636063603 0.0
0.0 2.47324542 0.186512317914 0.0
0.0 2.474853512 0.186388558012 0.0
0.0 2.476461604 0.186264881434 0.0
0.0 2.478069696 0.186141386429 0.0
0.0 2.479677788 0.18601708504 0.0
0.0 2.481285879 0.185892724457 0.0
0.0 2.482893971 0.185768443123 0.0
0.0 2.484502063 0.185643470356 0.0
0.0 2.486110155 0.185518566293 0.0
0.0 2.487718247 0.185393756195 0.0
0.0 2.489326339 0.185268778163 0.0
0.0 2.490934431 0.185144143515 0.0
0.0 2.492542523 0.185019562062 0.0
0.0 2.494150615 0.184895159848 0.0
0.0 2.495758707 0.184770788323 0.0
0.0 2.497366799 0.184646448308 0.0
0.0 2.498974891 0.18452220381 0.0
0.0 2.499778162 0.184459295313 0.0
0.0 2.501129393 0.184355935431 0.0
0.0 2.502480624 0.184252682525 0.0
0.0 2.503831856 0.184148039582 0.0
0.0 2.505183087 0.184047400204 0.0
0.0 2.506534319 0.183939457596 0.0
0.0 2.50788555 0.18382957373 0.0
0.0 2.509236782 0.183725738369 0.0
0.0 2.510588013 0.183621262964 0.0
0.0 2.511939244 0.183516749993 0.0
0.0 2.513290476 0.183412328861 0.0
0.0 2.514641707 0.183306696373 0.0
0.0 2.515992939 0.183203458533 0.0
0.0 2.51734417 0.183096789768 0.0
0.0 2.518695402 0.18299755765 0.0
0.0 2.520046633 0.182892741038 0.0
0.0 2.521397865 0.182788538439 0.0
0.0 2.522749096 0.182678401414 0.0
0.0 2.524100327 0.182574751544 0.0
0.0 2.525451559 0.182470866579 0.0
0.0 2.52680279 0.18236396888 0.0
0.0 2.528154022 0.182257686368 0.0
0.0 2.529505253 0.182154727245 0.0
0.0 2.530856485 0.182049950228 0.0
0.0 2.532207716 0.181943866894 0.0
0.0 2.533558948 0.181841044653 0.0
0.0 2.534910179 0.181735964512 0.0
0.0 2.53626141 0.181630487813 0.0
0.0 2.537612642 0.181526241522 0.0
0.0 2.538963873 0.181420221278 0.0
0.0 2.540315105 0.181315378369 0.0
0.0 2.541666336 0.181209435572 0.0
0.0 2.543017568 0.181105539249 0.0
0.0 2.544368799 0.181002056036 0.0
0.0 2.54572003 0.180898198953 0.0
0.0 2.547071262 0.180798688119 0.0
0.0 2.548422493 0.180690102806 0.0
0.0 2.549773725 0.180583057616 0.0
0.0 2.551124956 0.180478636277 0.0
0.0 2.552476188 0.180371033228 0.0
0.0 2.553827419 0.180270504673 0.0
0.0 2.555178651 0.180163179281 0.0
0.0 2.556529882 0.180057212997 0.0
0.0 2.557881113 0.179952763305 0.0
0.0 2.559232345 0.179849020243 0.0
0.0 2.560583576 0.179745505528 0.0
0.0 2.561934808 0.179639131291 0.0
0.0 2.563286039 0.179532999663 0.0
0.0 2.564637271 0.179430598631 0.0
0.0 2.565988502 0.179329723371 0.0
0.0 2.567339733 0.17922109125 0.0
0.0 2.568690965 0.179116519017 0.0
0.0 2.570042196 0.179014948856 0.0
0.0 2.571393428 0.178909006817 0.0
0.0 2.572744659 0.1787998555 0.0
0.0 2.574095891 0.178695879068 0.0
0.0 2.575447122 0.178594299529 0.0
0.0 2.576798354 0.178491286288 0.0
0.0 2.578149585 0.178381267059 0.0
0.0 2.579500816 0.178276260346 0.0
0.0 2.580852048 0.17817137411 0.0
0.0 2.582203279 0.178066541852 0.0
0.0 2.583554511 0.177961780265 0.0
0.0 2.584905742 0.177857755417 0.0
0.0 2.586256974 0.17775532277 0.0
0.0 2.587608205 0.177651304483 0.0
0.0 2.588959437 0.177542903391 0.0
0.0 2.590310668 0.177438142945 0.0
0.0 2.591661899 0.177335138529 0.0
0.0 2.593013131 0.177232223812 0.0
0.0 2.594364362 0.177125239013 0.0
0.0 2.595715594 0.177018294428 0.0
0.0 2.597066825 0.176919387571 0.0
0.0 2.598418057 0.17681251139 0.0
0.0 2.599769288 0.176705414595 0.0
0.0 2.601120519 0.17660039273 0.0
0.0 2.602471751 0.176498561414 0.0
0.0 2.603822982 0.176392758041 0.0
0.0 2.605174214 0.176285955593 0.0
0.0 2.606525445 0.17618463642 0.0
0.0 2.607876677 0.176077528479 0.0
0.0 2.609227908 0.175974461671 0.0
0.0 2.61057914 0.175867744609 0.0
0.0 2.611930371 0.175763523991 0.0
0.0 2.613281602 0.175660884075 0.0
0.0 2.614632834 0.175556461123 0.0
0.0 2.615984065 0.175449769505 0.0
0.0 2.617335297 0.175345293161 0.0
0.0 2.618686528 0.175244503458 0.0
0.0 2.62003776 0.175140635519 0.0
0.0 2.621388991 0.17503625184 0.0
0.0 2.622740222 0.17493240342 0.0
0.0 2.624091454 0.174824727625 0.0
0.0 2.625442685 0.174719705608 0.0
0.0 2.626793917 0.17461797493 0.0
0.0 2.628145148 0.174511282599 0.0
0.0 2.62949638 0.174407862403 0.0
0.0 2.630847611 0.17430354249 0.0
0.0 2.632198843 0.174199616667 0.0
0.0 2.633550074 0.174095248792 0.0
0.0 2.634901305 0.173989050655 0.0
0.0 2.636252537 0.173886930453 0.0
0.0 2.637603768 0.173784100952 0.0
0.0 2.638955 0.17367847476 0.0
0.0 2.640306231 0.173575679436 0.0
0.0 2.641657463 0.173470174917 0.0
0.0 2.643008694 0.173367573155 0.0
0.0 2.644359925 0.173264505153 0.0
0.0 2.645711157 0.173160032033 0.0
0.0 2.647062388 0.17305640772 0.0
0.0 2.64841362 0.172951084927 0.0
0.0 2.649764851 0.172847936051 0.0
0.0 2.651116083 0.172743885744 0.0
0.0 2.652467314 0.172640672778 0.0
0.0 2.653818546 0.172539182931 0.0
0.0 2.655169777 0.172433771872 0.0
0.0 2.656521008 0.172325569583 0.0
0.0 2.65787224 0.172222047001 0.0
0.0 2.659223471 0.172120845706 0.0
0.0 2.660574703 0.172014672283 0.0
0.0 2.661925934 0.17190926822 0.0
0.0 2.663277166 0.171809854333 0.0
0.0 2.664628397 0.171705411018 0.0
0.0 2.665979629 0.171596898191 0.0
0.0 2.66733086 0.171492576995 0.0
0.0 2.668682091 0.171388840724 0.0
0.0 2.670033323 0.171286215751 0.0
0.0 2.671384554 0.171187745297 0.0
0.0 2.672735786 0.171084799734 0.0
0.0 2.674087017 0.170978539338 0.0
0.0 2.675438249 0.170876861828 0.0
0.0 2.67678948 0.170774065677 0.0
0.0 2.678140711 0.170670356049 0.0
0.0 2.679491943 0.170565473066 0.0
0.0 2.680843174 0.17045854475 0.0
0.0 2.682194406 0.170354275642 0.0
0.0 2.683545637 0.170250561328 0.0
0.0 2.684896869 0.170146203789 0.0
0.0 2.6862481 0.170042840052 0.0
0.0 2.687599332 0.169942004879 0.0
0.0 2.688950563 0.16983987073 0.0
0.0 2.690301794 0.169735245222 0.0
0.0 2.691653026 0.169633366399 0.0
0.0 2.693004257 0.169531049737 0.0
0.0 2.694355489 0.169423899888 0.0
0.0 2.69570672 0.16932156532 0.0
0.0 2.697057952 0.169218918722 0.0
0.0 2.698409183 0.169116659996 0.0
0.0 2.699760414 0.16901229993 0.0
0.0 2.701111646 0.168912621766 0.0
0.0 2.702462877 0.16880939626 0.0
0.0 2.703814109 0.168706847438 0.0
0.0 2.70516534 0.168605948672 0.0
0.0 2.706516572 0.168502640884 0.0
0.0 2.707867803 0.16839666689 0.0
0.0 2.709219035 0.168293904618 0.0
0.0 2.710570266 0.168191444687 0.0
0.0 2.711921497 0.16808665857 0.0
0.0 2.713272729 0.167983483826 0.0
0.0 2.71462396 0.167879535326 0.0
0.0 2.715975192 0.167776232063 0.0
0.0 2.717326423 0.167675450127 0.0
0.0 2.718677655 0.167572941923 0.0
0.0 2.720028886 0.167471599789 0.0
0.0 2.721380117 0.167367481438 0.0
0.0 2.722731349 0.167263462995 0.0
0.0 2.72408258 0.167162254247 0.0
0.0 2.725433812 0.167060319744 0.0
0.0 2.726785043 0.166960182307 0.0
0.0 2.728136275 0.166857330081 0.0
0.0 2.729487506 0.166752932647 0.0
0.0 2.730838738 0.166650568077 0.0
0.0 2.732189969 0.166548101174 0.0
0.0 2.7335412 0.166445852321 0.0
0.0 2.734892432 0.166342371936 0.0
0.0 2.736243663 0.16624021594 0.0
0.0 2.737594895 0.166140393408 0.0
0.0 2.738946126 0.166039496337 0.0
0.0 2.740297358 0.1659369516 0.0
0.0 2.741648589 0.165833886963 0.0
0.0 2.742999821 0.165730418749 0.0
0.0 2.744351052 0.165628829706 0.0
0.0 2.745702283 0.165526326589 0.0
0.0 2.747053515 0.16542450216 0.0
0.0 2.748404746 0.165322721599 0.0
0.0 2.749755978 0.165220977097 0.0
0.0 2.751107209 0.165121280125 0.0
0.0 2.752458441 0.165021297376 0.0
0.0 2.753809672 0.164919375687 0.0
0.0 2.755160903 0.164817670546 0.0
0.0 2.756512135 0.164715342576 0.0
0.0 2.757863366 0.164613483538 0.0
0.0 2.759214598 0.164512034785 0.0
0.0 2.760565829 0.164415521355 0.0
0.0 2.761917061 0.16431347628 0.0
0.0 2.763268292 0.164212536745 0.0
0.0 2.764619524 0.164112648026 0.0
0.0 2.765970755 0.164004352133 0.0
0.0 2.767321986 0.163902181295 0.0
0.0 2.768673218 0.163801627648 0.0
0.0 2.770024449 0.163701828581 0.0
0.0 2.771375681 0.163600223284 0.0
0.0 2.772726912 0.163499324363 0.0
0.0 2.774078144 0.163398221108 0.0
0.0 2.775429375 0.163296027754 0.0
0.0 2.776780606 0.163195558192 0.0
0.0 2.778131838 0.163096630354 0.0
0.0 2.779483069 0.162995881956 0.0
0.0 2.780834301 0.162896041816 0.0
0.0 2.782185532 0.162793937947 0.0
0.0 2.783536764 0.162692926272 0.0
0.0 2.784887995 0.162592743541 0.0
0.0 2.786239227 0.162491568957 0.0
0.0 2.787590458 0.162392390695 0.0
0.0 2.788941689 0.162291817794 0.0
0.0 2.790292921 0.162189147072 0.0
0.0 2.791644152 0.162089798835 0.0
0.0 2.792995384 0.161989106742 0.0
0.0 2.794346615 0.161888905044 0.0
0.0 2.795697847 0.16179040532 0.0
0.0 2.797049078 0.161689675156 0.0
0.0 2.798400309 0.161589194064 0.0
0.0 2.799751541 0.161490901897 0.0
0.0 2.801102772 0.16139284015 0.0
0.0 2.802454004 0.161288387489 0.0
0.0 2.803805235 0.161188057238 0.0
0.0 2.805156467 0.161088567149 0.0
0.0 2.806507698 0.160989680894 0.0
0.0 2.80785893 0.160890587794 0.0
0.0 2.809210161 0.160790564412 0.0
0.0 2.810561392 0.16069077403 0.0
0.0 2.811912624 0.16059009479 0.0
0.0 2.813263855 0.16049039375 0.0
0.0 2.814615087 0.160390941863 0.0
0.0 2.815966318 0.160292460951 0.0
0.0 2.81731755 0.160193843598 0.0
0.0 2.818668781 0.16009424789 0.0
0.0 2.820020013 0.159996390896 0.0
0.0 2.821371244 0.159896458598 0.0
0.0 2.822722475 0.159796717458 0.0
0.0 2.824073707 0.159697401644 0.0
0.0 2.825424938 0.159597309021 0.0
0.0 2.82677617 0.159498356708 0.0
0.0 2.828127401 0.159399461345 0.0
0.0 2.829478633 0.159301050555 0.0
0.0 2.830829864 0.15920289015 0.0
0.0 2.832181095 0.1591033576 0.0
0.0 2.833532327 0.159006191787 0.0
0.0 2.834883558 0.15890925115 0.0
0.0 2.83623479 0.158808824395 0.0
0.0 2.837586021 0.158709773043 0.0
0.0 2.838937253 0.158610485923 0.0
0.0 2.840288484 0.158516096639 0.0
0.0 2.841639716 0.15841567239 0.0
0.0 2.842990947 0.158315607457 0.0
0.0 2.844342178 0.158218552086 0.0
0.0 2.84569341 0.158119121803 0.0
0.0 2.847044641 0.158021051527 0.0
0.0 2.848395873 0.157925992628 0.0
0.0 2.849747104 0.157829495296 0.0
0.0 2.851098336 0.15772778355 0.0
0.0 2.852449567 0.157629382969 0.0
0.0 2.853800798 0.15753174264 0.0
0.0 2.85515203 0.15743392016 0.0
0.0 2.856503261 0.157336282623 0.0
0.0 2.857854493 0.157238933584 0.0
0.0 2.859205724 0.157141254389 0.0
0.0 2.860556956 0.157045027948 0.0
0.0 2.861908187 0.156947201193 0.0
0.0 2.863259419 0.156849069313 0.0
0.0 2.86461065 0.156751794203 0.0
0.0 2.865961881 0.156656730686 0.0
0.0 2.867313113 0.15655852724 0.0
0.0 2.868664344 0.156460413334 0.0
0.0 2.870015576 0.156363413115 0.0
0.0 2.871366807 0.156266719541 0.0
0.0 2.872718039 0.156172217675 0.0
0.0 2.87406927 0.156072869584 0.0
0.0 2.875420501 0.155976089014 0.0
0.0 2.876771733 0.155879446101 0.0
0.0 2.878122964 0.155783451996 0.0
0.0 2.879474196 0.155687331479 0.0
0.0 2.880825427 0.155589840852 0.0
0.0 2.882176659 0.155493438583 0.0
0.0 2.88352789 0.155397111952 0.0
0.0 2.884879122 0.155300868657 0.0
0.0 2.886230353 0.155204664246 0.0
0.0 2.887581584 0.15510909172 0.0
0.0 2.888932816 0.155013393116 0.0
0.0 2.890284047 0.154916510972 0.0
0.0 2.891635279 0.154821038194 0.0
0.0 2.89298651 0.1547265243 0.0
0.0 2.894337742 0.154632323104 0.0
0.0 2.895688973 0.154536825245 0.0
0.0 2.897040205 0.154441209226 0.0
0.0 2.898391436 0.154345023479 0.0
0.0 2.899742667 0.1542487212 0.0
0.0 2.901093899 0.154153123912 0.0
0.0 2.90244513 0.154055886756 0.0
0.0 2.903796362 0.153960585845 0.0
0.0 2.905147593 0.153868982956 0.0
0.0 2.906498825 0.153772848887 0.0
0.0 2.907850056 0.153675692602 0.0
0.0 2.909201287 0.15358168929 0.0
0.0 2.910552519 0.153487245237 0.0
0.0 2.91190375 0.153392441222 0.0
0.0 2.913254982 0.153298970805 0.0
0.0 2.914606213 0.153205445841 0.0
0.0 2.915957445 0.15310956753 0.0
0.0 2.917308676 0.153014828684 0.0
0.0 2.918659908 0.152919517348 0.0
0.0 2.920011139 0.152825817632 0.0
0.0 2.92136237 0.15273328921 0.0
0.0 2.922713602 0.152637049978 0.0
0.0 2.924064833 0.15254197927 0.0
0.0 2.925416065 0.152447761742 0.0
0.0 2.926767296 0.152354978745 0.0
0.0 2.928118528 0.152260667536 0.0
0.0 2.929469759 0.152167992196 0.0
0.0 2.93082099 0.152077019489 0.0
0.0 2.932172222 0.1519800972 0.0
0.0 2.933523453 0.151884971946 0.0
0.0 2.934874685 0.151791586825 0.0
0.0 2.936225916 0.151698281671 0.0
0.0 2.937577148 0.151607119005 0.0
0.0 2.938928379 0.151509861879 0.0
0.0 2.940279611 0.151416643412 0.0
0.0 2.941630842 0.151323601199 0.0
0.0 2.942982073 0.151230461725 0.0
0.0 2.944333305 0.151137984951 0.0
0.0 2.945684536 0.151045036439 0.0
0.0 2.947035768 0.150951819269 0.0
0.0 2.948386999 0.1508590721 0.0
0.0 2.949738231 0.15076760544 0.0
0.0 2.951089462 0.150673866946 0.0
0.0 2.952440694 0.150581385349 0.0
0.0 2.953791925 0.150490354431 0.0
0.0 2.955143156 0.150397118465 0.0
0.0 2.956494388 0.150304445502 0.0
0.0 2.957845619 0.150212661654 0.0
0.0 2.959196851 0.150120665119 0.0
0.0 2.960548082 0.150028258486 0.0
0.0 2.961899314 0.149936364694 0.0
0.0 2.963250545 0.149844555744 0.0
0.0 2.964601776 0.149752831854 0.0
0.0 2.965953008 0.14966119324 0.0
0.0 2.967304239 0.149569640327 0.0
0.0 2.968655471 0.149478173265 0.0
0.0 2.970006702 0.149386791487 0.0
0.0 2.971357934 0.149297186167 0.0
0.0 2.972709165 0.149204292395 0.0
0.0 2.974060397 0.1491141376 0.0
0.0 2.975411628 0.149022849245 0.0
0.0 2.976762859 0.148931316389 0.0
0.0 2.978114091 0.148843048565 0.0
0.0 2.979465322 0.148753202756 0.0
0.0 2.980816554 0.148661096581 0.0
0.0 2.982167785 0.148568940507 0.0
0.0 2.983519017 0.148480226838 0.0
0.0 2.984870248 0.148394399213 0.0
0.0 2.986221479 0.148301613919 0.0
0.0 2.987572711 0.148209176246 0.0
0.0 2.988923942 0.148119588615 0.0
0.0 2.990275174 0.148032097285 0.0
0.0 2.991626405 0.147941664053 0.0
0.0 2.992977637 0.147851153336 0.0
0.0 2.994328868 0.147762818732 0.0
0.0 2.9956801 0.147674378138 0.0
0.0 2.997031331 0.147581913834 0.0
0.0 2.998382562 0.147492818468 0.0
0.0 2.999733794 0.147400386125 0.0
0.0 3.001085025 0.147311641525 0.0
0.0 3.002436257 0.147226281784 0.0
0.0 3.003787488 0.147137090085 0.0
0.0 3.00513872 0.147045282459 0.0
0.0 3.006489951 0.146953959359 0.0
0.0 3.007841182 0.146864364577 0.0
0.0 3.009192414 0.146778408347 0.0
0.0 3.010543645 0.146690632088 0.0
0.0 3.011894877 0.146598513844 0.0
0.0 3.013246108 0.1465118737 0.0
0.0 3.01459734 0.146424658496 0.0
0.0 3.015948571 0.146334999007 0.0
0.0 3.017299803 0.146246416041 0.0
0.0 3.018651034 0.146158507226 0.0
0.0 3.020002265 0.146069916058 0.0
0.0 3.021353497 0.145983412935 0.0
0.0 3.022704728 0.145894625947 0.0
0.0 3.02405596 0.145807106509 0.0
0.0 3.025407191 0.145718403184 0.0
0.0 3.026758423 0.145634275907 0.0
0.0 3.028109654 0.145548263768 0.0
0.0 3.029460886 0.145459604194 0.0
0.0 3.030812117 0.145371077249 0.0
0.0 3.032163348 0.145285143667 0.0
0.0 3.03351458 0.145197562763 0.0
0.0 3.034865811 0.145109145143 0.0
0.0 3.036217043 0.145023184886 0.0
0.0 3.037568274 0.144939381996 0.0
0.0 3.038919506 0.144853674314 0.0
0.0 3.040270737 0.144768111925 0.0
0.0 3.041621968 0.144677331276 0.0
0.0 3.0429732 0.144590149432 0.0
0.0 3.044324431 0.144506524196 0.0
0.0 3.045675663 0.144416807085 0.0
0.0 3.047026894 0.144331550787 0.0
0.0 3.048378126 0.14424923793 0.0
0.0 3.049729357 0.144165183471 0.0
0.0 3.051080589 0.144076169128 0.0
0.0 3.05243182 0.143987115502 0.0
0.0 3.053783051 0.143902596067 0.0
0.0 3.055134283 0.143820088439 0.0
0.0 3.056485514 0.143735754484 0.0
0.0 3.057836746 0.143651543673 0.0
0.0 3.059187977 0.143562232327 0.0
0.0 3.060539209 0.143478236581 0.0
0.0 3.06189044 0.143395223351 0.0
0.0 3.063241671 0.143308681572 0.0
0.0 3.064592903 0.143224663469 0.0
0.0 3.065944134 0.143139668612 0.0
0.0 3.067295366 0.143056153851 0.0
0.0 3.068646597 0.142973648929 0.0
0.0 3.069997829 0.142891231951 0.0
0.0 3.07134906 0.142805392411 0.0
0.0 3.072700292 0.142718953709 0.0
0.0 3.074051523 0.142636006891 0.0
0.0 3.075402754 0.142552079067 0.0
0.0 3.076753986 0.142470384026 0.0
0.0 3.078105217 0.142386839328 0.0
0.0 3.079456449 0.142303773473 0.0
0.0 3.08080768 0.142222607331 0.0
0.0 3.082158912 0.142141697272 0.0
0.0 3.083510143 0.142058798421 0.0
0.0 3.084861374 0.141975439203 0.0
0.0 3.086212606 0.141893544213 0.0
0.0 3.087563837 0.141809030764 0.0
0.0 3.088915069 0.141723609251 0.0
0.0 3.0902663 0.141638684625 0.0
0.0 3.091617532 0.141556682415 0.0
0.0 3.092968763 0.14147446718 0.0
0.0 3.094319995 0.141390572405 0.0
0.0 3.095671226 0.141309677208 0.0
0.0 3.097022457 0.141229480769 0.0
0.0 3.098373689 0.141147355347 0.0
0.0 3.09972492 0.141065489884 0.0
0.0 3.101076152 0.140982103621 0.0
0.0 3.102427383 0.140898770405 0.0
0.0 3.103778615 0.140815824413 0.0
0.0 3.105129846 0.140734474125 0.0
0.0 3.106481078 0.140656018948 0.0
0.0 3.107832309 0.140576243075 0.0
0.0 3.10918354 0.140497119175 0.0
0.0 3.110534772 0.1404159459 0.0
0.0 3.111886003 0.140336112357 0.0
0.0 3.113237235 0.140254213371 0.0
0.0 3.114588466 0.140174448848 0.0
0.0 3.115939698 0.140093764207 0.0
0.0 3.117290929 0.140013784082 0.0
0.0 3.11864216 0.139935728084 0.0
0.0 3.119993392 0.139852864156 0.0
0.0 3.121344623 0.139771956432 0.0
0.0 3.122695855 0.139694099279 0.0
0.0 3.124047086 0.139614575859 0.0
0.0 3.125398318 0.13953167509 0.0
0.0 3.126749549 0.139452239489 0.0
0.0 3.128100781 0.139375147254 0.0
0.0 3.129452012 0.139295512433 0.0
0.0 3.130803243 0.139213868812 0.0
0.0 3.132154475 0.139135562666 0.0
0.0 3.133505706 0.139058729432 0.0
0.0 3.134856938 0.138980992986 0.0
0.0 3.136208169 0.138902131071 0.0
0.0 3.137559401 0.138823952092 0.0
0.0 3.138910632 0.138746784692 0.0
0.0 3.140261863 0.138671380226 0.0
0.0 3.141613095 0.13859163889 0.0
0.0 3.142964326 0.138512216696 0.0
0.0 3.144315558 0.138434667526 0.0
0.0 3.145666789 0.138355702634 0.0
0.0 3.147018021 0.138276953358 0.0
0.0 3.148369252 0.138202912383 0.0
0.0 3.149720484 0.138128396574 0.0
0.0 3.151071715 0.13805055106 0.0
0.0 3.152422946 0.137971300627 0.0
0.0 3.153774178 0.137894656497 0.0
0.0 3.155125409 0.137815913859 0.0
0.0 3.156476641 0.137740924742 0.0
0.0 3.157827872 0.137663736578 0.0
0.0 3.159179104 0.137587798746 0.0
0.0 3.160530335 0.137512445311 0.0
0.0 3.161881566 0.137439329954 0.0
0.0 3.163232798 0.13736318497 0.0
0.0 3.164584029 0.137288454315 0.0
0.0 3.165935261 0.137212519097 0.0
0.0 3.167286492 0.137132626356 0.0
0.0 3.168637724 0.137056966955 0.0
0.0 3.169988955 0.13698255274 0.0
0.0 3.171340187 0.136906857936 0.0
0.0 3.172691418 0.136831668725 0.0
0.0 3.174042649 0.136755748232 0.0
0.0 3.175393881 0.136681572907 0.0
0.0 3.176745112 0.136606848978 0.0
0.0 3.178096344 0.136533958 0.0
0.0 3.179447575 0.136460720339 0.0
0.0 3.180798807 0.136384980271 0.0
0.0 3.182150038 0.136309729346 0.0
0.0 3.18350127 0.136236252813 0.0
0.0 3.184852501 0.136163772419 0.0
0.0 3.186203732 0.136088226623 0.0
0.0 3.187554964 0.136012547702 0.0
0.0 3.188906195 0.135941645724 0.0
0.0 3.190257427 0.135869995899 0.0
0.0 3.191608658 0.135794750633 0.0
0.0 3.19295989 0.13571839373 0.0
0.0 3.194311121 0.135644166469 0.0
0.0 3.195662352 0.135572251878 0.0
0.0 3.197013584 0.135499862924 0.0
0.0 3.198364815 0.135426587378 0.0
0.0 3.199716047 0.135354908208 0.0
0.0 3.201067278 0.135284254665 0.0
0.0 3.20241851 0.135212482221 0.0
0.0 3.203769741 0.135140583676 0.0
0.0 3.205120973 0.135068825646 0.0
0.0 3.206472204 0.134995382656 0.0
0.0 3.207823435 0.134922501572 0.0
0.0 3.209174667 0.134851144268 0.0
0.0 3.210525898 0.134781404706 0.0
0.0 3.21187713 0.134710048491 0.0
0.0 3.213228361 0.134637971863 0.0
0.0 3.214579593 0.134567605203 0.0
0.0 3.215930824 0.134497715774 0.0
0.0 3.217282055 0.13442693772 0.0
0.0 3.218633287 0.134356108163 0.0
0.0 3.219984518 0.13428655644 0.0
0.0 3.22133575 0.134215718059 0.0
0.0 3.222686981 0.134145597243 0.0
0.0 3.224038213 0.134075919951 0.0
0.0 3.225389444 0.134006224395 0.0
0.0 3.226740676 0.13393675733 0.0
0.0 3.228091907 0.13386803336 0.0
0.0 3.229443138 0.133801072154 0.0
0.0 3.23079437 0.133730224464 0.0
0.0 3.232145601 0.133660361559 0.0
0.0 3.233496833 0.133591633747 0.0
0.0 3.234848064 0.133523583665 0.0
0.0 3.236199296 0.13345551578 0.0
0.0 3.237550527 0.133387299469 0.0
0.0 3.238901759 0.133319556316 0.0
0.0 3.24025299 0.133252087492 0.0
0.0 3.241604221 0.133186636079 0.0
0.0 3.242955453 0.133120766129 0.0
0.0 3.244306684 0.133051220659 0.0
0.0 3.245657916 0.132981605617 0.0
0.0 3.247009147 0.132913714379 0.0
0.0 3.248360379 0.132845530698 0.0
0.0 3.24971161 0.132778564215 0.0
0.0 3.251062841 0.132711796826 0.0
0.0 3.252414073 0.132645435664 0.0
0.0 3.253765304 0.132580171077 0.0
0.0 3.255116536 0.132514032261 0.0
0.0 3.256467767 0.132448111796 0.0
0.0 3.257818999 0.132382921332 0.0
0.0 3.25917023 0.132317061134 0.0
0.0 3.260521462 0.132250900727 0.0
0.0 3.261872693 0.132183560368 0.0
0.0 3.263223924 0.132117814561 0.0
0.0 3.264575156 0.132052698534 0.0
0.0 3.265926387 0.131988227114 0.0
0.0 3.267277619 0.131924547273 0.0
0.0 3.26862885 0.131860721821 0.0
0.0 3.269980082 0.131794891774 0.0
0.0 3.271331313 0.131728836979 0.0
0.0 3.272682544 0.131664619282 0.0
0.0 3.274033776 0.131600603607 0.0
0.0 3.275385007 0.131536495338 0.0
0.0 3.276736239 0.131472700974 0.0
0.0 3.27808747 0.131409067065 0.0
0.0 3.279438702 0.131345593899 0.0
0.0 3.280789933 0.131282281951 0.0
0.0 3.282141165 0.131219143439 0.0
0.0 3.283492396 0.131156572028 0.0
0.0 3.284843627 0.131093360164 0.0
0.0 3.286194859 0.13103065345 0.0
0.0 3.28754609 0.130968153116 0.0
0.0 3.288897322 0.130905881571 0.0
0.0 3.290248553 0.130843643232 0.0
0.0 3.291599785 0.130781634451 0.0
0.0 3.292951016 0.130719842115 0.0
0.0 3.294302247 0.130658111292 0.0
0.0 3.295653479 0.130596597603 0.0
0.0 3.29700471 0.13053524977 0.0
0.0 3.298355942 0.130474068092 0.0
0.0 3.299707173 0.130413053054 0.0
0.0 3.301058405 0.130352281077 0.0
0.0 3.302409636 0.130292120126 0.0
0.0 3.303760868 0.130231093479 0.0
0.0 3.305112099 0.13017066895 0.0
0.0 3.30646333 0.130110490417 0.0
0.0 3.307814562 0.130050483155 0.0
0.0 3.309165793 0.129990645292 0.0
0.0 3.310517025 0.129930977138 0.0
0.0 3.311868256 0.129871479181 0.0
0.0 3.313219488 0.129812165375 0.0
0.0 3.314570719 0.12975307417 0.0
0.0 3.315921951 0.129694010414 0.0
0.0 3.317273182 0.129635196736 0.0
0.0 3.318624413 0.129576555522 0.0
0.0 3.319975645 0.129518086818 0.0
0.0 3.321326876 0.129459791114 0.0
0.0 3.322678108 0.129401668727 0.0
0.0 3.324029339 0.129343720149 0.0
0.0 3.325380571 0.129285945698 0.0
0.0 3.326731802 0.12922852079 0.0
0.0 3.328083033 0.129171014053 0.0
0.0 3.329434265 0.129113671523 0.0
0.0 3.330785496 0.129056597864 0.0
0.0 3.332136728 0.12899970037 0.0
0.0 3.333487959 0.128942979535 0.0
0.0 3.334839191 0.128886435694 0.0
0.0 3.336190422 0.128830069332 0.0
0.0 3.337541654 0.128773880781 0.0
0.0 3.338892885 0.128717870537 0.0
0.0 3.340244116 0.128662099276 0.0
0.0 3.341595348 0.128607856308 0.0
0.0 3.342946579 0.128552074205 0.0
0.0 3.344297811 0.128495642958 0.0
0.0 3.345649042 0.128440507685 0.0
0.0 3.347000274 0.128385575701 0.0
0.0 3.348351505 0.128330824936 0.0
0.0 3.349702736 0.12827625577 0.0
0.0 3.351053968 0.128221868564 0.0
0.0 3.352405199 0.128167663833 0.0
0.0 3.353756431 0.128113641921 0.0
0.0 3.355107662 0.128059809431 0.0
0.0 3.356458894 0.128006151066 0.0
0.0 3.357810125 0.12795267766 0.0
0.0 3.359161357 0.127899391424 0.0
0.0 3.360512588 0.127846290225 0.0
0.0 3.361863819 0.127793530067 0.0
0.0 3.363215051 0.127742175813 0.0
0.0 3.364566282 0.12769007769 0.0
0.0 3.365917514 0.127637716808 0.0
0.0 3.367268745 0.127584278343 0.0
0.0 3.368619977 0.127531593435 0.0
0.0 3.369971208 0.127479979336 0.0
0.0 3.371322439 0.127429089002 0.0
0.0 3.372673671 0.127377775826 0.0
0.0 3.374024902 0.127327381698 0.0
0.0 3.375376134 0.127276625303 0.0
0.0 3.376727365 0.127223832674 0.0
0.0 3.378078597 0.127173003421 0.0
0.0 3.379429828 0.127122537174 0.0
0.0 3.38078106 0.127072538722 0.0
0.0 3.382132291 0.127025549406 0.0
0.0 3.383483522 0.126976171359 0.0
0.0 3.384834754 0.126926456363 0.0
0.0 3.386185985 0.126875135094 0.0
0.0 3.387537217 0.126825139957 0.0
0.0 3.388888448 0.126776478805 0.0
0.0 3.39023968 0.12672764928 0.0
0.0 3.391590911 0.126677049114 0.0
0.0 3.392942143 0.126629295061 0.0
0.0 3.394293374 0.126582004374 0.0
0.0 3.395644605 0.126532156807 0.0
0.0 3.396995837 0.126485135527 0.0
0.0 3.398347068 0.126438796765 0.0
0.0 3.3996983 0.126388765889 0.0
0.0 3.401049531 0.126341520813 0.0
0.0 3.402400763 0.126294265078 0.0
0.0 3.403751994 0.126247313034 0.0
0.0 3.405103225 0.126200560493 0.0
0.0 3.406454457 0.126154008405 0.0
0.0 3.407805688 0.126108167242 0.0
0.0 3.40915692 0.126061542221 0.0
0.0 3.410508151 0.126015554383 0.0
0.0 3.411859383 0.125969806157 0.0
0.0 3.413210614 0.125924260208 0.0
0.0 3.414561846 0.125878916931 0.0
0.0 3.415913077 0.125833776858 0.0
0.0 3.417264308 0.125788840409 0.0
0.0 3.41861554 0.125744108018 0.0
0.0 3.419966771 0.125699580216 0.0
0.0 3.421318003 0.125655257405 0.0
0.0 3.422669234 0.125611150065 0.0
0.0 3.424020466 0.125567495809 0.0
0.0 3.425371697 0.125523527803 0.0
0.0 3.426722928 0.125480025804 0.0
0.0 3.42807416 0.125436735107 0.0
0.0 3.429425391 0.125393652272 0.0
0.0 3.430776623 0.125350777455 0.0
0.0 3.432127854 0.125308601647 0.0
0.0 3.433479086 0.125266812321 0.0
0.0 3.434830317 0.125223408622 0.0
0.0 3.436181549 0.125181372003 0.0
0.0 3.43753278 0.125139581582 0.0
0.0 3.438884011 0.125098585753 0.0
0.0 3.440235243 0.125056528929 0.0
0.0 3.441586474 0.125015337157 0.0
0.0 3.442937706 0.1249743587 0.0
0.0 3.444288937 0.124933593352 0.0
0.0 3.445640169 0.124893041523 0.0
0.0 3.4469914 0.124852703763 0.0
0.0 3.448342631 0.12481269345 0.0
0.0 3.449693863 0.124773896221 0.0
0.0 3.451045094 0.124733076267 0.0
0.0 3.452396326 0.124693502765 0.0
0.0 3.453747557 0.124654242487 0.0
0.0 3.455098789 0.124615199141 0.0
0.0 3.45645002 0.124578249171 0.0
0.0 3.457801252 0.124539113618 0.0
0.0 3.459152483 0.124501006904 0.0
0.0 3.460503714 0.124462915635 0.0
0.0 3.461854946 0.124424945355 0.0
0.0 3.463206177 0.124386973099 0.0
0.0 3.464557409 0.124348574626 0.0
0.0 3.46590864 0.124310722168 0.0
0.0 3.467259872 0.124273653661 0.0
0.0 3.468611103 0.12423683491 0.0
0.0 3.469962335 0.124200755544 0.0
0.0 3.471313566 0.124164660187 0.0
0.0 3.472664797 0.124129675601 0.0
0.0 3.474016029 0.124091812912 0.0
0.0 3.47536726 0.124055952677 0.0
0.0 3.476718492 0.124020666672 0.0
0.0 3.478069723 0.123985218345 0.0
0.0 3.479420955 0.123951430337 0.0
0.0 3.480772186 0.123916683155 0.0
0.0 3.482123417 0.123882008172 0.0
0.0 3.483474649 0.123847058429 0.0
0.0 3.48482588 0.123812156799 0.0
0.0 3.486177112 0.123778224651 0.0
0.0 3.487528343 0.123744604842 0.0
0.0 3.488879575 0.123711600542 0.0
0.0 3.490230806 0.123677853445 0.0
0.0 3.491582038 0.123644856806 0.0
0.0 3.492933269 0.123612091277 0.0
0.0 3.4942845 0.123579557355 0.0
0.0 3.495635732 0.123547255535 0.0
0.0 3.496986963 0.12351518639 0.0
0.0 3.498338195 0.123483990581 0.0
0.0 3.499689426 0.123451853317 0.0
0.0 3.501040658 0.123420380039 0.0
0.0 3.502391889 0.123389246733 0.0
0.0 3.50374312 0.123358348705 0.0
0.0 3.505094352 0.12332768646 0.0
0.0 3.506445583 0.123297260574 0.0
0.0 3.507796815 0.123267071537 0.0
0.0 3.509148046 0.123237119919 0.0
0.0 3.510499278 0.123207406213 0.0
0.0 3.511850509 0.123177930996 0.0
0.0 3.513201741 0.123148694759 0.0
0.0 3.514552972 0.123119698083 0.0
0.0 3.515904203 0.123090941484 0.0
0.0 3.517255435 0.123064243675 0.0
0.0 3.518606666 0.123036786638 0.0
0.0 3.519957898 0.123006520978 0.0
0.0 3.521309129 0.122978463847 0.0
0.0 3.522660361 0.122952061321 0.0
0.0 3.524011592 0.122925028099 0.0
0.0 3.525362824 0.122897409429 0.0
0.0 3.526714055 0.122869963474 0.0
0.0 3.528065286 0.122843025113 0.0
0.0 3.529416518 0.122816699783 0.0
0.0 3.530767749 0.122790826777 0.0
0.0 3.532118981 0.122767156916 0.0
0.0 3.533470212 0.12274082242 0.0
0.0 3.534821444 0.122714970208 0.0
0.0 3.536172675 0.122690949091 0.0
0.0 3.537523906 0.122669435135 0.0
0.0 3.538875138 0.122647220223 0.0
0.0 3.540226369 0.122624137153 0.0
0.0 3.541577601 0.122599938431 0.0
0.0 3.542928832 0.12257560872 0.0
0.0 3.544280064 0.122551792211 0.0
0.0 3.545631295 0.122527434216 0.0
0.0 3.546982527 0.122504713943 0.0
0.0 3.548333758 0.122482928567 0.0
0.0 3.549684989 0.122463163484 0.0
0.0 3.551036221 0.122441787924 0.0
0.0 3.552387452 0.122416583633 0.0
0.0 3.553738684 0.122395475329 0.0
0.0 3.555089915 0.122373596622 0.0
0.0 3.556441147 0.122355257255 0.0
0.0 3.557792378 0.122334646275 0.0
0.0 3.559143609 0.122312339966 0.0
0.0 3.560494841 0.122290957473 0.0
0.0 3.561846072 0.122270930527 0.0
0.0 3.563197304 0.122251201059 0.0
0.0 3.564548535 0.122232958747 0.0
0.0 3.565899767 0.122215017232 0.0
0.0 3.567250998 0.122194707746 0.0
0.0 3.56860223 0.122172337718 0.0
0.0 3.569953461 0.122150035912 0.0
0.0 3.571304692 0.122131922327 0.0
0.0 3.572655924 0.122114927652 0.0
0.0 3.574007155 0.122097581722 0.0
0.0 3.575358387 0.122080939149 0.0
0.0 3.576709618 0.122064323956 0.0
0.0 3.57806085 0.122047603913 0.0
0.0 3.579412081 0.122029635595 0.0
0.0 3.580763312 0.122013667244 0.0
0.0 3.582114544 0.12200211365 0.0
0.0 3.583465775 0.12198648419 0.0
0.0 3.584817007 0.121969072278 0.0
0.0 3.586168238 0.121952961074 0.0
0.0 3.58751947 0.121939070426 0.0
0.0 3.588870701 0.121925142701 0.0
0.0 3.590221933 0.121910756316 0.0
0.0 3.591573164 0.121895648309 0.0
0.0 3.592924395 0.121882288744 0.0
0.0 3.594275627 0.121871150296 0.0
0.0 3.595626858 0.121859255014 0.0
0.0 3.59697809 0.121847982351 0.0
0.0 3.598329321 0.121836817716 0.0
0.0 3.599680553 0.121824891985 0.0
0.0 3.601031784 0.121813369028 0.0
0.0 3.602383016 0.121800836427 0.0
0.0 3.603734247 0.121788893304 0.0
0.0 3.605085478 0.121778173227 0.0
0.0 3.60643671 0.121764822646 0.0
0.0 3.607787941 0.121752408233 0.0
0.0 3.609139173 0.12174448461 0.0
0.0 3.610490404 0.121737424465 0.0
0.0 3.611841636 0.121728550787 0.0
0.0 3.613192867 0.12171853501 0.0
0.0 3.614544098 0.121710420567 0.0
0.0 3.61589533 0.121703942936 0.0
0.0 3.617246561 0.121696160071 0.0
0.0 3.618597793 0.121688014911 0.0
0.0 3.619949024 0.12167987571 0.0
0.0 3.621300256 0.121672403135 0.0
0.0 3.622651487 0.121668450735 0.0
0.0 3.624002719 0.121666080914 0.0
0.0 3.62535395 0.121661983514 0.0
0.0 3.626705181 0.121657402589 0.0
0.0 3.628056413 0.121652389765 0.0
0.0 3.629407644 0.121645504772 0.0
0.0 3.630758876 0.121636728422 0.0
0.0 3.632110107 0.12163002543 0.0
0.0 3.633461339 0.121628880787 0.0
0.0 3.63481257 0.121628640288 0.0
0.0 3.636163801 0.121625099112 0.0
0.0 3.637515033 0.121620322568 0.0
0.0 3.638866264 0.12161543734 0.0
0.0 3.640217496 0.121611231503 0.0
0.0 3.641568727 0.121608206512 0.0
0.0 3.642919959 0.121605035357 0.0
0.0 3.64427119 0.121602396048 0.0
0.0 3.645622422 0.121601053515 0.0
0.0 3.646973653 0.121599785901 0.0
0.0 3.648324884 0.121597303459 0.0
0.0 3.649676116 0.121593212097 0.0
0.0 3.651027347 0.121590176434 0.0
0.0 3.652378579 0.12158940824 0.0
0.0 3.65372981 0.121587800354 0.0
0.0 3.655081042 0.121587590028 0.0
0.0 3.656432273 0.121590560801 0.0
0.0 3.657783504 0.121592627985 0.0
0.0 3.659134736 0.121593496873 0.0
0.0 3.660485967 0.121596552005 0.0
0.0 3.661837199 0.121602246331 0.0
0.0 3.66318843 0.121608486999 0.0
0.0 3.664539662 0.121612477571 0.0
0.0 3.665890893 0.121614629728 0.0
0.0 3.667242125 0.121617999468 0.0
0.0 3.668593356 0.121622897779 0.0
0.0 3.669944587 0.121627109771 0.0
0.0 3.671295819 0.121631014763 0.0
0.0 3.67264705 0.121638205342 0.0
0.0 3.673998282 0.121649546031 0.0
0.0 3.675349513 0.121660695548 0.0
0.0 3.676700745 0.121669826731 0.0
0.0 3.678051976 0.121680096322 0.0
0.0 3.679403208 0.121691894225 0.0
0.0 3.680754439 0.121703406887 0.0
0.0 3.68210567 0.121714722999 0.0
0.0 3.683456902 0.121726483204 0.0
0.0 3.684808133 0.121738852917 0.0
0.0 3.686159365 0.121750479892 0.0
0.0 3.687510596 0.121761976804 0.0
0.0 3.688861828 0.121778491453 0.0
0.0 3.690213059 0.12180039242 0.0
0.0 3.69156429 0.121820886558 0.0
0.0 3.692915522 0.121837194779 0.0
0.0 3.694266753 0.121854095729 0.0
0.0 3.695617985 0.121874636929 0.0
0.0 3.696969216 0.121896487441 0.0
0.0 3.698320448 0.121917246125 0.0
0.0 3.699671679 0.121940076769 0.0
0.0 3.701022911 0.121967112843 0.0
0.0 3.702374142 0.121996945424 0.0
0.0 3.703725373 0.122029129913 0.0
0.0 3.705076605 0.12206313374 0.0
0.0 3.706427836 0.122098890064 0.0
0.0 3.707779068 0.122137009728 0.0
0.0 3.709130299 0.122174753045 0.0
0.0 3.710481531 0.122211304192 0.0
0.0 3.711832762 0.122250559325 0.0
0.0 3.713183993 0.122292721228 0.0
0.0 3.714535225 0.122336078064 0.0
0.0 3.715886456 0.122381677525 0.0
0.0 3.717237688 0.122429198173 0.0
0.0 3.718588919 0.122478313638 0.0
0.0 3.719940151 0.122530389467 0.0
0.0 3.721291382 0.12258528181 0.0
0.0 3.722642614 0.122643281757 0.0
0.0 3.723993845 0.122704920458 0.0
0.0 3.725345076 0.122769892044 0.0
0.0 3.726696308 0.122840590277 0.0
0.0 3.728047539 0.122918340633 0.0
0.0 3.729398771 0.122999724881 0.0
0.0 3.730750002 0.123082184473 0.0
0.0 3.732101234 0.123166231291 0.0
0.0 3.733452465 0.123254582997 0.0
0.0 3.734803696 0.12335009372 0.0
0.0 3.736154928 0.123452938204 0.0
0.0 3.737506159 0.123558761176 0.0
0.0 3.738857391 0.123671416346 0.0
0.0 3.740208622 0.123789877696 0.0
0.0 3.741559854 0.123912541365 0.0
0.0 3.742911085 0.124040293843 0.0
0.0 3.744262317 0.124177022261 0.0
0.0 3.745613548 0.124321332714 0.0
0.0 3.746964779 0.124473105559 0.0
0.0 3.748316011 0.124634222009 0.0
0.0 3.749667242 0.1248068584 0.0
0.0 3.751018474 0.124990682335 0.0
0.0 3.752369705 0.125183611868 0.0
0.0 3.753720937 0.125386773881 0.0
0.0 3.755072168 0.125601642902 0.0
0.0 3.7564234 0.125827400447 0.0
0.0 3.757774631 0.126066270591 0.0
0.0 3.759125862 0.126321214657 0.0
0.0 3.760477094 0.126591084504 0.0
0.0 3.761828325 0.126875340788 0.0
0.0 3.763179557 0.127175518419 0.0
0.0 3.764530788 0.127492623899 0.0
0.0 3.76588202 0.127828227493 0.0
0.0 3.767233251 0.128183392413 0.0
0.0 3.768584482 0.128558746155 0.0
0.0 3.769935714 0.12895714752 0.0
0.0 3.771286945 0.129380324914 0.0
0.0 3.772638177 0.129828094994 0.0
0.0 3.773989408 0.130303450313 0.0
0.0 3.77534064 0.130809925341 0.0
0.0 3.776691871 0.131353799104 0.0
0.0 3.778043103 0.131925596012 0.0
0.0 3.779394334 0.132529679771 0.0
0.0 3.780745565 0.133172914224 0.0
0.0 3.782096797 0.133857080457 0.0
0.0 3.783448028 0.134584993735 0.0
0.0 3.78479926 0.135360714639 0.0
0.0 3.786150491 0.136186670569 0.0
0.0 3.787501723 0.137063881197 0.0
0.0 3.788852954 0.137995680448 0.0
0.0 3.790204185 0.138987974116 0.0
0.0 3.791555417 0.140041043679 0.0
0.0 3.792906648 0.14116033329 0.0
0.0 3.79425788 0.142355282708 0.0
0.0 3.795609111 0.143635848556 0.0
0.0 3.796960343 0.145002076919 0.0
0.0 3.798311574 0.146456662588 0.0
0.0 3.799662806 0.148011661071 0.0
0.0 3.801014037 0.149679701906 0.0
0.0 3.802365268 0.151460274393 0.0
0.0 3.8037165 0.153359561839 0.0
0.0 3.805067731 0.15538723262 0.0
0.0 3.806418963 0.157555490389 0.0
0.0 3.807770194 0.159876365059 0.0
0.0 3.809121426 0.162354266386 0.0
0.0 3.810472657 0.164995435259 0.0
0.0 3.811823889 0.16781271824 0.0
0.0 3.81317512 0.170819251429 0.0
0.0 3.814526351 0.174026212355 0.0
0.0 3.815877583 0.177451078755 0.0
0.0 3.817228814 0.181119569163 0.0
0.0 3.818580046 0.185065227374 0.0
0.0 3.819931277 0.189213842012 0.0
0.0 3.821282509 0.193634528587 0.0
0.0 3.82263374 0.198340199351 0.0
0.0 3.823984971 0.203346480564 0.0
0.0 3.825336203 0.208664036725 0.0
0.0 3.826687434 0.214300395862 0.0
0.0 3.828038666 0.220270414992 0.0
0.0 3.829389897 0.226583918806 0.0
0.0 3.830741129 0.233241507773 0.0
0.0 3.83209236 0.24025770162 0.0
0.0 3.833443592 0.24764276989 0.0
0.0 3.834794823 0.25538978059 0.0
0.0 3.836146054 0.263508702871 0.0
0.0 3.837497286 0.271992485221 0.0
0.0 3.838848517 0.280974696618 0.0
0.0 3.840199749 0.290203623582 0.0
0.0 3.84155098 0.299741134994 0.0
0.0 3.842902212 0.309579377901 0.0
0.0 3.844253443 0.319713038303 0.0
0.0 3.845604674 0.330114789732 0.0
0.0 3.846955906 0.340738906808 0.0
0.0 3.848307137 0.351558420449 0.0
0.0 3.849658369 0.362539599875 0.0
0.0 3.8510096 0.373629293383 0.0
0.0 3.852360832 0.384793062239 0.0
0.0 3.853712063 0.395993169523 0.0
0.0 3.855063295 0.407161808529 0.0
0.0 3.856414526 0.418252483374 0.0
0.0 3.857765757 0.429501661384 0.0
0.0 3.859116989 0.44039049397 0.0
0.0 3.86046822 0.450968793324 0.0
0.0 3.861819452 0.461287871082 0.0
0.0 3.863170683 0.471255647171 0.0
0.0 3.864521915 0.480886707642 0.0
0.0 3.865873146 0.490177386572 0.0
0.0 3.867224377 0.499061273712 0.0
0.0 3.868575609 0.50752957259 0.0
0.0 3.86992684 0.515590087557 0.0
0.0 3.871278072 0.523202673486 0.0
0.0 3.872629303 0.530373560988 0.0
0.0 3.873980535 0.537122222023 0.0
0.0 3.875331766 0.543433855787 0.0
0.0 3.876682998 0.54930202901 0.0
0.0 3.878034229 0.554768585893 0.0
0.0 3.87938546 0.559832402964 0.0
0.0 3.880736692 0.564485446121 0.0
0.0 3.882087923 0.568802124064 0.0
0.0 3.883439155 0.572748660125 0.0
0.0 3.884790386 0.576340995945 0.0
0.0 3.886141618 0.579647591721 0.0
0.0 3.887492849 0.582661274489 0.0
0.0 3.888844081 0.585380787643 0.0
0.0 3.890195312 0.587858211241 0.0
0.0 3.891546543 0.590104579833 0.0
0.0 3.892897775 0.592123539591 0.0
0.0 3.894249006 0.593951123209 0.0
0.0 3.895600238 0.595613008397 0.0
0.0 3.896951469 0.597089308105 0.0
0.0 3.898302701 0.598957096565 0.0
0.0 3.899653932 0.600174827811 0.0
0.0 3.901005163 0.601223962768 0.0
0.0 3.902356395 0.602161274858 0.0
0.0 3.903707626 0.603026669243 0.0
0.0 3.905058858 0.603777772106 0.0
0.0 3.906410089 0.604448741635 0.0
0.0 3.907761321 0.605070094568 0.0
0.0 3.909112552 0.605624151175 0.0
0.0 3.910463784 0.606115017001 0.0
0.0 3.911815015 0.606578035692 0.0
0.0 3.913166246 0.606997529354 0.0
0.0 3.914517478 0.60763179326 0.0
0.0 3.915868709 0.608242455143 0.0
0.0 3.917219941 0.608570244726 0.0
0.0 3.918571172 0.608839962658 0.0
0.0 3.919922404 0.609116349542 0.0
0.0 3.921273635 0.609380275877 0.0
0.0 3.922624866 0.609606441776 0.0
0.0 3.923976098 0.609828160706 0.0
0.0 3.925327329 0.610051438179 0.0
0.0 3.926678561 0.610251566783 0.0
0.0 3.928029792 0.610441427173 0.0
0.0 3.929381024 0.610650030648 0.0
0.0 3.930732255 0.610828969895 0.0
0.0 3.932083487 0.610984527653 0.0
0.0 3.933434718 0.611173397948 0.0
0.0 3.934785949 0.61133688434 0.0
0.0 3.936137181 0.611486842907 0.0
0.0 3.937488412 0.611918821103 0.0
0.0 3.938839644 0.612350032008 0.0
0.0 3.940190875 0.612492074373 0.0
0.0 3.941542107 0.612707694569 0.0
0.0 3.942893338 0.612932039742 0.0
0.0 3.944244569 0.61312134751 0.0
0.0 3.945595801 0.613323372004 0.0
0.0 3.946947032 0.613543231467 0.0
0.0 3.948298264 0.613725988866 0.0
0.0 3.949649495 0.613922023412 0.0
0.0 3.951000727 0.614070650347 0.0
0.0 3.952351958 0.614180962691 0.0
0.0 3.95370319 0.614282446287 0.0
0.0 3.955054421 0.614396615432 0.0
0.0 3.956405652 0.614500398741 0.0
0.0 3.957756884 0.614576254483 0.0
0.0 3.959108115 0.614689556538 0.0
0.0 3.960459347 0.614798336997 0.0
0.0 3.961810578 0.614885759785 0.0
0.0 3.96316181 0.614990418922 0.0
0.0 3.964513041 0.61509034971 0.0
0.0 3.965864273 0.615170287418 0.0
0.0 3.967215504 0.615252839862 0.0
0.0 3.968566735 0.615352473532 0.0
0.0 3.969917967 0.61591978737 0.0
0.0 3.971269198 0.616041827118 0.0
0.0 3.97262043 0.616156227806 0.0
0.0 3.973971661 0.616240759289 0.0
0.0 3.975322893 0.616319159111 0.0
0.0 3.976674124 0.616416399798 0.0
0.0 3.978025355 0.617065742567 0.0
0.0 3.979376587 0.617140622364 0.0
0.0 3.980727818 0.617221929554 0.0
0.0 3.98207905 0.61731279813 0.0
0.0 3.983430281 0.617360219558 0.0
0.0 3.984781513 0.617422733586 0.0
0.0 3.986132744 0.617499182029 0.0
0.0 3.987483976 0.617554178298 0.0
0.0 3.988835207 0.617613845869 0.0
0.0 3.990186438 0.617685523238 0.0
0.0 3.99153767 0.617745006008 0.0
0.0 3.992888901 0.617779039266 0.0
0.0 3.994240133 0.617845296412 0.0
0.0 3.995591364 0.617908454342 0.0
0.0 3.996942596 0.617941008563 0.0
0.0 3.998293827 0.617992058272 0.0
0.0 3.999645058 0.61804046193 0.0
0.0 4.00099629 0.618060303565 0.0
0.0 4.002347521 0.618069634331 0.0
0.0 4.003698753 0.618099888977 0.0
0.0 4.005049984 0.618112792695 0.0
0.0 4.006401216 0.61811581274 0.0
0.0 4.007752447 0.618147285486 0.0
0.0 4.009103679 0.618158189108 0.0
0.0 4.01045491 0.618175806159 0.0
0.0 4.011806141 0.618246046534 0.0
0.0 4.013157373 0.61832109423 0.0
0.0 4.014508604 0.618362372968 0.0
0.0 4.015859836 0.61840037136 0.0
0.0 4.017211067 0.618457823942 0.0
0.0 4.018562299 0.618795758258 0.0
0.0 4.01991353 0.61906784786 0.0
0.0 4.021264761 0.619590342201 0.0
0.0 4.022615993 0.619566895152 0.0
0.0 4.023967224 0.619523391082 0.0
0.0 4.025318456 0.619502717149 0.0
0.0 4.026669687 0.619496270607 0.0
0.0 4.028020919 0.619456547513 0.0
0.0 4.02937215 0.619437215049 0.0
0.0 4.030723382 0.619425308018 0.0
0.0 4.032074613 0.619397796969 0.0
0.0 4.033425844 0.619358514144 0.0
0.0 4.034777076 0.619348180579 0.0
0.0 4.036128307 0.619334637907 0.0
0.0 4.037479539 0.619307608403 0.0
0.0 4.03883077 0.61931851835 0.0
0.0 4.040182002 0.619346404151 0.0
0.0 4.041533233 0.619425185333 0.0
0.0 4.042884465 0.619512340367 0.0
0.0 4.044235696 0.619631033115 0.0
0.0 4.045586927 0.619733819919 0.0
0.0 4.046938159 0.619838782543 0.0
0.0 4.04828939 0.619976902339 0.0
0.0 4.049640622 0.620112864388 0.0
0.0 4.050991853 0.620198370899 0.0
0.0 4.052343085 0.620286977434 0.0
0.0 4.053694316 0.62040385273 0.0
0.0 4.055045547 0.620494615777 0.0
0.0 4.056396779 0.620611346631 0.0
0.0 4.05774801 0.620759360305 0.0
0.0 4.059099242 0.620903582917 0.0
0.0 4.060450473 0.621299352692 0.0
0.0 4.061801705 0.621774157473 0.0
0.0 4.063152936 0.621955294933 0.0
0.0 4.064504168 0.622098275936 0.0
0.0 4.065855399 0.622274875071 0.0
0.0 4.06720663 0.622465258269 0.0
0.0 4.068557862 0.622641185449 0.0
0.0 4.069909093 0.622808833908 0.0
0.0 4.071260325 0.623062381866 0.0
0.0 4.072611556 0.623645615288 0.0
0.0 4.073962788 0.624082216163 0.0
0.0 4.075314019 0.624337313188 0.0
0.0 4.07666525 0.624592288243 0.0
0.0 4.078016482 0.624829625947 0.0
0.0 4.079367713 0.625055502973 0.0
0.0 4.080718945 0.625266918808 0.0
0.0 4.082070176 0.625403311616 0.0
0.0 4.083421408 0.625512734722 0.0
0.0 4.084772639 0.625633005365 0.0
0.0 4.086123871 0.62574372194 0.0
0.0 4.087475102 0.625825955983 0.0
0.0 4.088826333 0.625895503945 0.0
0.0 4.090177565 0.625981020158 0.0
0.0 4.091528796 0.626019943906 0.0
0.0 4.092880028 0.626046836865 0.0
0.0 4.094231259 0.626076299253 0.0
0.0 4.095582491 0.62609780674 0.0
0.0 4.096933722 0.626080430373 0.0
0.0 4.098284953 0.626060306078 0.0
0.0 4.099636185 0.626031701989 0.0
0.0 4.100987416 0.62591147354 0.0
0.0 4.102338648 0.625758901255 0.0
0.0 4.103689879 0.62599445411 0.0
0.0 4.105041111 0.626012773123 0.0
0.0 4.106392342 0.62581496047 0.0
0.0 4.107743574 0.625636273236 0.0
0.0 4.109094805 0.625453709962 0.0
0.0 4.110446036 0.625271390899 0.0
0.0 4.111797268 0.625117540482 0.0
0.0 4.113148499 0.624987308545 0.0
0.0 4.114499731 0.624839634694 0.0
0.0 4.115850962 0.624666348188 0.0
0.0 4.117202194 0.624514607451 0.0
0.0 4.118553425 0.624666583592 0.0
0.0 4.119904657 0.624750490057 0.0
0.0 4.121255888 0.624591044677 0.0
0.0 4.122607119 0.624474548069 0.0
0.0 4.123958351 0.624351963613 0.0
0.0 4.125309582 0.624237507164 0.0
0.0 4.126660814 0.624149512407 0.0
0.0 4.128012045 0.624093754596 0.0
0.0 4.129363277 0.624028923518 0.0
0.0 4.130714508 0.623960611762 0.0
0.0 4.132065739 0.623906743542 0.0
0.0 4.133416971 0.623863402877 0.0
0.0 4.134768202 0.623821842738 0.0
0.0 4.136119434 0.623804643755 0.0
0.0 4.137470665 0.623829229413 0.0
0.0 4.138821897 0.623850975331 0.0
0.0 4.140173128 0.623921186722 0.0
0.0 4.14152436 0.624133977754 0.0
0.0 4.142875591 0.624371549152 0.0
0.0 4.144226822 0.624606986804 0.0
0.0 4.145578054 0.624904374942 0.0
0.0 4.146929285 0.625232306516 0.0
0.0 4.148280517 0.626119035802 0.0
0.0 4.149631748 0.626476412331 0.0
0.0 4.15098298 0.626834938923 0.0
0.0 4.152334211 0.627186915793 0.0
0.0 4.153685442 0.62753405492 0.0
0.0 4.155036674 0.627914163857 0.0
0.0 4.156387905 0.628318905054 0.0
0.0 4.157739137 0.628721344425 0.0
0.0 4.159090368 0.629120247345 0.0
0.0 4.1604416 0.629798029128 0.0
0.0 4.161792831 0.630538895743 0.0
0.0 4.163144063 0.630976754223 0.0
0.0 4.164495294 0.631419739401 0.0
0.0 4.165846525 0.631896503936 0.0
0.0 4.167197757 0.63233733584 0.0
0.0 4.168548988 0.632764285004 0.0
0.0 4.16990022 0.63319390592 0.0
0.0 4.171251451 0.633623365925 0.0
0.0 4.172602683 0.634006418077 0.0
0.0 4.173953914 0.634378390158 0.0
0.0 4.175305146 0.634743743215 0.0
0.0 4.176656377 0.635073081055 0.0
0.0 4.178007608 0.63536196309 0.0
0.0 4.17935884 0.635647486576 0.0
0.0 4.180710071 0.635923877248 0.0
0.0 4.182061303 0.636147292553 0.0
0.0 4.183412534 0.636346261128 0.0
0.0 4.184763766 0.636533353191 0.0
0.0 4.186114997 0.636698455289 0.0
0.0 4.187466228 0.636794354298 0.0
0.0 4.18881746 0.63688105974 0.0
0.0 4.190168691 0.636940343033 0.0
0.0 4.191519923 0.636953072078 0.0
0.0 4.192871154 0.636915245221 0.0
0.0 4.194222386 0.637433624562 0.0
0.0 4.195573617 0.637368013725 0.0
0.0 4.196924849 0.63726649434 0.0
0.0 4.19827608 0.637142258251 0.0
0.0 4.199627311 0.637031437241 0.0
0.0 4.200978543 0.636875494519 0.0
0.0 4.202329774 0.636697697594 0.0
0.0 4.203681006 0.636883856261 0.0
0.0 4.205032237 0.636886021229 0.0
0.0 4.206383469 0.636684843632 0.0
0.0 4.2077347 0.636473172415 0.0
0.0 4.209085931 0.63627459209 0.0
0.0 4.210437163 0.636075179025 0.0
0.0 4.211788394 0.635862542104 0.0
0.0 4.213139626 0.635662006037 0.0
0.0 4.214490857 0.635487511185 0.0
0.0 4.215842089 0.635298102158 0.0
0.0 4.21719332 0.635101843038 0.0
0.0 4.218544552 0.634926656987 0.0
0.0 4.219895783 0.634779932241 0.0
0.0 4.221247014 0.634595440865 0.0
0.0 4.222598246 0.634415187225 0.0
0.0 4.223949477 0.634251476564 0.0
0.0 4.225300709 0.634092584144 0.0
0.0 4.22665194 0.633879238503 0.0
0.0 4.228003172 0.633657866906 0.0
0.0 4.229354403 0.633417232647 0.0
0.0 4.230705634 0.633144185218 0.0
0.0 4.232056866 0.632810420263 0.0
0.0 4.233408097 0.63246335019 0.0
0.0 4.234759329 0.632060750106 0.0
0.0 4.23611056 0.631583017341 0.0
0.0 4.237461792 0.631017207186 0.0
0.0 4.238813023 0.630394432824 0.0
0.0 4.240164255 0.629673387914 0.0
0.0 4.241515486 0.628837348199 0.0
0.0 4.242866717 0.628353937128 0.0
0.0 4.244217949 0.627367485245 0.0
0.0 4.24556918 0.626105252659 0.0
0.0 4.246920412 0.624663645304 0.0
0.0 4.248271643 0.623555802151 0.0
0.0 4.249622875 0.621773299939 0.0
0.0 4.250974106 0.619665996373 0.0
0.0 4.252325338 0.617342461921 0.0
0.0 4.253676569 0.61480690175 0.0
0.0 4.2550278 0.612050342965 0.0
0.0 4.256379032 0.608957686712 0.0
0.0 4.257730263 0.605568798235 0.0
0.0 4.259081495 0.60192968366 0.0
0.0 4.260432726 0.597761768247 0.0
0.0 4.261783958 0.592729777797 0.0
0.0 4.263135189 0.587337840222 0.0
0.0 4.26448642 0.581696211555 0.0
0.0 4.265837652 0.575793782112 0.0
0.0 4.267188883 0.569625489621 0.0
0.0 4.268540115 0.56312386326 0.0
0.0 4.269891346 0.556373964681 0.0
0.0 4.271242578 0.549070244688 0.0
0.0 4.272593809 0.541547788512 0.0
0.0 4.273945041 0.533818039497 0.0
0.0 4.275296272 0.525872357664 0.0
0.0 4.276647503 0.517796849132 0.0
0.0 4.277998735 0.509620229138 0.0
0.0 4.279349966 0.501357365347 0.0
0.0 4.280701198 0.494226792301 0.0
0.0 4.282052429 0.488166241592 0.0
0.0 4.283403661 0.481973829442 0.0
0.0 4.284754892 0.47568111621 0.0
0.0 4.286106123 0.46917298527 0.0
0.0 4.287457355 0.462585102951 0.0
0.0 4.288808586 0.455949607558 0.0
0.0 4.290159818 0.449140544828 0.0
0.0 4.291511049 0.441171342947 0.0
0.0 4.292862281 0.433261214724 0.0
0.0 4.294213512 0.425794671822 0.0
0.0 4.295564744 0.418306624627 0.0
0.0 4.296915975 0.410645432377 0.0
0.0 4.298267206 0.40308303808 0.0
0.0 4.299618438 0.395658292095 0.0
0.0 4.300969669 0.388349646087 0.0
0.0 4.302320901 0.381139127717 0.0
0.0 4.303672132 0.37406205131 0.0
0.0 4.305023364 0.367149833637 0.0
0.0 4.306374595 0.36039958482 0.0
0.0 4.307725826 0.353786595351 0.0
0.0 4.309077058 0.347324319556 0.0
0.0 4.310428289 0.341032540243 0.0
0.0 4.311779521 0.334904918405 0.0
0.0 4.313130752 0.328920428319 0.0
0.0 4.314481984 0.323082834013 0.0
0.0 4.315833215 0.317413614543 0.0
0.0 4.317184447 0.311907801451 0.0
0.0 4.318535678 0.306547834459 0.0
0.0 4.319886909 0.301326643942 0.0
0.0 4.321238141 0.296267071546 0.0
0.0 4.322589372 0.291363938585 0.0
0.0 4.323940604 0.286606615189 0.0
0.0 4.325291835 0.281990416347 0.0
0.0 4.326643067 0.27752909707 0.0
0.0 4.327994298 0.273219411099 0.0
0.0 4.32934553 0.269049804682 0.0
0.0 4.330696761 0.265013203474 0.0
0.0 4.332047992 0.261124220781 0.0
0.0 4.333399224 0.25738180114 0.0
0.0 4.334750455 0.253776901857 0.0
0.0 4.336101687 0.250306114003 0.0
0.0 4.337452918 0.246978738322 0.0
0.0 4.33880415 0.243792437863 0.0
0.0 4.340155381 0.240738626178 0.0
0.0 4.341506612 0.237816130375 0.0
0.0 4.342857844 0.235028087508 0.0
0.0 4.344209075 0.23237129772 0.0
0.0 4.345560307 0.229867143343 0.0
0.0 4.346911538 0.227481705385 0.0
0.0 4.34826277 0.225201295686 0.0
0.0 4.349614001 0.223044199834 0.0
0.0 4.350965233 0.2210019507 0.0
0.0 4.352316464 0.219116853687 0.0
0.0 4.353667695 0.217300939008 0.0
0.0 4.355018927 0.215593680603 0.0
0.0 4.356370158 0.213988075849 0.0
0.0 4.35772139 0.212484508286 0.0
0.0 4.359072621 0.211079302209 0.0
0.0 4.360423853 0.209768153303 0.0
0.0 4.361775084 0.208550572726 0.0
0.0 4.363126315 0.207422981508 0.0
0.0 4.364477547 0.206378697953 0.0
0.0 4.365828778 0.205410626865 0.0
0.0 4.36718001 0.204515548294 0.0
0.0 4.368531241 0.203692992988 0.0
0.0 4.369882473 0.202939241981 0.0
0.0 4.371233704 0.202250762893 0.0
0.0 4.372584936 0.201624881154 0.0
0.0 4.373936167 0.201056579779 0.0
0.0 4.375287398 0.200542448823 0.0
0.0 4.37663863 0.20008137007 0.0
0.0 4.377989861 0.199672153989 0.0
0.0 4.379341093 0.19930794552 0.0
0.0 4.380692324 0.198984421746 0.0
0.0 4.382043556 0.198697821934 0.0
0.0 4.383394787 0.19845238824 0.0
0.0 4.384746018 0.198244760431 0.0
0.0 4.38609725 0.198072342487 0.0
0.0 4.387448481 0.197929512176 0.0
0.0 4.388799713 0.197816536304 0.0
0.0 4.390150944 0.197731822335 0.0
0.0 4.391502176 0.197674085963 0.0
0.0 4.392853407 0.197639717387 0.0
0.0 4.394204639 0.197627900823 0.0
0.0 4.39555587 0.197637617942 0.0
0.0 4.396907101 0.197666895523 0.0
0.0 4.398258333 0.197714688003 0.0
0.0 4.399609564 0.197780691979 0.0
0.0 4.400960796 0.197865713194 0.0
0.0 4.402312027 0.197967023042 0.0
0.0 4.403663259 0.198083644862 0.0
0.0 4.40501449 0.19821501668 0.0
0.0 4.406365722 0.198366252894 0.0
0.0 4.407716953 0.198522704231 0.0
0.0 4.409068184 0.198688187095 0.0
0.0 4.410419416 0.198862321847 0.0
0.0 4.411770647 0.199051120183 0.0
0.0 4.413121879 0.199251311831 0.0
0.0 4.41447311 0.199463451213 0.0
0.0 4.415824342 0.199681535899 0.0
0.0 4.417175573 0.199907386224 0.0
0.0 4.418526804 0.200139548966 0.0
0.0 4.419878036 0.200377296919 0.0
0.0 4.421229267 0.200621856599 0.0
0.0 4.422580499 0.200872584333 0.0
0.0 4.42393173 0.201128694101 0.0
0.0 4.425282962 0.201388687255 0.0
0.0 4.426634193 0.201655740901 0.0
0.0 4.427985425 0.201929122946 0.0
0.0 4.429336656 0.202208536031 0.0
0.0 4.430687887 0.202490961726 0.0
0.0 4.432039119 0.202778593845 0.0
0.0 4.43339035 0.203071019438 0.0
0.0 4.434741582 0.203367925607 0.0
0.0 4.436092813 0.20366658062 0.0
0.0 4.437444045 0.203969714412 0.0
0.0 4.438795276 0.204278276144 0.0
0.0 4.440146507 0.204593757493 0.0
0.0 4.441497739 0.204910326984 0.0
0.0 4.44284897 0.205228035892 0.0
0.0 4.444200202 0.205546499942 0.0
0.0 4.445551433 0.205868079883 0.0
0.0 4.446902665 0.206193351916 0.0
0.0 4.448253896 0.206522759753 0.0
0.0 4.449605128 0.206858484556 0.0
0.0 4.450956359 0.207196793545 0.0
0.0 4.45230759 0.207537142098 0.0
0.0 4.453658822 0.207877871347 0.0
0.0 4.455010053 0.208220355052 0.0
0.0 4.456361285 0.208564076755 0.0
0.0 4.457712516 0.20890812241 0.0
0.0 4.459063748 0.209253317604 0.0
0.0 4.460414979 0.209601853546 0.0
0.0 4.461766211 0.209954060331 0.0
0.0 4.463117442 0.210309454351 0.0
0.0 4.464468673 0.210667282265 0.0
0.0 4.465819905 0.211027605547 0.0
0.0 4.467171136 0.211391159567 0.0
0.0 4.468522368 0.211755357067 0.0
0.0 4.469873599 0.212120483373 0.0
0.0 4.471224831 0.212486457167 0.0
0.0 4.472576062 0.212854599581 0.0
0.0 4.473927293 0.213224081699 0.0
0.0 4.475278525 0.213594818537 0.0
0.0 4.476629756 0.213967445367 0.0
0.0 4.477980988 0.214342495859 0.0
0.0 4.479332219 0.21471969136 0.0
0.0 4.480683451 0.21509917448 0.0
0.0 4.482034682 0.215480428684 0.0
0.0 4.483385914 0.215862966747 0.0
0.0 4.484737145 0.216246674738 0.0
0.0 4.486088376 0.216631699923 0.0
0.0 4.487439608 0.217018522134 0.0
0.0 4.488790839 0.217407256395 0.0
0.0 4.490142071 0.217795216114 0.0
0.0 4.491493302 0.21818420441 0.0
0.0 4.492844534 0.218574852761 0.0
0.0 4.494195765 0.218970009275 0.0
0.0 4.495546996 0.219367077416 0.0
0.0 4.496898228 0.219765461649 0.0
0.0 4.498249459 0.220164424125 0.0
0.0 4.499600691 0.220565638557 0.0
0.0 4.500951922 0.220968165207 0.0
0.0 4.502303154 0.221371616333 0.0
0.0 4.503654385 0.221774298685 0.0
0.0 4.505005617 0.222177686079 0.0
0.0 4.506356848 0.222581961856 0.0
0.0 4.507708079 0.222987729593 0.0
0.0 4.509059311 0.223395831116 0.0
0.0 4.510410542 0.223806049812 0.0
0.0 4.511761774 0.224218182975 0.0
0.0 4.513113005 0.224631462738 0.0
0.0 4.514464237 0.225046158412 0.0
0.0 4.515815468 0.225462698765 0.0
0.0 4.517166699 0.225879115305 0.0
0.0 4.518517931 0.226296021201 0.0
0.0 4.519869162 0.226713344613 0.0
0.0 4.521220394 0.227134703702 0.0
0.0 4.522571625 0.227558046812 0.0
0.0 4.523922857 0.227982930599 0.0
0.0 4.525274088 0.228407824588 0.0
0.0 4.52662532 0.228834508755 0.0
0.0 4.527976551 0.229263129806 0.0
0.0 4.529327782 0.229690368631 0.0
0.0 4.530679014 0.230118536639 0.0
0.0 4.532030245 0.230548239625 0.0
0.0 4.533381477 0.230984615753 0.0
0.0 4.534732708 0.231421725175 0.0
0.0 4.53608394 0.231859234119 0.0
0.0 4.537435171 0.232294517698 0.0
0.0 4.538786403 0.232733280102 0.0
0.0 4.540137634 0.233174416449 0.0
0.0 4.541488865 0.233617000172 0.0
0.0 4.542840097 0.234059066189 0.0
0.0 4.544191328 0.234502695761 0.0
0.0 4.54554256 0.234950030855 0.0
0.0 4.546893791 0.235399326767 0.0
0.0 4.548245023 0.235849355504 0.0
0.0 4.549596254 0.236298925352 0.0
0.0 4.550947485 0.236750113116 0.0
0.0 4.552298717 0.237202632126 0.0
0.0 4.553649948 0.237656429982 0.0
0.0 4.55500118 0.23811099671 0.0
0.0 4.556352411 0.238566644094 0.0
0.0 4.557703643 0.239023375777 0.0
0.0 4.559054874 0.239480074951 0.0
0.0 4.560406106 0.239939071598 0.0
0.0 4.561757337 0.240400644466 0.0
0.0 4.563108568 0.240864933405 0.0
0.0 4.5644598 0.241329105388 0.0
0.0 4.565811031 0.241792959621 0.0
0.0 4.567162263 0.242258763979 0.0
0.0 4.568513494 0.242727438282 0.0
0.0 4.569864726 0.243198919481 0.0
0.0 4.571215957 0.243670418588 0.0
0.0 4.572567188 0.244143738152 0.0
0.0 4.57391842 0.244618834609 0.0
0.0 4.575269651 0.245095686545 0.0
0.0 4.576620883 0.245572248367 0.0
0.0 4.577972114 0.246048840369 0.0
0.0 4.579323346 0.24652719359 0.0
0.0 4.580674577 0.247007702022 0.0
0.0 4.582025809 0.247490158519 0.0
0.0 4.58337704 0.247970922641 0.0
0.0 4.584728271 0.248454251299 0.0
0.0 4.586079503 0.248939635735 0.0
0.0 4.587430734 0.249426318819 0.0
0.0 4.588781966 0.249915328185 0.0
0.0 4.590133197 0.250406571424 0.0
0.0 4.591484429 0.250899800312 0.0
0.0 4.59283566 0.251393761038 0.0
0.0 4.594186891 0.251889957473 0.0
0.0 4.595538123 0.252384367583 0.0
0.0 4.596889354 0.252881882929 0.0
0.0 4.598240586 0.253380845717 0.0
0.0 4.599591817 0.253880088225 0.0
0.0 4.600943049 0.254381243487 0.0
0.0 4.60229428 0.254884269186 0.0
0.0 4.603645512 0.255389601365 0.0
0.0 4.604996743 0.255895701579 0.0
0.0 4.606347974 0.256402522799 0.0
0.0 4.607699206 0.256911932501 0.0
0.0 4.609050437 0.257423908458 0.0
0.0 4.610401669 0.257939315062 0.0
0.0 4.6117529 0.258455597705 0.0
0.0 4.613104132 0.258972826831 0.0
0.0 4.614455363 0.259490426471 0.0
0.0 4.615806595 0.260007696078 0.0
0.0 4.617157826 0.260525180664 0.0
0.0 4.618509057 0.261042754437 0.0
0.0 4.619860289 0.261562699735 0.0
0.0 4.62121152 0.262085130038 0.0
0.0 4.622562752 0.262611177301 0.0
0.0 4.623913983 0.263138924453 0.0
0.0 4.625265215 0.2636679046 0.0
0.0 4.626616446 0.264196941539 0.0
0.0 4.627967677 0.264725342541 0.0
0.0 4.629318909 0.265254336497 0.0
0.0 4.63067014 0.265784214686 0.0
0.0 4.632021372 0.26631738927 0.0
0.0 4.633372603 0.266853595146 0.0
0.0 4.634723835 0.267391889538 0.0
0.0 4.636075066 0.267931795697 0.0
0.0 4.637426298 0.268474466678 0.0
0.0 4.638777529 0.269019051663 0.0
0.0 4.64012876 0.269564894954 0.0
0.0 4.641479992 0.270111819837 0.0
0.0 4.642831223 0.27065842269 0.0
0.0 4.644182455 0.271205840093 0.0
0.0 4.645533686 0.271753862954 0.0
0.0 4.646884918 0.27230123736 0.0
0.0 4.648236149 0.272851043892 0.0
0.0 4.64958738 0.273403299082 0.0
0.0 4.650938612 0.273959756183 0.0
0.0 4.652289843 0.274518368927 0.0
0.0 4.653641075 0.275077736156 0.0
0.0 4.654992306 0.275637388219 0.0
0.0 4.656343538 0.276198292342 0.0
0.0 4.657694769 0.276760969459 0.0
0.0 4.659046001 0.277325203958 0.0
0.0 4.660397232 0.2778913905 0.0
0.0 4.661748463 0.278460107356 0.0
0.0 4.663099695 0.279030569622 0.0
0.0 4.664450926 0.279603039864 0.0
0.0 4.665802158 0.28017450905 0.0
0.0 4.667153389 0.280747151405 0.0
0.0 4.668504621 0.281320925174 0.0
0.0 4.669855852 0.281896773526 0.0
0.0 4.671207083 0.282474079848 0.0
0.0 4.672558315 0.283052676372 0.0
0.0 4.673909546 0.283632694398 0.0
0.0 4.675260778 0.284214234867 0.0
0.0 4.676612009 0.284798599291 0.0
0.0 4.677963241 0.285384295139 0.0
0.0 4.679314472 0.285971230937 0.0
0.0 4.680665704 0.286560385225 0.0
0.0 4.682016935 0.287151259019 0.0
0.0 4.683368166 0.287743864609 0.0
0.0 4.684719398 0.288335942571 0.0
0.0 4.686070629 0.288929624623 0.0
0.0 4.687421861 0.289525013477 0.0
0.0 4.688773092 0.290124073492 0.0
0.0 4.690124324 0.290726860006 0.0
0.0 4.691475555 0.291331092518 0.0
0.0 4.692826787 0.291935937665 0.0
0.0 4.694178018 0.292541818372 0.0
0.0 4.695529249 0.293147492162 0.0
0.0 4.696880481 0.293754341928 0.0
0.0 4.698231712 0.294362992976 0.0
0.0 4.699582944 0.294973328781 0.0
0.0 4.700934175 0.29558469535 0.0
0.0 4.702285407 0.29619712145 0.0
0.0 4.703636638 0.296810612553 0.0
0.0 4.704987869 0.297427052931 0.0
0.0 4.706339101 0.298046268354 0.0
0.0 4.707690332 0.298668753022 0.0
0.0 4.709041564 0.299293698534 0.0
0.0 4.710392795 0.299919160159 0.0
0.0 4.711744027 0.300544772084 0.0
0.0 4.713095258 0.301170448488 0.0
0.0 4.71444649 0.30179592303 0.0
0.0 4.715797721 0.302425833835 0.0
0.0 4.717148952 0.303058878431 0.0
0.0 4.718500184 0.303694178626 0.0
0.0 4.719851415 0.304331495269 0.0
0.0 4.721202647 0.304969133696 0.0
0.0 4.722553878 0.305608338293 0.0
0.0 4.72390511 0.306247770199 0.0
0.0 4.725256341 0.30688925384 0.0
0.0 4.726607572 0.307532608779 0.0
0.0 4.727958804 0.308178084047 0.0
0.0 4.729310035 0.308825482762 0.0
0.0 4.730661267 0.309474750689 0.0
0.0 4.732012498 0.310124484044 0.0
0.0 4.73336373 0.310775038711 0.0
0.0 4.734714961 0.311427141154 0.0
0.0 4.736066193 0.312083317893 0.0
0.0 4.737417424 0.312742014751 0.0
0.0 4.738768655 0.31340383015 0.0
0.0 4.740119887 0.314065740185 0.0
0.0 4.741471118 0.31472862264 0.0
0.0 4.74282235 0.315391578067 0.0
0.0 4.744173581 0.316056157908 0.0
0.0 4.745524813 0.316722248176 0.0
0.0 4.746876044 0.317389901796 0.0
0.0 4.748227276 0.318059590898 0.0
0.0 4.749578507 0.318731350988 0.0
0.0 4.750929738 0.319405305346 0.0
0.0 4.75228097 0.320081201533 0.0
0.0 4.753632201 0.320759354488 0.0
0.0 4.754983433 0.321439491377 0.0
0.0 4.756334664 0.32212157553 0.0
0.0 4.757685896 0.322804735022 0.0
0.0 4.759037127 0.323489449871 0.0
0.0 4.760388358 0.324175180001 0.0
0.0 4.76173959 0.324861749603 0.0
0.0 4.763090821 0.325549913873 0.0
0.0 4.764442053 0.326239658896 0.0
0.0 4.765793284 0.326932596321 0.0
0.0 4.767144516 0.327628709813 0.0
0.0 4.768495747 0.328326943294 0.0
0.0 4.769846979 0.329026819783 0.0
0.0 4.77119821 0.329726362067 0.0
0.0 4.772549441 0.330426810034 0.0
0.0 4.773900673 0.331130731769 0.0
0.0 4.775251904 0.331836975412 0.0
0.0 4.776603136 0.332544693176 0.0
0.0 4.777954367 0.333253415846 0.0
0.0 4.779305599 0.333963227987 0.0
0.0 4.78065683 0.334675436484 0.0
0.0 4.782008061 0.335389277018 0.0
0.0 4.783359293 0.336104824544 0.0
0.0 4.784710524 0.336823398583 0.0
0.0 4.786061756 0.337544623578 0.0
0.0 4.787412987 0.33826828475 0.0
0.0 4.788764219 0.338992498319 0.0
0.0 4.79011545 0.339718815122 0.0
0.0 4.791466682 0.340445711723 0.0
0.0 4.792817913 0.34117411414 0.0
0.0 4.794169144 0.341905076068 0.0
0.0 4.795520376 0.342638422538 0.0
0.0 4.796871607 0.343373047936 0.0
0.0 4.798222839 0.344109117659 0.0
0.0 4.79957407 0.344847078171 0.0
0.0 4.800925302 0.34558714523 0.0
0.0 4.802276533 0.346329497175 0.0
0.0 4.803627764 0.347073798943 0.0
0.0 4.804978996 0.347820026186 0.0
0.0 4.806330227 0.348567937561 0.0
0.0 4.807681459 0.349317562924 0.0
0.0 4.80903269 0.350068943332 0.0
0.0 4.810383922 0.350821786573 0.0
0.0 4.811735153 0.351576586039 0.0
0.0 4.813086385 0.352333304882 0.0
0.0 4.814437616 0.353092079291 0.0
0.0 4.815788847 0.353853340828 0.0
0.0 4.817140079 0.354617668997 0.0
0.0 4.81849131 0.355383471095 0.0
0.0 4.819842542 0.356150409166 0.0
0.0 4.821193773 0.356920105992 0.0
0.0 4.822545005 0.357691592171 0.0
0.0 4.823896236 0.35846440562 0.0
0.0 4.825247468 0.359238820134 0.0
0.0 4.826598699 0.360014307577 0.0
0.0 4.82794993 0.360791500112 0.0
0.0 4.829301162 0.36157047372 0.0
0.0 4.830652393 0.36235193167 0.0
0.0 4.832003625 0.363135504274 0.0
0.0 4.833354856 0.363921276534 0.0
0.0 4.834706088 0.364708846992 0.0
0.0 4.836057319 0.365498226687 0.0
0.0 4.83740855 0.366289957242 0.0
0.0 4.838759782 0.367084901545 0.0
0.0 4.840111013 0.367882278929 0.0
0.0 4.841462245 0.368682375179 0.0
0.0 4.842813476 0.369482820507 0.0
0.0 4.844164708 0.370283990088 0.0
0.0 4.845515939 0.371086689604 0.0
0.0 4.846867171 0.371890808294 0.0
0.0 4.848218402 0.372697535161 0.0
0.0 4.849569633 0.373507261039 0.0
0.0 4.850920865 0.37431826962 0.0
0.0 4.852272096 0.375131605221 0.0
0.0 4.853623328 0.375945669243 0.0
0.0 4.854974559 0.376762649462 0.0
0.0 4.856325791 0.377582169215 0.0
0.0 4.857677022 0.378404787632 0.0
0.0 4.859028253 0.379232309104 0.0
0.0 4.860379485 0.380056850968 0.0
0.0 4.861730716 0.380882351744 0.0
0.0 4.863081948 0.381709810055 0.0
0.0 4.864433179 0.382540481776 0.0
0.0 4.865784411 0.383374599846 0.0
0.0 4.867135642 0.384210123855 0.0
0.0 4.868486874 0.385048715351 0.0
0.0 4.869838105 0.385889280815 0.0
0.0 4.871189336 0.386731905545 0.0
0.0 4.872540568 0.387577046192 0.0
0.0 4.873891799 0.388421617388 0.0
0.0 4.875243031 0.389268576749 0.0
0.0 4.876594262 0.39011775186 0.0
0.0 4.877945494 0.390969976463 0.0
0.0 4.879296725 0.391826103383 0.0
0.0 4.880647956 0.392684069648 0.0
0.0 4.881999188 0.39354274718 0.0
0.0 4.883350419 0.39440110943 0.0
0.0 4.884701651 0.395261962495 0.0
0.0 4.886052882 0.396124830169 0.0
0.0 4.887404114 0.396990189055 0.0
0.0 4.888755345 0.397859176062 0.0
0.0 4.890106577 0.398730774831 0.0
0.0 4.891457808 0.399604665059 0.0
0.0 4.892809039 0.400480092305 0.0
0.0 4.894160271 0.401356461943 0.0
0.0 4.895511502 0.402235050903 0.0
0.0 4.896862734 0.403116620775 0.0
0.0 4.898213965 0.404000833651 0.0
0.0 4.899565197 0.404886400952 0.0
0.0 4.900916428 0.405773391458 0.0
0.0 4.90226766 0.406663027923 0.0
0.0 4.903618891 0.407555682581 0.0
0.0 4.904970122 0.408450771086 0.0
0.0 4.906321354 0.409347645764 0.0
0.0 4.907672585 0.410246810087 0.0
0.0 4.909023817 0.411147350441 0.0
0.0 4.910375048 0.41205060252 0.0
0.0 4.91172628 0.412956850924 0.0
0.0 4.913077511 0.413865428986 0.0
0.0 4.914428742 0.414777264375 0.0
0.0 4.915779974 0.41568776801 0.0
0.0 4.917131205 0.416598957604 0.0
0.0 4.918482437 0.417514294429 0.0
0.0 4.919833668 0.418431871202 0.0
0.0 4.9211849 0.419351672381 0.0
0.0 4.922536131 0.42027354914 0.0
0.0 4.923887363 0.421198539492 0.0
0.0 4.925238594 0.422126161286 0.0
0.0 4.926589825 0.423055825944 0.0
0.0 4.927941057 0.423986847489 0.0
0.0 4.929292288 0.424919778157 0.0
0.0 4.93064352 0.425854974672 0.0
0.0 4.931994751 0.426793732898 0.0
0.0 4.933345983 0.427736382677 0.0
0.0 4.934697214 0.428680506304 0.0
0.0 4.936048445 0.429626548477 0.0
0.0 4.937399677 0.430574179059 0.0
0.0 4.938750908 0.431522844976 0.0
0.0 4.94010214 0.432473935721 0.0
0.0 4.941453371 0.433426296498 0.0
0.0 4.942804603 0.434381495986 0.0
0.0 4.944155834 0.435339392752 0.0
0.0 4.945507066 0.436299050512 0.0
0.0 4.946858297 0.437260592004 0.0
0.0 4.948209528 0.438224387384 0.0
0.0 4.94956076 0.43919144087 0.0
0.0 4.950911991 0.440162263571 0.0
0.0 4.952263223 0.441135504239 0.0
0.0 4.953614454 0.442111051366 0.0
0.0 4.954965686 0.443087897816 0.0
0.0 4.956316917 0.444066894873 0.0
0.0 4.957668148 0.445047947367 0.0
0.0 4.95901938 0.446030972725 0.0
0.0 4.960370611 0.447016605164 0.0
0.0 4.961721843 0.448004150586 0.0
0.0 4.963073074 0.448994046524 0.0
0.0 4.964424306 0.449987358652 0.0
0.0 4.965775537 0.450984042974 0.0
0.0 4.967126769 0.451983158093 0.0
0.0 4.968478 0.452985273947 0.0
0.0 4.969829231 0.453986112288 0.0
0.0 4.971180463 0.45498942394 0.0
0.0 4.972531694 0.455994344241 0.0
0.0 4.973882926 0.457002212701 0.0
0.0 4.975234157 0.45801369876 0.0
0.0 4.976585389 0.459027927376 0.0
0.0 4.97793662 0.460044599942 0.0
0.0 4.979287852 0.461062667018 0.0
0.0 4.980639083 0.462083820632 0.0
0.0 4.981990314 0.463106048099 0.0
0.0 4.983341546 0.464130923578 0.0
0.0 4.984692777 0.465157947143 0.0
0.0 4.986044009 0.466187129305 0.0
0.0 4.98739524 0.467219773375 0.0
0.0 4.988746472 0.468254961555 0.0
0.0 4.990097703 0.46929312333 0.0
0.0 4.991448934 0.470333153575 0.0
0.0 4.992800166 0.471375734484 0.0
0.0 4.994151397 0.472421030629 0.0
0.0 4.995502629 0.473469498883 0.0
0.0 4.99685386 0.474520405002 0.0
0.0 4.998205092 0.475572963424 0.0
0.0 4.999556323 0.476628229348 0.0
0.0 5.000907555 0.477684685572 0.0
0.0 5.002258786 0.478744478156 0.0
0.0 5.003610017 0.479806197608 0.0
0.0 5.004961249 0.480870591013 0.0
0.0 5.00631248 0.481937829743 0.0
0.0 5.007663712 0.483007819004 0.0
0.0 5.009014943 0.484080463406 0.0
0.0 5.010366175 0.485155049991 0.0
0.0 5.011717406 0.486232067266 0.0
0.0 5.013068637 0.487311811559 0.0
0.0 5.014419869 0.488394267515 0.0
0.0 5.0157711 0.489479825969 0.0
0.0 5.017122332 0.490567936874 0.0
0.0 5.018473563 0.491658351919 0.0
0.0 5.019824795 0.492750897861 0.0
0.0 5.021176026 0.493845674031 0.0
0.0 5.022527258 0.494942523586 0.0
0.0 5.023878489 0.49604191685 0.0
0.0 5.02522972 0.497143897981 0.0
0.0 5.026580952 0.498248708452 0.0
0.0 5.027932183 0.499356813883 0.0
0.0 5.029283415 0.500467592931 0.0
0.0 5.030634646 0.5015811807 0.0
0.0 5.031985878 0.502696975807 0.0
0.0 5.033337109 0.503814909525 0.0
0.0 5.034688341 0.50493447135 0.0
0.0 5.036039572 0.506056783888 0.0
0.0 5.037390803 0.507181507903 0.0
0.0 5.038742035 0.508309324885 0.0
0.0 5.040093266 0.509439935995 0.0
0.0 5.041444498 0.510573154283 0.0
0.0 5.042795729 0.511708744133 0.0
0.0 5.044146961 0.512847210405 0.0
0.0 5.045498192 0.513988476221 0.0
0.0 5.046849423 0.515132185403 0.0
0.0 5.048200655 0.516278554543 0.0
0.0 5.049551886 0.517426128181 0.0
0.0 5.050903118 0.518577447623 0.0
0.0 5.052254349 0.51973219196 0.0
0.0 5.053605581 0.520889756022 0.0
0.0 5.054956812 0.522049845866 0.0
0.0 5.056308044 0.523212147937 0.0
0.0 5.057659275 0.524376629566 0.0
0.0 5.059010506 0.525543912538 0.0
0.0 5.060361738 0.526713981207 0.0
0.0 5.061712969 0.527887100956 0.0
0.0 5.063064201 0.529063088566 0.0
0.0 5.064415432 0.530240698809 0.0
0.0 5.065766664 0.531420922924 0.0
0.0 5.067117895 0.53260359202 0.0
0.0 5.068469126 0.533789894497 0.0
0.0 5.069820358 0.534978866618 0.0
0.0 5.071171589 0.536169796654 0.0
0.0 5.072522821 0.537363007055 0.0
0.0 5.073874052 0.538558088964 0.0
0.0 5.075225284 0.53975672369 0.0
0.0 5.076576515 0.540958597929 0.0
0.0 5.077927747 0.542164052187 0.0
0.0 5.079278978 0.543371374496 0.0
0.0 5.080630209 0.544581173133 0.0
0.0 5.081981441 0.545793717312 0.0
0.0 5.083332672 0.547009611946 0.0
0.0 5.084683904 0.548228580941 0.0
0.0 5.086035135 0.549450597183 0.0
0.0 5.087386367 0.550675033325 0.0
0.0 5.088737598 0.551901517509 0.0
0.0 5.090088829 0.553131097135 0.0
0.0 5.091440061 0.554363133568 0.0
0.0 5.092791292 0.55559894336 0.0
0.0 5.094142524 0.556837644439 0.0
0.0 5.095493755 0.558079331612 0.0
0.0 5.096844987 0.559323219597 0.0
0.0 5.098196218 0.5605702021 0.0
0.0 5.09954745 0.561818966583 0.0
