0.0 2.002074478 0.199473174059 0.0
0.0 2.00368257 0.199814377974 0.0
0.0 2.005290662 0.200154153567 0.0
0.0 2.006898754 0.200492502628 0.0
0.0 2.008506846 0.200829426949 0.0
0.0 2.010114938 0.201164928319 0.0
0.0 2.01172303 0.20149900853 0.0
0.0 2.013331122 0.201831669373 0.0
0.0 2.014939214 0.202162912637 0.0
0.0 2.016547306 0.202492740113 0.0
0.0 2.018155398 0.202821153593 0.0
0.0 2.01976349 0.203148154866 0.0
0.0 2.021371582 0.203473745724 0.0
0.0 2.022979674 0.203797927956 0.0
0.0 2.024587766 0.204120703355 0.0
0.0 2.026195858 0.204442073709 0.0
0.0 2.027803949 0.204762040612 0.0
0.0 2.029412041 0.205080606253 0.0
0.0 2.031020133 0.205397772221 0.0
0.0 2.032628225 0.205713540308 0.0
0.0 2.034236317 0.206027912305 0.0
0.0 2.035844409 0.206340890001 0.0
0.0 2.037452501 0.206652475189 0.0
0.0 2.039060593 0.206962669658 0.0
0.0 2.040668685 0.207271475199 0.0
0.0 2.042276777 0.207578893603 0.0
0.0 2.043884869 0.20788492666 0.0
0.0 2.045492961 0.208189576161 0.0
0.0 2.047101053 0.208492843897 0.0
0.0 2.048709145 0.208794731658 0.0
0.0 2.050317237 0.209095241235 0.0
0.0 2.051925329 0.209394374419 0.0
0.0 2.053533421 0.209692133 0.0
0.0 2.055141513 0.209988518769 0.0
0.0 2.056749605 0.210283533516 0.0
0.0 2.058357697 0.210577179032 0.0
0.0 2.059965788 0.210869456927 0.0
0.0 2.06157388 0.211160369354 0.0
0.0 2.063181972 0.211449917923 0.0
0.0 2.064790064 0.211738104423 0.0
0.0 2.066398156 0.212024930645 0.0
0.0 2.068006248 0.212310398381 0.0
0.0 2.06961434 0.21259450942 0.0
0.0 2.071222432 0.212877265553 0.0
0.0 2.072830524 0.213158668572 0.0
0.0 2.074438616 0.213438720265 0.0
0.0 2.076046708 0.213717422425 0.0
0.0 2.0776548 0.213994776842 0.0
0.0 2.079262892 0.214270785307 0.0
0.0 2.080870984 0.214545449609 0.0
0.0 2.082479076 0.21481877154 0.0
0.0 2.084087168 0.215090752891 0.0
0.0 2.08569526 0.215361395452 0.0
0.0 2.087303352 0.215630701013 0.0
0.0 2.088911444 0.215898671366 0.0
0.0 2.090519536 0.2161653083 0.0
0.0 2.092127627 0.216430613443 0.0
0.0 2.093735719 0.216694588914 0.0
0.0 2.095343811 0.21695723634 0.0
0.0 2.096951903 0.217218557509 0.0
0.0 2.098559995 0.217478554214 0.0
0.0 2.100168087 0.217737228245 0.0
0.0 2.101776179 0.217994581392 0.0
0.0 2.103384271 0.218250615447 0.0
0.0 2.104992363 0.218505332199 0.0
0.0 2.106600455 0.218758733439 0.0
0.0 2.108208547 0.219010820959 0.0
0.0 2.109816639 0.219261596548 0.0
0.0 2.111424731 0.219511061998 0.0
0.0 2.113032823 0.219759219098 0.0
0.0 2.114640915 0.22000606964 0.0
0.0 2.116249007 0.220251615414 0.0
0.0 2.117857099 0.220495858212 0.0
0.0 2.119465191 0.220738799822 0.0
0.0 2.121073283 0.220980442037 0.0
0.0 2.122681375 0.221220786647 0.0
0.0 2.124289466 0.221459835294 0.0
0.0 2.125897558 0.221697590066 0.0
0.0 2.12750565 0.221934052605 0.0
0.0 2.129113742 0.222169224701 0.0
0.0 2.130721834 0.222403108145 0.0
0.0 2.132329926 0.222635704728 0.0
0.0 2.133938018 0.22286701624 0.0
0.0 2.13554611 0.223097044472 0.0
0.0 2.137154202 0.223325791214 0.0
0.0 2.138762294 0.223553258258 0.0
0.0 2.140370386 0.223779447394 0.0
0.0 2.141978478 0.224004360412 0.0
0.0 2.14358657 0.224227999103 0.0
0.0 2.145194662 0.224450365259 0.0
0.0 2.146802754 0.224671460668 0.0
0.0 2.148410846 0.224891287123 0.0
0.0 2.150018938 0.225109846413 0.0
0.0 2.15162703 0.22532714033 0.0
0.0 2.153235122 0.225543170664 0.0
0.0 2.154843214 0.225757939205 0.0
0.0 2.156451305 0.225971447612 0.0
0.0 2.158059397 0.226183697942 0.0
0.0 2.159667489 0.22639469185 0.0
0.0 2.161275581 0.22660443113 0.0
0.0 2.162883673 0.22681291757 0.0
0.0 2.164491765 0.227020152961 0.0
0.0 2.166099857 0.227226139095 0.0
0.0 2.167707949 0.227430877761 0.0
0.0 2.169316041 0.227634370751 0.0
0.0 2.170924133 0.227836619855 0.0
0.0 2.172532225 0.228037626863 0.0
0.0 2.174140317 0.228237393567 0.0
0.0 2.175748409 0.228435921757 0.0
0.0 2.177356501 0.228633213223 0.0
0.0 2.178964593 0.228829269757 0.0
0.0 2.180572685 0.229024093149 0.0
0.0 2.182180777 0.229217685189 0.0
0.0 2.183788869 0.229410047669 0.0
0.0 2.185396961 0.229601182378 0.0
0.0 2.187005053 0.229791091107 0.0
0.0 2.188613145 0.229979775648 0.0
0.0 2.190221236 0.230167237675 0.0
0.0 2.191829328 0.23035347921 0.0
0.0 2.19343742 0.230538501929 0.0
0.0 2.195045512 0.230722307622 0.0
0.0 2.196653604 0.230904898079 0.0
0.0 2.198261696 0.23108627509 0.0
0.0 2.199869788 0.231266440448 0.0
0.0 2.20147788 0.231445395941 0.0
0.0 2.203085972 0.231623143362 0.0
0.0 2.204694064 0.2317996845 0.0
0.0 2.206302156 0.231975021146 0.0
0.0 2.207910248 0.232149155091 0.0
0.0 2.20951834 0.232322088126 0.0
0.0 2.211126432 0.23249382204 0.0
0.0 2.212734524 0.232664358626 0.0
0.0 2.214342616 0.232833699672 0.0
0.0 2.215950708 0.233001846971 0.0
0.0 2.2175588 0.233168802313 0.0
0.0 2.219166892 0.233334567487 0.0
0.0 2.220774984 0.233499144286 0.0
0.0 2.222383075 0.233662534398 0.0
0.0 2.223991167 0.233824739818 0.0
0.0 2.225599259 0.233985762233 0.0
0.0 2.227207351 0.234145603434 0.0
0.0 2.228815443 0.234304265213 0.0
0.0 2.230423535 0.23446174936 0.0
0.0 2.232031627 0.234618057665 0.0
0.0 2.233639719 0.234773191919 0.0
0.0 2.235247811 0.234927153913 0.0
0.0 2.236855903 0.235079945437 0.0
0.0 2.238463995 0.235231568282 0.0
0.0 2.240072087 0.235382024239 0.0
0.0 2.241680179 0.235531315099 0.0
0.0 2.243288271 0.235679442651 0.0
0.0 2.244896363 0.235826408686 0.0
0.0 2.246504455 0.235972214997 0.0
0.0 2.248112547 0.236116863372 0.0
0.0 2.249720639 0.236260355602 0.0
0.0 2.251328731 0.236402693478 0.0
0.0 2.252936823 0.236543878791 0.0
0.0 2.254544914 0.236683913245 0.0
0.0 2.256153006 0.236822798806 0.0
0.0 2.257761098 0.236960537175 0.0
0.0 2.25936919 0.237097130141 0.0
0.0 2.260977282 0.237232579499 0.0
0.0 2.262585374 0.237366887037 0.0
0.0 2.264193466 0.237500054547 0.0
0.0 2.265801558 0.237632083821 0.0
0.0 2.26740965 0.237762976643 0.0
0.0 2.269017742 0.237892734809 0.0
0.0 2.270625834 0.23802136011 0.0
0.0 2.272233926 0.238148854335 0.0
0.0 2.273842018 0.238275219277 0.0
0.0 2.27545011 0.238400456722 0.0
0.0 2.277058202 0.238524568465 0.0
0.0 2.278666294 0.238647556296 0.0
0.0 2.280274386 0.238769422003 0.0
0.0 2.281882478 0.23889016738 0.0
0.0 2.28349057 0.239009794216 0.0
0.0 2.285098662 0.239128304301 0.0
0.0 2.286706753 0.239245699353 0.0
0.0 2.288314845 0.239361981309 0.0
0.0 2.289922937 0.239477151888 0.0
0.0 2.291531029 0.239591212879 0.0
0.0 2.293139121 0.239704166074 0.0
0.0 2.294747213 0.239816013255 0.0
0.0 2.296355305 0.239926756222 0.0
0.0 2.297963397 0.240036396768 0.0
0.0 2.299571489 0.240144936678 0.0
0.0 2.301179581 0.240252377748 0.0
0.0 2.302787673 0.240358721773 0.0
0.0 2.304395765 0.24046397052 0.0
0.0 2.306003857 0.240568125797 0.0
0.0 2.307611949 0.240671189394 0.0
0.0 2.309220041 0.2407731631 0.0
0.0 2.310828133 0.240874048711 0.0
0.0 2.312436225 0.240973848007 0.0
0.0 2.314044317 0.241072562788 0.0
0.0 2.315652409 0.241170194838 0.0
0.0 2.317260501 0.241266745951 0.0
0.0 2.318868592 0.241362217858 0.0
0.0 2.320476684 0.241456612467 0.0
0.0 2.322084776 0.241549931528 0.0
0.0 2.323692868 0.241642176849 0.0
0.0 2.32530096 0.241733350139 0.0
0.0 2.326909052 0.241823453239 0.0
0.0 2.328517144 0.241912487988 0.0
0.0 2.330125236 0.242000456178 0.0
0.0 2.331733328 0.24208735964 0.0
0.0 2.33334142 0.242173199959 0.0
0.0 2.334949512 0.242257979071 0.0
0.0 2.336557604 0.242341698885 0.0
0.0 2.338165696 0.242424361203 0.0
0.0 2.339773788 0.242505967792 0.0
0.0 2.34138188 0.242586520116 0.0
0.0 2.342989972 0.242666020211 0.0
0.0 2.344598064 0.24274446977 0.0
0.0 2.346206156 0.242821870547 0.0
0.0 2.347814248 0.242898224449 0.0
0.0 2.34942234 0.242973533146 0.0
0.0 2.351030431 0.243047798478 0.0
0.0 2.352638523 0.243121022254 0.0
0.0 2.354246615 0.243193205867 0.0
0.0 2.355854707 0.243264351546 0.0
0.0 2.357462799 0.243334461016 0.0
0.0 2.359070891 0.243403536068 0.0
0.0 2.360678983 0.243471578564 0.0
0.0 2.362287075 0.243538589728 0.0
0.0 2.363895167 0.24360457196 0.0
0.0 2.365503259 0.243669527137 0.0
0.0 2.367111351 0.243733457091 0.0
0.0 2.368719443 0.243796363433 0.0
0.0 2.370327535 0.243858247843 0.0
0.0 2.371935627 0.243919112188 0.0
0.0 2.373543719 0.243978958355 0.0
0.0 2.375151811 0.244037788144 0.0
0.0 2.376759903 0.244095603278 0.0
0.0 2.378367995 0.244152405542 0.0
0.0 2.379976087 0.244208196816 0.0
0.0 2.381584179 0.244262978783 0.0
0.0 2.383192271 0.244316753115 0.0
0.0 2.384800362 0.244369521628 0.0
0.0 2.386408454 0.244421286291 0.0
0.0 2.388016546 0.244472048894 0.0
0.0 2.389624638 0.244521811192 0.0
0.0 2.39123273 0.244570574995 0.0
0.0 2.392840822 0.244618341699 0.0
0.0 2.394448914 0.244665113493 0.0
0.0 2.396057006 0.24471089215 0.0
0.0 2.397665098 0.244755679527 0.0
0.0 2.39927319 0.244799477342 0.0
0.0 2.400881282 0.244842287243 0.0
0.0 2.402489374 0.244884110949 0.0
0.0 2.404097466 0.244924950483 0.0
0.0 2.405705558 0.244964807604 0.0
0.0 2.40731365 0.245003684083 0.0
0.0 2.408921742 0.245041581716 0.0
0.0 2.410529834 0.245078502265 0.0
0.0 2.412137926 0.245114447524 0.0
0.0 2.413746018 0.245149419282 0.0
0.0 2.41535411 0.24518341921 0.0
0.0 2.416962201 0.245216449253 0.0
0.0 2.418570293 0.245248511221 0.0
0.0 2.420178385 0.245279606922 0.0
0.0 2.421786477 0.245309738126 0.0
0.0 2.423394569 0.245338906435 0.0
0.0 2.425002661 0.245367113723 0.0
0.0 2.426610753 0.245394361898 0.0
0.0 2.428218845 0.245420652741 0.0
0.0 2.429826937 0.245445988044 0.0
0.0 2.431435029 0.245470369743 0.0
0.0 2.433043121 0.24549379912 0.0
0.0 2.434651213 0.245516278234 0.0
0.0 2.436259305 0.245537808954 0.0
0.0 2.437867397 0.245558393149 0.0
0.0 2.439475489 0.245578032523 0.0
0.0 2.441083581 0.245596728857 0.0
0.0 2.442691673 0.24561448374 0.0
0.0 2.444299765 0.245631299159 0.0
0.0 2.445907857 0.24564717687 0.0
0.0 2.447515949 0.245662118644 0.0
0.0 2.44912404 0.245676126356 0.0
0.0 2.450732132 0.245689201816 0.0
0.0 2.452340224 0.24570134683 0.0
0.0 2.453948316 0.245712563161 0.0
0.0 2.455556408 0.245722852481 0.0
0.0 2.4571645 0.245732216507 0.0
0.0 2.458772592 0.245740657225 0.0
0.0 2.460380684 0.245748176441 0.0
0.0 2.461988776 0.245754775926 0.0
0.0 2.463596868 0.245760457476 0.0
0.0 2.46520496 0.245765222662 0.0
0.0 2.466813052 0.245769073399 0.0
0.0 2.468421144 0.245772011549 0.0
0.0 2.470029236 0.245774038979 0.0
0.0 2.471637328 0.245775157434 0.0
0.0 2.47324542 0.245775368703 0.0
0.0 2.474853512 0.245774674379 0.0
0.0 2.476461604 0.24577307635 0.0
0.0 2.478069696 0.245770576457 0.0
0.0 2.479677788 0.245767176434 0.0
0.0 2.481285879 0.245762878125 0.0
0.0 2.482893971 0.245757683318 0.0
0.0 2.484502063 0.245751593873 0.0
0.0 2.486110155 0.245744611521 0.0
0.0 2.487718247 0.24573673806 0.0
0.0 2.489326339 0.245727975006 0.0
0.0 2.490934431 0.245718324454 0.0
0.0 2.492542523 0.24570778818 0.0
0.0 2.494150615 0.245696368118 0.0
0.0 2.495758707 0.24568406636 0.0
0.0 2.497366799 0.24567088496 0.0
0.0 2.498974891 0.24565682381 0.0
0.0 2.499778162 0.245649472332 0.0
0.0 2.501129393 0.245636609145 0.0
0.0 2.502480624 0.245623130079 0.0
0.0 2.503831856 0.245609037645 0.0
0.0 2.505183087 0.245594330711 0.0
0.0 2.506534319 0.245579003313 0.0
0.0 2.50788555 0.245563064887 0.0
0.0 2.509236782 0.245546518897 0.0
0.0 2.510588013 0.24552935678 0.0
0.0 2.511939244 0.245511587593 0.0
0.0 2.513290476 0.245493210483 0.0
0.0 2.514641707 0.245474221803 0.0
0.0 2.515992939 0.24545462751 0.0
0.0 2.51734417 0.245434428868 0.0
0.0 2.518695402 0.245413626179 0.0
0.0 2.520046633 0.245392217611 0.0
0.0 2.521397865 0.245370207618 0.0
0.0 2.522749096 0.245347595597 0.0
0.0 2.524100327 0.245324384244 0.0
0.0 2.525451559 0.245300576533 0.0
0.0 2.52680279 0.24527616363 0.0
0.0 2.528154022 0.245251156087 0.0
0.0 2.529505253 0.245225553474 0.0
0.0 2.530856485 0.245199355776 0.0
0.0 2.532207716 0.245172564091 0.0
0.0 2.533558948 0.245145180927 0.0
0.0 2.534910179 0.245117204055 0.0
0.0 2.53626141 0.245088637177 0.0
0.0 2.537612642 0.245059479188 0.0
0.0 2.538963873 0.245029733557 0.0
0.0 2.540315105 0.24499939944 0.0
0.0 2.541666336 0.244968479326 0.0
0.0 2.543017568 0.244936973827 0.0
0.0 2.544368799 0.244904884814 0.0
0.0 2.54572003 0.244872211262 0.0
0.0 2.547071262 0.244838955241 0.0
0.0 2.548422493 0.244805118955 0.0
0.0 2.549773725 0.244770701475 0.0
0.0 2.551124956 0.244735704956 0.0
0.0 2.552476188 0.244700130629 0.0
0.0 2.553827419 0.244663979374 0.0
0.0 2.555178651 0.24462725215 0.0
0.0 2.556529882 0.244589950086 0.0
0.0 2.557881113 0.244552073938 0.0
0.0 2.559232345 0.244513625092 0.0
0.0 2.560583576 0.244474604846 0.0
0.0 2.561934808 0.244435013784 0.0
0.0 2.563286039 0.244394853078 0.0
0.0 2.564637271 0.244354123936 0.0
0.0 2.565988502 0.244312827409 0.0
0.0 2.567339733 0.244270964601 0.0
0.0 2.568690965 0.244228536266 0.0
0.0 2.570042196 0.244185543728 0.0
0.0 2.571393428 0.244141987926 0.0
0.0 2.572744659 0.244097870091 0.0
0.0 2.574095891 0.244053191064 0.0
0.0 2.575447122 0.24400795213 0.0
0.0 2.576798354 0.243962154236 0.0
0.0 2.578149585 0.243915798414 0.0
0.0 2.579500816 0.243868885833 0.0
0.0 2.580852048 0.243821417459 0.0
0.0 2.582203279 0.243773394406 0.0
0.0 2.583554511 0.243724817657 0.0
0.0 2.584905742 0.243675688405 0.0
0.0 2.586256974 0.243626007593 0.0
0.0 2.587608205 0.243575776367 0.0
0.0 2.588959437 0.243524995715 0.0
0.0 2.590310668 0.243473666782 0.0
0.0 2.591661899 0.24342179059 0.0
0.0 2.593013131 0.243369368159 0.0
0.0 2.594364362 0.243316400613 0.0
0.0 2.595715594 0.243262888977 0.0
0.0 2.597066825 0.243208834347 0.0
0.0 2.598418057 0.243154237738 0.0
0.0 2.599769288 0.243099100276 0.0
0.0 2.601120519 0.243043422987 0.0
0.0 2.602471751 0.242987206892 0.0
0.0 2.603822982 0.242930453145 0.0
0.0 2.605174214 0.242873162718 0.0
0.0 2.606525445 0.242815336758 0.0
0.0 2.607876677 0.242756976233 0.0
0.0 2.609227908 0.242698082311 0.0
0.0 2.61057914 0.242638655931 0.0
0.0 2.611930371 0.24257869829 0.0
0.0 2.613281602 0.242518210372 0.0
0.0 2.614632834 0.242457193228 0.0
0.0 2.615984065 0.242395647955 0.0
0.0 2.617335297 0.242333575587 0.0
0.0 2.618686528 0.242270977231 0.0
0.0 2.62003776 0.242207853888 0.0
0.0 2.621388991 0.242144206695 0.0
0.0 2.622740222 0.242080036676 0.0
0.0 2.624091454 0.242015344844 0.0
0.0 2.625442685 0.241950132352 0.0
0.0 2.626793917 0.241884400173 0.0
0.0 2.628145148 0.241818149468 0.0
0.0 2.62949638 0.241751381191 0.0
0.0 2.630847611 0.241684096517 0.0
0.0 2.632198843 0.241616296416 0.0
0.0 2.633550074 0.241547982014 0.0
0.0 2.634901305 0.241479154329 0.0
0.0 2.636252537 0.241409814405 0.0
0.0 2.637603768 0.241339963383 0.0
0.0 2.638955 0.241269602244 0.0
0.0 2.640306231 0.241198732128 0.0
0.0 2.641657463 0.241127354008 0.0
0.0 2.643008694 0.241055469058 0.0
0.0 2.644359925 0.240983078266 0.0
0.0 2.645711157 0.240910182648 0.0
0.0 2.647062388 0.240836783369 0.0
0.0 2.64841362 0.24076288141 0.0
0.0 2.649764851 0.240688477923 0.0
0.0 2.651116083 0.240613573851 0.0
0.0 2.652467314 0.240538170377 0.0
0.0 2.653818546 0.240462268466 0.0
0.0 2.655169777 0.240385869272 0.0
0.0 2.656521008 0.24030897381 0.0
0.0 2.65787224 0.240231583074 0.0
0.0 2.659223471 0.240153698259 0.0
0.0 2.660574703 0.240075320317 0.0
0.0 2.661925934 0.239996450394 0.0
0.0 2.663277166 0.239917089456 0.0
0.0 2.664628397 0.239837238675 0.0
0.0 2.665979629 0.239756899018 0.0
0.0 2.66733086 0.23967607164 0.0
0.0 2.668682091 0.239594757557 0.0
0.0 2.670033323 0.239512957762 0.0
0.0 2.671384554 0.239430673444 0.0
0.0 2.672735786 0.239347905545 0.0
0.0 2.674087017 0.23926465525 0.0
0.0 2.675438249 0.239180923497 0.0
0.0 2.67678948 0.23909671147 0.0
0.0 2.678140711 0.239012020173 0.0
0.0 2.679491943 0.238926850601 0.0
0.0 2.680843174 0.238841203947 0.0
0.0 2.682194406 0.238755081137 0.0
0.0 2.683545637 0.238668483372 0.0
0.0 2.684896869 0.238581411584 0.0
0.0 2.6862481 0.238493866964 0.0
0.0 2.687599332 0.238405850439 0.0
0.0 2.688950563 0.238317363207 0.0
0.0 2.690301794 0.238228406263 0.0
0.0 2.691653026 0.238138980605 0.0
0.0 2.693004257 0.238049087428 0.0
0.0 2.694355489 0.237958727658 0.0
0.0 2.69570672 0.237867902494 0.0
0.0 2.697057952 0.237776612865 0.0
0.0 2.698409183 0.237684859964 0.0
0.0 2.699760414 0.237592644789 0.0
0.0 2.701111646 0.237499968336 0.0
0.0 2.702462877 0.237406831802 0.0
0.0 2.703814109 0.237313236109 0.0
0.0 2.70516534 0.237219182453 0.0
0.0 2.706516572 0.237124671777 0.0
0.0 2.707867803 0.23702970526 0.0
0.0 2.709219035 0.236934283836 0.0
0.0 2.710570266 0.236838408708 0.0
0.0 2.711921497 0.236742080874 0.0
0.0 2.713272729 0.236645301311 0.0
0.0 2.71462396 0.236548071226 0.0
0.0 2.715975192 0.236450391548 0.0
0.0 2.717326423 0.236352263474 0.0
0.0 2.718677655 0.236253687926 0.0
0.0 2.720028886 0.236154666112 0.0
0.0 2.721380117 0.236055199022 0.0
0.0 2.722731349 0.235955287642 0.0
0.0 2.72408258 0.235854933185 0.0
0.0 2.725433812 0.235754136563 0.0
0.0 2.726785043 0.235652898996 0.0
0.0 2.728136275 0.235551221374 0.0
0.0 2.729487506 0.235449104929 0.0
0.0 2.730838738 0.235346550571 0.0
0.0 2.732189969 0.235243559506 0.0
0.0 2.7335412 0.235140132727 0.0
0.0 2.734892432 0.235036271221 0.0
0.0 2.736243663 0.234931976199 0.0
0.0 2.737594895 0.234827248562 0.0
0.0 2.738946126 0.234722089542 0.0
0.0 2.740297358 0.234616500043 0.0
0.0 2.741648589 0.23451048128 0.0
0.0 2.742999821 0.234404034151 0.0
0.0 2.744351052 0.234297159887 0.0
0.0 2.745702283 0.234189859469 0.0
0.0 2.747053515 0.234082133878 0.0
0.0 2.748404746 0.233973984337 0.0
0.0 2.749755978 0.233865411748 0.0
0.0 2.751107209 0.233756417334 0.0
0.0 2.752458441 0.233647001996 0.0
0.0 2.753809672 0.233537166959 0.0
0.0 2.755160903 0.233426913202 0.0
0.0 2.756512135 0.233316241707 0.0
0.0 2.757863366 0.233205153698 0.0
0.0 2.759214598 0.233093650078 0.0
0.0 2.760565829 0.232981732071 0.0
0.0 2.761917061 0.232869400577 0.0
0.0 2.763268292 0.232756656813 0.0
0.0 2.764619524 0.232643501688 0.0
0.0 2.765970755 0.232529936428 0.0
0.0 2.767321986 0.232415962008 0.0
0.0 2.768673218 0.23230157941 0.0
0.0 2.770024449 0.232186789865 0.0
0.0 2.771375681 0.232071594263 0.0
0.0 2.772726912 0.231955993837 0.0
0.0 2.774078144 0.231839989481 0.0
0.0 2.775429375 0.23172358243 0.0
0.0 2.776780606 0.231606773654 0.0
0.0 2.778131838 0.231489564134 0.0
0.0 2.779483069 0.231371955104 0.0
0.0 2.780834301 0.231253947452 0.0
0.0 2.782185532 0.231135542415 0.0
0.0 2.783536764 0.231016740887 0.0
0.0 2.784887995 0.23089754409 0.0
0.0 2.786239227 0.230777952925 0.0
0.0 2.787590458 0.230657968629 0.0
0.0 2.788941689 0.23053759217 0.0
0.0 2.790292921 0.230416824527 0.0
0.0 2.791644152 0.23029566693 0.0
0.0 2.792995384 0.230174120279 0.0
0.0 2.794346615 0.230052185811 0.0
0.0 2.795697847 0.229929864391 0.0
0.0 2.797049078 0.229807157277 0.0
0.0 2.798400309 0.229684065446 0.0
0.0 2.799751541 0.229560589862 0.0
0.0 2.801102772 0.229436731769 0.0
0.0 2.802454004 0.229312492049 0.0
0.0 2.803805235 0.229187871941 0.0
0.0 2.805156467 0.229062872334 0.0
0.0 2.806507698 0.228937494469 0.0
0.0 2.80785893 0.228811739224 0.0
0.0 2.809210161 0.228685607847 0.0
0.0 2.810561392 0.228559101308 0.0
0.0 2.811912624 0.228432220574 0.0
0.0 2.813263855 0.2283049669 0.0
0.0 2.814615087 0.228177341156 0.0
0.0 2.815966318 0.22804934459 0.0
0.0 2.81731755 0.227920978076 0.0
0.0 2.818668781 0.227792242871 0.0
0.0 2.820020013 0.227663139846 0.0
0.0 2.821371244 0.22753367025 0.0
0.0 2.822722475 0.227403835055 0.0
0.0 2.824073707 0.227273635222 0.0
0.0 2.825424938 0.227143072011 0.0
0.0 2.82677617 0.227012146287 0.0
0.0 2.828127401 0.22688085931 0.0
0.0 2.829478633 0.226749211945 0.0
0.0 2.830829864 0.22661720545 0.0
0.0 2.832181095 0.226484840791 0.0
0.0 2.833532327 0.226352118932 0.0
0.0 2.834883558 0.226219041128 0.0
0.0 2.83623479 0.226085608252 0.0
0.0 2.837586021 0.225951821555 0.0
0.0 2.838937253 0.225817681908 0.0
0.0 2.840288484 0.225683190566 0.0
0.0 2.841639716 0.225548348396 0.0
0.0 2.842990947 0.225413156661 0.0
0.0 2.844342178 0.225277616324 0.0
0.0 2.84569341 0.225141728342 0.0
0.0 2.847044641 0.225005493983 0.0
0.0 2.848395873 0.224868914106 0.0
0.0 2.849747104 0.224731989979 0.0
0.0 2.851098336 0.224594722456 0.0
0.0 2.852449567 0.224457112802 0.0
0.0 2.853800798 0.22431916198 0.0
0.0 2.85515203 0.224180870952 0.0
0.0 2.856503261 0.224042240983 0.0
0.0 2.857854493 0.223903272935 0.0
0.0 2.859205724 0.223763968067 0.0
0.0 2.860556956 0.223624327241 0.0
0.0 2.861908187 0.223484351727 0.0
0.0 2.863259419 0.223344042376 0.0
0.0 2.86461065 0.223203400466 0.0
0.0 2.865961881 0.223062426944 0.0
0.0 2.867313113 0.22292112277 0.0
0.0 2.868664344 0.222779489223 0.0
0.0 2.870015576 0.22263752716 0.0
0.0 2.871366807 0.222495237831 0.0
0.0 2.872718039 0.222352622106 0.0
0.0 2.87406927 0.22220968126 0.0
0.0 2.875420501 0.222066416237 0.0
0.0 2.876771733 0.221922828007 0.0
0.0 2.878122964 0.221778917834 0.0
0.0 2.879474196 0.221634686568 0.0
0.0 2.880825427 0.221490135488 0.0
0.0 2.882176659 0.221345265445 0.0
0.0 2.88352789 0.221200077718 0.0
0.0 2.884879122 0.221054573147 0.0
0.0 2.886230353 0.220908753012 0.0
0.0 2.887581584 0.220762618268 0.0
0.0 2.888932816 0.220616169866 0.0
0.0 2.890284047 0.220469409089 0.0
0.0 2.891635279 0.220322336786 0.0
0.0 2.89298651 0.220174954231 0.0
0.0 2.894337742 0.220027262265 0.0
0.0 2.895688973 0.219879262177 0.0
0.0 2.897040205 0.219730954808 0.0
0.0 2.898391436 0.219582341438 0.0
0.0 2.899742667 0.21943342302 0.0
0.0 2.901093899 0.219284200505 0.0
0.0 2.90244513 0.219134675178 0.0
0.0 2.903796362 0.218984847881 0.0
0.0 2.905147593 0.218834719895 0.0
0.0 2.906498825 0.218684292065 0.0
0.0 2.907850056 0.218533565667 0.0
0.0 2.909201287 0.218382541659 0.0
0.0 2.910552519 0.218231220995 0.0
0.0 2.91190375 0.218079604951 0.0
0.0 2.913254982 0.217927694371 0.0
0.0 2.914606213 0.21777549054 0.0
0.0 2.915957445 0.217622994304 0.0
0.0 2.917308676 0.217470206935 0.0
0.0 2.918659908 0.217317129282 0.0
0.0 2.920011139 0.217163762632 0.0
0.0 2.92136237 0.217010107925 0.0
0.0 2.922713602 0.216856166117 0.0
0.0 2.924064833 0.216701938499 0.0
0.0 2.925416065 0.216547425904 0.0
0.0 2.926767296 0.216392629627 0.0
0.0 2.928118528 0.216237550493 0.0
0.0 2.929469759 0.216082189795 0.0
0.0 2.93082099 0.215926548492 0.0
0.0 2.932172222 0.215770627515 0.0
0.0 2.933523453 0.215614428165 0.0
0.0 2.934874685 0.215457951274 0.0
0.0 2.936225916 0.215301198134 0.0
0.0 2.937577148 0.215144169573 0.0
0.0 2.938928379 0.214986866884 0.0
0.0 2.940279611 0.214829290905 0.0
0.0 2.941630842 0.214671442928 0.0
0.0 2.942982073 0.214513323897 0.0
0.0 2.944333305 0.214354934764 0.0
0.0 2.945684536 0.214196276816 0.0
0.0 2.947035768 0.214037350885 0.0
0.0 2.948386999 0.213878158268 0.0
0.0 2.949738231 0.213718699794 0.0
0.0 2.951089462 0.213558976756 0.0
0.0 2.952440694 0.213398989988 0.0
0.0 2.953791925 0.21323874078 0.0
0.0 2.955143156 0.213078230082 0.0
0.0 2.956494388 0.212917458837 0.0
0.0 2.957845619 0.212756428342 0.0
0.0 2.959196851 0.212595139426 0.0
0.0 2.960548082 0.212433593385 0.0
0.0 2.961899314 0.212271791044 0.0
0.0 2.963250545 0.212109733705 0.0
0.0 2.964601776 0.21194742231 0.0
0.0 2.965953008 0.211784857802 0.0
0.0 2.967304239 0.211622041485 0.0
0.0 2.968655471 0.211458974179 0.0
0.0 2.970006702 0.211295657189 0.0
0.0 2.971357934 0.211132091333 0.0
0.0 2.972709165 0.210968277916 0.0
0.0 2.974060397 0.210804217763 0.0
0.0 2.975411628 0.210639912174 0.0
0.0 2.976762859 0.210475362096 0.0
0.0 2.978114091 0.21031056845 0.0
0.0 2.979465322 0.21014553256 0.0
0.0 2.980816554 0.209980255246 0.0
0.0 2.982167785 0.209814737808 0.0
0.0 2.983519017 0.209648981061 0.0
0.0 2.984870248 0.209482986316 0.0
0.0 2.986221479 0.209316754517 0.0
0.0 2.987572711 0.2091502866 0.0
0.0 2.988923942 0.208983583874 0.0
0.0 2.990275174 0.208816647153 0.0
0.0 2.991626405 0.208649477748 0.0
0.0 2.992977637 0.208482076469 0.0
0.0 2.994328868 0.208314444636 0.0
0.0 2.9956801 0.208146583056 0.0
0.0 2.997031331 0.207978493038 0.0
0.0 2.998382562 0.207810175522 0.0
0.0 2.999733794 0.207641631449 0.0
0.0 3.001085025 0.207472862129 0.0
0.0 3.002436257 0.207303868375 0.0
0.0 3.003787488 0.207134651505 0.0
0.0 3.00513872 0.206965212318 0.0
0.0 3.006489951 0.206795552131 0.0
0.0 3.007841182 0.206625671884 0.0
0.0 3.009192414 0.20645557252 0.0
0.0 3.010543645 0.206285255343 0.0
0.0 3.011894877 0.206114721167 0.0
0.0 3.013246108 0.205943971305 0.0
0.0 3.01459734 0.205773006564 0.0
0.0 3.015948571 0.205601828268 0.0
0.0 3.017299803 0.205430437221 0.0
0.0 3.018651034 0.205258834741 0.0
0.0 3.020002265 0.20508702176 0.0
0.0 3.021353497 0.204914999214 0.0
0.0 3.022704728 0.204742768423 0.0
0.0 3.02405596 0.204570330194 0.0
0.0 3.025407191 0.204397685839 0.0
0.0 3.026758423 0.204224836172 0.0
0.0 3.028109654 0.204051782509 0.0
0.0 3.029460886 0.203878525646 0.0
0.0 3.030812117 0.203705066917 0.0
0.0 3.032163348 0.203531407259 0.0
0.0 3.03351458 0.203357547581 0.0
0.0 3.034865811 0.203183489233 0.0
0.0 3.036217043 0.203009233014 0.0
0.0 3.037568274 0.202834780219 0.0
0.0 3.038919506 0.20266013166 0.0
0.0 3.040270737 0.202485288661 0.0
0.0 3.041621968 0.202310252165 0.0
0.0 3.0429732 0.202135023103 0.0
0.0 3.044324431 0.201959602799 0.0
0.0 3.045675663 0.201783992068 0.0
0.0 3.047026894 0.201608192203 0.0
0.0 3.048378126 0.201432204012 0.0
0.0 3.049729357 0.201256028819 0.0
0.0 3.051080589 0.20107966743 0.0
0.0 3.05243182 0.20090312117 0.0
0.0 3.053783051 0.200726390986 0.0
0.0 3.055134283 0.200549477769 0.0
0.0 3.056485514 0.200372382861 0.0
0.0 3.057836746 0.200195107085 0.0
0.0 3.059187977 0.20001765176 0.0
0.0 3.060539209 0.199840017675 0.0
0.0 3.06189044 0.199662206122 0.0
0.0 3.063241671 0.199484218085 0.0
0.0 3.064592903 0.199306054476 0.0
0.0 3.065944134 0.199127716625 0.0
0.0 3.067295366 0.198949205321 0.0
0.0 3.068646597 0.19877052189 0.0
0.0 3.069997829 0.198591667147 0.0
0.0 3.07134906 0.198412642398 0.0
0.0 3.072700292 0.198233448447 0.0
0.0 3.074051523 0.198054086618 0.0
0.0 3.075402754 0.197874557846 0.0
0.0 3.076753986 0.197694863084 0.0
0.0 3.078105217 0.197515003618 0.0
0.0 3.079456449 0.197334980255 0.0
0.0 3.08080768 0.197154794334 0.0
0.0 3.082158912 0.196974446648 0.0
0.0 3.083510143 0.196793938528 0.0
0.0 3.084861374 0.196613270899 0.0
0.0 3.086212606 0.1964324447 0.0
0.0 3.087563837 0.196251461257 0.0
0.0 3.088915069 0.196070321355 0.0
0.0 3.0902663 0.195889026326 0.0
0.0 3.091617532 0.195707576969 0.0
0.0 3.092968763 0.195525974618 0.0
0.0 3.094319995 0.195344220069 0.0
0.0 3.095671226 0.195162314644 0.0
0.0 3.097022457 0.19498025927 0.0
0.0 3.098373689 0.19479805485 0.0
0.0 3.09972492 0.194615702786 0.0
0.0 3.101076152 0.194433203835 0.0
0.0 3.102427383 0.194250559299 0.0
0.0 3.103778615 0.194067769975 0.0
0.0 3.105129846 0.193884837223 0.0
0.0 3.106481078 0.19370176185 0.0
0.0 3.107832309 0.193518545169 0.0
0.0 3.10918354 0.193335188061 0.0
0.0 3.110534772 0.193151691511 0.0
0.0 3.111886003 0.192968056853 0.0
0.0 3.113237235 0.192784284856 0.0
0.0 3.114588466 0.192600376872 0.0
0.0 3.115939698 0.192416333674 0.0
0.0 3.117290929 0.192232156579 0.0
0.0 3.11864216 0.192047846546 0.0
0.0 3.119993392 0.191863404515 0.0
0.0 3.121344623 0.191678831785 0.0
0.0 3.122695855 0.191494129138 0.0
0.0 3.124047086 0.191309297965 0.0
0.0 3.125398318 0.191124339017 0.0
0.0 3.126749549 0.190939253598 0.0
0.0 3.128100781 0.190754042498 0.0
0.0 3.129452012 0.190568707123 0.0
0.0 3.130803243 0.190383248423 0.0
0.0 3.132154475 0.190197667172 0.0
0.0 3.133505706 0.190011964811 0.0
0.0 3.134856938 0.189826142133 0.0
0.0 3.136208169 0.189640200477 0.0
0.0 3.137559401 0.1894541406 0.0
0.0 3.138910632 0.189267963833 0.0
0.0 3.140261863 0.1890816711 0.0
0.0 3.141613095 0.188895263357 0.0
0.0 3.142964326 0.188708741946 0.0
0.0 3.144315558 0.188522107605 0.0
0.0 3.145666789 0.18833536176 0.0
0.0 3.147018021 0.188148505072 0.0
0.0 3.148369252 0.187961538934 0.0
0.0 3.149720484 0.187774464178 0.0
0.0 3.151071715 0.187587282107 0.0
0.0 3.152422946 0.18739999362 0.0
0.0 3.153774178 0.187212599666 0.0
0.0 3.155125409 0.187025101603 0.0
0.0 3.156476641 0.18683750023 0.0
0.0 3.157827872 0.18664979683 0.0
0.0 3.159179104 0.186461992242 0.0
0.0 3.160530335 0.186274087781 0.0
0.0 3.161881566 0.186086084339 0.0
0.0 3.163232798 0.185897982792 0.0
0.0 3.164584029 0.185709784595 0.0
0.0 3.165935261 0.185521490525 0.0
0.0 3.167286492 0.185333101908 0.0
0.0 3.168637724 0.185144619506 0.0
0.0 3.169988955 0.18495604465 0.0
0.0 3.171340187 0.184767378133 0.0
0.0 3.172691418 0.184578621282 0.0
0.0 3.174042649 0.184389775065 0.0
0.0 3.175393881 0.18420084037 0.0
0.0 3.176745112 0.184011818556 0.0
0.0 3.178096344 0.183822710397 0.0
0.0 3.179447575 0.183633517236 0.0
0.0 3.180798807 0.183444239858 0.0
0.0 3.182150038 0.183254879595 0.0
0.0 3.18350127 0.183065437234 0.0
0.0 3.184852501 0.182875914123 0.0
0.0 3.186203732 0.182686311183 0.0
0.0 3.187554964 0.182496629334 0.0
0.0 3.188906195 0.182306869926 0.0
0.0 3.190257427 0.182117033733 0.0
0.0 3.191608658 0.181927122097 0.0
0.0 3.19295989 0.181737135781 0.0
0.0 3.194311121 0.181547076161 0.0
0.0 3.195662352 0.181356944159 0.0
0.0 3.197013584 0.181166740678 0.0
0.0 3.198364815 0.180976467076 0.0
0.0 3.199716047 0.180786124135 0.0
0.0 3.201067278 0.180595713167 0.0
0.0 3.20241851 0.180405234987 0.0
0.0 3.203769741 0.180214690909 0.0
0.0 3.205120973 0.18002408173 0.0
0.0 3.206472204 0.179833408823 0.0
0.0 3.207823435 0.17964267307 0.0
0.0 3.209174667 0.179451875409 0.0
0.0 3.210525898 0.179261017183 0.0
0.0 3.21187713 0.179070099134 0.0
0.0 3.213228361 0.178879122664 0.0
0.0 3.214579593 0.178688088557 0.0
0.0 3.215930824 0.178496998095 0.0
0.0 3.217282055 0.17830585222 0.0
0.0 3.218633287 0.178114651897 0.0
0.0 3.219984518 0.177923398475 0.0
0.0 3.22133575 0.177732092687 0.0
0.0 3.222686981 0.177540735852 0.0
0.0 3.224038213 0.177349328807 0.0
0.0 3.225389444 0.177157872892 0.0
0.0 3.226740676 0.176966368893 0.0
0.0 3.228091907 0.176774818134 0.0
0.0 3.229443138 0.176583221505 0.0
0.0 3.23079437 0.176391579979 0.0
0.0 3.232145601 0.176199894886 0.0
0.0 3.233496833 0.176008167008 0.0
0.0 3.234848064 0.175816397676 0.0
0.0 3.236199296 0.175624587667 0.0
0.0 3.237550527 0.17543273836 0.0
0.0 3.238901759 0.175240850502 0.0
0.0 3.24025299 0.175048925458 0.0
0.0 3.241604221 0.174856964133 0.0
0.0 3.242955453 0.174664967453 0.0
0.0 3.244306684 0.174472936769 0.0
0.0 3.245657916 0.17428087285 0.0
0.0 3.247009147 0.17408877705 0.0
0.0 3.248360379 0.17389665016 0.0
0.0 3.24971161 0.17370449347 0.0
0.0 3.251062841 0.173512307936 0.0
0.0 3.252414073 0.173320094506 0.0
0.0 3.253765304 0.173127854515 0.0
0.0 3.255116536 0.172935588747 0.0
0.0 3.256467767 0.172743298502 0.0
0.0 3.257818999 0.172550984586 0.0
0.0 3.25917023 0.172358648359 0.0
0.0 3.260521462 0.172166290591 0.0
0.0 3.261872693 0.171973912639 0.0
0.0 3.263223924 0.171781515428 0.0
0.0 3.264575156 0.171589099813 0.0
0.0 3.265926387 0.171396667227 0.0
0.0 3.267277619 0.171204218386 0.0
0.0 3.26862885 0.171011754639 0.0
0.0 3.269980082 0.170819276832 0.0
0.0 3.271331313 0.170626786254 0.0
0.0 3.272682544 0.17043428376 0.0
0.0 3.274033776 0.170241770374 0.0
0.0 3.275385007 0.170049247429 0.0
0.0 3.276736239 0.16985671571 0.0
0.0 3.27808747 0.169664176552 0.0
0.0 3.279438702 0.169471630711 0.0
0.0 3.280789933 0.169279079585 0.0
0.0 3.282141165 0.169086523862 0.0
0.0 3.283492396 0.168893964904 0.0
0.0 3.284843627 0.16870140369 0.0
0.0 3.286194859 0.16850884112 0.0
0.0 3.28754609 0.168316278534 0.0
0.0 3.288897322 0.168123716707 0.0
0.0 3.290248553 0.167931157011 0.0
0.0 3.291599785 0.167738600214 0.0
0.0 3.292951016 0.167546047666 0.0
0.0 3.294302247 0.167353500237 0.0
0.0 3.295653479 0.167160958904 0.0
0.0 3.29700471 0.166968424994 0.0
0.0 3.298355942 0.166775899269 0.0
0.0 3.299707173 0.166583383119 0.0
0.0 3.301058405 0.166390877273 0.0
0.0 3.302409636 0.166198383086 0.0
0.0 3.303760868 0.166005901376 0.0
0.0 3.305112099 0.165813433474 0.0
0.0 3.30646333 0.165620980253 0.0
0.0 3.307814562 0.165428542698 0.0
0.0 3.309165793 0.165236122128 0.0
0.0 3.310517025 0.165043719308 0.0
0.0 3.311868256 0.164851335599 0.0
0.0 3.313219488 0.164658971798 0.0
0.0 3.314570719 0.164466629196 0.0
0.0 3.315921951 0.164274308636 0.0
0.0 3.317273182 0.16408201143 0.0
0.0 3.318624413 0.163889738509 0.0
0.0 3.319975645 0.163697490788 0.0
0.0 3.321326876 0.163505269627 0.0
0.0 3.322678108 0.163313075754 0.0
0.0 3.324029339 0.163120910541 0.0
0.0 3.325380571 0.162928774772 0.0
0.0 3.326731802 0.162736669827 0.0
0.0 3.328083033 0.162544596578 0.0
0.0 3.329434265 0.16235255597 0.0
0.0 3.330785496 0.162160549357 0.0
0.0 3.332136728 0.161968577498 0.0
0.0 3.333487959 0.161776641741 0.0
0.0 3.334839191 0.16158474288 0.0
0.0 3.336190422 0.161392882251 0.0
0.0 3.337541654 0.161201060635 0.0
0.0 3.338892885 0.161009279347 0.0
0.0 3.340244116 0.160817539354 0.0
0.0 3.341595348 0.160625841558 0.0
0.0 3.342946579 0.160434187333 0.0
0.0 3.344297811 0.16024257745 0.0
0.0 3.345649042 0.160051013162 0.0
0.0 3.347000274 0.159859495324 0.0
0.0 3.348351505 0.159668025271 0.0
0.0 3.349702736 0.159476603955 0.0
0.0 3.351053968 0.159285232278 0.0
0.0 3.352405199 0.159093911597 0.0
0.0 3.353756431 0.158902642672 0.0
0.0 3.355107662 0.158711426841 0.0
0.0 3.356458894 0.158520264909 0.0
0.0 3.357810125 0.158329158207 0.0
0.0 3.359161357 0.158138107471 0.0
0.0 3.360512588 0.157947114093 0.0
0.0 3.361863819 0.157756178989 0.0
0.0 3.363215051 0.157565303123 0.0
0.0 3.364566282 0.157374487787 0.0
0.0 3.365917514 0.157183733759 0.0
0.0 3.367268745 0.156993042386 0.0
0.0 3.368619977 0.156802414388 0.0
0.0 3.369971208 0.156611851209 0.0
0.0 3.371322439 0.156421353839 0.0
0.0 3.372673671 0.156230923037 0.0
0.0 3.374024902 0.156040560176 0.0
0.0 3.375376134 0.155850266128 0.0
0.0 3.376727365 0.155660042211 0.0
0.0 3.378078597 0.155469889144 0.0
0.0 3.379429828 0.155279808247 0.0
0.0 3.38078106 0.155089800403 0.0
0.0 3.382132291 0.15489986685 0.0
0.0 3.383483522 0.15471000861 0.0
0.0 3.384834754 0.154520226638 0.0
0.0 3.386185985 0.154330522251 0.0
0.0 3.387537217 0.154140896024 0.0
0.0 3.388888448 0.153951349478 0.0
0.0 3.39023968 0.153761883383 0.0
0.0 3.391590911 0.153572499032 0.0
0.0 3.392942143 0.153383197297 0.0
0.0 3.394293374 0.153193979527 0.0
0.0 3.395644605 0.153004846551 0.0
0.0 3.396995837 0.152815799315 0.0
0.0 3.398347068 0.152626839149 0.0
0.0 3.3996983 0.15243796687 0.0
0.0 3.401049531 0.152249183837 0.0
0.0 3.402400763 0.152060490828 0.0
0.0 3.403751994 0.151871889116 0.0
0.0 3.405103225 0.151683379691 0.0
0.0 3.406454457 0.151494963539 0.0
0.0 3.407805688 0.151306641847 0.0
0.0 3.40915692 0.151118415484 0.0
0.0 3.410508151 0.150930285725 0.0
0.0 3.411859383 0.150742253551 0.0
0.0 3.413210614 0.150554320044 0.0
0.0 3.414561846 0.150366486076 0.0
0.0 3.415913077 0.150178753053 0.0
0.0 3.417264308 0.149991121891 0.0
0.0 3.41861554 0.14980359345 0.0
0.0 3.419966771 0.149616169131 0.0
0.0 3.421318003 0.149428849624 0.0
0.0 3.422669234 0.149241636349 0.0
0.0 3.424020466 0.149054530109 0.0
0.0 3.425371697 0.148867532213 0.0
0.0 3.426722928 0.148680643641 0.0
0.0 3.42807416 0.148493865204 0.0
0.0 3.429425391 0.148307198315 0.0
0.0 3.430776623 0.14812064369 0.0
0.0 3.432127854 0.147934202753 0.0
0.0 3.433479086 0.147747876309 0.0
0.0 3.434830317 0.147561665492 0.0
0.0 3.436181549 0.147375571315 0.0
0.0 3.43753278 0.147189595121 0.0
0.0 3.438884011 0.147003737702 0.0
0.0 3.440235243 0.146817999976 0.0
0.0 3.441586474 0.146632383402 0.0
0.0 3.442937706 0.146446888678 0.0
0.0 3.444288937 0.146261517169 0.0
0.0 3.445640169 0.146076269679 0.0
0.0 3.4469914 0.145891147523 0.0
0.0 3.448342631 0.145706151634 0.0
0.0 3.449693863 0.14552128294 0.0
0.0 3.451045094 0.145336542804 0.0
0.0 3.452396326 0.14515193195 0.0
0.0 3.453747557 0.144967451771 0.0
0.0 3.455098789 0.144783103024 0.0
0.0 3.45645002 0.14459888703 0.0
0.0 3.457801252 0.144414804547 0.0
0.0 3.459152483 0.144230857028 0.0
0.0 3.460503714 0.144047045296 0.0
0.0 3.461854946 0.14386337032 0.0
0.0 3.463206177 0.143679833485 0.0
0.0 3.464557409 0.143496435454 0.0
0.0 3.46590864 0.143313177634 0.0
0.0 3.467259872 0.143130060896 0.0
0.0 3.468611103 0.142947086495 0.0
0.0 3.469962335 0.142764255123 0.0
0.0 3.471313566 0.142581568206 0.0
0.0 3.472664797 0.142399026738 0.0
0.0 3.474016029 0.142216631575 0.0
0.0 3.47536726 0.142034384042 0.0
0.0 3.476718492 0.141852284961 0.0
0.0 3.478069723 0.141670335676 0.0
0.0 3.479420955 0.141488536932 0.0
0.0 3.480772186 0.141306890096 0.0
0.0 3.482123417 0.141125396068 0.0
0.0 3.483474649 0.140944055761 0.0
0.0 3.48482588 0.140762870538 0.0
0.0 3.486177112 0.140581841213 0.0
0.0 3.487528343 0.140400969101 0.0
0.0 3.488879575 0.140220255053 0.0
0.0 3.490230806 0.140039700239 0.0
0.0 3.491582038 0.139859305531 0.0
0.0 3.492933269 0.139679072323 0.0
0.0 3.4942845 0.139499001501 0.0
0.0 3.495635732 0.139319094028 0.0
0.0 3.496986963 0.139139351124 0.0
0.0 3.498338195 0.138959773688 0.0
0.0 3.499689426 0.138780363038 0.0
0.0 3.501040658 0.13860111996 0.0
0.0 3.502391889 0.138422045733 0.0
0.0 3.50374312 0.138243141324 0.0
0.0 3.505094352 0.138064407672 0.0
0.0 3.506445583 0.137885846106 0.0
0.0 3.507796815 0.137707457415 0.0
0.0 3.509148046 0.137529242936 0.0
0.0 3.510499278 0.137351203484 0.0
0.0 3.511850509 0.13717334031 0.0
0.0 3.513201741 0.136995654242 0.0
0.0 3.514552972 0.136818146646 0.0
0.0 3.515904203 0.136640818457 0.0
0.0 3.517255435 0.136463670559 0.0
0.0 3.518606666 0.136286704308 0.0
0.0 3.519957898 0.136109920518 0.0
0.0 3.521309129 0.135933320465 0.0
0.0 3.522660361 0.135756904967 0.0
0.0 3.524011592 0.135580675395 0.0
0.0 3.525362824 0.135404632465 0.0
0.0 3.526714055 0.135228777533 0.0
0.0 3.528065286 0.135053111537 0.0
0.0 3.529416518 0.134877635409 0.0
0.0 3.530767749 0.134702350495 0.0
0.0 3.532118981 0.134527257582 0.0
0.0 3.533470212 0.134352358009 0.0
0.0 3.534821444 0.134177652545 0.0
0.0 3.536172675 0.134003142537 0.0
0.0 3.537523906 0.133828828934 0.0
0.0 3.538875138 0.13365471267 0.0
0.0 3.540226369 0.133480795068 0.0
0.0 3.541577601 0.133307076813 0.0
0.0 3.542928832 0.133133559295 0.0
0.0 3.544280064 0.132960243383 0.0
0.0 3.545631295 0.13278713031 0.0
0.0 3.546982527 0.132614220882 0.0
0.0 3.548333758 0.132441516513 0.0
0.0 3.549684989 0.132269018074 0.0
0.0 3.551036221 0.132096726536 0.0
0.0 3.552387452 0.131924643235 0.0
0.0 3.553738684 0.13175276879 0.0
0.0 3.555089915 0.13158110474 0.0
0.0 3.556441147 0.131409651827 0.0
0.0 3.557792378 0.131238411356 0.0
0.0 3.559143609 0.131067384284 0.0
0.0 3.560494841 0.130896571505 0.0
0.0 3.561846072 0.130725974319 0.0
0.0 3.563197304 0.130555593599 0.0
0.0 3.564548535 0.130385430631 0.0
0.0 3.565899767 0.130215486225 0.0
0.0 3.567250998 0.130045761739 0.0
0.0 3.56860223 0.129876257921 0.0
0.0 3.569953461 0.129706976201 0.0
0.0 3.571304692 0.129537917446 0.0
0.0 3.572655924 0.129369082431 0.0
0.0 3.574007155 0.129200472435 0.0
0.0 3.575358387 0.129032088437 0.0
0.0 3.576709618 0.128863931849 0.0
0.0 3.57806085 0.128696003459 0.0
0.0 3.579412081 0.128528304526 0.0
0.0 3.580763312 0.128360835976 0.0
0.0 3.582114544 0.128193598634 0.0
0.0 3.583465775 0.128026593915 0.0
0.0 3.584817007 0.127859822686 0.0
0.0 3.586168238 0.12769328628 0.0
0.0 3.58751947 0.127526985438 0.0
0.0 3.588870701 0.127360921404 0.0
0.0 3.590221933 0.127195095017 0.0
0.0 3.591573164 0.127029507607 0.0
0.0 3.592924395 0.126864160129 0.0
0.0 3.594275627 0.126699053529 0.0
0.0 3.595626858 0.126534189162 0.0
0.0 3.59697809 0.126369567811 0.0
0.0 3.598329321 0.126205190728 0.0
0.0 3.599680553 0.126041058794 0.0
0.0 3.601031784 0.125877173346 0.0
0.0 3.602383016 0.125713535117 0.0
0.0 3.603734247 0.125550145374 0.0
0.0 3.605085478 0.125387005105 0.0
0.0 3.60643671 0.125224115335 0.0
0.0 3.607787941 0.125061477406 0.0
0.0 3.609139173 0.12489909192 0.0
0.0 3.610490404 0.124736960232 0.0
0.0 3.611841636 0.124575083393 0.0
0.0 3.613192867 0.124413462603 0.0
0.0 3.614544098 0.124252098567 0.0
0.0 3.61589533 0.124090992259 0.0
0.0 3.617246561 0.123930145236 0.0
0.0 3.618597793 0.123769558279 0.0
0.0 3.619949024 0.123609232667 0.0
0.0 3.621300256 0.123449169133 0.0
0.0 3.622651487 0.123289369058 0.0
0.0 3.624002719 0.123129833183 0.0
0.0 3.62535395 0.122970562929 0.0
0.0 3.626705181 0.122811559255 0.0
0.0 3.628056413 0.12265282299 0.0
0.0 3.629407644 0.122494355209 0.0
0.0 3.630758876 0.122336157053 0.0
0.0 3.632110107 0.122178229872 0.0
0.0 3.633461339 0.122020574394 0.0
0.0 3.63481257 0.121863191909 0.0
0.0 3.636163801 0.121706083147 0.0
0.0 3.637515033 0.12154924943 0.0
0.0 3.638866264 0.121392691874 0.0
0.0 3.640217496 0.121236411297 0.0
0.0 3.641568727 0.121080409027 0.0
0.0 3.642919959 0.1209246859 0.0
0.0 3.64427119 0.120769243374 0.0
0.0 3.645622422 0.120614081967 0.0
0.0 3.646973653 0.120459203008 0.0
0.0 3.648324884 0.120304607487 0.0
0.0 3.649676116 0.120150296434 0.0
0.0 3.651027347 0.119996271213 0.0
0.0 3.652378579 0.119842532594 0.0
0.0 3.65372981 0.119689081776 0.0
0.0 3.655081042 0.119535919675 0.0
0.0 3.656432273 0.119383047517 0.0
0.0 3.657783504 0.119230466191 0.0
0.0 3.659134736 0.119078176688 0.0
0.0 3.660485967 0.118926180607 0.0
0.0 3.661837199 0.118774478527 0.0
0.0 3.66318843 0.118623071412 0.0
0.0 3.664539662 0.118471960575 0.0
0.0 3.665890893 0.118321147165 0.0
0.0 3.667242125 0.118170632048 0.0
0.0 3.668593356 0.118020416451 0.0
0.0 3.669944587 0.117870501269 0.0
0.0 3.671295819 0.117720887619 0.0
0.0 3.67264705 0.117571576738 0.0
0.0 3.673998282 0.117422569368 0.0
0.0 3.675349513 0.117273866959 0.0
0.0 3.676700745 0.117125470155 0.0
0.0 3.678051976 0.116977380207 0.0
0.0 3.679403208 0.116829598025 0.0
0.0 3.680754439 0.116682125069 0.0
0.0 3.68210567 0.116534962376 0.0
0.0 3.683456902 0.116388110642 0.0
0.0 3.684808133 0.116241570928 0.0
0.0 3.686159365 0.116095344246 0.0
0.0 3.687510596 0.115949432071 0.0
0.0 3.688861828 0.115803835374 0.0
0.0 3.690213059 0.115658555173 0.0
0.0 3.69156429 0.115513592262 0.0
0.0 3.692915522 0.11536894781 0.0
0.0 3.694266753 0.115224623182 0.0
0.0 3.695617985 0.115080619046 0.0
0.0 3.696969216 0.114936936935 0.0
0.0 3.698320448 0.114793577363 0.0
0.0 3.699671679 0.114650541795 0.0
0.0 3.701022911 0.114507831122 0.0
0.0 3.702374142 0.114365446262 0.0
0.0 3.703725373 0.114223388576 0.0
0.0 3.705076605 0.11408165894 0.0
0.0 3.706427836 0.113940258722 0.0
0.0 3.707779068 0.113799188536 0.0
0.0 3.709130299 0.113658449766 0.0
0.0 3.710481531 0.113518043278 0.0
0.0 3.711832762 0.113377970193 0.0
0.0 3.713183993 0.113238231574 0.0
0.0 3.714535225 0.113098828466 0.0
0.0 3.715886456 0.112959762112 0.0
0.0 3.717237688 0.112821033061 0.0
0.0 3.718588919 0.112682643206 0.0
0.0 3.719940151 0.112544593151 0.0
0.0 3.721291382 0.112406884021 0.0
0.0 3.722642614 0.112269516081 0.0
0.0 3.723993845 0.112132491477 0.0
0.0 3.725345076 0.111995811399 0.0
0.0 3.726696308 0.111859476117 0.0
0.0 3.728047539 0.111723486435 0.0
0.0 3.729398771 0.111587844441 0.0
0.0 3.730750002 0.111452551011 0.0
0.0 3.732101234 0.111317606907 0.0
0.0 3.733452465 0.111183013352 0.0
0.0 3.734803696 0.111048770312 0.0
0.0 3.736154928 0.110914880396 0.0
0.0 3.737506159 0.110781344197 0.0
0.0 3.738857391 0.110648162649 0.0
0.0 3.740208622 0.110515337823 0.0
0.0 3.741559854 0.110382868158 0.0
0.0 3.742911085 0.110250756639 0.0
0.0 3.744262317 0.110119004452 0.0
0.0 3.745613548 0.109987614024 0.0
0.0 3.746964779 0.10985658441 0.0
0.0 3.748316011 0.109725915575 0.0
0.0 3.749667242 0.109595607804 0.0
0.0 3.751018474 0.109465665675 0.0
0.0 3.752369705 0.109336090085 0.0
0.0 3.753720937 0.109206877256 0.0
0.0 3.755072168 0.10907803599 0.0
0.0 3.7564234 0.108949562819 0.0
0.0 3.757774631 0.108821459894 0.0
0.0 3.759125862 0.108693727692 0.0
0.0 3.760477094 0.108566365431 0.0
0.0 3.761828325 0.108439370769 0.0
0.0 3.763179557 0.108312753615 0.0
0.0 3.764530788 0.108186513111 0.0
0.0 3.76588202 0.108060647568 0.0
0.0 3.767233251 0.107935163475 0.0
0.0 3.768584482 0.107810053132 0.0
0.0 3.769935714 0.107685322341 0.0
0.0 3.771286945 0.107560972235 0.0
0.0 3.772638177 0.107436997818 0.0
0.0 3.773989408 0.10731341034 0.0
0.0 3.77534064 0.107190206315 0.0
0.0 3.776691871 0.107067386794 0.0
0.0 3.778043103 0.106944952698 0.0
0.0 3.779394334 0.106822906366 0.0
0.0 3.780745565 0.106701245971 0.0
0.0 3.782096797 0.106579975701 0.0
0.0 3.783448028 0.106459097369 0.0
0.0 3.78479926 0.106338610805 0.0
0.0 3.786150491 0.106218515899 0.0
0.0 3.787501723 0.106098810962 0.0
0.0 3.788852954 0.105979502438 0.0
0.0 3.790204185 0.105860584263 0.0
0.0 3.791555417 0.105742061998 0.0
0.0 3.792906648 0.105623942724 0.0
0.0 3.79425788 0.105506228243 0.0
0.0 3.795609111 0.105388908177 0.0
0.0 3.796960343 0.10527198091 0.0
0.0 3.798311574 0.105155440632 0.0
0.0 3.799662806 0.105039316207 0.0
0.0 3.801014037 0.104923608403 0.0
0.0 3.802365268 0.104808311734 0.0
0.0 3.8037165 0.104693406992 0.0
0.0 3.805067731 0.104578897568 0.0
0.0 3.806418963 0.104464804471 0.0
0.0 3.807770194 0.104351115681 0.0
0.0 3.809121426 0.104237816675 0.0
0.0 3.810472657 0.104124956329 0.0
0.0 3.811823889 0.104012492904 0.0
0.0 3.81317512 0.103900456496 0.0
0.0 3.814526351 0.10378883942 0.0
0.0 3.815877583 0.103677627024 0.0
0.0 3.817228814 0.103566821806 0.0
0.0 3.818580046 0.103456446895 0.0
0.0 3.819931277 0.10334649446 0.0
0.0 3.821282509 0.103236951723 0.0
0.0 3.82263374 0.103127836871 0.0
0.0 3.823984971 0.103019190301 0.0
0.0 3.825336203 0.10291097069 0.0
0.0 3.826687434 0.102803127932 0.0
0.0 3.828038666 0.10269568882 0.0
0.0 3.829389897 0.102588687913 0.0
0.0 3.830741129 0.102482133499 0.0
0.0 3.83209236 0.102375972103 0.0
0.0 3.833443592 0.102270237895 0.0
0.0 3.834794823 0.102164906797 0.0
0.0 3.836146054 0.102060022107 0.0
0.0 3.837497286 0.101955600654 0.0
0.0 3.838848517 0.101851653511 0.0
0.0 3.840199749 0.101748225943 0.0
0.0 3.84155098 0.101645142821 0.0
0.0 3.842902212 0.101542365915 0.0
0.0 3.844253443 0.101440063581 0.0
0.0 3.845604674 0.101338269149 0.0
0.0 3.846955906 0.101237001558 0.0
0.0 3.848307137 0.101136160715 0.0
0.0 3.849658369 0.101035825952 0.0
0.0 3.8510096 0.100935709213 0.0
0.0 3.852360832 0.100836224243 0.0
0.0 3.853712063 0.100737138209 0.0
0.0 3.855063295 0.100638363935 0.0
0.0 3.856414526 0.100540151169 0.0
0.0 3.857765757 0.100442534386 0.0
0.0 3.859116989 0.100345651693 0.0
0.0 3.86046822 0.100248874004 0.0
0.0 3.861819452 0.10015240614 0.0
0.0 3.863170683 0.100056378427 0.0
0.0 3.864521915 0.0999606830275 0.0
0.0 3.865873146 0.099865383897 0.0
0.0 3.867224377 0.0997705825959 0.0
0.0 3.868575609 0.0996763647729 0.0
0.0 3.86992684 0.0995819235068 0.0
0.0 3.871278072 0.0994886595412 0.0
0.0 3.872629303 0.0993960764395 0.0
0.0 3.873980535 0.0993043690317 0.0
0.0 3.875331766 0.0992132939488 0.0
0.0 3.876682998 0.0991225954821 0.0
0.0 3.878034229 0.0990312355374 0.0
0.0 3.87938546 0.0989395503221 0.0
0.0 3.880736692 0.098849103717 0.0
0.0 3.882087923 0.0987599898279 0.0
0.0 3.883439155 0.0986709328985 0.0
0.0 3.884790386 0.098582640222 0.0
0.0 3.886141618 0.0984949733415 0.0
0.0 3.887492849 0.098406997322 0.0
0.0 3.888844081 0.0983189373699 0.0
0.0 3.890195312 0.0982322075987 0.0
0.0 3.891546543 0.098146585381 0.0
0.0 3.892897775 0.0980616444699 0.0
0.0 3.894249006 0.0979770585286 0.0
0.0 3.895600238 0.0978919633893 0.0
0.0 3.896951469 0.0978069252518 0.0
0.0 3.898302701 0.0977225529797 0.0
0.0 3.899653932 0.0976389231264 0.0
0.0 3.901005163 0.097555125649 0.0
0.0 3.902356395 0.097473165491 0.0
0.0 3.903707626 0.0973932196688 0.0
0.0 3.905058858 0.0973111378805 0.0
0.0 3.906410089 0.0972293854949 0.0
0.0 3.907761321 0.0971484912146 0.0
0.0 3.909112552 0.097068635621 0.0
0.0 3.910463784 0.0969901707681 0.0
0.0 3.911815015 0.0969147059169 0.0
0.0 3.913166246 0.0968353369047 0.0
0.0 3.914517478 0.0967552791612 0.0
0.0 3.915868709 0.0966763516234 0.0
0.0 3.917219941 0.0965990593288 0.0
0.0 3.918571172 0.0965226363678 0.0
0.0 3.919922404 0.0964469004684 0.0
0.0 3.921273635 0.0963718231466 0.0
0.0 3.922624866 0.0962979800671 0.0
0.0 3.923976098 0.0962228920015 0.0
0.0 3.925327329 0.0961482137633 0.0
0.0 3.926678561 0.0960728848333 0.0
0.0 3.928029792 0.0960009651987 0.0
0.0 3.929381024 0.0959284244177 0.0
0.0 3.930732255 0.0958565554751 0.0
0.0 3.932083487 0.0957855111136 0.0
0.0 3.933434718 0.0957153391954 0.0
0.0 3.934785949 0.0956465544926 0.0
0.0 3.936137181 0.0955762851051 0.0
0.0 3.937488412 0.0955073059348 0.0
0.0 3.938839644 0.0954389593232 0.0
0.0 3.940190875 0.0953698217687 0.0
0.0 3.941542107 0.0952997131313 0.0
0.0 3.942893338 0.0952310776129 0.0
0.0 3.944244569 0.0951650664065 0.0
0.0 3.945595801 0.0950991935954 0.0
0.0 3.946947032 0.0950326923872 0.0
0.0 3.948298264 0.0949678021498 0.0
0.0 3.949649495 0.0949034773142 0.0
0.0 3.951000727 0.0948380871668 0.0
0.0 3.952351958 0.0947742114083 0.0
0.0 3.95370319 0.0947105044744 0.0
0.0 3.955054421 0.0946463546351 0.0
0.0 3.956405652 0.0945870295459 0.0
0.0 3.957756884 0.0945256781166 0.0
0.0 3.959108115 0.0944635467678 0.0
0.0 3.960459347 0.0944034981384 0.0
0.0 3.961810578 0.0943445043864 0.0
0.0 3.96316181 0.0942839708473 0.0
0.0 3.964513041 0.0942233617275 0.0
0.0 3.965864273 0.094164219271 0.0
0.0 3.967215504 0.0941060960937 0.0
0.0 3.968566735 0.0940487763156 0.0
0.0 3.969917967 0.09399309086 0.0
0.0 3.971269198 0.0939368973785 0.0
0.0 3.97262043 0.0938815347659 0.0
0.0 3.973971661 0.0938282110094 0.0
0.0 3.975322893 0.0937724293084 0.0
0.0 3.976674124 0.0937165641292 0.0
0.0 3.978025355 0.0936611919466 0.0
0.0 3.979376587 0.0936105185817 0.0
0.0 3.980727818 0.0935591814564 0.0
0.0 3.98207905 0.0935075328545 0.0
0.0 3.983430281 0.0934570915171 0.0
0.0 3.984781513 0.0934087392964 0.0
0.0 3.986132744 0.0933607152212 0.0
0.0 3.987483976 0.0933101824452 0.0
0.0 3.988835207 0.0932572404435 0.0
0.0 3.990186438 0.0932064221945 0.0
0.0 3.99153767 0.0931565206929 0.0
0.0 3.992888901 0.0931091471764 0.0
0.0 3.994240133 0.093062472772 0.0
0.0 3.995591364 0.0930171240706 0.0
0.0 3.996942596 0.0929729748736 0.0
0.0 3.998293827 0.0929260936836 0.0
0.0 3.999645058 0.0928783910205 0.0
0.0 4.00099629 0.0928335187073 0.0
0.0 4.002347521 0.0927905861437 0.0
0.0 4.003698753 0.0927486111303 0.0
0.0 4.005049984 0.0927065429306 0.0
0.0 4.006401216 0.0926648133606 0.0
0.0 4.007752447 0.092622122088 0.0
0.0 4.009103679 0.0925786900887 0.0
0.0 4.01045491 0.0925381393517 0.0
0.0 4.011806141 0.0924983954298 0.0
0.0 4.013157373 0.0924608757265 0.0
0.0 4.014508604 0.0924261267352 0.0
0.0 4.015859836 0.092389896865 0.0
0.0 4.017211067 0.0923518106477 0.0
0.0 4.018562299 0.0923143631552 0.0
0.0 4.01991353 0.0922768679642 0.0
0.0 4.021264761 0.0922380084218 0.0
0.0 4.022615993 0.0922023894044 0.0
0.0 4.023967224 0.0921681902115 0.0
0.0 4.025318456 0.0921356162431 0.0
0.0 4.026669687 0.0921040963089 0.0
0.0 4.028020919 0.0920722664919 0.0
0.0 4.02937215 0.0920390119599 0.0
0.0 4.030723382 0.0920056806667 0.0
0.0 4.032074613 0.0919741727163 0.0
0.0 4.033425844 0.0919456368935 0.0
0.0 4.034777076 0.0919174164047 0.0
0.0 4.036128307 0.0918865810056 0.0
0.0 4.037479539 0.091856527603 0.0
0.0 4.03883077 0.0918286680669 0.0
0.0 4.040182002 0.0918013673379 0.0
0.0 4.041533233 0.0917725088691 0.0
0.0 4.042884465 0.0917451590901 0.0
0.0 4.044235696 0.0917182947291 0.0
0.0 4.045586927 0.0916947922948 0.0
0.0 4.046938159 0.0916706184126 0.0
0.0 4.04828939 0.0916441302911 0.0
0.0 4.049640622 0.0916220275803 0.0
0.0 4.050991853 0.091598958431 0.0
0.0 4.052343085 0.0915757693309 0.0
0.0 4.053694316 0.0915540417923 0.0
0.0 4.055045547 0.0915342239887 0.0
0.0 4.056396779 0.0915158973476 0.0
0.0 4.05774801 0.0914963965357 0.0
0.0 4.059099242 0.0914738668209 0.0
0.0 4.060450473 0.091455193932 0.0
0.0 4.061801705 0.0914372498308 0.0
0.0 4.063152936 0.0914213782833 0.0
0.0 4.064504168 0.0914069923401 0.0
0.0 4.065855399 0.0913926834173 0.0
0.0 4.06720663 0.0913756278537 0.0
0.0 4.068557862 0.0913586126329 0.0
0.0 4.069909093 0.0913438943951 0.0
0.0 4.071260325 0.0913303058397 0.0
0.0 4.072611556 0.0913167664992 0.0
0.0 4.073962788 0.0913047665795 0.0
0.0 4.075314019 0.0912938775996 0.0
0.0 4.07666525 0.0912837460402 0.0
0.0 4.078016482 0.0912739548102 0.0
0.0 4.079367713 0.0912651069145 0.0
0.0 4.080718945 0.0912564875787 0.0
0.0 4.082070176 0.091246047234 0.0
0.0 4.083421408 0.0912369336809 0.0
0.0 4.084772639 0.0912303265236 0.0
0.0 4.086123871 0.0912218092845 0.0
0.0 4.087475102 0.091213555739 0.0
0.0 4.088826333 0.0912077232091 0.0
0.0 4.090177565 0.0912028006329 0.0
0.0 4.091528796 0.0911986608629 0.0
0.0 4.092880028 0.0911964119212 0.0
0.0 4.094231259 0.0911927092924 0.0
0.0 4.095582491 0.0911895002835 0.0
0.0 4.096933722 0.0911876889133 0.0
0.0 4.098284953 0.0911869493052 0.0
0.0 4.099636185 0.0911873983124 0.0
0.0 4.100987416 0.0911873692109 0.0
0.0 4.102338648 0.0911879022054 0.0
0.0 4.103689879 0.09118927609 0.0
0.0 4.105041111 0.0911919099152 0.0
0.0 4.106392342 0.0911937973532 0.0
0.0 4.107743574 0.0911975763574 0.0
0.0 4.109094805 0.0912034584562 0.0
0.0 4.110446036 0.0912087205681 0.0
0.0 4.111797268 0.0912155596987 0.0
0.0 4.113148499 0.0912245546015 0.0
0.0 4.114499731 0.0912307191937 0.0
0.0 4.115850962 0.0912333828127 0.0
0.0 4.117202194 0.0912385356607 0.0
0.0 4.118553425 0.0912470406663 0.0
0.0 4.119904657 0.0912562661746 0.0
0.0 4.121255888 0.0912661469852 0.0
0.0 4.122607119 0.091276684168 0.0
0.0 4.123958351 0.091287931036 0.0
0.0 4.125309582 0.0913005506219 0.0
0.0 4.126660814 0.0913160251466 0.0
0.0 4.128012045 0.0913334842409 0.0
0.0 4.129363277 0.0913481127947 0.0
0.0 4.130714508 0.0913600803128 0.0
0.0 4.132065739 0.0913721955326 0.0
0.0 4.133416971 0.0913880415443 0.0
0.0 4.134768202 0.0914045287339 0.0
0.0 4.136119434 0.0914209215282 0.0
0.0 4.137470665 0.091436716918 0.0
0.0 4.138821897 0.0914551720862 0.0
0.0 4.140173128 0.0914748072177 0.0
0.0 4.14152436 0.0914968701241 0.0
0.0 4.142875591 0.0915192487406 0.0
0.0 4.144226822 0.0915405817648 0.0
0.0 4.145578054 0.0915623986385 0.0
0.0 4.146929285 0.0915852211207 0.0
0.0 4.148280517 0.0916068572592 0.0
0.0 4.149631748 0.0916289358928 0.0
0.0 4.15098298 0.0916541699684 0.0
0.0 4.152334211 0.0916805057939 0.0
0.0 4.153685442 0.0917096184735 0.0
0.0 4.155036674 0.0917380314026 0.0
0.0 4.156387905 0.0917640647181 0.0
0.0 4.157739137 0.0917893814747 0.0
0.0 4.159090368 0.0918168031874 0.0
0.0 4.1604416 0.091848149103 0.0
0.0 4.161792831 0.0918807677533 0.0
0.0 4.163144063 0.0919103966912 0.0
0.0 4.164495294 0.0919408401395 0.0
0.0 4.165846525 0.0919725312911 0.0
0.0 4.167197757 0.0920057596768 0.0
0.0 4.168548988 0.0920390260894 0.0
0.0 4.16990022 0.0920731275289 0.0
0.0 4.171251451 0.0921085733899 0.0
0.0 4.172602683 0.0921450400715 0.0
0.0 4.173953914 0.0921811162174 0.0
0.0 4.175305146 0.0922178775315 0.0
0.0 4.176656377 0.0922564551096 0.0
0.0 4.178007608 0.0922963249089 0.0
0.0 4.17935884 0.0923356963342 0.0
0.0 4.180710071 0.0923719059928 0.0
0.0 4.182061303 0.092408849679 0.0
0.0 4.183412534 0.0924500290293 0.0
0.0 4.184763766 0.0924924524228 0.0
0.0 4.186114997 0.0925341810321 0.0
0.0 4.187466228 0.092576586699 0.0
0.0 4.18881746 0.092619226768 0.0
0.0 4.190168691 0.092663897763 0.0
0.0 4.191519923 0.0927093235447 0.0
0.0 4.192871154 0.0927579911962 0.0
0.0 4.194222386 0.0928048325901 0.0
0.0 4.195573617 0.0928513054033 0.0
0.0 4.196924849 0.0928991708138 0.0
0.0 4.19827608 0.0929483130463 0.0
0.0 4.199627311 0.0929983294306 0.0
0.0 4.200978543 0.0930488572527 0.0
0.0 4.202329774 0.0931002577262 0.0
0.0 4.203681006 0.0931524449363 0.0
0.0 4.205032237 0.0932051809285 0.0
0.0 4.206383469 0.0932580851 0.0
0.0 4.2077347 0.0933114281012 0.0
0.0 4.209085931 0.0933657865056 0.0
0.0 4.210437163 0.0934209537099 0.0
0.0 4.211788394 0.0934768147854 0.0
0.0 4.213139626 0.0935335570696 0.0
0.0 4.214490857 0.0935912182506 0.0
0.0 4.215842089 0.093649610807 0.0
0.0 4.21719332 0.0937087340567 0.0
0.0 4.218544552 0.0937685891507 0.0
0.0 4.219895783 0.0938291770636 0.0
0.0 4.221247014 0.0938904988999 0.0
0.0 4.222598246 0.0939525729601 0.0
0.0 4.223949477 0.0940163720216 0.0
0.0 4.225300709 0.0940813022878 0.0
0.0 4.22665194 0.094146977627 0.0
0.0 4.228003172 0.0942125248836 0.0
0.0 4.229354403 0.0942769831038 0.0
0.0 4.230705634 0.0943417615977 0.0
0.0 4.232056866 0.0944085519997 0.0
0.0 4.233408097 0.0944777630647 0.0
0.0 4.234759329 0.0945488664406 0.0
0.0 4.23611056 0.0946184330071 0.0
0.0 4.237461792 0.0946864901722 0.0
0.0 4.238813023 0.0947562177805 0.0
0.0 4.240164255 0.0948278942752 0.0
0.0 4.241515486 0.0949007040107 0.0
0.0 4.242866717 0.094974446667 0.0
0.0 4.244217949 0.0950481739384 0.0
0.0 4.24556918 0.095121020293 0.0
0.0 4.246920412 0.0951964728475 0.0
0.0 4.248271643 0.0952726962737 0.0
0.0 4.249622875 0.0953496759857 0.0
0.0 4.250974106 0.0954274129359 0.0
0.0 4.252325338 0.0955059083027 0.0
0.0 4.253676569 0.0955851630333 0.0
0.0 4.2550278 0.0956651782458 0.0
0.0 4.256379032 0.0957459550647 0.0
0.0 4.257730263 0.0958275189397 0.0
0.0 4.259081495 0.0959100135018 0.0
0.0 4.260432726 0.0959930409606 0.0
0.0 4.261783958 0.0960766993304 0.0
0.0 4.263135189 0.0961612993224 0.0
0.0 4.26448642 0.0962467052187 0.0
0.0 4.265837652 0.0963338018337 0.0
0.0 4.267188883 0.0964213352503 0.0
0.0 4.268540115 0.0965091990885 0.0
0.0 4.269891346 0.0965979235137 0.0
0.0 4.271242578 0.0966876683893 0.0
0.0 4.272593809 0.0967785557186 0.0
0.0 4.273945041 0.09687075017 0.0
0.0 4.275296272 0.0969607993527 0.0
0.0 4.276647503 0.0970514913358 0.0
0.0 4.277998735 0.0971436794218 0.0
0.0 4.279349966 0.0972374983354 0.0
0.0 4.280701198 0.0973320708187 0.0
0.0 4.282052429 0.0974275800321 0.0
0.0 4.283403661 0.0975242311521 0.0
0.0 4.284754892 0.0976230543517 0.0
0.0 4.286106123 0.0977213959071 0.0
0.0 4.287457355 0.0978191876079 0.0
0.0 4.288808586 0.0979160837386 0.0
0.0 4.290159818 0.0980159844176 0.0
0.0 4.291511049 0.0981169342439 0.0
0.0 4.292862281 0.0982186743734 0.0
0.0 4.294213512 0.0983212146277 0.0
0.0 4.295564744 0.0984249395791 0.0
0.0 4.296915975 0.0985296142408 0.0
0.0 4.298267206 0.0986335779295 0.0
0.0 4.299618438 0.098739265426 0.0
0.0 4.300969669 0.0988457691611 0.0
0.0 4.302320901 0.0989530706419 0.0
0.0 4.303672132 0.0990611707699 0.0
0.0 4.305023364 0.0991700707684 0.0
0.0 4.306374595 0.0992797715396 0.0
0.0 4.307725826 0.0993902742241 0.0
0.0 4.309077058 0.099501908047 0.0
0.0 4.310428289 0.0996167890068 0.0
0.0 4.311779521 0.0997275098038 0.0
0.0 4.313130752 0.0998403277383 0.0
0.0 4.314481984 0.0999548537999 0.0
0.0 4.315833215 0.100070207493 0.0
0.0 4.317184447 0.100186710813 0.0
0.0 4.318535678 0.100303515409 0.0
0.0 4.319886909 0.100421066329 0.0
0.0 4.321238141 0.100539655855 0.0
0.0 4.322589372 0.100659456209 0.0
0.0 4.323940604 0.100781085467 0.0
0.0 4.325291835 0.100900730007 0.0
0.0 4.326643067 0.101022136774 0.0
0.0 4.327994298 0.101144767247 0.0
0.0 4.32934553 0.101268245136 0.0
0.0 4.330696761 0.101392542907 0.0
0.0 4.332047992 0.101517661715 0.0
0.0 4.333399224 0.101643602715 0.0
0.0 4.334750455 0.101770366784 0.0
0.0 4.336101687 0.101898081237 0.0
0.0 4.337452918 0.102027752713 0.0
0.0 4.33880415 0.102156252748 0.0
0.0 4.340155381 0.102285677967 0.0
0.0 4.341506612 0.102416571922 0.0
0.0 4.342857844 0.102548297366 0.0
0.0 4.344209075 0.102680853311 0.0
0.0 4.345560307 0.102814241017 0.0
0.0 4.346911538 0.102948461347 0.0
0.0 4.34826277 0.103083515559 0.0
0.0 4.349614001 0.103219404518 0.0
0.0 4.350965233 0.103356129488 0.0
0.0 4.352316464 0.103493766599 0.0
0.0 4.353667695 0.103633828598 0.0
0.0 4.355018927 0.103774655368 0.0
0.0 4.356370158 0.103915325448 0.0
0.0 4.35772139 0.104058179921 0.0
0.0 4.359072621 0.104200210514 0.0
0.0 4.360423853 0.104341447493 0.0
0.0 4.361775084 0.104480830648 0.0
0.0 4.363126315 0.104624493213 0.0
0.0 4.364477547 0.104769598639 0.0
0.0 4.365828778 0.104916218878 0.0
0.0 4.36718001 0.105064031119 0.0
0.0 4.368531241 0.105212611593 0.0
0.0 4.369882473 0.105361339024 0.0
0.0 4.371233704 0.105509473405 0.0
0.0 4.372584936 0.105658299199 0.0
0.0 4.373936167 0.105809376582 0.0
0.0 4.375287398 0.105961330462 0.0
0.0 4.37663863 0.106114294036 0.0
0.0 4.377989861 0.106269029561 0.0
0.0 4.379341093 0.106425177669 0.0
0.0 4.380692324 0.106580410096 0.0
0.0 4.382043556 0.106733967636 0.0
0.0 4.383394787 0.10689106239 0.0
0.0 4.384746018 0.107049030259 0.0
0.0 4.38609725 0.107207861776 0.0
0.0 4.387448481 0.107367557769 0.0
0.0 4.388799713 0.107528121954 0.0
0.0 4.390150944 0.107689559967 0.0
0.0 4.391502176 0.107851844998 0.0
0.0 4.392853407 0.108015009152 0.0
0.0 4.394204639 0.108179044166 0.0
0.0 4.39555587 0.108343950025 0.0
0.0 4.396907101 0.108509727914 0.0
0.0 4.398258333 0.108676379017 0.0
0.0 4.399609564 0.108843904152 0.0
0.0 4.400960796 0.109012304627 0.0
0.0 4.402312027 0.109181581256 0.0
0.0 4.403663259 0.109351735353 0.0
0.0 4.40501449 0.109522767727 0.0
0.0 4.406365722 0.109694679699 0.0
0.0 4.407716953 0.109867472067 0.0
0.0 4.409068184 0.110041146026 0.0
0.0 4.410419416 0.110215702765 0.0
0.0 4.411770647 0.110391143091 0.0
0.0 4.413121879 0.110567468326 0.0
0.0 4.41447311 0.110744679274 0.0
0.0 4.415824342 0.110922777252 0.0
0.0 4.417175573 0.111101763062 0.0
0.0 4.418526804 0.111281637898 0.0
0.0 4.419878036 0.111462402958 0.0
0.0 4.421229267 0.111644059036 0.0
0.0 4.422580499 0.111826607462 0.0
0.0 4.42393173 0.11201004903 0.0
0.0 4.425282962 0.112194385073 0.0
0.0 4.426634193 0.11237961638 0.0
0.0 4.427985425 0.112565744288 0.0
0.0 4.429336656 0.112752769584 0.0
0.0 4.430687887 0.112940693468 0.0
0.0 4.432039119 0.113129517141 0.0
0.0 4.43339035 0.113319241387 0.0
0.0 4.434741582 0.113509867551 0.0
0.0 4.436092813 0.11370139641 0.0
0.0 4.437444045 0.11389382931 0.0
0.0 4.438795276 0.114087167031 0.0
0.0 4.440146507 0.114281410776 0.0
0.0 4.441497739 0.114476561751 0.0
0.0 4.44284897 0.114672620732 0.0
0.0 4.444200202 0.114869589069 0.0
0.0 4.445551433 0.115067467534 0.0
0.0 4.446902665 0.115266257483 0.0
0.0 4.448253896 0.115465959683 0.0
0.0 4.449605128 0.115666575492 0.0
0.0 4.450956359 0.115868105675 0.0
0.0 4.45230759 0.116070551443 0.0
0.0 4.453658822 0.116273914011 0.0
0.0 4.455010053 0.116478194137 0.0
0.0 4.456361285 0.116683393188 0.0
0.0 4.457712516 0.116889511921 0.0
0.0 4.459063748 0.117096551706 0.0
0.0 4.460414979 0.117304513296 0.0
0.0 4.461766211 0.117513398063 0.0
0.0 4.463117442 0.117723206759 0.0
0.0 4.464468673 0.117933940603 0.0
0.0 4.465819905 0.11814560081 0.0
0.0 4.467171136 0.118358188133 0.0
0.0 4.468522368 0.118571703947 0.0
0.0 4.469873599 0.118786149 0.0
0.0 4.471224831 0.119001524669 0.0
0.0 4.472576062 0.1192178317 0.0
0.0 4.473927293 0.119435071313 0.0
0.0 4.475278525 0.119653245133 0.0
0.0 4.476629756 0.119872573441 0.0
0.0 4.477980988 0.120094003998 0.0
0.0 4.479332219 0.120314858147 0.0
0.0 4.480683451 0.120535540199 0.0
0.0 4.482034682 0.120758166265 0.0
0.0 4.483385914 0.120981950826 0.0
0.0 4.484737145 0.121206689351 0.0
0.0 4.486088376 0.121432370017 0.0
0.0 4.487439608 0.121658994056 0.0
0.0 4.488790839 0.121886562196 0.0
0.0 4.490142071 0.122115075836 0.0
0.0 4.491493302 0.1223445357 0.0
0.0 4.492844534 0.122574943191 0.0
0.0 4.494195765 0.122806299029 0.0
0.0 4.495546996 0.123038604447 0.0
0.0 4.496898228 0.12327186068 0.0
0.0 4.498249459 0.123506068446 0.0
0.0 4.499600691 0.123741229153 0.0
0.0 4.500951922 0.123977343516 0.0
0.0 4.502303154 0.124214412947 0.0
0.0 4.503654385 0.124452438157 0.0
0.0 4.505005617 0.124691420559 0.0
0.0 4.506356848 0.124931360865 0.0
0.0 4.507708079 0.125172260313 0.0
0.0 4.509059311 0.125414120142 0.0
0.0 4.510410542 0.125656941059 0.0
0.0 4.511761774 0.125900724484 0.0
0.0 4.513113005 0.126145471121 0.0
0.0 4.514464237 0.126391182392 0.0
0.0 4.515815468 0.126637858997 0.0
0.0 4.517166699 0.126885567656 0.0
0.0 4.518517931 0.127136358123 0.0
0.0 4.519869162 0.127386625329 0.0
0.0 4.521220394 0.127634281716 0.0
0.0 4.522571625 0.127885762305 0.0
0.0 4.523922857 0.128138254499 0.0
0.0 4.525274088 0.128391803421 0.0
0.0 4.52662532 0.128647080319 0.0
0.0 4.527976551 0.128902652332 0.0
0.0 4.529327782 0.129157974578 0.0
0.0 4.530679014 0.129415330439 0.0
0.0 4.532030245 0.129673676093 0.0
0.0 4.533381477 0.129933001264 0.0
0.0 4.534732708 0.130193306633 0.0
0.0 4.53608394 0.130454593644 0.0
0.0 4.537435171 0.130716862976 0.0
0.0 4.538786403 0.130980116079 0.0
0.0 4.540137634 0.131244355044 0.0
0.0 4.541488865 0.131509648095 0.0
0.0 4.542840097 0.131776353376 0.0
0.0 4.544191328 0.132044828317 0.0
0.0 4.54554256 0.132312707261 0.0
0.0 4.546893791 0.132580389143 0.0
0.0 4.548245023 0.132850516371 0.0
0.0 4.549596254 0.133121676126 0.0
0.0 4.550947485 0.133393829016 0.0
0.0 4.552298717 0.133666976308 0.0
0.0 4.553649948 0.13394111866 0.0
0.0 4.55500118 0.134216257537 0.0
0.0 4.556352411 0.134492393598 0.0
0.0 4.557703643 0.134769528311 0.0
0.0 4.559054874 0.135047662331 0.0
0.0 4.560406106 0.135326797129 0.0
0.0 4.561757337 0.135606933361 0.0
0.0 4.563108568 0.135888072286 0.0
0.0 4.5644598 0.13617021518 0.0
0.0 4.565811031 0.136453362686 0.0
0.0 4.567162263 0.136737516289 0.0
0.0 4.568513494 0.137022676627 0.0
0.0 4.569864726 0.137308845187 0.0
0.0 4.571215957 0.137596022607 0.0
0.0 4.572567188 0.137884210165 0.0
0.0 4.57391842 0.138173409129 0.0
0.0 4.575269651 0.138463620137 0.0
0.0 4.576620883 0.138754844682 0.0
0.0 4.577972114 0.13904708346 0.0
0.0 4.579323346 0.139340467279 0.0
0.0 4.580674577 0.139635983738 0.0
0.0 4.582025809 0.13993211578 0.0
0.0 4.58337704 0.140229603084 0.0
0.0 4.584728271 0.140528422533 0.0
0.0 4.586079503 0.140828489824 0.0
0.0 4.587430734 0.141128047779 0.0
0.0 4.588781966 0.141428168749 0.0
0.0 4.590133197 0.141728920955 0.0
0.0 4.591484429 0.142030167594 0.0
0.0 4.59283566 0.142333196863 0.0
0.0 4.594186891 0.142637810692 0.0
0.0 4.595538123 0.142946066913 0.0
0.0 4.596889354 0.143256431192 0.0
0.0 4.598240586 0.143573401702 0.0
0.0 4.599591817 0.143894397175 0.0
0.0 4.600943049 0.144222429438 0.0
0.0 4.60229428 0.144553978368 0.0
0.0 4.603645512 0.144884310711 0.0
0.0 4.604996743 0.145216980044 0.0
0.0 4.606347974 0.14555047452 0.0
0.0 4.607699206 0.145879060025 0.0
0.0 4.609050437 0.146204327608 0.0
0.0 4.610401669 0.146524012843 0.0
0.0 4.6117529 0.146839394484 0.0
0.0 4.613104132 0.147154587907 0.0
0.0 4.614455363 0.147469723061 0.0
0.0 4.615806595 0.147784944633 0.0
0.0 4.617157826 0.148102851759 0.0
0.0 4.618509057 0.148424855807 0.0
0.0 4.619860289 0.148752135908 0.0
0.0 4.62121152 0.149082025238 0.0
0.0 4.622562752 0.149414409151 0.0
0.0 4.623913983 0.149751348423 0.0
0.0 4.625265215 0.150091635027 0.0
0.0 4.626616446 0.150436021061 0.0
0.0 4.627967677 0.15078310928 0.0
0.0 4.629318909 0.15113367548 0.0
0.0 4.63067014 0.151490462089 0.0
0.0 4.632021372 0.151853406101 0.0
0.0 4.633372603 0.152222515424 0.0
0.0 4.634723835 0.152598663099 0.0
0.0 4.636075066 0.152982857815 0.0
0.0 4.637426298 0.153376107952 0.0
0.0 4.638777529 0.153782611961 0.0
0.0 4.64012876 0.154205561334 0.0
0.0 4.641479992 0.154648240183 0.0
0.0 4.642831223 0.155120139039 0.0
0.0 4.644182455 0.155619574595 0.0
0.0 4.645533686 0.156152883254 0.0
0.0 4.646884918 0.156733081261 0.0
0.0 4.648236149 0.157364940762 0.0
0.0 4.64958738 0.158061041224 0.0
0.0 4.650938612 0.158824316697 0.0
0.0 4.652289843 0.159671247624 0.0
0.0 4.653641075 0.160606334149 0.0
0.0 4.654992306 0.161642416434 0.0
0.0 4.656343538 0.162799013957 0.0
0.0 4.657694769 0.164079811205 0.0
0.0 4.659046001 0.165509573405 0.0
0.0 4.660397232 0.167115710978 0.0
0.0 4.661748463 0.168903773365 0.0
0.0 4.663099695 0.170912658454 0.0
0.0 4.664450926 0.173176891887 0.0
0.0 4.665802158 0.175737475224 0.0
0.0 4.667153389 0.178672857171 0.0
0.0 4.668504621 0.182050729041 0.0
0.0 4.669855852 0.186023793986 0.0
0.0 4.671207083 0.190706528674 0.0
0.0 4.672558315 0.196328739561 0.0
0.0 4.673909546 0.203245896588 0.0
0.0 4.675260778 0.211655443509 0.0
0.0 4.676612009 0.222185385344 0.0
0.0 4.677963241 0.235279038368 0.0
0.0 4.679314472 0.251419720286 0.0
0.0 4.680665704 0.271240051347 0.0
0.0 4.682016935 0.294635164154 0.0
0.0 4.683368166 0.322190438693 0.0
0.0 4.684719398 0.35074732652 0.0
0.0 4.686070629 0.380866889471 0.0
0.0 4.687421861 0.410121979421 0.0
0.0 4.688773092 0.433657416212 0.0
0.0 4.690124324 0.454461241557 0.0
0.0 4.691475555 0.468366432774 0.0
0.0 4.692826787 0.477142240522 0.0
0.0 4.694178018 0.483020701741 0.0
0.0 4.695529249 0.485043955093 0.0
0.0 4.696880481 0.486382605573 0.0
0.0 4.698231712 0.487509025349 0.0
0.0 4.699582944 0.488716537642 0.0
0.0 4.700934175 0.490300227006 0.0
0.0 4.702285407 0.49243615414 0.0
0.0 4.703636638 0.494947343016 0.0
0.0 4.704987869 0.497434248385 0.0
0.0 4.706339101 0.499555680598 0.0
0.0 4.707690332 0.500845806699 0.0
0.0 4.709041564 0.501591232897 0.0
0.0 4.710392795 0.500948499169 0.0
0.0 4.711744027 0.499760542291 0.0
0.0 4.713095258 0.497993391347 0.0
0.0 4.71444649 0.495984603339 0.0
0.0 4.715797721 0.494186066441 0.0
0.0 4.717148952 0.492845674108 0.0
0.0 4.718500184 0.492143953652 0.0
0.0 4.719851415 0.491611706938 0.0
0.0 4.721202647 0.490670261978 0.0
0.0 4.722553878 0.487686052091 0.0
0.0 4.72390511 0.483135865302 0.0
0.0 4.725256341 0.471152198148 0.0
0.0 4.726607572 0.455340452426 0.0
0.0 4.727958804 0.434012223969 0.0
0.0 4.729310035 0.405844913625 0.0
0.0 4.730661267 0.37697990265 0.0
0.0 4.732012498 0.345037414098 0.0
0.0 4.73336373 0.314887637933 0.0
0.0 4.734714961 0.288454906219 0.0
0.0 4.736066193 0.264595621594 0.0
0.0 4.737417424 0.245712181654 0.0
0.0 4.738768655 0.230752721354 0.0
0.0 4.740119887 0.219415966865 0.0
0.0 4.741471118 0.210925021254 0.0
0.0 4.74282235 0.204725037966 0.0
0.0 4.744173581 0.200202796448 0.0
0.0 4.745524813 0.196877881394 0.0
0.0 4.746876044 0.194547017727 0.0
0.0 4.748227276 0.192840454927 0.0
0.0 4.749578507 0.191635835073 0.0
0.0 4.750929738 0.190807239684 0.0
0.0 4.75228097 0.19023699319 0.0
0.0 4.753632201 0.189893687455 0.0
0.0 4.754983433 0.189704783557 0.0
0.0 4.756334664 0.189635757152 0.0
0.0 4.757685896 0.189668918952 0.0
0.0 4.759037127 0.18977166607 0.0
0.0 4.760388358 0.189937115417 0.0
0.0 4.76173959 0.190150845719 0.0
0.0 4.763090821 0.190400014183 0.0
0.0 4.764442053 0.190677205409 0.0
0.0 4.765793284 0.190977079086 0.0
0.0 4.767144516 0.191296796929 0.0
0.0 4.768495747 0.191635401813 0.0
0.0 4.769846979 0.191990066012 0.0
0.0 4.77119821 0.192360294498 0.0
0.0 4.772549441 0.192746447057 0.0
0.0 4.773900673 0.19314449068 0.0
0.0 4.775251904 0.193557301002 0.0
0.0 4.776603136 0.193976610406 0.0
0.0 4.777954367 0.194402707193 0.0
0.0 4.779305599 0.194834452999 0.0
0.0 4.78065683 0.195270064833 0.0
0.0 4.782008061 0.195709043151 0.0
0.0 4.783359293 0.196150182737 0.0
0.0 4.784710524 0.196593378414 0.0
0.0 4.786061756 0.19703904204 0.0
0.0 4.787412987 0.197486414421 0.0
0.0 4.788764219 0.197933222215 0.0
0.0 4.79011545 0.19838064357 0.0
0.0 4.791466682 0.198829256336 0.0
0.0 4.792817913 0.199281080393 0.0
0.0 4.794169144 0.19973553426 0.0
0.0 4.795520376 0.200192274554 0.0
0.0 4.796871607 0.200651489952 0.0
0.0 4.798222839 0.201113109628 0.0
0.0 4.79957407 0.201578451434 0.0
0.0 4.800925302 0.202045142947 0.0
0.0 4.802276533 0.20251259622 0.0
0.0 4.803627764 0.202980661237 0.0
0.0 4.804978996 0.203450490472 0.0
0.0 4.806330227 0.203922581716 0.0
0.0 4.807681459 0.204396109891 0.0
0.0 4.80903269 0.204870888936 0.0
0.0 4.810383922 0.205346607035 0.0
0.0 4.811735153 0.205825182621 0.0
0.0 4.813086385 0.206307073658 0.0
0.0 4.814437616 0.206789818567 0.0
0.0 4.815788847 0.207273326544 0.0
0.0 4.817140079 0.207756094811 0.0
0.0 4.81849131 0.208243009993 0.0
0.0 4.819842542 0.208732135394 0.0
0.0 4.821193773 0.209224251442 0.0
0.0 4.822545005 0.209717591776 0.0
0.0 4.823896236 0.210212139475 0.0
0.0 4.825247468 0.210707896333 0.0
0.0 4.826598699 0.211204862679 0.0
0.0 4.82794993 0.211703057446 0.0
0.0 4.829301162 0.212203878989 0.0
0.0 4.830652393 0.212708236958 0.0
0.0 4.832003625 0.213214840677 0.0
0.0 4.833354856 0.213721107905 0.0
0.0 4.834706088 0.214228475102 0.0
0.0 4.836057319 0.21473615293 0.0
0.0 4.83740855 0.215243992774 0.0
0.0 4.838759782 0.215752826273 0.0
0.0 4.840111013 0.216261449957 0.0
0.0 4.841462245 0.216770807593 0.0
0.0 4.842813476 0.217280730916 0.0
0.0 4.844164708 0.21779110904 0.0
0.0 4.845515939 0.218302849728 0.0
0.0 4.846867171 0.218815862361 0.0
0.0 4.848218402 0.219330697247 0.0
0.0 4.849569633 0.219848050564 0.0
0.0 4.850920865 0.220365966068 0.0
0.0 4.852272096 0.22088631863 0.0
0.0 4.853623328 0.221407060775 0.0
0.0 4.854974559 0.221929900617 0.0
0.0 4.856325791 0.222454484374 0.0
0.0 4.857677022 0.22298035125 0.0
0.0 4.859028253 0.223507413674 0.0
0.0 4.860379485 0.224033470451 0.0
0.0 4.861730716 0.224559059862 0.0
0.0 4.863081948 0.225088912896 0.0
0.0 4.864433179 0.225620849197 0.0
0.0 4.865784411 0.226154204162 0.0
0.0 4.867135642 0.226687152734 0.0
0.0 4.868486874 0.227221032216 0.0
0.0 4.869838105 0.227755719953 0.0
0.0 4.871189336 0.228291996317 0.0
0.0 4.872540568 0.228829971759 0.0
0.0 4.873891799 0.22936918018 0.0
0.0 4.875243031 0.229910382379 0.0
0.0 4.876594262 0.230452860174 0.0
0.0 4.877945494 0.230996588594 0.0
0.0 4.879296725 0.231541567894 0.0
0.0 4.880647956 0.232087819556 0.0
0.0 4.881999188 0.232635737631 0.0
0.0 4.883350419 0.233184693485 0.0
0.0 4.884701651 0.23373501986 0.0
0.0 4.886052882 0.234286832051 0.0
0.0 4.887404114 0.234840112025 0.0
0.0 4.888755345 0.23539598812 0.0
0.0 4.890106577 0.235951399094 0.0
0.0 4.891457808 0.236508200872 0.0
0.0 4.892809039 0.237066649046 0.0
0.0 4.894160271 0.237626073352 0.0
0.0 4.895511502 0.238186458093 0.0
0.0 4.896862734 0.238746117375 0.0
0.0 4.898213965 0.239306528516 0.0
0.0 4.899565197 0.239867759215 0.0
0.0 4.900916428 0.240432356812 0.0
0.0 4.90226766 0.240998698378 0.0
0.0 4.903618891 0.241566379547 0.0
0.0 4.904970122 0.242135335126 0.0
0.0 4.906321354 0.242705563658 0.0
0.0 4.907672585 0.243277065364 0.0
0.0 4.909023817 0.243849842151 0.0
0.0 4.910375048 0.244423894236 0.0
0.0 4.91172628 0.244999223527 0.0
0.0 4.913077511 0.245575830238 0.0
0.0 4.914428742 0.246153715855 0.0
0.0 4.915779974 0.246732881871 0.0
0.0 4.917131205 0.247313328489 0.0
0.0 4.918482437 0.247895057633 0.0
0.0 4.919833668 0.248478069502 0.0
0.0 4.9211849 0.249062366023 0.0
0.0 4.922536131 0.249647947391 0.0
0.0 4.923887363 0.250234815538 0.0
0.0 4.925238594 0.250822970657 0.0
0.0 4.926589825 0.251412414243 0.0
0.0 4.927941057 0.252003147797 0.0
0.0 4.929292288 0.252595171506 0.0
0.0 4.93064352 0.25318848731 0.0
0.0 4.931994751 0.253783095393 0.0
0.0 4.933345983 0.254378997695 0.0
0.0 4.934697214 0.254976194399 0.0
0.0 4.936048445 0.255574687008 0.0
0.0 4.937399677 0.256174477026 0.0
0.0 4.938750908 0.256775564631 0.0
0.0 4.94010214 0.257377951772 0.0
0.0 4.941453371 0.257981638623 0.0
0.0 4.942804603 0.258586627138 0.0
0.0 4.944155834 0.259192917482 0.0
0.0 4.945507066 0.259800511574 0.0
0.0 4.946858297 0.260409409591 0.0
0.0 4.948209528 0.26101961319 0.0
0.0 4.94956076 0.261631123788 0.0
0.0 4.950911991 0.262243941457 0.0
0.0 4.952263223 0.262858068234 0.0
0.0 4.953614454 0.26347350427 0.0
0.0 4.954965686 0.264090262246 0.0
0.0 4.956316917 0.264708832591 0.0
0.0 4.957668148 0.265327721816 0.0
0.0 4.95901938 0.265948367721 0.0
0.0 4.960370611 0.266570368263 0.0
0.0 4.961721843 0.267193685356 0.0
0.0 4.963073074 0.267818319138 0.0
0.0 4.964424306 0.268444271595 0.0
0.0 4.965775537 0.269071542865 0.0
0.0 4.967126769 0.269700134937 0.0
0.0 4.968478 0.270330047944 0.0
0.0 4.969829231 0.270961283413 0.0
0.0 4.971180463 0.271593845209 0.0
0.0 4.972531694 0.272227875337 0.0
0.0 4.973882926 0.272863062914 0.0
0.0 4.975234157 0.273499473898 0.0
0.0 4.976585389 0.274137336278 0.0
0.0 4.97793662 0.274776528828 0.0
0.0 4.979287852 0.275417051751 0.0
0.0 4.980639083 0.27605890516 0.0
0.0 4.981990314 0.276702090591 0.0
0.0 4.983341546 0.277346609586 0.0
0.0 4.984692777 0.277992462251 0.0
0.0 4.986044009 0.278639658574 0.0
0.0 4.98739524 0.279288377373 0.0
0.0 4.988746472 0.279938052372 0.0
0.0 4.990097703 0.280589236596 0.0
0.0 4.991448934 0.281241775935 0.0
0.0 4.992800166 0.28189565628 0.0
0.0 4.994151397 0.282550877725 0.0
0.0 4.995502629 0.283207450767 0.0
0.0 4.99685386 0.283865838088 0.0
0.0 4.998205092 0.284525435882 0.0
0.0 4.999556323 0.285185753594 0.0
0.0 5.000907555 0.285847161938 0.0
0.0 5.002258786 0.286510440631 0.0
0.0 5.003610017 0.287175082915 0.0
0.0 5.004961249 0.287841075776 0.0
0.0 5.00631248 0.288508419291 0.0
0.0 5.007663712 0.289177115508 0.0
0.0 5.009014943 0.289847164504 0.0
0.0 5.010366175 0.290518568328 0.0
0.0 5.011717406 0.291191327051 0.0
0.0 5.013068637 0.291865442231 0.0
0.0 5.014419869 0.292540915432 0.0
0.0 5.0157711 0.293217746715 0.0
0.0 5.017122332 0.293895938146 0.0
0.0 5.018473563 0.294575489783 0.0
0.0 5.019824795 0.295256403694 0.0
0.0 5.021176026 0.295938679933 0.0
0.0 5.022527258 0.296622320574 0.0
0.0 5.023878489 0.297307325666 0.0
0.0 5.02522972 0.297993696777 0.0
0.0 5.026580952 0.298681435805 0.0
0.0 5.027932183 0.299370545437 0.0
0.0 5.029283415 0.300061021832 0.0
0.0 5.030634646 0.300752864083 0.0
0.0 5.031985878 0.301446081341 0.0
0.0 5.033337109 0.30214067088 0.0
0.0 5.034688341 0.302836634389 0.0
0.0 5.036039572 0.303533971901 0.0
0.0 5.037390803 0.304232684994 0.0
0.0 5.038742035 0.304932775249 0.0
0.0 5.040093266 0.305634242691 0.0
0.0 5.041444498 0.30633708942 0.0
0.0 5.042795729 0.30704131546 0.0
0.0 5.044146961 0.307746922915 0.0
0.0 5.045498192 0.308453911801 0.0
0.0 5.046849423 0.309162283705 0.0
0.0 5.048200655 0.309872040214 0.0
0.0 5.049551886 0.310583181339 0.0
0.0 5.050903118 0.311295709195 0.0
0.0 5.052254349 0.312009623791 0.0
0.0 5.053605581 0.312724928066 0.0
0.0 5.054956812 0.313441656098 0.0
0.0 5.056308044 0.314160010747 0.0
0.0 5.057659275 0.31487990813 0.0
0.0 5.059010506 0.315600957551 0.0
0.0 5.060361738 0.316323152408 0.0
0.0 5.061712969 0.317046539886 0.0
0.0 5.063064201 0.317771390339 0.0
0.0 5.064415432 0.318497760749 0.0
0.0 5.065766664 0.31922553695 0.0
0.0 5.067117895 0.319954704004 0.0
0.0 5.068469126 0.320685287079 0.0
0.0 5.069820358 0.321417287364 0.0
0.0 5.071171589 0.322150723671 0.0
0.0 5.072522821 0.322885577716 0.0
0.0 5.073874052 0.323621801271 0.0
0.0 5.075225284 0.324359457519 0.0
0.0 5.076576515 0.325098524472 0.0
0.0 5.077927747 0.325838999539 0.0
0.0 5.079278978 0.32658088733 0.0
0.0 5.080630209 0.327324244846 0.0
0.0 5.081981441 0.328068952295 0.0
0.0 5.083332672 0.328815018245 0.0
0.0 5.084683904 0.329562522794 0.0
0.0 5.086035135 0.330311463643 0.0
0.0 5.087386367 0.33106182061 0.0
0.0 5.088737598 0.331813592972 0.0
0.0 5.090088829 0.332566782346 0.0
0.0 5.091440061 0.333321390354 0.0
0.0 5.092791292 0.334077416941 0.0
0.0 5.094142524 0.334834864288 0.0
0.0 5.095493755 0.335593732336 0.0
0.0 5.096844987 0.336354023271 0.0
0.0 5.098196218 0.33711573703 0.0
0.0 5.09954745 0.337878875802 0.0
