0.0 2.002074478 0.199473174061 0.0
0.0 2.00368257 0.199814377977 0.0
0.0 2.005290662 0.20015415357 0.0
0.0 2.006898754 0.20049250263 0.0
0.0 2.008506846 0.20082942695 0.0
0.0 2.010114938 0.201164928321 0.0
0.0 2.01172303 0.201499008533 0.0
0.0 2.013331122 0.201831669376 0.0
0.0 2.014939214 0.20216291264 0.0
0.0 2.016547306 0.202492740116 0.0
0.0 2.018155398 0.202821153596 0.0
0.0 2.01976349 0.203148154868 0.0
0.0 2.021371582 0.203473745725 0.0
0.0 2.022979674 0.203797927956 0.0
0.0 2.024587766 0.204120703355 0.0
0.0 2.026195858 0.204442073709 0.0
0.0 2.027803949 0.204762040612 0.0
0.0 2.029412041 0.205080606254 0.0
0.0 2.031020133 0.205397772222 0.0
0.0 2.032628225 0.205713540308 0.0
0.0 2.034236317 0.206027912306 0.0
0.0 2.035844409 0.206340890002 0.0
0.0 2.037452501 0.20665247519 0.0
0.0 2.039060593 0.206962669659 0.0
0.0 2.040668685 0.2072714752 0.0
0.0 2.042276777 0.207578893604 0.0
0.0 2.043884869 0.207884926661 0.0
0.0 2.045492961 0.208189576162 0.0
0.0 2.047101053 0.208492843898 0.0
0.0 2.048709145 0.208794731659 0.0
0.0 2.050317237 0.209095241236 0.0
0.0 2.051925329 0.20939437442 0.0
0.0 2.053533421 0.209692133002 0.0
0.0 2.055141513 0.209988518771 0.0
0.0 2.056749605 0.210283533518 0.0
0.0 2.058357697 0.210577179033 0.0
0.0 2.059965788 0.210869456928 0.0
0.0 2.06157388 0.211160369355 0.0
0.0 2.063181972 0.211449917925 0.0
0.0 2.064790064 0.211738104426 0.0
0.0 2.066398156 0.212024930649 0.0
0.0 2.068006248 0.212310398384 0.0
0.0 2.06961434 0.212594509422 0.0
0.0 2.071222432 0.212877265554 0.0
0.0 2.072830524 0.213158668572 0.0
0.0 2.074438616 0.213438720266 0.0
0.0 2.076046708 0.213717422427 0.0
0.0 2.0776548 0.213994776847 0.0
0.0 2.079262892 0.214270785314 0.0
0.0 2.080870984 0.214545449617 0.0
0.0 2.082479076 0.214818771546 0.0
0.0 2.084087168 0.215090752897 0.0
0.0 2.08569526 0.215361395457 0.0
0.0 2.087303352 0.215630701017 0.0
0.0 2.088911444 0.215898671371 0.0
0.0 2.090519536 0.216165308308 0.0
0.0 2.092127627 0.216430613453 0.0
0.0 2.093735719 0.21669458893 0.0
0.0 2.095343811 0.216957236361 0.0
0.0 2.096951903 0.217218557535 0.0
0.0 2.098559995 0.217478554243 0.0
0.0 2.100168087 0.217737228279 0.0
0.0 2.101776179 0.217994581424 0.0
0.0 2.103384271 0.218250615474 0.0
0.0 2.104992363 0.21850533221 0.0
0.0 2.106600455 0.218758733444 0.0
0.0 2.108208547 0.219010820961 0.0
0.0 2.109816639 0.21926159655 0.0
0.0 2.111424731 0.219511062012 0.0
0.0 2.113032823 0.219759219119 0.0
0.0 2.114640915 0.22000606967 0.0
0.0 2.116249007 0.220251615452 0.0
0.0 2.117857099 0.220495858304 0.0
0.0 2.119465191 0.220738799917 0.0
0.0 2.121073283 0.220980442134 0.0
0.0 2.122681375 0.221220786732 0.0
0.0 2.124289466 0.221459835373 0.0
0.0 2.125897558 0.221697590134 0.0
0.0 2.12750565 0.221934052662 0.0
0.0 2.129113742 0.222169224766 0.0
0.0 2.130721834 0.222403108227 0.0
0.0 2.132329926 0.222635704834 0.0
0.0 2.133938018 0.222867016361 0.0
0.0 2.13554611 0.223097044611 0.0
0.0 2.137154202 0.22332579133 0.0
0.0 2.138762294 0.223553258364 0.0
0.0 2.140370386 0.223779447455 0.0
0.0 2.141978478 0.224004360454 0.0
0.0 2.14358657 0.224227999139 0.0
0.0 2.145194662 0.224450365311 0.0
0.0 2.146802754 0.224671460722 0.0
0.0 2.148410846 0.224891287162 0.0
0.0 2.150018938 0.225109846425 0.0
0.0 2.15162703 0.225327140334 0.0
0.0 2.153235122 0.225543170704 0.0
0.0 2.154843214 0.225757939265 0.0
0.0 2.156451305 0.225971447701 0.0
0.0 2.158059397 0.226183698043 0.0
0.0 2.159667489 0.226394691962 0.0
0.0 2.161275581 0.22660443122 0.0
0.0 2.162883673 0.226812917637 0.0
0.0 2.164491765 0.227020153027 0.0
0.0 2.166099857 0.227226139161 0.0
0.0 2.167707949 0.227430877833 0.0
0.0 2.169316041 0.227634370794 0.0
0.0 2.170924133 0.227836619894 0.0
0.0 2.172532225 0.228037626891 0.0
0.0 2.174140317 0.228237393613 0.0
0.0 2.175748409 0.228435921802 0.0
0.0 2.177356501 0.228633213254 0.0
0.0 2.178964593 0.228829269767 0.0
0.0 2.180572685 0.229024093154 0.0
0.0 2.182180777 0.229217685261 0.0
0.0 2.183788869 0.229410047696 0.0
0.0 2.185396961 0.229601182388 0.0
0.0 2.187005053 0.229791091109 0.0
0.0 2.188613145 0.229979775654 0.0
0.0 2.190221236 0.230167237695 0.0
0.0 2.191829328 0.230353479235 0.0
0.0 2.19343742 0.230538501948 0.0
0.0 2.195045512 0.230722307624 0.0
0.0 2.196653604 0.23090489808 0.0
0.0 2.198261696 0.231086275093 0.0
0.0 2.199869788 0.231266440483 0.0
0.0 2.20147788 0.231445396068 0.0
0.0 2.203085972 0.231623143545 0.0
0.0 2.204694064 0.231799684739 0.0
0.0 2.206302156 0.23197502138 0.0
0.0 2.207910248 0.232149155376 0.0
0.0 2.20951834 0.232322088153 0.0
0.0 2.211126432 0.232493822042 0.0
0.0 2.212734524 0.232664358627 0.0
0.0 2.214342616 0.232833699673 0.0
0.0 2.215950708 0.233001846973 0.0
0.0 2.2175588 0.233168802343 0.0
0.0 2.219166892 0.233334567968 0.0
0.0 2.220774984 0.233499144961 0.0
0.0 2.222383075 0.233662535024 0.0
0.0 2.223991167 0.233824740028 0.0
0.0 2.225599259 0.233985762256 0.0
0.0 2.227207351 0.234145603437 0.0
0.0 2.228815443 0.234304265229 0.0
0.0 2.230423535 0.234461749492 0.0
0.0 2.232031627 0.234618057964 0.0
0.0 2.233639719 0.234773192313 0.0
0.0 2.235247811 0.234927154128 0.0
0.0 2.236855903 0.235079945459 0.0
0.0 2.238463995 0.235231568287 0.0
0.0 2.240072087 0.235382024244 0.0
0.0 2.241680179 0.235531315104 0.0
0.0 2.243288271 0.235679442657 0.0
0.0 2.244896363 0.235826408693 0.0
0.0 2.246504455 0.235972215004 0.0
0.0 2.248112547 0.236116863408 0.0
0.0 2.249720639 0.236260355919 0.0
0.0 2.251328731 0.236402694465 0.0
0.0 2.252936823 0.236543880604 0.0
0.0 2.254544914 0.236683916162 0.0
0.0 2.256153006 0.236822801931 0.0
0.0 2.257761098 0.236960540509 0.0
0.0 2.25936919 0.237097134705 0.0
0.0 2.260977282 0.237232586099 0.0
0.0 2.262585374 0.237366895871 0.0
0.0 2.264193466 0.237500064897 0.0
0.0 2.265801558 0.237632095831 0.0
0.0 2.26740965 0.237762988378 0.0
0.0 2.269017742 0.237892746202 0.0
0.0 2.270625834 0.238021364766 0.0
0.0 2.272233926 0.238148857051 0.0
0.0 2.273842018 0.238275227094 0.0
0.0 2.27545011 0.238400461214 0.0
0.0 2.277058202 0.238524571911 0.0
0.0 2.278666294 0.238647557528 0.0
0.0 2.280274386 0.238769422475 0.0
0.0 2.281882478 0.238890169081 0.0
0.0 2.28349057 0.23900979462 0.0
0.0 2.285098662 0.239128304401 0.0
0.0 2.286706753 0.239245699408 0.0
0.0 2.288314845 0.239361981368 0.0
0.0 2.289922937 0.23947715195 0.0
0.0 2.291531029 0.239591212944 0.0
0.0 2.293139121 0.239704166142 0.0
0.0 2.294747213 0.239816013386 0.0
0.0 2.296355305 0.239926757252 0.0
0.0 2.297963397 0.240036408735 0.0
0.0 2.299571489 0.240144939159 0.0
0.0 2.301179581 0.240252387963 0.0
0.0 2.302787673 0.240358785875 0.0
0.0 2.304395765 0.240464050786 0.0
0.0 2.306003857 0.240568236072 0.0
0.0 2.307611949 0.240671334346 0.0
0.0 2.309220041 0.240773360995 0.0
0.0 2.310828133 0.240874359868 0.0
0.0 2.312436225 0.2409742944 0.0
0.0 2.314044317 0.241073222368 0.0
0.0 2.315652409 0.241171195265 0.0
0.0 2.317260501 0.241268275957 0.0
0.0 2.318868592 0.241364533306 0.0
0.0 2.320476684 0.241459766173 0.0
0.0 2.322084776 0.241554202886 0.0
0.0 2.323692868 0.24164775465 0.0
0.0 2.32530096 0.241740358355 0.0
0.0 2.326909052 0.241832153361 0.0
0.0 2.328517144 0.241922933418 0.0
0.0 2.330125236 0.242012851771 0.0
0.0 2.331733328 0.242102125897 0.0
0.0 2.33334142 0.242191020207 0.0
0.0 2.334949512 0.242279311327 0.0
0.0 2.336557604 0.242366523314 0.0
0.0 2.338165696 0.242452760108 0.0
0.0 2.339773788 0.242537835846 0.0
0.0 2.34138188 0.242620589521 0.0
0.0 2.342989972 0.242702105355 0.0
0.0 2.344598064 0.242782017653 0.0
0.0 2.346206156 0.242860370644 0.0
0.0 2.347814248 0.242937612455 0.0
0.0 2.34942234 0.243012454123 0.0
0.0 2.351030431 0.243086075289 0.0
0.0 2.352638523 0.243158822163 0.0
0.0 2.354246615 0.243230990698 0.0
0.0 2.355854707 0.243302266592 0.0
0.0 2.357462799 0.243372955782 0.0
0.0 2.359070891 0.243442928298 0.0
0.0 2.360678983 0.243512120145 0.0
0.0 2.362287075 0.243579948874 0.0
0.0 2.363895167 0.243646788408 0.0
0.0 2.365503259 0.243712531045 0.0
0.0 2.367111351 0.243776970489 0.0
0.0 2.368719443 0.243840280375 0.0
0.0 2.370327535 0.243902814477 0.0
0.0 2.371935627 0.243964638118 0.0
0.0 2.373543719 0.244025319908 0.0
0.0 2.375151811 0.244086023158 0.0
0.0 2.376759903 0.244145872184 0.0
0.0 2.378367995 0.244204468107 0.0
0.0 2.379976087 0.244260367981 0.0
0.0 2.381584179 0.244315238139 0.0
0.0 2.383192271 0.244368302782 0.0
0.0 2.384800362 0.244419179015 0.0
0.0 2.386408454 0.244469112519 0.0
0.0 2.388016546 0.244518603169 0.0
0.0 2.389624638 0.244567334337 0.0
0.0 2.39123273 0.244615119016 0.0
0.0 2.392840822 0.24466275789 0.0
0.0 2.394448914 0.244709575422 0.0
0.0 2.396057006 0.244755312989 0.0
0.0 2.397665098 0.24479922349 0.0
0.0 2.39927319 0.244842192644 0.0
0.0 2.400881282 0.244884400643 0.0
0.0 2.402489374 0.244925964677 0.0
0.0 2.404097466 0.24496660446 0.0
0.0 2.405705558 0.245006682749 0.0
0.0 2.40731365 0.245046027149 0.0
0.0 2.408921742 0.245084410375 0.0
0.0 2.410529834 0.245122071873 0.0
0.0 2.412137926 0.245158839142 0.0
0.0 2.413746018 0.245194662065 0.0
0.0 2.41535411 0.245229457221 0.0
0.0 2.416962201 0.245263293824 0.0
0.0 2.418570293 0.245295709474 0.0
0.0 2.420178385 0.245325823032 0.0
0.0 2.421786477 0.245355041624 0.0
0.0 2.423394569 0.245383555498 0.0
0.0 2.425002661 0.245411439129 0.0
0.0 2.426610753 0.245438362429 0.0
0.0 2.428218845 0.245464298767 0.0
0.0 2.429826937 0.245489257738 0.0
0.0 2.431435029 0.245513267659 0.0
0.0 2.433043121 0.24553618335 0.0
0.0 2.434651213 0.245558119563 0.0
0.0 2.436259305 0.245579118799 0.0
0.0 2.437867397 0.245599903032 0.0
0.0 2.439475489 0.245619792869 0.0
0.0 2.441083581 0.245638719481 0.0
0.0 2.442691673 0.245656413276 0.0
0.0 2.444299765 0.245673182573 0.0
0.0 2.445907857 0.245688919123 0.0
0.0 2.447515949 0.245703344376 0.0
0.0 2.44912404 0.245716855828 0.0
0.0 2.450732132 0.245729675285 0.0
0.0 2.452340224 0.245741937812 0.0
0.0 2.453948316 0.245753279413 0.0
0.0 2.455556408 0.245764115594 0.0
0.0 2.4571645 0.245774515416 0.0
0.0 2.458772592 0.245784018935 0.0
0.0 2.460380684 0.245791783864 0.0
0.0 2.461988776 0.245798004732 0.0
0.0 2.463596868 0.24580331253 0.0
0.0 2.46520496 0.24580778934 0.0
0.0 2.466813052 0.24581140512 0.0
0.0 2.468421144 0.245814121578 0.0
0.0 2.470029236 0.245816070674 0.0
0.0 2.471637328 0.245817166009 0.0
0.0 2.47324542 0.24581736919 0.0
0.0 2.474853512 0.245816363781 0.0
0.0 2.476461604 0.245814361405 0.0
0.0 2.478069696 0.245811475743 0.0
0.0 2.479677788 0.24580830917 0.0
0.0 2.481285879 0.245804320824 0.0
0.0 2.482893971 0.245799420573 0.0
0.0 2.484502063 0.245793785157 0.0
0.0 2.486110155 0.245787280168 0.0
0.0 2.487718247 0.245779897802 0.0
0.0 2.489326339 0.245771483077 0.0
0.0 2.490934431 0.245762171528 0.0
0.0 2.492542523 0.245751972201 0.0
0.0 2.494150615 0.245739695468 0.0
0.0 2.495758707 0.245726538132 0.0
0.0 2.497366799 0.245712520462 0.0
0.0 2.498974891 0.245697282441 0.0
0.0 2.499778162 0.245954692607 0.0
0.0 2.501129393 0.245927668209 0.0
0.0 2.502480624 0.245898372719 0.0
0.0 2.503831856 0.245876109109 0.0
0.0 2.505183087 0.24585453146 0.0
0.0 2.506534319 0.245823758647 0.0
0.0 2.50788555 0.245788041125 0.0
0.0 2.509236782 0.245754147024 0.0
0.0 2.510588013 0.245721575444 0.0
0.0 2.511939244 0.245690968016 0.0
0.0 2.513290476 0.245657456022 0.0
0.0 2.514641707 0.245621145796 0.0
0.0 2.515992939 0.245584330525 0.0
0.0 2.51734417 0.24555928311 0.0
0.0 2.518695402 0.245519968879 0.0
0.0 2.520046633 0.245495025895 0.0
0.0 2.521397865 0.245460600371 0.0
0.0 2.522749096 0.245429039684 0.0
0.0 2.524100327 0.245395393568 0.0
0.0 2.525451559 0.24536052144 0.0
0.0 2.52680279 0.245331380706 0.0
0.0 2.528154022 0.245297034463 0.0
0.0 2.529505253 0.245273203693 0.0
0.0 2.530856485 0.245239663329 0.0
0.0 2.532207716 0.245204187297 0.0
0.0 2.533558948 0.245181143893 0.0
0.0 2.534910179 0.245148370074 0.0
0.0 2.53626141 0.245114645153 0.0
0.0 2.537612642 0.24508058273 0.0
0.0 2.538963873 0.245047777574 0.0
0.0 2.540315105 0.245017527311 0.0
0.0 2.541666336 0.244982685659 0.0
0.0 2.543017568 0.244948912766 0.0
0.0 2.544368799 0.244920265962 0.0
0.0 2.54572003 0.24488613577 0.0
0.0 2.547071262 0.244851520431 0.0
0.0 2.548422493 0.244823540253 0.0
0.0 2.549773725 0.244788685507 0.0
0.0 2.551124956 0.244749001277 0.0
0.0 2.552476188 0.244711532439 0.0
0.0 2.553827419 0.244673981939 0.0
0.0 2.555178651 0.24463259415 0.0
0.0 2.556529882 0.24459915451 0.0
0.0 2.557881113 0.244560727955 0.0
0.0 2.559232345 0.244524283838 0.0
0.0 2.560583576 0.244486050155 0.0
0.0 2.561934808 0.244441086721 0.0
0.0 2.563286039 0.244399549603 0.0
0.0 2.564637271 0.244360384442 0.0
0.0 2.565988502 0.244322752788 0.0
0.0 2.567339733 0.244277572063 0.0
0.0 2.568690965 0.244235186486 0.0
0.0 2.570042196 0.244189590429 0.0
0.0 2.571393428 0.244142606803 0.0
0.0 2.572744659 0.244101179745 0.0
0.0 2.574095891 0.24406013661 0.0
0.0 2.575447122 0.24401419748 0.0
0.0 2.576798354 0.24396219276 0.0
0.0 2.578149585 0.243916365643 0.0
0.0 2.579500816 0.243869959504 0.0
0.0 2.580852048 0.243824828464 0.0
0.0 2.582203279 0.243780104246 0.0
0.0 2.583554511 0.243729199789 0.0
0.0 2.584905742 0.243676249258 0.0
0.0 2.586256974 0.24362679963 0.0
0.0 2.587608205 0.24357929368 0.0
0.0 2.588959437 0.243527976252 0.0
0.0 2.590310668 0.24347899205 0.0
0.0 2.591661899 0.243427234554 0.0
0.0 2.593013131 0.243371334871 0.0
0.0 2.594364362 0.243316745763 0.0
0.0 2.595715594 0.243264515784 0.0
0.0 2.597066825 0.243208838633 0.0
0.0 2.598418057 0.243154383473 0.0
0.0 2.599769288 0.243101238238 0.0
0.0 2.601120519 0.243044031111 0.0
0.0 2.602471751 0.242987516384 0.0
0.0 2.603822982 0.242931137337 0.0
0.0 2.605174214 0.242875135679 0.0
0.0 2.606525445 0.242818965345 0.0
0.0 2.607876677 0.242758602031 0.0
0.0 2.609227908 0.242700460008 0.0
0.0 2.61057914 0.242644044956 0.0
0.0 2.611930371 0.242581397781 0.0
0.0 2.613281602 0.242518217168 0.0
0.0 2.614632834 0.242459196868 0.0
0.0 2.615984065 0.242397284251 0.0
0.0 2.617335297 0.242334954171 0.0
0.0 2.618686528 0.242271355036 0.0
0.0 2.62003776 0.242209145368 0.0
0.0 2.621388991 0.242146762049 0.0
0.0 2.622740222 0.242083239777 0.0
0.0 2.624091454 0.242017193328 0.0
0.0 2.625442685 0.241950206305 0.0
0.0 2.626793917 0.24188510887 0.0
0.0 2.628145148 0.241821247158 0.0
0.0 2.62949638 0.241755511423 0.0
0.0 2.630847611 0.241686963361 0.0
0.0 2.632198843 0.241616316972 0.0
0.0 2.633550074 0.241548029704 0.0
0.0 2.634901305 0.241479430628 0.0
0.0 2.636252537 0.241410071723 0.0
0.0 2.637603768 0.241343126803 0.0
0.0 2.638955 0.241270961353 0.0
0.0 2.640306231 0.241199478159 0.0
0.0 2.641657463 0.241127780676 0.0
0.0 2.643008694 0.241055523976 0.0
0.0 2.644359925 0.240983717481 0.0
0.0 2.645711157 0.240915393268 0.0
0.0 2.647062388 0.24083861142 0.0
0.0 2.64841362 0.240762885762 0.0
0.0 2.649764851 0.24068848227 0.0
0.0 2.651116083 0.240616146398 0.0
0.0 2.652467314 0.240539020369 0.0
0.0 2.653818546 0.240463843847 0.0
0.0 2.655169777 0.240386723737 0.0
0.0 2.656521008 0.240309214145 0.0
0.0 2.65787224 0.240234292542 0.0
0.0 2.659223471 0.24015370261 0.0
0.0 2.660574703 0.2400753537 0.0
0.0 2.661925934 0.239996987567 0.0
0.0 2.663277166 0.239917803114 0.0
0.0 2.664628397 0.239839871748 0.0
0.0 2.665979629 0.239757217037 0.0
0.0 2.66733086 0.239677998749 0.0
0.0 2.668682091 0.239596338981 0.0
0.0 2.670033323 0.239515321414 0.0
0.0 2.671384554 0.239432805513 0.0
0.0 2.672735786 0.239348993121 0.0
0.0 2.674087017 0.239265136173 0.0
0.0 2.675438249 0.239181104838 0.0
0.0 2.67678948 0.239096731211 0.0
0.0 2.678140711 0.239015090828 0.0
0.0 2.679491943 0.238927221632 0.0
0.0 2.680843174 0.238841212546 0.0
0.0 2.682194406 0.23875684856 0.0
0.0 2.683545637 0.238669356623 0.0
0.0 2.684896869 0.238583202534 0.0
0.0 2.6862481 0.238494711235 0.0
0.0 2.687599332 0.238405856082 0.0
0.0 2.688950563 0.238318156894 0.0
0.0 2.690301794 0.238228414573 0.0
0.0 2.691653026 0.238138984915 0.0
0.0 2.693004257 0.23804955368 0.0
0.0 2.694355489 0.237959807009 0.0
0.0 2.69570672 0.237871569543 0.0
0.0 2.697057952 0.237778815847 0.0
0.0 2.698409183 0.237685050178 0.0
0.0 2.699760414 0.237592649097 0.0
0.0 2.701111646 0.237499972644 0.0
0.0 2.702462877 0.237406836884 0.0
0.0 2.703814109 0.237313846399 0.0
0.0 2.70516534 0.237220333091 0.0
0.0 2.706516572 0.237126588899 0.0
0.0 2.707867803 0.237029709583 0.0
0.0 2.709219035 0.236935914497 0.0
0.0 2.710570266 0.236838445383 0.0
0.0 2.711921497 0.236742109621 0.0
0.0 2.713272729 0.236646813459 0.0
0.0 2.71462396 0.236549375688 0.0
0.0 2.715975192 0.236450916064 0.0
0.0 2.717326423 0.236354015273 0.0
0.0 2.718677655 0.236256183976 0.0
0.0 2.720028886 0.23615668018 0.0
0.0 2.721380117 0.23605637087 0.0
0.0 2.722731349 0.235957170981 0.0
0.0 2.72408258 0.235856201474 0.0
0.0 2.725433812 0.23575439926 0.0
0.0 2.726785043 0.235653051164 0.0
0.0 2.728136275 0.235551745249 0.0
0.0 2.729487506 0.235449472218 0.0
0.0 2.730838738 0.235347113924 0.0
0.0 2.732189969 0.235243701239 0.0
0.0 2.7335412 0.235141359995 0.0
0.0 2.734892432 0.235036737625 0.0
0.0 2.736243663 0.234933211572 0.0
0.0 2.737594895 0.234827631485 0.0
0.0 2.738946126 0.234722097889 0.0
0.0 2.740297358 0.234618750288 0.0
0.0 2.741648589 0.234510486333 0.0
0.0 2.742999821 0.234405025157 0.0
0.0 2.744351052 0.234299902682 0.0
0.0 2.745702283 0.234191531911 0.0
0.0 2.747053515 0.234086421267 0.0
0.0 2.748404746 0.233977350204 0.0
0.0 2.749755978 0.233867287012 0.0
0.0 2.751107209 0.233759748841 0.0
0.0 2.752458441 0.233647131086 0.0
0.0 2.753809672 0.233537574868 0.0
0.0 2.755160903 0.233426917537 0.0
0.0 2.756512135 0.233316485972 0.0
0.0 2.757863366 0.2332076946 0.0
0.0 2.759214598 0.233096263739 0.0
0.0 2.760565829 0.232981738352 0.0
0.0 2.761917061 0.232870636889 0.0
0.0 2.763268292 0.232758241513 0.0
0.0 2.764619524 0.232643687541 0.0
0.0 2.765970755 0.232530841828 0.0
0.0 2.767321986 0.232417226368 0.0
0.0 2.768673218 0.232302737766 0.0
0.0 2.770024449 0.232188089349 0.0
0.0 2.771375681 0.232071614266 0.0
0.0 2.772726912 0.23195723904 0.0
0.0 2.774078144 0.231843956284 0.0
0.0 2.775429375 0.231726570463 0.0
0.0 2.776780606 0.231608376678 0.0
0.0 2.778131838 0.231489615664 0.0
0.0 2.779483069 0.231373464989 0.0
0.0 2.780834301 0.231254125157 0.0
0.0 2.782185532 0.231136086047 0.0
0.0 2.783536764 0.231019041687 0.0
0.0 2.784887995 0.230897603421 0.0
0.0 2.786239227 0.230778351927 0.0
0.0 2.787590458 0.230661106004 0.0
0.0 2.788941689 0.230539674788 0.0
0.0 2.790292921 0.230419866677 0.0
0.0 2.791644152 0.230297464337 0.0
0.0 2.792995384 0.230178615947 0.0
0.0 2.794346615 0.23005627305 0.0
0.0 2.795697847 0.229934007559 0.0
0.0 2.797049078 0.229809874524 0.0
0.0 2.798400309 0.229687905674 0.0
0.0 2.799751541 0.229561162371 0.0
0.0 2.801102772 0.229439203874 0.0
0.0 2.802454004 0.229313800173 0.0
0.0 2.803805235 0.229188340579 0.0
0.0 2.805156467 0.229066964935 0.0
0.0 2.806507698 0.228942181288 0.0
0.0 2.80785893 0.228817214101 0.0
0.0 2.809210161 0.228689893576 0.0
0.0 2.810561392 0.228560755508 0.0
0.0 2.811912624 0.228433570482 0.0
0.0 2.813263855 0.228307678534 0.0
0.0 2.814615087 0.228177885382 0.0
0.0 2.815966318 0.228051794979 0.0
0.0 2.81731755 0.227921011534 0.0
0.0 2.818668781 0.227792255032 0.0
0.0 2.820020013 0.227666411291 0.0
0.0 2.821371244 0.227538120711 0.0
0.0 2.822722475 0.22741032654 0.0
0.0 2.824073707 0.227281504343 0.0
0.0 2.825424938 0.227155139095 0.0
0.0 2.82677617 0.227019825798 0.0
0.0 2.828127401 0.22688417792 0.0
0.0 2.829478633 0.226752980925 0.0
0.0 2.830829864 0.22661737473 0.0
0.0 2.832181095 0.226484845135 0.0
0.0 2.833532327 0.226352123272 0.0
0.0 2.834883558 0.226220205363 0.0
0.0 2.83623479 0.226088490741 0.0
0.0 2.837586021 0.225954343444 0.0
0.0 2.838937253 0.225818230949 0.0
0.0 2.840288484 0.225685054469 0.0
0.0 2.841639716 0.225551178174 0.0
0.0 2.842990947 0.225414402407 0.0
0.0 2.844342178 0.225279109459 0.0
0.0 2.84569341 0.225146720959 0.0
0.0 2.847044641 0.225008192034 0.0
0.0 2.848395873 0.224870755912 0.0
0.0 2.849747104 0.224738351706 0.0
0.0 2.851098336 0.224599222068 0.0
0.0 2.852449567 0.22446130346 0.0
0.0 2.853800798 0.224327765632 0.0
0.0 2.85515203 0.224189343043 0.0
0.0 2.856503261 0.224047275807 0.0
0.0 2.857854493 0.223908431427 0.0
0.0 2.859205724 0.223765400333 0.0
0.0 2.860556956 0.223624331513 0.0
0.0 2.861908187 0.223484392016 0.0
0.0 2.863259419 0.223345680819 0.0
0.0 2.86461065 0.223203631952 0.0
0.0 2.865961881 0.223062431202 0.0
0.0 2.867313113 0.222921755346 0.0
0.0 2.868664344 0.222780493684 0.0
0.0 2.870015576 0.222640223547 0.0
0.0 2.871366807 0.222498794314 0.0
0.0 2.872718039 0.222355839202 0.0
0.0 2.87406927 0.222210619413 0.0
0.0 2.875420501 0.222067259405 0.0
0.0 2.876771733 0.221924840073 0.0
0.0 2.878122964 0.221781168044 0.0
0.0 2.879474196 0.221639913017 0.0
0.0 2.880825427 0.221493598046 0.0
0.0 2.882176659 0.221346892139 0.0
0.0 2.88352789 0.221201134208 0.0
0.0 2.884879122 0.221055401442 0.0
0.0 2.886230353 0.220911067142 0.0
0.0 2.887581584 0.220764424872 0.0
0.0 2.888932816 0.220618989183 0.0
0.0 2.890284047 0.22046943278 0.0
0.0 2.891635279 0.220322485876 0.0
0.0 2.89298651 0.220175588387 0.0
0.0 2.894337742 0.220028618801 0.0
0.0 2.895688973 0.219884334428 0.0
0.0 2.897040205 0.21973363526 0.0
0.0 2.898391436 0.21958435433 0.0
0.0 2.899742667 0.219436199415 0.0
0.0 2.901093899 0.219285392025 0.0
0.0 2.90244513 0.219135883252 0.0
0.0 2.903796362 0.218985365551 0.0
0.0 2.905147593 0.218834726366 0.0
0.0 2.906498825 0.218684346468 0.0
0.0 2.907850056 0.218539838892 0.0
0.0 2.909201287 0.218385233764 0.0
0.0 2.910552519 0.218232278208 0.0
0.0 2.91190375 0.21808144718 0.0
0.0 2.913254982 0.217927706895 0.0
0.0 2.914606213 0.217775494729 0.0
0.0 2.915957445 0.217624344284 0.0
0.0 2.917308676 0.217472711472 0.0
0.0 2.918659908 0.217319280336 0.0
0.0 2.920011139 0.217167203048 0.0
0.0 2.92136237 0.217011023918 0.0
0.0 2.922713602 0.216860654543 0.0
0.0 2.924064833 0.216708440861 0.0
0.0 2.925416065 0.216552127004 0.0
0.0 2.926767296 0.216393175419 0.0
0.0 2.928118528 0.216238067243 0.0
0.0 2.929469759 0.216082837243 0.0
0.0 2.93082099 0.215928290211 0.0
0.0 2.932172222 0.215772077854 0.0
0.0 2.933523453 0.215617991739 0.0
0.0 2.934874685 0.215461862093 0.0
0.0 2.936225916 0.215304494905 0.0
0.0 2.937577148 0.215148403689 0.0
0.0 2.938928379 0.214991698211 0.0
0.0 2.940279611 0.214833445308 0.0
0.0 2.941630842 0.214676830514 0.0
0.0 2.942982073 0.214515648822 0.0
0.0 2.944333305 0.214356679892 0.0
0.0 2.945684536 0.214199065011 0.0
0.0 2.947035768 0.214038005247 0.0
0.0 2.948386999 0.213880642757 0.0
0.0 2.949738231 0.213720896583 0.0
0.0 2.951089462 0.213559012388 0.0
0.0 2.952440694 0.213403886127 0.0
0.0 2.953791925 0.213245316858 0.0
0.0 2.955143156 0.213085028844 0.0
0.0 2.956494388 0.212921151285 0.0
0.0 2.957845619 0.212759672677 0.0
0.0 2.959196851 0.21259514376 0.0
0.0 2.960548082 0.212433597376 0.0
0.0 2.961899314 0.21227179503 0.0
0.0 2.963250545 0.212109737686 0.0
0.0 2.964601776 0.211947440606 0.0
0.0 2.965953008 0.21178732193 0.0
0.0 2.967304239 0.211623971625 0.0
0.0 2.968655471 0.211463948096 0.0
0.0 2.970006702 0.211300935721 0.0
0.0 2.971357934 0.211136377773 0.0
0.0 2.972709165 0.210970313828 0.0
0.0 2.974060397 0.210808252944 0.0
0.0 2.975411628 0.210645119728 0.0
0.0 2.976762859 0.210476192661 0.0
0.0 2.978114091 0.210313474166 0.0
0.0 2.979465322 0.210147778019 0.0
0.0 2.980816554 0.209984026882 0.0
0.0 2.982167785 0.209820057563 0.0
0.0 2.983519017 0.209651253729 0.0
0.0 2.984870248 0.209483680852 0.0
0.0 2.986221479 0.209317080988 0.0
0.0 2.987572711 0.209153680577 0.0
0.0 2.988923942 0.208990262604 0.0
0.0 2.990275174 0.208823159564 0.0
0.0 2.991626405 0.208654366226 0.0
0.0 2.992977637 0.208487991682 0.0
0.0 2.994328868 0.208319883159 0.0
0.0 2.9956801 0.208150011231 0.0
0.0 2.997031331 0.207981880747 0.0
0.0 2.998382562 0.207812800072 0.0
0.0 2.999733794 0.207645251551 0.0
0.0 3.001085025 0.207475991607 0.0
0.0 3.002436257 0.207308452017 0.0
0.0 3.003787488 0.207137595844 0.0
0.0 3.00513872 0.20696945024 0.0
0.0 3.006489951 0.206801730861 0.0
0.0 3.007841182 0.206631465605 0.0
0.0 3.009192414 0.206459861583 0.0
0.0 3.010543645 0.206290108461 0.0
0.0 3.011894877 0.206120011594 0.0
0.0 3.013246108 0.205951476234 0.0
0.0 3.01459734 0.205782627711 0.0
0.0 3.015948571 0.205611095382 0.0
0.0 3.017299803 0.205440605508 0.0
0.0 3.018651034 0.205267446803 0.0
0.0 3.020002265 0.205091991794 0.0
0.0 3.021353497 0.204920600888 0.0
0.0 3.022704728 0.204745592498 0.0
0.0 3.02405596 0.204572495469 0.0
0.0 3.025407191 0.204402752853 0.0
0.0 3.026758423 0.204227087249 0.0
0.0 3.028109654 0.20405337554 0.0
0.0 3.029460886 0.203880844341 0.0
0.0 3.030812117 0.203707919791 0.0
0.0 3.032163348 0.203533488276 0.0
0.0 3.03351458 0.203360732315 0.0
0.0 3.034865811 0.203184794868 0.0
0.0 3.036217043 0.203011439836 0.0
0.0 3.037568274 0.202838751447 0.0
0.0 3.038919506 0.202667170812 0.0
0.0 3.040270737 0.202495475187 0.0
0.0 3.041621968 0.2023181414 0.0
0.0 3.0429732 0.202140398825 0.0
0.0 3.044324431 0.201965255308 0.0
0.0 3.045675663 0.201788001254 0.0
0.0 3.047026894 0.201612920983 0.0
0.0 3.048378126 0.201434498245 0.0
0.0 3.049729357 0.201260942671 0.0
0.0 3.051080589 0.201084868757 0.0
0.0 3.05243182 0.200909362534 0.0
0.0 3.053783051 0.200736199135 0.0
0.0 3.055134283 0.200559180495 0.0
0.0 3.056485514 0.200377772429 0.0
0.0 3.057836746 0.200202122283 0.0
0.0 3.059187977 0.2000240657 0.0
0.0 3.060539209 0.199846274049 0.0
0.0 3.06189044 0.1996686548 0.0
0.0 3.063241671 0.199493388407 0.0
0.0 3.064592903 0.199313754358 0.0
0.0 3.065944134 0.199137167443 0.0
0.0 3.067295366 0.198960054929 0.0
0.0 3.068646597 0.198778454301 0.0
0.0 3.069997829 0.198595132434 0.0
0.0 3.07134906 0.1984177112 0.0
0.0 3.072700292 0.198241069404 0.0
0.0 3.074051523 0.198061723263 0.0
0.0 3.075402754 0.197881468197 0.0
0.0 3.076753986 0.197701409923 0.0
0.0 3.078105217 0.197519506478 0.0
0.0 3.079456449 0.19733723602 0.0
0.0 3.08080768 0.197162112413 0.0
0.0 3.082158912 0.196981833719 0.0
0.0 3.083510143 0.196799113989 0.0
0.0 3.084861374 0.196619328415 0.0
0.0 3.086212606 0.19643933371 0.0
0.0 3.087563837 0.196257264382 0.0
0.0 3.088915069 0.196075323676 0.0
0.0 3.0902663 0.195894902746 0.0
0.0 3.091617532 0.195711810207 0.0
0.0 3.092968763 0.195528276849 0.0
0.0 3.094319995 0.195350368728 0.0
0.0 3.095671226 0.19516794671 0.0
0.0 3.097022457 0.19498407616 0.0
0.0 3.098373689 0.194802605237 0.0
0.0 3.09972492 0.194619304347 0.0
0.0 3.101076152 0.194439752573 0.0
0.0 3.102427383 0.194263176381 0.0
0.0 3.103778615 0.194076743665 0.0
0.0 3.105129846 0.193892931442 0.0
0.0 3.106481078 0.193710003803 0.0
0.0 3.107832309 0.193525761681 0.0
0.0 3.10918354 0.193344013827 0.0
0.0 3.110534772 0.193154144381 0.0
0.0 3.111886003 0.192969294713 0.0
0.0 3.113237235 0.192788052579 0.0
0.0 3.114588466 0.192604873988 0.0
0.0 3.115939698 0.19242324035 0.0
0.0 3.117290929 0.192243061802 0.0
0.0 3.11864216 0.192057107309 0.0
0.0 3.119993392 0.191870980036 0.0
0.0 3.121344623 0.19168182398 0.0
0.0 3.122695855 0.191497142045 0.0
0.0 3.124047086 0.191311812461 0.0
0.0 3.125398318 0.191125586969 0.0
0.0 3.126749549 0.190940495322 0.0
0.0 3.128100781 0.190762291399 0.0
0.0 3.129452012 0.190578411371 0.0
0.0 3.130803243 0.19038956608 0.0
0.0 3.132154475 0.190205905561 0.0
0.0 3.133505706 0.190015810772 0.0
0.0 3.134856938 0.189827870007 0.0
0.0 3.136208169 0.189644066683 0.0
0.0 3.137559401 0.189462410386 0.0
0.0 3.138910632 0.189277189648 0.0
0.0 3.140261863 0.189088171405 0.0
0.0 3.141613095 0.188897932837 0.0
0.0 3.142964326 0.188709961905 0.0
0.0 3.144315558 0.188523215193 0.0
0.0 3.145666789 0.188338574926 0.0
0.0 3.147018021 0.188152001813 0.0
0.0 3.148369252 0.187962812322 0.0
0.0 3.149720484 0.187778626174 0.0
0.0 3.151071715 0.187594517076 0.0
0.0 3.152422946 0.187406783606 0.0
0.0 3.153774178 0.187217185069 0.0
0.0 3.155125409 0.18702868242 0.0
0.0 3.156476641 0.18684246754 0.0
0.0 3.157827872 0.186657077543 0.0
0.0 3.159179104 0.186467617043 0.0
0.0 3.160530335 0.186278555698 0.0
0.0 3.161881566 0.186088411387 0.0
0.0 3.163232798 0.185903614496 0.0
0.0 3.164584029 0.185715074632 0.0
0.0 3.165935261 0.185525107743 0.0
0.0 3.167286492 0.185336146854 0.0
0.0 3.168637724 0.185147175103 0.0
0.0 3.169988955 0.184960558171 0.0
0.0 3.171340187 0.184767897046 0.0
0.0 3.172691418 0.184578732642 0.0
0.0 3.174042649 0.1843897792 0.0
0.0 3.175393881 0.18420090351 0.0
0.0 3.176745112 0.184014110579 0.0
0.0 3.178096344 0.183824196606 0.0
0.0 3.179447575 0.183636950499 0.0
0.0 3.180798807 0.183449877112 0.0
0.0 3.182150038 0.183254962308 0.0
0.0 3.18350127 0.183066008922 0.0
0.0 3.184852501 0.182878780435 0.0
0.0 3.186203732 0.182689570985 0.0
0.0 3.187554964 0.18250033451 0.0
0.0 3.188906195 0.182309011076 0.0
0.0 3.190257427 0.182122867239 0.0
0.0 3.191608658 0.181934127641 0.0
0.0 3.19295989 0.181742232151 0.0
0.0 3.194311121 0.181550616528 0.0
0.0 3.195662352 0.181360523341 0.0
0.0 3.197013584 0.181168253577 0.0
0.0 3.198364815 0.180978214803 0.0
0.0 3.199716047 0.18079011944 0.0
0.0 3.201067278 0.180599385015 0.0
0.0 3.20241851 0.180407980734 0.0
0.0 3.203769741 0.18021803644 0.0
0.0 3.205120973 0.180026820884 0.0
0.0 3.206472204 0.179834185199 0.0
0.0 3.207823435 0.179642780883 0.0
0.0 3.209174667 0.179453505779 0.0
0.0 3.210525898 0.17926245358 0.0
0.0 3.21187713 0.179071152971 0.0
0.0 3.213228361 0.178881377533 0.0
0.0 3.214579593 0.178692038508 0.0
0.0 3.215930824 0.178499555082 0.0
0.0 3.217282055 0.178309407272 0.0
0.0 3.218633287 0.178120307136 0.0
0.0 3.219984518 0.177931939966 0.0
0.0 3.22133575 0.177741109777 0.0
0.0 3.222686981 0.177548198404 0.0
0.0 3.224038213 0.177354186514 0.0
0.0 3.225389444 0.177159122701 0.0
0.0 3.226740676 0.176966435141 0.0
0.0 3.228091907 0.176777538227 0.0
0.0 3.229443138 0.176587705054 0.0
0.0 3.23079437 0.176395467998 0.0
0.0 3.232145601 0.176202286041 0.0
0.0 3.233496833 0.17601070106 0.0
0.0 3.234848064 0.175819876316 0.0
0.0 3.236199296 0.17562698636 0.0
0.0 3.237550527 0.175434185922 0.0
0.0 3.238901759 0.175243146 0.0
0.0 3.24025299 0.175053864323 0.0
0.0 3.241604221 0.174862972499 0.0
0.0 3.242955453 0.174671841191 0.0
0.0 3.244306684 0.174485986891 0.0
0.0 3.245657916 0.174296203861 0.0
0.0 3.247009147 0.174105476634 0.0
0.0 3.248360379 0.173910579677 0.0
0.0 3.24971161 0.173715695375 0.0
0.0 3.251062841 0.173522208905 0.0
0.0 3.252414073 0.173328637978 0.0
0.0 3.253765304 0.173134389436 0.0
0.0 3.255116536 0.17293953045 0.0
0.0 3.256467767 0.172746142814 0.0
0.0 3.257818999 0.172557875913 0.0
0.0 3.25917023 0.172367257045 0.0
0.0 3.260521462 0.172172849349 0.0
0.0 3.261872693 0.171981638308 0.0
0.0 3.263223924 0.171791313777 0.0
0.0 3.264575156 0.17159537889 0.0
0.0 3.265926387 0.17139991598 0.0
0.0 3.267277619 0.171209124756 0.0
0.0 3.26862885 0.171016874111 0.0
0.0 3.269980082 0.170823312489 0.0
0.0 3.271331313 0.17062693948 0.0
0.0 3.272682544 0.170437500925 0.0
0.0 3.274033776 0.170245116196 0.0
0.0 3.275385007 0.170051112071 0.0
0.0 3.276736239 0.16985951405 0.0
0.0 3.27808747 0.169667688329 0.0
0.0 3.279438702 0.169476947796 0.0
0.0 3.280789933 0.169288212167 0.0
0.0 3.282141165 0.169097448437 0.0
0.0 3.283492396 0.168898153986 0.0
0.0 3.284843627 0.168704415733 0.0
0.0 3.286194859 0.168511481264 0.0
0.0 3.28754609 0.168320606975 0.0
0.0 3.288897322 0.168126116213 0.0
0.0 3.290248553 0.16793330273 0.0
0.0 3.291599785 0.167744352997 0.0
0.0 3.292951016 0.167551391139 0.0
0.0 3.294302247 0.167357217622 0.0
0.0 3.295653479 0.167165604038 0.0
0.0 3.29700471 0.166973379649 0.0
0.0 3.298355942 0.166780304831 0.0
0.0 3.299707173 0.166587354194 0.0
0.0 3.301058405 0.166392966291 0.0
0.0 3.302409636 0.166199354155 0.0
0.0 3.303760868 0.166007465646 0.0
0.0 3.305112099 0.165816412442 0.0
0.0 3.30646333 0.165626996582 0.0
0.0 3.307814562 0.16543264825 0.0
0.0 3.309165793 0.165237842572 0.0
0.0 3.310517025 0.165044199302 0.0
0.0 3.311868256 0.164854648579 0.0
0.0 3.313219488 0.164662249568 0.0
0.0 3.314570719 0.16446707514 0.0
0.0 3.315921951 0.164274759192 0.0
0.0 3.317273182 0.164082971106 0.0
0.0 3.318624413 0.163893487033 0.0
0.0 3.319975645 0.163700461699 0.0
0.0 3.321326876 0.163506520161 0.0
0.0 3.322678108 0.163314265039 0.0
0.0 3.324029339 0.163120933769 0.0
0.0 3.325380571 0.162929034009 0.0
0.0 3.326731802 0.162738693516 0.0
0.0 3.328083033 0.162546763785 0.0
0.0 3.329434265 0.16235399658 0.0
0.0 3.330785496 0.162164734491 0.0
0.0 3.332136728 0.161971925742 0.0
0.0 3.333487959 0.161781109793 0.0
0.0 3.334839191 0.161590428496 0.0
0.0 3.336190422 0.161398979674 0.0
0.0 3.337541654 0.161203055036 0.0
0.0 3.338892885 0.161012948298 0.0
0.0 3.340244116 0.16082270668 0.0
0.0 3.341595348 0.160630656487 0.0
0.0 3.342946579 0.160437936352 0.0
0.0 3.344297811 0.16024582013 0.0
0.0 3.345649042 0.160054291577 0.0
0.0 3.347000274 0.159862061995 0.0
0.0 3.348351505 0.159674106931 0.0
0.0 3.349702736 0.159480113422 0.0
0.0 3.351053968 0.15928559564 0.0
0.0 3.352405199 0.159095041469 0.0
0.0 3.353756431 0.158905573395 0.0
0.0 3.355107662 0.158715068771 0.0
0.0 3.356458894 0.158523877879 0.0
0.0 3.357810125 0.158333573627 0.0
0.0 3.359161357 0.158141460277 0.0
0.0 3.360512588 0.157949370811 0.0
0.0 3.361863819 0.157757141972 0.0
0.0 3.363215051 0.157567130266 0.0
0.0 3.364566282 0.157378314802 0.0
0.0 3.365917514 0.157186842444 0.0
0.0 3.367268745 0.156995612666 0.0
0.0 3.368619977 0.156807221854 0.0
0.0 3.369971208 0.156617160131 0.0
0.0 3.371322439 0.156422621914 0.0
0.0 3.372673671 0.156232148058 0.0
0.0 3.374024902 0.156047273548 0.0
0.0 3.375376134 0.155859782844 0.0
0.0 3.376727365 0.155666614762 0.0
0.0 3.378078597 0.155472283811 0.0
0.0 3.379429828 0.155281194543 0.0
0.0 3.38078106 0.155090504279 0.0
0.0 3.382132291 0.154901899549 0.0
0.0 3.383483522 0.154714046686 0.0
0.0 3.384834754 0.154523298107 0.0
0.0 3.386185985 0.154333942459 0.0
0.0 3.387537217 0.154145796116 0.0
0.0 3.388888448 0.153954579175 0.0
0.0 3.39023968 0.153764291467 0.0
0.0 3.391590911 0.153577629637 0.0
0.0 3.392942143 0.153388050375 0.0
0.0 3.394293374 0.153194121255 0.0
0.0 3.395644605 0.153004851296 0.0
0.0 3.396995837 0.152815804064 0.0
0.0 3.398347068 0.152627095123 0.0
0.0 3.3996983 0.152439411148 0.0
0.0 3.401049531 0.152249500099 0.0
0.0 3.402400763 0.152060532162 0.0
0.0 3.403751994 0.151873649715 0.0
0.0 3.405103225 0.151683772711 0.0
0.0 3.406454457 0.151494968926 0.0
0.0 3.407805688 0.151308300638 0.0
0.0 3.40915692 0.151118550167 0.0
0.0 3.410508151 0.150934151344 0.0
0.0 3.411859383 0.150746934469 0.0
0.0 3.413210614 0.150561728039 0.0
0.0 3.414561846 0.150370336162 0.0
0.0 3.415913077 0.15018217361 0.0
0.0 3.417264308 0.14999679048 0.0
0.0 3.41861554 0.149811194026 0.0
0.0 3.419966771 0.149620663107 0.0
0.0 3.421318003 0.149432844763 0.0
0.0 3.422669234 0.14925180621 0.0
0.0 3.424020466 0.149065165838 0.0
0.0 3.425371697 0.148875225945 0.0
0.0 3.426722928 0.148686583709 0.0
0.0 3.42807416 0.148498096311 0.0
0.0 3.429425391 0.148309614251 0.0
0.0 3.430776623 0.148120668978 0.0
0.0 3.432127854 0.147934207511 0.0
0.0 3.433479086 0.147747881011 0.0
0.0 3.434830317 0.147561670288 0.0
0.0 3.436181549 0.147375592413 0.0
0.0 3.43753278 0.147191641862 0.0
0.0 3.438884011 0.147009206207 0.0
0.0 3.440235243 0.146821642777 0.0
0.0 3.441586474 0.146634113552 0.0
0.0 3.442937706 0.146447340868 0.0
0.0 3.444288937 0.146261534044 0.0
0.0 3.445640169 0.146076402328 0.0
0.0 3.4469914 0.145893223299 0.0
0.0 3.448342631 0.145708775708 0.0
0.0 3.449693863 0.14552370835 0.0
0.0 3.451045094 0.145339600231 0.0
0.0 3.452396326 0.145156506379 0.0
0.0 3.453747557 0.144971817968 0.0
0.0 3.455098789 0.144792947325 0.0
0.0 3.45645002 0.144610636875 0.0
0.0 3.457801252 0.144425765787 0.0
0.0 3.459152483 0.144240432112 0.0
0.0 3.460503714 0.144053641078 0.0
0.0 3.461854946 0.143868614856 0.0
0.0 3.463206177 0.143684012723 0.0
0.0 3.464557409 0.143501525906 0.0
0.0 3.46590864 0.143317951504 0.0
0.0 3.467259872 0.143130979333 0.0
0.0 3.468611103 0.142948507504 0.0
0.0 3.469962335 0.142768255884 0.0
0.0 3.471313566 0.142583481134 0.0
0.0 3.472664797 0.142399188038 0.0
0.0 3.474016029 0.142216649841 0.0
0.0 3.47536726 0.14203830209 0.0
0.0 3.476718492 0.14185679425 0.0
0.0 3.478069723 0.141672846286 0.0
0.0 3.479420955 0.141489795 0.0
0.0 3.480772186 0.141307766508 0.0
0.0 3.482123417 0.141126774231 0.0
0.0 3.483474649 0.140944133361 0.0
0.0 3.48482588 0.140763257685 0.0
0.0 3.486177112 0.140583108726 0.0
0.0 3.487528343 0.140401342805 0.0
0.0 3.488879575 0.140222743607 0.0
0.0 3.490230806 0.140040885565 0.0
0.0 3.491582038 0.139860091106 0.0
0.0 3.492933269 0.139679170799 0.0
0.0 3.4942845 0.139500738304 0.0
0.0 3.495635732 0.139320298669 0.0
0.0 3.496986963 0.139139358738 0.0
0.0 3.498338195 0.13895977866 0.0
0.0 3.499689426 0.138780368002 0.0
0.0 3.501040658 0.138601124905 0.0
0.0 3.502391889 0.138422050698 0.0
0.0 3.50374312 0.138243146311 0.0
0.0 3.505094352 0.13806479995 0.0
0.0 3.506445583 0.137889223824 0.0
0.0 3.507796815 0.137709720507 0.0
0.0 3.509148046 0.137530515972 0.0
0.0 3.510499278 0.137354301787 0.0
0.0 3.511850509 0.137179089151 0.0
0.0 3.513201741 0.137000450476 0.0
0.0 3.514552972 0.136819611031 0.0
0.0 3.515904203 0.136641905432 0.0
0.0 3.517255435 0.136466783584 0.0
0.0 3.518606666 0.136291587489 0.0
0.0 3.519957898 0.136114457327 0.0
0.0 3.521309129 0.135939564779 0.0
0.0 3.522660361 0.135763481621 0.0
0.0 3.524011592 0.135583486622 0.0
0.0 3.525362824 0.135406882105 0.0
0.0 3.526714055 0.135230251784 0.0
0.0 3.528065286 0.13505781722 0.0
0.0 3.529416518 0.134885103898 0.0
0.0 3.530767749 0.134710118311 0.0
0.0 3.532118981 0.134532081031 0.0
0.0 3.533470212 0.134354821564 0.0
0.0 3.534821444 0.134182393507 0.0
0.0 3.536172675 0.13400796407 0.0
0.0 3.537523906 0.133831398279 0.0
0.0 3.538875138 0.133656882527 0.0
0.0 3.540226369 0.133481201085 0.0
0.0 3.541577601 0.133307179487 0.0
0.0 3.542928832 0.133133573586 0.0
0.0 3.544280064 0.132961150047 0.0
0.0 3.545631295 0.13278818124 0.0
0.0 3.546982527 0.132618342512 0.0
0.0 3.548333758 0.132443882578 0.0
0.0 3.549684989 0.132269512619 0.0
0.0 3.551036221 0.132097602073 0.0
0.0 3.552387452 0.13192626847 0.0
0.0 3.553738684 0.131752899143 0.0
0.0 3.555089915 0.131581113247 0.0
0.0 3.556441147 0.131409687835 0.0
0.0 3.557792378 0.131240649597 0.0
0.0 3.559143609 0.131067412964 0.0
0.0 3.560494841 0.130896576688 0.0
0.0 3.561846072 0.130725979535 0.0
0.0 3.563197304 0.130557835441 0.0
0.0 3.564548535 0.130393015602 0.0
0.0 3.565899767 0.130222726184 0.0
0.0 3.567250998 0.130051063648 0.0
0.0 3.56860223 0.129882225886 0.0
0.0 3.569953461 0.129714677199 0.0
0.0 3.571304692 0.129545587607 0.0
0.0 3.572655924 0.129373378889 0.0
0.0 3.574007155 0.129206577971 0.0
0.0 3.575358387 0.129042406566 0.0
0.0 3.576709618 0.128874422352 0.0
0.0 3.57806085 0.128702485916 0.0
0.0 3.579412081 0.12853009518 0.0
0.0 3.580763312 0.128361407339 0.0
0.0 3.582114544 0.128195502465 0.0
0.0 3.583465775 0.128031808965 0.0
0.0 3.584817007 0.127864584329 0.0
0.0 3.586168238 0.127696581803 0.0
0.0 3.58751947 0.127528702698 0.0
0.0 3.588870701 0.127361718141 0.0
0.0 3.590221933 0.127196659228 0.0
0.0 3.591573164 0.127030673461 0.0
0.0 3.592924395 0.126865852746 0.0
0.0 3.594275627 0.126703437005 0.0
0.0 3.595626858 0.126538568286 0.0
0.0 3.59697809 0.126372402539 0.0
0.0 3.598329321 0.12620737632 0.0
0.0 3.599680553 0.126043106516 0.0
0.0 3.601031784 0.125880234966 0.0
0.0 3.602383016 0.125717141591 0.0
0.0 3.603734247 0.125552821397 0.0
0.0 3.605085478 0.125388711575 0.0
0.0 3.60643671 0.125227264703 0.0
0.0 3.607787941 0.125068944707 0.0
0.0 3.609139173 0.124907981788 0.0
0.0 3.610490404 0.124745835614 0.0
0.0 3.611841636 0.124584386302 0.0
0.0 3.613192867 0.12442366744 0.0
0.0 3.614544098 0.124265248952 0.0
0.0 3.61589533 0.124106862809 0.0
0.0 3.617246561 0.123947200122 0.0
0.0 3.618597793 0.123787295858 0.0
0.0 3.619949024 0.12362645477 0.0
0.0 3.621300256 0.123465188767 0.0
0.0 3.622651487 0.123303860055 0.0
0.0 3.624002719 0.123139983622 0.0
0.0 3.62535395 0.122980250855 0.0
0.0 3.626705181 0.122828765138 0.0
0.0 3.628056413 0.122678251317 0.0
0.0 3.629407644 0.122522297116 0.0
0.0 3.630758876 0.122365648177 0.0
0.0 3.632110107 0.122211397737 0.0
0.0 3.633461339 0.122057107241 0.0
0.0 3.63481257 0.121901355916 0.0
0.0 3.636163801 0.121742167453 0.0
0.0 3.637515033 0.121577153709 0.0
0.0 3.638866264 0.121412645012 0.0
0.0 3.640217496 0.121255170255 0.0
0.0 3.641568727 0.121102254313 0.0
0.0 3.642919959 0.120950074178 0.0
0.0 3.64427119 0.120797987893 0.0
0.0 3.645622422 0.120644850353 0.0
0.0 3.646973653 0.120493804323 0.0
0.0 3.648324884 0.120345818409 0.0
0.0 3.649676116 0.120193507347 0.0
0.0 3.651027347 0.120035178114 0.0
0.0 3.652378579 0.11987580284 0.0
0.0 3.65372981 0.119715713502 0.0
0.0 3.655081042 0.119557186831 0.0
0.0 3.656432273 0.119403257243 0.0
0.0 3.657783504 0.119248312265 0.0
0.0 3.659134736 0.11908387499 0.0
0.0 3.660485967 0.11892977212 0.0
0.0 3.661837199 0.118777704338 0.0
0.0 3.66318843 0.118626314778 0.0
0.0 3.664539662 0.118474561316 0.0
0.0 3.665890893 0.118322451014 0.0
0.0 3.667242125 0.118170845302 0.0
0.0 3.668593356 0.118020616165 0.0
0.0 3.669944587 0.117875175701 0.0
0.0 3.671295819 0.117726885918 0.0
0.0 3.67264705 0.117579629237 0.0
0.0 3.673998282 0.117434575564 0.0
0.0 3.675349513 0.117287208356 0.0
0.0 3.676700745 0.117140901399 0.0
0.0 3.678051976 0.116991441606 0.0
0.0 3.679403208 0.116838301128 0.0
0.0 3.680754439 0.116685356806 0.0
0.0 3.68210567 0.116534968877 0.0
0.0 3.683456902 0.116388115675 0.0
0.0 3.684808133 0.116241576061 0.0
0.0 3.686159365 0.116095349575 0.0
0.0 3.687510596 0.115949437497 0.0
0.0 3.688861828 0.115803843684 0.0
0.0 3.690213059 0.115663803595 0.0
0.0 3.69156429 0.115524590559 0.0
0.0 3.692915522 0.115387258674 0.0
0.0 3.694266753 0.115245792702 0.0
0.0 3.695617985 0.115092813528 0.0
0.0 3.696969216 0.114944882316 0.0
0.0 3.698320448 0.114795850993 0.0
0.0 3.699671679 0.114650868372 0.0
0.0 3.701022911 0.114508412655 0.0
0.0 3.702374142 0.114365540387 0.0
0.0 3.703725373 0.114223394007 0.0
0.0 3.705076605 0.114081664379 0.0
0.0 3.706427836 0.113940297279 0.0
0.0 3.707779068 0.113801002051 0.0
0.0 3.709130299 0.113662088806 0.0
0.0 3.710481531 0.113521876837 0.0
0.0 3.711832762 0.113386214988 0.0
0.0 3.713183993 0.113249114928 0.0
0.0 3.714535225 0.113112610476 0.0
0.0 3.715886456 0.11298139451 0.0
0.0 3.717237688 0.112849233428 0.0
0.0 3.718588919 0.112711623105 0.0
0.0 3.719940151 0.112571618601 0.0
0.0 3.721291382 0.112434419496 0.0
0.0 3.722642614 0.112301260035 0.0
0.0 3.723993845 0.112167605457 0.0
0.0 3.725345076 0.112029172952 0.0
0.0 3.726696308 0.11188767251 0.0
0.0 3.728047539 0.111747380141 0.0
0.0 3.729398771 0.111610825311 0.0
0.0 3.730750002 0.111475315103 0.0
0.0 3.732101234 0.111338099856 0.0
0.0 3.733452465 0.111202231644 0.0
0.0 3.734803696 0.111068662849 0.0
0.0 3.736154928 0.110935238112 0.0
0.0 3.737506159 0.110803174904 0.0
0.0 3.738857391 0.110671927683 0.0
0.0 3.740208622 0.110537458989 0.0
0.0 3.741559854 0.11039973562 0.0
0.0 3.742911085 0.110262661559 0.0
0.0 3.744262317 0.110126137739 0.0
0.0 3.745613548 0.109990651859 0.0
0.0 3.746964779 0.109858792082 0.0
0.0 3.748316011 0.109730793649 0.0
0.0 3.749667242 0.109604820306 0.0
0.0 3.751018474 0.109476190356 0.0
0.0 3.752369705 0.10934317097 0.0
0.0 3.753720937 0.109211998133 0.0
0.0 3.755072168 0.109083231015 0.0
0.0 3.7564234 0.108955490773 0.0
0.0 3.757774631 0.108826203618 0.0
0.0 3.759125862 0.108698919512 0.0
0.0 3.760477094 0.108572975736 0.0
0.0 3.761828325 0.108444606235 0.0
0.0 3.763179557 0.108315019294 0.0
0.0 3.764530788 0.108188353605 0.0
0.0 3.76588202 0.108063662345 0.0
0.0 3.767233251 0.107938013883 0.0
0.0 3.768584482 0.107812095159 0.0
0.0 3.769935714 0.107685379764 0.0
0.0 3.771286945 0.107560972808 0.0
0.0 3.772638177 0.107437066197 0.0
0.0 3.773989408 0.107316128438 0.0
0.0 3.77534064 0.107192885754 0.0
0.0 3.776691871 0.107067937775 0.0
0.0 3.778043103 0.106945003364 0.0
0.0 3.779394334 0.106823720868 0.0
0.0 3.780745565 0.106703090174 0.0
0.0 3.782096797 0.106580639753 0.0
0.0 3.783448028 0.10645964224 0.0
0.0 3.78479926 0.106339015325 0.0
0.0 3.786150491 0.106219125689 0.0
0.0 3.787501723 0.10609913087 0.0
0.0 3.788852954 0.105979542293 0.0
0.0 3.790204185 0.105860573211 0.0
0.0 3.791555417 0.105742052264 0.0
0.0 3.792906648 0.105623937938 0.0
0.0 3.79425788 0.105509103566 0.0
0.0 3.795609111 0.105393921141 0.0
0.0 3.796960343 0.105275932069 0.0
0.0 3.798311574 0.105159408186 0.0
0.0 3.799662806 0.105044133747 0.0
0.0 3.801014037 0.10492881327 0.0
0.0 3.802365268 0.104812225983 0.0
0.0 3.8037165 0.104694104775 0.0
0.0 3.805067731 0.104578863474 0.0
0.0 3.806418963 0.104464768768 0.0
0.0 3.807770194 0.104351083963 0.0
0.0 3.809121426 0.104238197441 0.0
0.0 3.810472657 0.104125110127 0.0
0.0 3.811823889 0.104012815251 0.0
0.0 3.81317512 0.103902619573 0.0
0.0 3.814526351 0.103791325944 0.0
0.0 3.815877583 0.103678404531 0.0
0.0 3.817228814 0.103566843174 0.0
0.0 3.818580046 0.103456507978 0.0
0.0 3.819931277 0.103348282236 0.0
0.0 3.821282509 0.103242698579 0.0
0.0 3.82263374 0.10313456677 0.0
0.0 3.823984971 0.103024376545 0.0
0.0 3.825336203 0.102916902593 0.0
0.0 3.826687434 0.102809521298 0.0
0.0 3.828038666 0.10269865938 0.0
0.0 3.829389897 0.10259077607 0.0
0.0 3.830741129 0.102486150603 0.0
0.0 3.83209236 0.102381782273 0.0
0.0 3.833443592 0.102276205804 0.0
0.0 3.834794823 0.1021701437 0.0
0.0 3.836146054 0.102064129302 0.0
0.0 3.837497286 0.101959973563 0.0
0.0 3.838848517 0.101856040163 0.0
0.0 3.840199749 0.10175093753 0.0
0.0 3.84155098 0.101648470176 0.0
0.0 3.842902212 0.101544024308 0.0
0.0 3.844253443 0.101440815935 0.0
0.0 3.845604674 0.10133915856 0.0
0.0 3.846955906 0.101238245965 0.0
0.0 3.848307137 0.101138074764 0.0
0.0 3.849658369 0.10103758775 0.0
0.0 3.8510096 0.100937104702 0.0
0.0 3.852360832 0.100837116654 0.0
0.0 3.853712063 0.100738902971 0.0
0.0 3.855063295 0.100638734518 0.0
0.0 3.856414526 0.100543537266 0.0
0.0 3.857765757 0.10044614033 0.0
0.0 3.859116989 0.100347817376 0.0
0.0 3.86046822 0.100249099803 0.0
0.0 3.861819452 0.100151141233 0.0
0.0 3.863170683 0.100055317719 0.0
0.0 3.864521915 0.0999595815475 0.0
0.0 3.865873146 0.099865213621 0.0
0.0 3.867224377 0.0997759327609 0.0
0.0 3.868575609 0.0996820313609 0.0
0.0 3.86992684 0.0995873054288 0.0
0.0 3.871278072 0.0994941915572 0.0
0.0 3.872629303 0.0994006413055 0.0
0.0 3.873980535 0.0993070968457 0.0
0.0 3.875331766 0.0992134057558 0.0
0.0 3.876682998 0.0991204258061 0.0
0.0 3.878034229 0.0990293619084 0.0
0.0 3.87938546 0.0989412358321 0.0
0.0 3.880736692 0.098852861668 0.0
0.0 3.882087923 0.0987622155429 0.0
0.0 3.883439155 0.0986721041295 0.0
0.0 3.884790386 0.098583745939 0.0
0.0 3.886141618 0.0984946961865 0.0
0.0 3.887492849 0.098405582682 0.0
0.0 3.888844081 0.0983183621229 0.0
0.0 3.890195312 0.0982317117807 0.0
0.0 3.891546543 0.098147974085 0.0
0.0 3.892897775 0.0980623198279 0.0
0.0 3.894249006 0.0979747953836 0.0
0.0 3.895600238 0.0978903570813 0.0
0.0 3.896951469 0.0978066411908 0.0
0.0 3.898302701 0.0977227076367 0.0
0.0 3.899653932 0.0976386000224 0.0
0.0 3.901005163 0.09755815667 0.0
0.0 3.902356395 0.097478583238 0.0
0.0 3.903707626 0.0973969593008 0.0
0.0 3.905058858 0.0973129114905 0.0
0.0 3.906410089 0.0972339900829 0.0
0.0 3.907761321 0.0971537398356 0.0
0.0 3.909112552 0.097072286237 0.0
0.0 3.910463784 0.0969921081631 0.0
0.0 3.911815015 0.0969132653629 0.0
0.0 3.913166246 0.0968313733797 0.0
0.0 3.914517478 0.0967525786482 0.0
0.0 3.915868709 0.0966750436284 0.0
0.0 3.917219941 0.0965980034458 0.0
0.0 3.918571172 0.0965220722748 0.0
0.0 3.919922404 0.0964468775454 0.0
0.0 3.921273635 0.0963728230246 0.0
0.0 3.922624866 0.0962980049871 0.0
0.0 3.923976098 0.0962229141575 0.0
0.0 3.925327329 0.0961503669263 0.0
0.0 3.926678561 0.0960787415703 0.0
0.0 3.928029792 0.0960042667537 0.0
0.0 3.929381024 0.0959302728327 0.0
0.0 3.930732255 0.0958608262671 0.0
0.0 3.932083487 0.0957894821016 0.0
0.0 3.933434718 0.0957158400804 0.0
0.0 3.934785949 0.0956424219366 0.0
0.0 3.936137181 0.0955725708701 0.0
0.0 3.937488412 0.0955037209238 0.0
0.0 3.938839644 0.0954362886222 0.0
0.0 3.940190875 0.0953686858717 0.0
0.0 3.941542107 0.0953028978323 0.0
0.0 3.942893338 0.0952397368019 0.0
0.0 3.944244569 0.0951754577075 0.0
0.0 3.945595801 0.0951073862514 0.0
0.0 3.946947032 0.0950411807682 0.0
0.0 3.948298264 0.0949780996378 0.0
0.0 3.949649495 0.0949131083412 0.0
0.0 3.951000727 0.0948434429718 0.0
0.0 3.952351958 0.0947735809913 0.0
0.0 3.95370319 0.0947096637674 0.0
0.0 3.955054421 0.0946462663871 0.0
0.0 3.956405652 0.0945842053149 0.0
0.0 3.957756884 0.0945221954406 0.0
0.0 3.959108115 0.0944610240508 0.0
0.0 3.960459347 0.0944012286504 0.0
0.0 3.961810578 0.0943426866634 0.0
0.0 3.96316181 0.0942817490883 0.0
0.0 3.964513041 0.0942222124255 0.0
0.0 3.965864273 0.094169403797 0.0
0.0 3.967215504 0.0941090147787 0.0
0.0 3.968566735 0.0940483847856 0.0
0.0 3.969917967 0.093990815797 0.0
0.0 3.971269198 0.0939344939745 0.0
0.0 3.97262043 0.0938788908439 0.0
0.0 3.973971661 0.0938238197574 0.0
0.0 3.975322893 0.0937690570794 0.0
0.0 3.976674124 0.0937151980722 0.0
0.0 3.978025355 0.0936625492046 0.0
0.0 3.979376587 0.0936120367117 0.0
0.0 3.980727818 0.0935597694844 0.0
0.0 3.98207905 0.0935073585185 0.0
0.0 3.983430281 0.0934542521111 0.0
0.0 3.984781513 0.0934025368994 0.0
0.0 3.986132744 0.0933523772232 0.0
0.0 3.987483976 0.0933004473512 0.0
0.0 3.988835207 0.0932513052925 0.0
0.0 3.990186438 0.0932022358145 0.0
0.0 3.99153767 0.0931540213099 0.0
0.0 3.992888901 0.0931063931294 0.0
0.0 3.994240133 0.093060951402 0.0
0.0 3.995591364 0.0930162943816 0.0
0.0 3.996942596 0.0929714259006 0.0
0.0 3.998293827 0.0929265557066 0.0
0.0 3.999645058 0.0928830509595 0.0
0.0 4.00099629 0.0928414383003 0.0
0.0 4.002347521 0.0927951370327 0.0
0.0 4.003698753 0.0927497511763 0.0
0.0 4.005049984 0.0927057843106 0.0
0.0 4.006401216 0.0926634752976 0.0
0.0 4.007752447 0.092622017949 0.0
0.0 4.009103679 0.0925815143417 0.0
0.0 4.01045491 0.0925443285027 0.0
0.0 4.011806141 0.0925080763948 0.0
0.0 4.013157373 0.0924695168865 0.0
0.0 4.014508604 0.0924270174062 0.0
0.0 4.015859836 0.092385793366 0.0
0.0 4.017211067 0.0923473728197 0.0
0.0 4.018562299 0.0923083238402 0.0
0.0 4.01991353 0.0922718468052 0.0
0.0 4.021264761 0.0922361508828 0.0
0.0 4.022615993 0.0922055760974 0.0
0.0 4.023967224 0.0921738270225 0.0
0.0 4.025318456 0.0921363340201 0.0
0.0 4.026669687 0.0921009395779 0.0
0.0 4.028020919 0.0920686884109 0.0
0.0 4.02937215 0.0920381584909 0.0
0.0 4.030723382 0.0920088966007 0.0
0.0 4.032074613 0.0919805458693 0.0
0.0 4.033425844 0.0919490112495 0.0
0.0 4.034777076 0.0919167818987 0.0
0.0 4.036128307 0.0918881029396 0.0
0.0 4.037479539 0.091859533806 0.0
0.0 4.03883077 0.0918295185829 0.0
0.0 4.040182002 0.0918061618769 0.0
0.0 4.041533233 0.0917814499461 0.0
0.0 4.042884465 0.0917557497741 0.0
0.0 4.044235696 0.0917301451541 0.0
0.0 4.045586927 0.0917052248098 0.0
0.0 4.046938159 0.0916782147716 0.0
0.0 4.04828939 0.0916527905081 0.0
0.0 4.049640622 0.0916325807613 0.0
0.0 4.050991853 0.091611812259 0.0
0.0 4.052343085 0.0915902204999 0.0
0.0 4.053694316 0.0915688452383 0.0
0.0 4.055045547 0.0915452591987 0.0
0.0 4.056396779 0.0915218281646 0.0
0.0 4.05774801 0.0915037093927 0.0
0.0 4.059099242 0.0914859433429 0.0
0.0 4.060450473 0.091466109795 0.0
0.0 4.061801705 0.0914461117378 0.0
0.0 4.063152936 0.0914306590843 0.0
0.0 4.064504168 0.0914155677311 0.0
0.0 4.065855399 0.0913994754483 0.0
0.0 4.06720663 0.0913842941357 0.0
0.0 4.068557862 0.0913677383279 0.0
0.0 4.069909093 0.0913504889261 0.0
0.0 4.071260325 0.0913348430897 0.0
0.0 4.072611556 0.0913235114032 0.0
0.0 4.073962788 0.0913136815695 0.0
0.0 4.075314019 0.0913017254406 0.0
0.0 4.07666525 0.0912873768382 0.0
0.0 4.078016482 0.0912770853172 0.0
0.0 4.079367713 0.0912661565295 0.0
0.0 4.080718945 0.0912605904577 0.0
0.0 4.082070176 0.091256828557 0.0
0.0 4.083421408 0.0912511121709 0.0
0.0 4.084772639 0.0912451483816 0.0
0.0 4.086123871 0.0912387658155 0.0
0.0 4.087475102 0.091230900041 0.0
0.0 4.088826333 0.0912225587241 0.0
0.0 4.090177565 0.0912184455049 0.0
0.0 4.091528796 0.0912162941039 0.0
0.0 4.092880028 0.0912132801502 0.0
0.0 4.094231259 0.0912086635334 0.0
0.0 4.095582491 0.0912038340425 0.0
0.0 4.096933722 0.0911983946013 0.0
0.0 4.098284953 0.0911939247612 0.0
0.0 4.099636185 0.0911931450904 0.0
0.0 4.100987416 0.0911910807429 0.0
0.0 4.102338648 0.0911910024294 0.0
0.0 4.103689879 0.091190233909 0.0
0.0 4.105041111 0.0911908629322 0.0
0.0 4.106392342 0.0911933267982 0.0
0.0 4.107743574 0.0911969423914 0.0
0.0 4.109094805 0.0912035129192 0.0
0.0 4.110446036 0.0912143444201 0.0
0.0 4.111797268 0.0912196753687 0.0
0.0 4.113148499 0.0912215871835 0.0
0.0 4.114499731 0.0912254816437 0.0
0.0 4.115850962 0.0912307773257 0.0
0.0 4.117202194 0.0912384798277 0.0
0.0 4.118553425 0.0912470538133 0.0
0.0 4.119904657 0.0912570875146 0.0
0.0 4.121255888 0.0912688353922 0.0
0.0 4.122607119 0.091281098793 0.0
0.0 4.123958351 0.091293834838 0.0
0.0 4.125309582 0.0913009024729 0.0
0.0 4.126660814 0.0913123467706 0.0
0.0 4.128012045 0.0913254183809 0.0
0.0 4.129363277 0.0913392533777 0.0
0.0 4.130714508 0.0913537511108 0.0
0.0 4.132065739 0.0913689126546 0.0
0.0 4.133416971 0.0913847390813 0.0
0.0 4.134768202 0.0914012366859 0.0
0.0 4.136119434 0.0914191376732 0.0
0.0 4.137470665 0.091437845788 0.0
0.0 4.138821897 0.0914552434502 0.0
0.0 4.140173128 0.0914739037337 0.0
0.0 4.14152436 0.0914937286841 0.0
0.0 4.142875591 0.0915144866856 0.0
0.0 4.144226822 0.0915376753648 0.0
0.0 4.145578054 0.0915625966875 0.0
0.0 4.146929285 0.0915868538067 0.0
0.0 4.148280517 0.0916121878762 0.0
0.0 4.149631748 0.0916341801868 0.0
0.0 4.15098298 0.0916545568074 0.0
0.0 4.152334211 0.0916776808449 0.0
0.0 4.153685442 0.0917036038765 0.0
0.0 4.155036674 0.0917310969316 0.0
0.0 4.156387905 0.0917607453151 0.0
0.0 4.157739137 0.0917889741307 0.0
0.0 4.159090368 0.0918139796824 0.0
0.0 4.1604416 0.091843041159 0.0
0.0 4.161792831 0.0918753934073 0.0
0.0 4.163144063 0.0919100094762 0.0
0.0 4.164495294 0.0919429937095 0.0
0.0 4.165846525 0.0919806844621 0.0
0.0 4.167197757 0.0920202343608 0.0
0.0 4.168548988 0.0920547478254 0.0
0.0 4.16990022 0.0920848149389 0.0
0.0 4.171251451 0.0921153708889 0.0
0.0 4.172602683 0.0921496628535 0.0
0.0 4.173953914 0.0921880534374 0.0
0.0 4.175305146 0.0922285413355 0.0
0.0 4.176656377 0.0922669622526 0.0
0.0 4.178007608 0.0923037341329 0.0
0.0 4.17935884 0.0923370651572 0.0
0.0 4.180710071 0.0923742160978 0.0
0.0 4.182061303 0.092412866622 0.0
0.0 4.183412534 0.0924515047023 0.0
0.0 4.184763766 0.0924915017318 0.0
0.0 4.186114997 0.0925347355821 0.0
0.0 4.187466228 0.092577745908 0.0
0.0 4.18881746 0.092622091396 0.0
0.0 4.190168691 0.092669463598 0.0
0.0 4.191519923 0.0927218135017 0.0
0.0 4.192871154 0.0927711492752 0.0
0.0 4.194222386 0.0928167999811 0.0
0.0 4.195573617 0.0928635820723 0.0
0.0 4.196924849 0.0929107623768 0.0
0.0 4.19827608 0.0929583654393 0.0
0.0 4.199627311 0.0930080222526 0.0
0.0 4.200978543 0.0930602379347 0.0
0.0 4.202329774 0.0931096222552 0.0
0.0 4.203681006 0.0931583946633 0.0
0.0 4.205032237 0.0932088277325 0.0
0.0 4.206383469 0.093262594937 0.0
0.0 4.2077347 0.0933153816502 0.0
0.0 4.209085931 0.0933701715526 0.0
0.0 4.210437163 0.0934272090509 0.0
0.0 4.211788394 0.0934855721614 0.0
0.0 4.213139626 0.0935414951796 0.0
0.0 4.214490857 0.0935980081586 0.0
0.0 4.215842089 0.093658539026 0.0
0.0 4.21719332 0.0937184818387 0.0
0.0 4.218544552 0.0937779011967 0.0
0.0 4.219895783 0.0938383910056 0.0
0.0 4.221247014 0.0938980440499 0.0
0.0 4.222598246 0.0939581334171 0.0
0.0 4.223949477 0.0940205505616 0.0
0.0 4.225300709 0.0940877862628 0.0
0.0 4.22665194 0.094153950769 0.0
0.0 4.228003172 0.0942190648716 0.0
0.0 4.229354403 0.0942845037548 0.0
0.0 4.230705634 0.0943501624177 0.0
0.0 4.232056866 0.0944167922247 0.0
0.0 4.233408097 0.0944852824027 0.0
0.0 4.234759329 0.0945537117706 0.0
0.0 4.23611056 0.0946205331551 0.0
0.0 4.237461792 0.0946866542952 0.0
0.0 4.238813023 0.0947550816735 0.0
0.0 4.240164255 0.0948272825862 0.0
0.0 4.241515486 0.0949044759007 0.0
0.0 4.242866717 0.094978163378 0.0
0.0 4.244217949 0.0950531177334 0.0
0.0 4.24556918 0.095131883966 0.0
0.0 4.246920412 0.0952094671495 0.0
0.0 4.248271643 0.0952849023867 0.0
0.0 4.249622875 0.0953626425337 0.0
0.0 4.250974106 0.0954427578279 0.0
0.0 4.252325338 0.0955232069147 0.0
0.0 4.253676569 0.0956033402533 0.0
0.0 4.2550278 0.0956849892488 0.0
0.0 4.256379032 0.0957667523257 0.0
0.0 4.257730263 0.0958466114547 0.0
0.0 4.259081495 0.0959292707778 0.0
0.0 4.260432726 0.0960147819966 0.0
0.0 4.261783958 0.0961006244994 0.0
0.0 4.263135189 0.0961828086584 0.0
0.0 4.26448642 0.0962668301407 0.0
0.0 4.265837652 0.0963517549227 0.0
0.0 4.267188883 0.0964354802293 0.0
0.0 4.268540115 0.0965185305655 0.0
0.0 4.269891346 0.0966091468177 0.0
0.0 4.271242578 0.0967024404843 0.0
0.0 4.272593809 0.0967941135766 0.0
0.0 4.273945041 0.096880973907 0.0
0.0 4.275296272 0.0969706697737 0.0
0.0 4.276647503 0.0970613137088 0.0
0.0 4.277998735 0.0971530941488 0.0
0.0 4.279349966 0.0972459765824 0.0
0.0 4.280701198 0.0973437422027 0.0
0.0 4.282052429 0.0974419977091 0.0
0.0 4.283403661 0.0975396242191 0.0
0.0 4.284754892 0.0976356502177 0.0
0.0 4.286106123 0.0977307157441 0.0
0.0 4.287457355 0.0978274450859 0.0
0.0 4.288808586 0.0979265345866 0.0
0.0 4.290159818 0.0980311224556 0.0
0.0 4.291511049 0.0981360193149 0.0
0.0 4.292862281 0.0982360571274 0.0
0.0 4.294213512 0.0983362129897 0.0
0.0 4.295564744 0.0984390014451 0.0
0.0 4.296915975 0.0985458306868 0.0
0.0 4.298267206 0.0986510804735 0.0
0.0 4.299618438 0.098757189791 0.0
0.0 4.300969669 0.0988649305941 0.0
0.0 4.302320901 0.0989729987559 0.0
0.0 4.303672132 0.0990804772989 0.0
0.0 4.305023364 0.0991901645714 0.0
0.0 4.306374595 0.0993012462856 0.0
0.0 4.307725826 0.0994095930101 0.0
0.0 4.309077058 0.099515408234 0.0
0.0 4.310428289 0.0996281221208 0.0
0.0 4.311779521 0.0997435684088 0.0
0.0 4.313130752 0.0998588867953 0.0
0.0 4.314481984 0.0999732261739 0.0
0.0 4.315833215 0.100090730374 0.0
0.0 4.317184447 0.100211248705 0.0
0.0 4.318535678 0.100328416931 0.0
0.0 4.319886909 0.100442178396 0.0
0.0 4.321238141 0.100559768638 0.0
0.0 4.322589372 0.100680620877 0.0
0.0 4.323940604 0.100803445478 0.0
0.0 4.325291835 0.100928469822 0.0
0.0 4.326643067 0.10105437046 0.0
0.0 4.327994298 0.101179009932 0.0
0.0 4.32934553 0.101298707804 0.0
0.0 4.330696761 0.101421724262 0.0
0.0 4.332047992 0.1015496127 0.0
0.0 4.333399224 0.101680867947 0.0
0.0 4.334750455 0.101809495636 0.0
0.0 4.336101687 0.10193630453 0.0
0.0 4.337452918 0.102063143739 0.0
0.0 4.33880415 0.102190099273 0.0
0.0 4.340155381 0.102316979004 0.0
0.0 4.341506612 0.102448564943 0.0
0.0 4.342857844 0.102580809514 0.0
0.0 4.344209075 0.102712525561 0.0
0.0 4.345560307 0.102842382212 0.0
0.0 4.346911538 0.102977161729 0.0
0.0 4.34826277 0.103112499343 0.0
0.0 4.349614001 0.103246854302 0.0
0.0 4.350965233 0.103379119654 0.0
0.0 4.352316464 0.103516291634 0.0
0.0 4.353667695 0.103654081139 0.0
0.0 4.355018927 0.103791401303 0.0
0.0 4.356370158 0.103929887107 0.0
0.0 4.35772139 0.104073771171 0.0
0.0 4.359072621 0.104218118689 0.0
0.0 4.360423853 0.104358976337 0.0
0.0 4.361775084 0.104495905512 0.0
0.0 4.363126315 0.104637972659 0.0
0.0 4.364477547 0.10478346532 0.0
0.0 4.365828778 0.104928832837 0.0
0.0 4.36718001 0.10507336879 0.0
0.0 4.368531241 0.105221050429 0.0
0.0 4.369882473 0.10536994256 0.0
0.0 4.371233704 0.105517265593 0.0
0.0 4.372584936 0.105666107712 0.0
0.0 4.373936167 0.105816711305 0.0
0.0 4.375287398 0.105968718467 0.0
0.0 4.37663863 0.106119756489 0.0
0.0 4.377989861 0.106272899373 0.0
0.0 4.379341093 0.106427707436 0.0
0.0 4.380692324 0.106584304912 0.0
0.0 4.382043556 0.106739543383 0.0
0.0 4.383394787 0.106896212628 0.0
0.0 4.384746018 0.107057043446 0.0
0.0 4.38609725 0.10721493364 0.0
0.0 4.387448481 0.107370200928 0.0
0.0 4.388799713 0.107531513701 0.0
0.0 4.390150944 0.107696572446 0.0
0.0 4.391502176 0.107859514973 0.0
0.0 4.392853407 0.108018983304 0.0
0.0 4.394204639 0.108181448351 0.0
0.0 4.39555587 0.10834660423 0.0
0.0 4.396907101 0.108514576976 0.0
0.0 4.398258333 0.108682679569 0.0
0.0 4.399609564 0.108851951166 0.0
0.0 4.400960796 0.109023633742 0.0
0.0 4.402312027 0.109192752886 0.0
0.0 4.403663259 0.109361390712 0.0
0.0 4.40501449 0.109530824117 0.0
0.0 4.406365722 0.109704905857 0.0
0.0 4.407716953 0.109878593817 0.0
0.0 4.409068184 0.110052717991 0.0
0.0 4.410419416 0.110225671774 0.0
0.0 4.411770647 0.110402135334 0.0
0.0 4.413121879 0.110578169067 0.0
0.0 4.41447311 0.110754159096 0.0
0.0 4.415824342 0.110932116883 0.0
0.0 4.417175573 0.111114653466 0.0
0.0 4.418526804 0.111299494281 0.0
0.0 4.419878036 0.111482986003 0.0
0.0 4.421229267 0.111669917952 0.0
0.0 4.422580499 0.111858449384 0.0
0.0 4.42393173 0.112046661616 0.0
0.0 4.425282962 0.112228407837 0.0
0.0 4.426634193 0.112414690403 0.0
0.0 4.427985425 0.112605419375 0.0
0.0 4.429336656 0.112796543308 0.0
0.0 4.430687887 0.112973498058 0.0
0.0 4.432039119 0.113159158898 0.0
0.0 4.43339035 0.113349675426 0.0
0.0 4.434741582 0.113546342305 0.0
0.0 4.436092813 0.113740081999 0.0
0.0 4.437444045 0.11393634219 0.0
0.0 4.438795276 0.11413931115 0.0
0.0 4.440146507 0.114340644026 0.0
0.0 4.441497739 0.114539073353 0.0
0.0 4.44284897 0.114735419544 0.0
0.0 4.444200202 0.114937987454 0.0
0.0 4.445551433 0.11513641225 0.0
0.0 4.446902665 0.115332843052 0.0
0.0 4.448253896 0.115527836016 0.0
0.0 4.449605128 0.115734629548 0.0
0.0 4.450956359 0.115940914275 0.0
0.0 4.45230759 0.116145695834 0.0
0.0 4.453658822 0.116350662945 0.0
0.0 4.455010053 0.116560697724 0.0
0.0 4.456361285 0.11677072856 0.0
0.0 4.457712516 0.116972239455 0.0
0.0 4.459063748 0.117178227568 0.0
0.0 4.460414979 0.117391593042 0.0
0.0 4.461766211 0.117614978814 0.0
0.0 4.463117442 0.11782828621 0.0
0.0 4.464468673 0.118041552285 0.0
0.0 4.465819905 0.118255568727 0.0
0.0 4.467171136 0.118473150287 0.0
0.0 4.468522368 0.11868429566 0.0
0.0 4.469873599 0.118897149847 0.0
0.0 4.471224831 0.1191176069 0.0
0.0 4.472576062 0.119342373904 0.0
0.0 4.473927293 0.119562568119 0.0
0.0 4.475278525 0.119777240715 0.0
0.0 4.476629756 0.120004688038 0.0
0.0 4.477980988 0.120235259766 0.0
0.0 4.479332219 0.120465508053 0.0
0.0 4.480683451 0.120682548085 0.0
0.0 4.482034682 0.120906944506 0.0
0.0 4.483385914 0.121136152094 0.0
0.0 4.484737145 0.121369974712 0.0
0.0 4.486088376 0.121598978982 0.0
0.0 4.487439608 0.121833135316 0.0
0.0 4.488790839 0.122075307381 0.0
0.0 4.490142071 0.122316053552 0.0
0.0 4.491493302 0.122553439271 0.0
0.0 4.492844534 0.1227889774 0.0
0.0 4.494195765 0.123031535994 0.0
0.0 4.495546996 0.123268387224 0.0
0.0 4.496898228 0.123502669406 0.0
0.0 4.498249459 0.123736768304 0.0
0.0 4.499600691 0.123984650792 0.0
0.0 4.500951922 0.124233817597 0.0
0.0 4.502303154 0.124477575304 0.0
0.0 4.503654385 0.124720621102 0.0
0.0 4.505005617 0.12497014484 0.0
0.0 4.506356848 0.125227661463 0.0
0.0 4.507708079 0.1254737271 0.0
0.0 4.509059311 0.125722646571 0.0
0.0 4.510410542 0.125975672135 0.0
0.0 4.511761774 0.126242476596 0.0
0.0 4.513113005 0.126502747204 0.0
0.0 4.514464237 0.126760724035 0.0
0.0 4.515815468 0.127022970071 0.0
0.0 4.517166699 0.127290963441 0.0
0.0 4.518517931 0.127557205805 0.0
0.0 4.519869162 0.127812602198 0.0
0.0 4.521220394 0.128076259421 0.0
0.0 4.522571625 0.128345472976 0.0
0.0 4.523922857 0.128621058351 0.0
0.0 4.525274088 0.128886687584 0.0
0.0 4.52662532 0.129158175462 0.0
0.0 4.527976551 0.129438238327 0.0
0.0 4.529327782 0.129721159604 0.0
0.0 4.530679014 0.129999476188 0.0
0.0 4.532030245 0.130274400106 0.0
0.0 4.533381477 0.130566400241 0.0
0.0 4.534732708 0.130857865131 0.0
0.0 4.53608394 0.131147466046 0.0
0.0 4.537435171 0.131425232378 0.0
0.0 4.538786403 0.131716808097 0.0
0.0 4.540137634 0.132016710505 0.0
0.0 4.541488865 0.132317323964 0.0
0.0 4.542840097 0.132615158369 0.0
0.0 4.544191328 0.132917743607 0.0
0.0 4.54554256 0.133237760516 0.0
0.0 4.546893791 0.133553737868 0.0
0.0 4.548245023 0.133868377615 0.0
0.0 4.549596254 0.134180588151 0.0
0.0 4.550947485 0.13450839937 0.0
0.0 4.552298717 0.13483812782 0.0
0.0 4.553649948 0.135161787235 0.0
0.0 4.55500118 0.135488373144 0.0
0.0 4.556352411 0.135824254635 0.0
0.0 4.557703643 0.136174383952 0.0
0.0 4.559054874 0.136513048946 0.0
0.0 4.560406106 0.136855881806 0.0
0.0 4.561757337 0.137207363679 0.0
0.0 4.563108568 0.137577603601 0.0
0.0 4.5644598 0.137946097514 0.0
0.0 4.565811031 0.138309169515 0.0
0.0 4.567162263 0.138687754114 0.0
0.0 4.568513494 0.139077141134 0.0
0.0 4.569864726 0.139478423024 0.0
0.0 4.571215957 0.139864081464 0.0
0.0 4.572567188 0.140265039788 0.0
0.0 4.57391842 0.140679964721 0.0
0.0 4.575269651 0.141110767697 0.0
0.0 4.576620883 0.141537592247 0.0
0.0 4.577972114 0.141959261131 0.0
0.0 4.579323346 0.142409223621 0.0
0.0 4.580674577 0.142872208061 0.0
0.0 4.582025809 0.143348791805 0.0
0.0 4.58337704 0.143818395365 0.0
0.0 4.584728271 0.144311738565 0.0
0.0 4.586079503 0.144830623437 0.0
0.0 4.587430734 0.145362372487 0.0
0.0 4.588781966 0.145899140287 0.0
0.0 4.590133197 0.146440898648 0.0
0.0 4.591484429 0.147024144883 0.0
0.0 4.59283566 0.147621030596 0.0
0.0 4.594186891 0.148231914125 0.0
0.0 4.595538123 0.148853641042 0.0
0.0 4.596889354 0.149512625736 0.0
0.0 4.598240586 0.150213715447 0.0
0.0 4.599591817 0.150926492452 0.0
0.0 4.600943049 0.151660700363 0.0
0.0 4.60229428 0.152416940648 0.0
0.0 4.603645512 0.153235346094 0.0
0.0 4.604996743 0.154080728222 0.0
0.0 4.606347974 0.154950711074 0.0
0.0 4.607699206 0.155862803634 0.0
0.0 4.609050437 0.156830842952 0.0
0.0 4.610401669 0.157867322003 0.0
0.0 4.6117529 0.158934350188 0.0
0.0 4.613104132 0.160053823977 0.0
0.0 4.614455363 0.161234954368 0.0
0.0 4.615806595 0.162507161051 0.0
0.0 4.617157826 0.163842005802 0.0
0.0 4.618509057 0.165229858049 0.0
0.0 4.619860289 0.166714623856 0.0
0.0 4.62121152 0.168295291094 0.0
0.0 4.622562752 0.169995364712 0.0
0.0 4.623913983 0.171777493064 0.0
0.0 4.625265215 0.173667631859 0.0
0.0 4.626616446 0.175701293342 0.0
0.0 4.627967677 0.177886380072 0.0
0.0 4.629318909 0.180214482687 0.0
0.0 4.63067014 0.182672033218 0.0
0.0 4.632021372 0.185322577117 0.0
0.0 4.633372603 0.188169375838 0.0
0.0 4.634723835 0.191237403622 0.0
0.0 4.636075066 0.194500937962 0.0
0.0 4.637426298 0.197981021221 0.0
0.0 4.638777529 0.201762747824 0.0
0.0 4.64012876 0.205820505583 0.0
0.0 4.641479992 0.210175362823 0.0
0.0 4.642831223 0.214812446333 0.0
0.0 4.644182455 0.219805293296 0.0
0.0 4.645533686 0.225191317811 0.0
0.0 4.646884918 0.230968209051 0.0
0.0 4.648236149 0.237146153587 0.0
0.0 4.64958738 0.243740874385 0.0
0.0 4.650938612 0.250836426059 0.0
0.0 4.652289843 0.258542321486 0.0
0.0 4.653641075 0.266641724573 0.0
0.0 4.654992306 0.27522293812 0.0
0.0 4.656343538 0.28436118547 0.0
0.0 4.657694769 0.294071275147 0.0
0.0 4.659046001 0.304305420729 0.0
0.0 4.660397232 0.315125314945 0.0
0.0 4.661748463 0.326371099369 0.0
0.0 4.663099695 0.338175642951 0.0
0.0 4.664450926 0.350588591284 0.0
0.0 4.665802158 0.363232135786 0.0
0.0 4.667153389 0.376348974992 0.0
0.0 4.668504621 0.389849748355 0.0
0.0 4.669855852 0.403437773439 0.0
0.0 4.671207083 0.417350656932 0.0
0.0 4.672558315 0.431297513477 0.0
0.0 4.673909546 0.445026502227 0.0
0.0 4.675260778 0.458860544642 0.0
0.0 4.676612009 0.4723104929 0.0
0.0 4.677963241 0.485356513544 0.0
0.0 4.679314472 0.498239786946 0.0
0.0 4.680665704 0.510151808653 0.0
0.0 4.682016935 0.521639060524 0.0
0.0 4.683368166 0.53273574737 0.0
0.0 4.684719398 0.542580268784 0.0
0.0 4.686070629 0.551983646358 0.0
0.0 4.687421861 0.560641300188 0.0
0.0 4.688773092 0.568288203106 0.0
0.0 4.690124324 0.575464991786 0.0
0.0 4.691475555 0.581736860083 0.0
0.0 4.692826787 0.58722395858 0.0
0.0 4.694178018 0.592257143949 0.0
0.0 4.695529249 0.596420160473 0.0
0.0 4.696880481 0.600095901001 0.0
0.0 4.698231712 0.603855378441 0.0
0.0 4.699582944 0.606338422929 0.0
0.0 4.700934175 0.608561090225 0.0
0.0 4.702285407 0.61041197205 0.0
0.0 4.703636638 0.6118114772 0.0
0.0 4.704987869 0.613005621339 0.0
0.0 4.706339101 0.613862500455 0.0
0.0 4.707690332 0.614537746493 0.0
0.0 4.709041564 0.6151003949 0.0
0.0 4.710392795 0.615451677184 0.0
0.0 4.711744027 0.615749114826 0.0
0.0 4.713095258 0.615950026363 0.0
0.0 4.71444649 0.616081837379 0.0
0.0 4.715797721 0.616180809247 0.0
0.0 4.717148952 0.616223128008 0.0
0.0 4.718500184 0.616231723818 0.0
0.0 4.719851415 0.616233940097 0.0
0.0 4.721202647 0.616212076846 0.0
0.0 4.722553878 0.616179204498 0.0
0.0 4.72390511 0.616143892384 0.0
0.0 4.725256341 0.616112214264 0.0
0.0 4.726607572 0.616104535539 0.0
0.0 4.727958804 0.61613382055 0.0
0.0 4.729310035 0.616172818043 0.0
0.0 4.730661267 0.61622605343 0.0
0.0 4.732012498 0.616321684105 0.0
0.0 4.73336373 0.616472958841 0.0
0.0 4.734714961 0.617005143929 0.0
0.0 4.736066193 0.617347107961 0.0
0.0 4.737417424 0.617571265733 0.0
0.0 4.738768655 0.617823135067 0.0
0.0 4.740119887 0.618137650432 0.0
0.0 4.741471118 0.61847582011 0.0
0.0 4.74282235 0.61881884825 0.0
0.0 4.744173581 0.61917836482 0.0
0.0 4.745524813 0.619551030803 0.0
0.0 4.746876044 0.619953386116 0.0
0.0 4.748227276 0.620346221036 0.0
0.0 4.749578507 0.620716704003 0.0
0.0 4.750929738 0.621100760981 0.0
0.0 4.75228097 0.62149508077 0.0
0.0 4.753632201 0.621913107273 0.0
0.0 4.754983433 0.62231428456 0.0
0.0 4.756334664 0.622700714739 0.0
0.0 4.757685896 0.623110482891 0.0
0.0 4.759037127 0.623530211597 0.0
0.0 4.760388358 0.623966312653 0.0
0.0 4.76173959 0.624378269965 0.0
0.0 4.763090821 0.624761993379 0.0
0.0 4.764442053 0.625153877088 0.0
0.0 4.765793284 0.625544240402 0.0
0.0 4.767144516 0.62593157075 0.0
0.0 4.768495747 0.626275500509 0.0
0.0 4.769846979 0.626612535412 0.0
0.0 4.77119821 0.626952059233 0.0
0.0 4.772549441 0.627279582597 0.0
0.0 4.773900673 0.627597484378 0.0
0.0 4.775251904 0.627874013687 0.0
0.0 4.776603136 0.628155695855 0.0
0.0 4.777954367 0.628453715551 0.0
0.0 4.779305599 0.628740367128 0.0
0.0 4.78065683 0.629018025362 0.0
0.0 4.782008061 0.629270448215 0.0
0.0 4.783359293 0.629540124945 0.0
0.0 4.784710524 0.629831302968 0.0
0.0 4.786061756 0.630105070209 0.0
0.0 4.787412987 0.630372602333 0.0
0.0 4.788764219 0.630624610945 0.0
0.0 4.79011545 0.630895277835 0.0
0.0 4.791466682 0.631185790854 0.0
0.0 4.792817913 0.631446712573 0.0
0.0 4.794169144 0.631700098611 0.0
0.0 4.795520376 0.631940955883 0.0
0.0 4.796871607 0.632199600658 0.0
0.0 4.798222839 0.632471169959 0.0
0.0 4.79957407 0.632715486247 0.0
0.0 4.800925302 0.632966084305 0.0
0.0 4.802276533 0.633225653661 0.0
0.0 4.803627764 0.633510030735 0.0
0.0 4.804978996 0.633807200223 0.0
0.0 4.806330227 0.634078378885 0.0
0.0 4.807681459 0.634360305398 0.0
0.0 4.80903269 0.635128617928 0.0
0.0 4.810383922 0.635446992037 0.0
0.0 4.811735153 0.635766294781 0.0
0.0 4.813086385 0.636056204469 0.0
0.0 4.814437616 0.636361975804 0.0
0.0 4.815788847 0.636689358737 0.0
0.0 4.817140079 0.637036014445 0.0
0.0 4.81849131 0.637384116944 0.0
0.0 4.819842542 0.637693698706 0.0
0.0 4.821193773 0.638022524074 0.0
0.0 4.822545005 0.638365483365 0.0
0.0 4.823896236 0.638711582643 0.0
0.0 4.825247468 0.639053922705 0.0
0.0 4.826598699 0.639364816476 0.0
0.0 4.82794993 0.639700090666 0.0
0.0 4.829301162 0.640062324408 0.0
0.0 4.830652393 0.640432803158 0.0
0.0 4.832003625 0.640800486707 0.0
0.0 4.833354856 0.641144747514 0.0
0.0 4.834706088 0.641508490341 0.0
0.0 4.836057319 0.641893622952 0.0
0.0 4.83740855 0.642266280628 0.0
0.0 4.838759782 0.64263136413 0.0
0.0 4.840111013 0.642968077683 0.0
0.0 4.841462245 0.643321399254 0.0
0.0 4.842813476 0.643695843925 0.0
0.0 4.844164708 0.644048443762 0.0
0.0 4.845515939 0.644391931005 0.0
0.0 4.846867171 0.644710941813 0.0
0.0 4.848218402 0.645042989869 0.0
0.0 4.849569633 0.645391954352 0.0
0.0 4.850920865 0.645717917535 0.0
0.0 4.852272096 0.646035587581 0.0
0.0 4.853623328 0.646344300488 0.0
0.0 4.854974559 0.646667846258 0.0
0.0 4.856325791 0.64701580719 0.0
0.0 4.857677022 0.647336444127 0.0
0.0 4.859028253 0.647645716826 0.0
0.0 4.860379485 0.64795629421 0.0
0.0 4.861730716 0.648272645169 0.0
0.0 4.863081948 0.648603530422 0.0
0.0 4.864433179 0.648889662798 0.0
0.0 4.865784411 0.649152977184 0.0
0.0 4.867135642 0.64941547069 0.0
0.0 4.868486874 0.649682248191 0.0
0.0 4.869838105 0.649961166357 0.0
0.0 4.871189336 0.650198651554 0.0
0.0 4.872540568 0.650408308809 0.0
0.0 4.873891799 0.650626243525 0.0
0.0 4.875243031 0.650845776836 0.0
0.0 4.876594262 0.651346301351 0.0
0.0 4.877945494 0.651733829412 0.0
0.0 4.879296725 0.651739372246 0.0
0.0 4.880647956 0.651763080534 0.0
0.0 4.881999188 0.6517951713 0.0
0.0 4.883350419 0.651827766829 0.0
0.0 4.884701651 0.651842144226 0.0
0.0 4.886052882 0.651830313833 0.0
0.0 4.887404114 0.651843101888 0.0
0.0 4.888755345 0.651866542751 0.0
0.0 4.890106577 0.651867804371 0.0
0.0 4.891457808 0.651851176358 0.0
0.0 4.892809039 0.651794601037 0.0
0.0 4.894160271 0.651756607376 0.0
0.0 4.895511502 0.651732655909 0.0
0.0 4.896862734 0.651684167591 0.0
0.0 4.898213965 0.651626926292 0.0
0.0 4.899565197 0.651542718219 0.0
0.0 4.900916428 0.651480301394 0.0
0.0 4.90226766 0.65144508536 0.0
0.0 4.903618891 0.651388018067 0.0
0.0 4.904970122 0.65132214171 0.0
0.0 4.906321354 0.651238517179 0.0
0.0 4.907672585 0.651171233032 0.0
0.0 4.909023817 0.651143047224 0.0
0.0 4.910375048 0.651095113037 0.0
0.0 4.91172628 0.651032989939 0.0
0.0 4.913077511 0.650963716445 0.0
0.0 4.914428742 0.650897457708 0.0
0.0 4.915779974 0.650865425903 0.0
0.0 4.917131205 0.65081133472 0.0
0.0 4.918482437 0.65072565733 0.0
0.0 4.919833668 0.650646684133 0.0
0.0 4.9211849 0.650567624339 0.0
0.0 4.922536131 0.650529113863 0.0
0.0 4.923887363 0.650479986108 0.0
0.0 4.925238594 0.650387342213 0.0
0.0 4.926589825 0.650305995256 0.0
0.0 4.927941057 0.650236591138 0.0
0.0 4.929292288 0.650200578957 0.0
0.0 4.93064352 0.650173440715 0.0
0.0 4.931994751 0.650101913812 0.0
0.0 4.933345983 0.650042123187 0.0
0.0 4.934697214 0.650011208106 0.0
0.0 4.936048445 0.64999209353 0.0
0.0 4.937399677 0.649982795885 0.0
0.0 4.938750908 0.6499234183 0.0
0.0 4.94010214 0.649854764943 0.0
0.0 4.941453371 0.650007961532 0.0
0.0 4.942804603 0.650196871649 0.0
0.0 4.944155834 0.650143034973 0.0
0.0 4.945507066 0.65004746529 0.0
0.0 4.946858297 0.649923353608 0.0
0.0 4.948209528 0.649826606989 0.0
0.0 4.94956076 0.649732695779 0.0
0.0 4.950911991 0.649602406564 0.0
0.0 4.952263223 0.649438857102 0.0
0.0 4.953614454 0.649210727368 0.0
0.0 4.954965686 0.648978446139 0.0
0.0 4.956316917 0.648743729669 0.0
0.0 4.957668148 0.6484220643 0.0
0.0 4.95901938 0.648072772322 0.0
0.0 4.960370611 0.64759417669 0.0
0.0 4.961721843 0.64709515618 0.0
0.0 4.963073074 0.646551244528 0.0
0.0 4.964424306 0.645893611739 0.0
0.0 4.965775537 0.645151540357 0.0
0.0 4.967126769 0.644219418126 0.0
0.0 4.968478 0.64323838204 0.0
0.0 4.969829231 0.642073104916 0.0
0.0 4.971180463 0.640819739533 0.0
0.0 4.972531694 0.639321179359 0.0
0.0 4.973882926 0.637645720475 0.0
0.0 4.975234157 0.635812161648 0.0
0.0 4.976585389 0.633743708628 0.0
0.0 4.97793662 0.631614804473 0.0
0.0 4.979287852 0.628998354756 0.0
0.0 4.980639083 0.626291979765 0.0
0.0 4.981990314 0.623211945364 0.0
0.0 4.983341546 0.619941701835 0.0
0.0 4.984692777 0.616433435716 0.0
0.0 4.986044009 0.612512029499 0.0
0.0 4.98739524 0.608431195067 0.0
0.0 4.988746472 0.603823144652 0.0
0.0 4.990097703 0.599152973456 0.0
0.0 4.991448934 0.59398888558 0.0
0.0 4.992800166 0.588651229182 0.0
0.0 4.994151397 0.582903964169 0.0
0.0 4.995502629 0.576872563889 0.0
0.0 4.99685386 0.570677740934 0.0
0.0 4.998205092 0.56407370759 0.0
0.0 4.999556323 0.557503400604 0.0
0.0 5.000907555 0.550329740421 0.0
0.0 5.002258786 0.543246989865 0.0
0.0 5.003610017 0.535857772655 0.0
0.0 5.004961249 0.528441321766 0.0
0.0 5.00631248 0.520925771833 0.0
0.0 5.007663712 0.513237737096 0.0
0.0 5.009014943 0.505843722227 0.0
0.0 5.010366175 0.498047196191 0.0
0.0 5.011717406 0.490477658615 0.0
0.0 5.013068637 0.482769307677 0.0
0.0 5.014419869 0.475277133012 0.0
0.0 5.0157711 0.467764404261 0.0
0.0 5.017122332 0.460450291314 0.0
0.0 5.018473563 0.45332067498 0.0
0.0 5.019824795 0.446345475104 0.0
0.0 5.021176026 0.439644192325 0.0
0.0 5.022527258 0.433029072803 0.0
0.0 5.023878489 0.426737017783 0.0
0.0 5.02522972 0.420634916562 0.0
0.0 5.026580952 0.414844657242 0.0
0.0 5.027932183 0.409277826145 0.0
0.0 5.029283415 0.403968472133 0.0
0.0 5.030634646 0.39890088918 0.0
0.0 5.031985878 0.394114917888 0.0
0.0 5.033337109 0.389618557302 0.0
0.0 5.034688341 0.385355166923 0.0
0.0 5.036039572 0.381362270182 0.0
0.0 5.037390803 0.377556447029 0.0
0.0 5.038742035 0.374012840361 0.0
0.0 5.040093266 0.370712846153 0.0
0.0 5.041444498 0.36763563945 0.0
0.0 5.042795729 0.364765378039 0.0
0.0 5.044146961 0.362085880058 0.0
0.0 5.045498192 0.359595132203 0.0
0.0 5.046849423 0.357317884595 0.0
0.0 5.048200655 0.355223181531 0.0
0.0 5.049551886 0.353282761911 0.0
0.0 5.050903118 0.351496880989 0.0
0.0 5.052254349 0.349845928333 0.0
0.0 5.053605581 0.348349593667 0.0
0.0 5.054956812 0.347009763573 0.0
0.0 5.056308044 0.345788928249 0.0
0.0 5.057659275 0.344680524781 0.0
0.0 5.059010506 0.343676818147 0.0
0.0 5.060361738 0.342773624467 0.0
0.0 5.061712969 0.341999706991 0.0
0.0 5.063064201 0.341317957707 0.0
0.0 5.064415432 0.340719097423 0.0
0.0 5.065766664 0.340196471962 0.0
0.0 5.067117895 0.339745147575 0.0
0.0 5.068469126 0.339374116957 0.0
0.0 5.069820358 0.339086010107 0.0
0.0 5.071171589 0.338850963137 0.0
0.0 5.072522821 0.338667071132 0.0
0.0 5.073874052 0.338538989956 0.0
0.0 5.075225284 0.338461410833 0.0
0.0 5.076576515 0.338454319616 0.0
0.0 5.077927747 0.338504751288 0.0
0.0 5.079278978 0.338568642658 0.0
0.0 5.080630209 0.338670658753 0.0
0.0 5.081981441 0.338813364094 0.0
0.0 5.083332672 0.338997697118 0.0
0.0 5.084683904 0.339228308569 0.0
0.0 5.086035135 0.33947970977 0.0
0.0 5.087386367 0.33975132875 0.0
0.0 5.088737598 0.340054976008 0.0
0.0 5.090088829 0.340386211908 0.0
0.0 5.091440061 0.340755482541 0.0
0.0 5.092791292 0.341148979327 0.0
0.0 5.094142524 0.341547476795 0.0
0.0 5.095493755 0.341965804973 0.0
0.0 5.096844987 0.342411404967 0.0
0.0 5.098196218 0.34287745037 0.0
0.0 5.09954745 0.343369781402 0.0
