0.0 0.551549987793 0.309155699322 0.0
0.0 0.552549987793 0.309006294421 0.0
0.0 0.553549987793 0.308856655029 0.0
0.0 0.554549987793 0.308706775823 0.0
0.0 0.555549987793 0.308556667856 0.0
0.0 0.556549987793 0.308406325526 0.0
0.0 0.557549987793 0.30825575177 0.0
0.0 0.558549987793 0.308104942908 0.0
0.0 0.559549987793 0.307953903398 0.0
0.0 0.560549987793 0.307802630358 0.0
0.0 0.561549987793 0.307651134033 0.0
0.0 0.562549987793 0.307499404592 0.0
0.0 0.563549987793 0.307347440121 0.0
0.0 0.564549987793 0.307195251164 0.0
0.0 0.565549987793 0.30704282667 0.0
0.0 0.566549987793 0.306890178482 0.0
0.0 0.567549987793 0.306737306514 0.0
0.0 0.568549987793 0.306584203315 0.0
0.0 0.569549987793 0.306430874455 0.0
0.0 0.570549987793 0.306277314606 0.0
0.0 0.571549987793 0.306123532842 0.0
0.0 0.572549987793 0.305969526418 0.0
0.0 0.573549987793 0.305815297824 0.0
0.0 0.574549987793 0.305660840413 0.0
0.0 0.575549987793 0.305506161415 0.0
0.0 0.576549987793 0.305351257821 0.0
0.0 0.577549987793 0.305196129844 0.0
0.0 0.578549987793 0.305040786732 0.0
0.0 0.579549987793 0.304885215779 0.0
0.0 0.580549987793 0.304729434541 0.0
0.0 0.581549987793 0.304573415022 0.0
0.0 0.582549987793 0.304417189084 0.0
0.0 0.583549987793 0.304260736088 0.0
0.0 0.584549987793 0.304104066174 0.0
0.0 0.585549987793 0.303947171099 0.0
0.0 0.586549987793 0.303790075435 0.0
0.0 0.587549987793 0.303632746692 0.0
0.0 0.588549987793 0.303475191864 0.0
0.0 0.589549987793 0.303317430784 0.0
0.0 0.590549987793 0.303159455738 0.0
0.0 0.591549987793 0.303001266306 0.0
0.0 0.592549987793 0.302842869455 0.0
0.0 0.593549987793 0.302684236797 0.0
0.0 0.594549987793 0.302525417613 0.0
0.0 0.595549987793 0.302366375198 0.0
0.0 0.596549987793 0.302207099417 0.0
0.0 0.597549987793 0.302047612465 0.0
0.0 0.598549987793 0.301887924892 0.0
0.0 0.599549987793 0.301728027374 0.0
0.0 0.600549987793 0.301567942839 0.0
0.0 0.601549987793 0.301407606599 0.0
0.0 0.602549987793 0.301247078477 0.0
0.0 0.603549987793 0.301086334187 0.0
0.0 0.604549987793 0.300925384877 0.0
0.0 0.605549987793 0.300764227048 0.0
0.0 0.606549987793 0.300602846191 0.0
0.0 0.607549987793 0.30044127764 0.0
0.0 0.608549987793 0.300279525 0.0
0.0 0.609549987793 0.300117535115 0.0
0.0 0.610549987793 0.29995532029 0.0
0.0 0.611549987793 0.299792923341 0.0
0.0 0.612549987793 0.299630310443 0.0
0.0 0.613549987793 0.299467537759 0.0
0.0 0.614549987793 0.299304491929 0.0
0.0 0.615549987793 0.299141278825 0.0
0.0 0.616549987793 0.298977854071 0.0
0.0 0.617549987793 0.298814230485 0.0
0.0 0.618549987793 0.298650379351 0.0
0.0 0.619549987793 0.298486385686 0.0
0.0 0.620549987793 0.298322157352 0.0
0.0 0.621549987793 0.298157735898 0.0
0.0 0.622549987793 0.297993094517 0.0
0.0 0.623549987793 0.297828253766 0.0
0.0 0.624549987793 0.297663236649 0.0
0.0 0.625549987793 0.297498034163 0.0
0.0 0.626549987793 0.297332565861 0.0
0.0 0.627549987793 0.297166935028 0.0
0.0 0.628549987793 0.297001132473 0.0
0.0 0.629549987793 0.296835158791 0.0
0.0 0.630549987793 0.296668942262 0.0
0.0 0.631549987793 0.296502495794 0.0
0.0 0.632549987793 0.296335934095 0.0
0.0 0.633549987793 0.296169135675 0.0
0.0 0.634549987793 0.296002105961 0.0
0.0 0.635549987793 0.295834983711 0.0
0.0 0.636549987793 0.295667560384 0.0
0.0 0.637549987793 0.295500029564 0.0
0.0 0.638549987793 0.295332161716 0.0
0.0 0.639549987793 0.295164251081 0.0
0.0 0.640549987793 0.294996150189 0.0
0.0 0.641549987793 0.294827765065 0.0
0.0 0.642549987793 0.294659236122 0.0
0.0 0.643549987793 0.294490526213 0.0
0.0 0.644549987793 0.294321602883 0.0
0.0 0.645549987793 0.294152538754 0.0
0.0 0.646549987793 0.293983248096 0.0
0.0 0.647549987793 0.29381375865 0.0
0.0 0.648549987793 0.293644098921 0.0
0.0 0.649549987793 0.293474308388 0.0
0.0 0.650549987793 0.293304226515 0.0
0.0 0.651549987793 0.293134039164 0.0
0.0 0.652549987793 0.292963626471 0.0
0.0 0.653549987793 0.292793001671 0.0
0.0 0.654549987793 0.292622292169 0.0
0.0 0.655549987793 0.292451315952 0.0
0.0 0.656549987793 0.292280220856 0.0
0.0 0.657549987793 0.292108874625 0.0
0.0 0.658549987793 0.291937351809 0.0
0.0 0.659549987793 0.291765656217 0.0
0.0 0.660549987793 0.291593799072 0.0
0.0 0.661549987793 0.291421758747 0.0
0.0 0.662549987793 0.291249558434 0.0
0.0 0.663549987793 0.291077167373 0.0
0.0 0.664549987793 0.290904578773 0.0
0.0 0.665549987793 0.290731832012 0.0
0.0 0.666549987793 0.290558842583 0.0
0.0 0.667549987793 0.290385765671 0.0
0.0 0.668549987793 0.290212471216 0.0
0.0 0.669549987793 0.290038972783 0.0
0.0 0.670549987793 0.289865387258 0.0
0.0 0.671549987793 0.289691543129 0.0
0.0 0.672549987793 0.28951747729 0.0
0.0 0.673549987793 0.289343387723 0.0
0.0 0.674549987793 0.289169042858 0.0
0.0 0.675549987793 0.288994504486 0.0
0.0 0.676549987793 0.288819771232 0.0
0.0 0.677549987793 0.28864488492 0.0
0.0 0.678549987793 0.288469904922 0.0
0.0 0.679549987793 0.288294634634 0.0
0.0 0.680549987793 0.288119262412 0.0
0.0 0.681549987793 0.287943731147 0.0
0.0 0.682549987793 0.287768018839 0.0
0.0 0.683549987793 0.287592109921 0.0
0.0 0.684549987793 0.287416034815 0.0
0.0 0.685549987793 0.287239824204 0.0
0.0 0.686549987793 0.287063427321 0.0
0.0 0.687549987793 0.286886826199 0.0
0.0 0.688549987793 0.286710123896 0.0
0.0 0.689549987793 0.286533207229 0.0
0.0 0.690549987793 0.286356160107 0.0
0.0 0.691549987793 0.286178919866 0.0
0.0 0.692549987793 0.28600152498 0.0
0.0 0.693549987793 0.285823945158 0.0
0.0 0.694549987793 0.285646251967 0.0
0.0 0.695549987793 0.285468364917 0.0
0.0 0.696549987793 0.285290308946 0.0
0.0 0.697549987793 0.285112146627 0.0
0.0 0.698549987793 0.284933772044 0.0
0.0 0.699549987793 0.284755174525 0.0
0.0 0.700549987793 0.284576424799 0.0
0.0 0.701549987793 0.284397565487 0.0
0.0 0.702549987793 0.284218610039 0.0
0.0 0.703549987793 0.284039404983 0.0
0.0 0.704549987793 0.283860088773 0.0
0.0 0.705549987793 0.283680560697 0.0
0.0 0.706549987793 0.283500953506 0.0
0.0 0.707549987793 0.283321136917 0.0
0.0 0.708549987793 0.283141180229 0.0
0.0 0.709549987793 0.282961056714 0.0
0.0 0.710549987793 0.282780812335 0.0
0.0 0.711549987793 0.282600317851 0.0
0.0 0.712549987793 0.28241968777 0.0
0.0 0.713549987793 0.282238984395 0.0
0.0 0.714549987793 0.28205810608 0.0
0.0 0.715549987793 0.281877010437 0.0
0.0 0.716549987793 0.281695836479 0.0
0.0 0.717549987793 0.281514566286 0.0
0.0 0.718549987793 0.281332966113 0.0
0.0 0.719549987793 0.281151318509 0.0
0.0 0.720549987793 0.280969523621 0.0
0.0 0.721549987793 0.280787532763 0.0
0.0 0.722549987793 0.280605443142 0.0
0.0 0.723549987793 0.280423112602 0.0
0.0 0.724549987793 0.280240694405 0.0
0.0 0.725549987793 0.28005820145 0.0
0.0 0.726549987793 0.279875391187 0.0
0.0 0.727549987793 0.279692526089 0.0
0.0 0.728549987793 0.27950955697 0.0
0.0 0.729549987793 0.279326324696 0.0
0.0 0.730549987793 0.279142970956 0.0
0.0 0.731549987793 0.27895955836 0.0
0.0 0.732549987793 0.278776057458 0.0
0.0 0.733549987793 0.278592232973 0.0
0.0 0.734549987793 0.278408262876 0.0
0.0 0.735549987793 0.278224279044 0.0
0.0 0.736549987793 0.278040116039 0.0
0.0 0.737549987793 0.277855805336 0.0
0.0 0.738549987793 0.277671346371 0.0
0.0 0.739549987793 0.277486849 0.0
0.0 0.740549987793 0.277302093002 0.0
0.0 0.741549987793 0.277117179051 0.0
0.0 0.742549987793 0.27693215902 0.0
0.0 0.743549987793 0.276747077404 0.0
0.0 0.744549987793 0.276561734122 0.0
0.0 0.745549987793 0.27637627113 0.0
0.0 0.746549987793 0.276190759374 0.0
0.0 0.747549987793 0.27600499958 0.0
0.0 0.748549987793 0.275819265782 0.0
0.0 0.749549987793 0.275633169619 0.0
0.0 0.750549987793 0.275447122944 0.0
0.0 0.751549987793 0.275260899641 0.0
0.0 0.752549987793 0.275074470674 0.0
0.0 0.753549987793 0.274887935984 0.0
0.0 0.754549987793 0.274701352664 0.0
0.0 0.755549987793 0.274514454911 0.0
0.0 0.756549987793 0.274327510369 0.0
0.0 0.757549987793 0.274140469032 0.0
0.0 0.758549987793 0.273953330764 0.0
0.0 0.759549987793 0.273766085783 0.0
0.0 0.760549987793 0.273578651804 0.0
0.0 0.761549987793 0.273391033967 0.0
0.0 0.762549987793 0.273203329061 0.0
0.0 0.763549987793 0.273015541302 0.0
0.0 0.764549987793 0.272827618084 0.0
0.0 0.765549987793 0.272639520568 0.0
0.0 0.766549987793 0.27245126268 0.0
0.0 0.767549987793 0.272263014744 0.0
0.0 0.768549987793 0.272074665804 0.0
0.0 0.769549987793 0.271886399674 0.0
0.0 0.770549987793 0.271697973218 0.0
0.0 0.771549987793 0.271509873082 0.0
0.0 0.772549987793 0.271321948235 0.0
0.0 0.773549987793 0.271134754185 0.0
0.0 0.774549987793 0.270948583837 0.0
0.0 0.775549987793 0.270763508662 0.0
0.0 0.776549987793 0.270580045711 0.0
0.0 0.777549987793 0.270398614461 0.0
0.0 0.778549987793 0.27021996247 0.0
0.0 0.779549987793 0.270043792734 0.0
0.0 0.780549987793 0.269874364833 0.0
0.0 0.781549987793 0.269714305991 0.0
0.0 0.782549987793 0.269573922082 0.0
0.0 0.783549987793 0.26947905901 0.0
0.0 0.784549987793 0.269459688749 0.0
0.0 0.785549987793 0.269648244381 0.0
0.0 0.786549987793 0.270366653884 0.0
0.0 0.787549987793 0.272262964039 0.0
0.0 0.788549987793 0.276997816805 0.0
0.0 0.789549987793 0.287987065703 0.0
0.0 0.790549987793 0.307872426227 0.0
0.0 0.791549987793 0.338447990946 0.0
0.0 0.792549987793 0.376716363893 0.0
0.0 0.793549987793 0.419722708005 0.0
0.0 0.794549987793 0.457019484786 0.0
0.0 0.795549987793 0.486305823488 0.0
0.0 0.796549987793 0.507881430625 0.0
0.0 0.797549987793 0.519773924459 0.0
0.0 0.798549987793 0.526063691132 0.0
0.0 0.799549987793 0.528771243749 0.0
0.0 0.800549987793 0.530579845721 0.0
0.0 0.801549987793 0.530319167499 0.0
0.0 0.802549987793 0.528117932957 0.0
0.0 0.803549987793 0.525877736993 0.0
0.0 0.804549987793 0.52291011753 0.0
0.0 0.805549987793 0.520446891261 0.0
0.0 0.806549987793 0.516789421625 0.0
0.0 0.807549987793 0.512950888146 0.0
0.0 0.808549987793 0.509995224035 0.0
0.0 0.809549987793 0.509961460891 0.0
0.0 0.810549987793 0.511697749804 0.0
0.0 0.811549987793 0.515183932335 0.0
0.0 0.812549987793 0.519441791494 0.0
0.0 0.813549987793 0.522781708278 0.0
0.0 0.814549987793 0.527335038037 0.0
0.0 0.815549987793 0.528876409664 0.0
0.0 0.816549987793 0.531062101499 0.0
0.0 0.817549987793 0.533125274811 0.0
0.0 0.818549987793 0.535198823997 0.0
0.0 0.819549987793 0.536113961848 0.0
0.0 0.820549987793 0.537013042413 0.0
0.0 0.821549987793 0.538071972328 0.0
0.0 0.822549987793 0.536253156677 0.0
0.0 0.823549987793 0.535101493851 0.0
0.0 0.824549987793 0.533220794486 0.0
0.0 0.825549987793 0.530284915076 0.0
0.0 0.826549987793 0.528480250905 0.0
0.0 0.827549987793 0.527051170195 0.0
0.0 0.828549987793 0.526774857157 0.0
0.0 0.829549987793 0.52688848012 0.0
0.0 0.830549987793 0.525860745055 0.0
0.0 0.831549987793 0.526597148011 0.0
0.0 0.832549987793 0.52670526833 0.0
0.0 0.833549987793 0.526388836356 0.0
0.0 0.834549987793 0.526051648209 0.0
0.0 0.835549987793 0.528997730802 0.0
0.0 0.836549987793 0.531652752635 0.0
0.0 0.837549987793 0.534718905599 0.0
0.0 0.838549987793 0.537263620897 0.0
0.0 0.839549987793 0.538562887438 0.0
0.0 0.840549987793 0.539784060093 0.0
0.0 0.841549987793 0.54169524272 0.0
0.0 0.842549987793 0.541689813107 0.0
0.0 0.843549987793 0.540685899135 0.0
0.0 0.844549987793 0.539748908235 0.0
0.0 0.845549987793 0.537094001512 0.0
0.0 0.846549987793 0.53568588895 0.0
0.0 0.847549987793 0.53298707502 0.0
0.0 0.848549987793 0.531365219143 0.0
0.0 0.849549987793 0.531652292046 0.0
0.0 0.850549987793 0.53255099844 0.0
0.0 0.851549987793 0.534194697848 0.0
0.0 0.852549987793 0.534571424246 0.0
0.0 0.853549987793 0.534646789559 0.0
0.0 0.854549987793 0.535862930883 0.0
0.0 0.855549987793 0.534902436973 0.0
0.0 0.856549987793 0.536670305547 0.0
0.0 0.857549987793 0.538413328205 0.0
0.0 0.858549987793 0.540542317295 0.0
0.0 0.859549987793 0.541951774421 0.0
0.0 0.860549987793 0.545828360277 0.0
0.0 0.861549987793 0.547517003908 0.0
0.0 0.862549987793 0.54704516193 0.0
0.0 0.863549987793 0.545548887715 0.0
0.0 0.864549987793 0.545559123388 0.0
0.0 0.865549987793 0.546180361244 0.0
0.0 0.866549987793 0.549294037849 0.0
0.0 0.867549987793 0.545779618738 0.0
0.0 0.868549987793 0.543061380956 0.0
0.0 0.869549987793 0.543057998987 0.0
0.0 0.870549987793 0.542918653339 0.0
0.0 0.871549987793 0.538896634763 0.0
0.0 0.872549987793 0.541042703075 0.0
0.0 0.873549987793 0.540716227634 0.0
0.0 0.874549987793 0.541703028519 0.0
0.0 0.875549987793 0.539049605316 0.0
0.0 0.876549987793 0.539590943597 0.0
0.0 0.877549987793 0.544416173807 0.0
0.0 0.878549987793 0.544870385196 0.0
0.0 0.879549987793 0.543780702117 0.0
0.0 0.880549987793 0.54848685558 0.0
0.0 0.881549987793 0.546081467801 0.0
0.0 0.882549987793 0.549673658718 0.0
0.0 0.883549987793 0.546923777381 0.0
0.0 0.884549987793 0.551515110676 0.0
0.0 0.885549987793 0.546579593416 0.0
0.0 0.886549987793 0.542808819877 0.0
0.0 0.887549987793 0.551743144581 0.0
0.0 0.888549987793 0.554775944861 0.0
0.0 0.889549987793 0.552003055001 0.0
0.0 0.890549987793 0.545263408275 0.0
0.0 0.891549987793 0.548886496533 0.0
0.0 0.892549987793 0.547470553949 0.0
0.0 0.893549987793 0.54677557663 0.0
0.0 0.894549987793 0.547037100131 0.0
0.0 0.895549987793 0.544654475431 0.0
0.0 0.896549987793 0.539204701771 0.0
0.0 0.897549987793 0.543685170725 0.0
0.0 0.898549987793 0.544036110539 0.0
0.0 0.899549987793 0.542327125293 0.0
0.0 0.900549987793 0.543268039309 0.0
0.0 0.901549987793 0.54309321735 0.0
0.0 0.902549987793 0.544209618441 0.0
0.0 0.903549987793 0.543268895312 0.0
0.0 0.904549987793 0.543477162695 0.0
0.0 0.905549987793 0.546393352944 0.0
0.0 0.906549987793 0.546099920699 0.0
0.0 0.907549987793 0.545251066517 0.0
0.0 0.908549987793 0.547713560025 0.0
0.0 0.909549987793 0.548263713211 0.0
0.0 0.910549987793 0.548558293969 0.0
0.0 0.911549987793 0.549321023313 0.0
0.0 0.912549987793 0.550066495065 0.0
0.0 0.913549987793 0.550201375308 0.0
0.0 0.914549987793 0.551396636317 0.0
0.0 0.915549987793 0.550652985468 0.0
0.0 0.916549987793 0.552571308124 0.0
0.0 0.917549987793 0.550965012243 0.0
0.0 0.918549987793 0.552546372232 0.0
0.0 0.919549987793 0.552078977909 0.0
0.0 0.920549987793 0.550987321471 0.0
0.0 0.921549987793 0.550312113653 0.0
0.0 0.922549987793 0.549744850168 0.0
0.0 0.923549987793 0.549052460072 0.0
0.0 0.924549987793 0.547126414286 0.0
0.0 0.925549987793 0.547294163739 0.0
0.0 0.926549987793 0.546387553311 0.0
0.0 0.927549987793 0.546035755137 0.0
0.0 0.928549987793 0.54722882394 0.0
0.0 0.929549987793 0.548277057022 0.0
0.0 0.930549987793 0.549155008142 0.0
0.0 0.931549987793 0.550022274901 0.0
0.0 0.932549987793 0.550461552585 0.0
0.0 0.933549987793 0.550045219108 0.0
0.0 0.934549987793 0.550597079531 0.0
0.0 0.935549987793 0.550162998133 0.0
0.0 0.936549987793 0.550223848889 0.0
0.0 0.937549987793 0.549498253727 0.0
0.0 0.938549987793 0.548332202034 0.0
0.0 0.939549987793 0.548365278874 0.0
0.0 0.940549987793 0.547884989693 0.0
0.0 0.941549987793 0.546563424867 0.0
0.0 0.942549987793 0.545821361773 0.0
0.0 0.943549987793 0.54487844817 0.0
0.0 0.944549987793 0.5438827008 0.0
0.0 0.945549987793 0.543310117811 0.0
0.0 0.946549987793 0.542165833967 0.0
0.0 0.947549987793 0.541391453544 0.0
0.0 0.948549987793 0.542394348595 0.0
0.0 0.949549987793 0.543704496476 0.0
0.0 0.950549987793 0.54399406342 0.0
0.0 0.951549987793 0.547227833804 0.0
0.0 0.952549987793 0.545789193542 0.0
0.0 0.953549987793 0.546243682682 0.0
0.0 0.954549987793 0.546423953179 0.0
0.0 0.955549987793 0.546586000214 0.0
0.0 0.956549987793 0.546385032998 0.0
0.0 0.957549987793 0.545736980152 0.0
0.0 0.958549987793 0.547579565383 0.0
0.0 0.959549987793 0.545384793071 0.0
0.0 0.960549987793 0.544808093118 0.0
0.0 0.961549987793 0.544580310475 0.0
0.0 0.962549987793 0.544245252865 0.0
0.0 0.963549987793 0.543783259854 0.0
0.0 0.964549987793 0.544049700128 0.0
0.0 0.965549987793 0.54270405171 0.0
0.0 0.966549987793 0.54129686653 0.0
0.0 0.967549987793 0.541798626643 0.0
0.0 0.968549987793 0.541514976995 0.0
0.0 0.969549987793 0.541523226623 0.0
0.0 0.970549987793 0.541842819589 0.0
0.0 0.971549987793 0.54215975636 0.0
0.0 0.972549987793 0.542452251692 0.0
0.0 0.973549987793 0.542798357827 0.0
0.0 0.974549987793 0.540538755127 0.0
0.0 0.975549987793 0.542793996874 0.0
0.0 0.976549987793 0.540845216994 0.0
0.0 0.977549987793 0.540481792968 0.0
0.0 0.978549987793 0.541299369342 0.0
0.0 0.979549987793 0.540197658211 0.0
0.0 0.980549987793 0.539058454259 0.0
0.0 0.981549987793 0.541611187171 0.0
0.0 0.982549987793 0.540997379053 0.0
0.0 0.983549987793 0.541009806851 0.0
0.0 0.984549987793 0.541035705839 0.0
0.0 0.985549987793 0.541796971949 0.0
0.0 0.986549987793 0.540594058362 0.0
0.0 0.987549987793 0.540882919942 0.0
0.0 0.988549987793 0.542037257114 0.0
0.0 0.989549987793 0.541735200008 0.0
0.0 0.990549987793 0.542578525596 0.0
0.0 0.991549987793 0.541014863862 0.0
0.0 0.992549987793 0.541422058721 0.0
0.0 0.993549987793 0.539971243456 0.0
0.0 0.994549987793 0.539848793595 0.0
0.0 0.995549987793 0.538918147713 0.0
0.0 0.996549987793 0.537868632566 0.0
0.0 0.997549987793 0.534966698017 0.0
0.0 0.998549987793 0.528368403386 0.0
0.0 0.999549987793 0.518505508057 0.0
0.0 1.00054998779 0.499693619149 0.0
0.0 1.00154998779 0.476942442888 0.0
0.0 1.00254998779 0.446504256859 0.0
0.0 1.00354998779 0.412402465942 0.0
0.0 1.00454998779 0.38731576573 0.0
0.0 1.00554998779 0.359464492379 0.0
0.0 1.00654998779 0.337388712206 0.0
0.0 1.00754998779 0.315763786196 0.0
0.0 1.00854998779 0.301692728559 0.0
0.0 1.00954998779 0.287979342092 0.0
0.0 1.01054998779 0.278065308205 0.0
0.0 1.01154998779 0.270767195438 0.0
0.0 1.01254998779 0.263476406097 0.0
0.0 1.01354998779 0.257323709249 0.0
0.0 1.01454998779 0.253328465709 0.0
0.0 1.01554998779 0.249093897919 0.0
0.0 1.01654998779 0.244927185423 0.0
0.0 1.01754998779 0.241068086482 0.0
0.0 1.01854998779 0.237164460783 0.0
0.0 1.01954998779 0.233535987622 0.0
0.0 1.02054998779 0.230656487707 0.0
0.0 1.02154998779 0.228240013003 0.0
0.0 1.02254998779 0.226037748805 0.0
0.0 1.02354998779 0.22488125068 0.0
0.0 1.02455004883 0.223633632784 0.0
0.0 1.02555004883 0.222740209221 0.0
0.0 1.02655004883 0.221982737258 0.0
0.0 1.02755004883 0.22144374155 0.0
0.0 1.02855004883 0.220981349648 0.0
0.0 1.02955004883 0.220563321213 0.0
0.0 1.03055004883 0.220263522858 0.0
0.0 1.03155004883 0.219947207161 0.0
0.0 1.03255004883 0.2196691924 0.0
0.0 1.03355004883 0.219407156462 0.0
0.0 1.03455004883 0.219162848291 0.0
0.0 1.03555004883 0.218923643711 0.0
0.0 1.03655004883 0.218697308771 0.0
0.0 1.03755004883 0.218476149105 0.0
0.0 1.03855004883 0.218254730327 0.0
0.0 1.03955004883 0.218039697269 0.0
0.0 1.04055004883 0.217826225849 0.0
0.0 1.04155004883 0.217614733472 0.0
0.0 1.04255004883 0.217404611036 0.0
0.0 1.04355004883 0.217195405991 0.0
0.0 1.04455004883 0.216987994707 0.0
0.0 1.04555004883 0.216779901626 0.0
0.0 1.04655004883 0.216573368779 0.0
0.0 1.04755004883 0.216367322237 0.0
0.0 1.04855004883 0.216160769869 0.0
0.0 1.04955004883 0.215956523697 0.0
0.0 1.05055004883 0.215750597933 0.0
0.0 1.05155004883 0.215545316103 0.0
0.0 1.05255004883 0.215340128846 0.0
0.0 1.05355004883 0.215135341223 0.0
0.0 1.05455004883 0.214929268387 0.0
0.0 1.05555004883 0.214726512622 0.0
0.0 1.05655004883 0.214522410615 0.0
0.0 1.05755004883 0.214316985866 0.0
0.0 1.05855004883 0.21411289809 0.0
0.0 1.05955004883 0.213908092406 0.0
0.0 1.06055004883 0.213703678887 0.0
0.0 1.06155004883 0.21349997249 0.0
0.0 1.06255004883 0.213294938622 0.0
0.0 1.06355004883 0.21309042675 0.0
0.0 1.06455004883 0.212886839676 0.0
0.0 1.06555004883 0.212682568939 0.0
0.0 1.06655004883 0.212479607014 0.0
0.0 1.06755004883 0.212274070267 0.0
0.0 1.06855004883 0.212071847653 0.0
0.0 1.06955004883 0.211867208257 0.0
0.0 1.07055004883 0.211663025945 0.0
0.0 1.07155004883 0.211458426936 0.0
0.0 1.07255004883 0.211255485039 0.0
0.0 1.07355004883 0.211051314 0.0
0.0 1.07455004883 0.210847232494 0.0
0.0 1.07555004883 0.210642338845 0.0
0.0 1.07655004883 0.210440974702 0.0
0.0 1.07755004883 0.210235055225 0.0
0.0 1.07855004883 0.210031948621 0.0
0.0 1.07955004883 0.209828374845 0.0
0.0 1.08055004883 0.20962545767 0.0
0.0 1.08155004883 0.209420181965 0.0
0.0 1.08255004883 0.209216799983 0.0
0.0 1.08355004883 0.209012877288 0.0
0.0 1.08455004883 0.208809732497 0.0
0.0 1.08555004883 0.208605914744 0.0
0.0 1.08655004883 0.208402705266 0.0
0.0 1.08755004883 0.208199989705 0.0
0.0 1.08855004883 0.207995704449 0.0
0.0 1.08955004883 0.207794247226 0.0
0.0 1.09055004883 0.207589361615 0.0
0.0 1.09155004883 0.207385634148 0.0
0.0 1.09255004883 0.207182290123 0.0
0.0 1.09355004883 0.206980302064 0.0
0.0 1.09455004883 0.206776709896 0.0
0.0 1.09555004883 0.20657258122 0.0
0.0 1.09655004883 0.206369344801 0.0
0.0 1.09755004883 0.206168044325 0.0
0.0 1.09855004883 0.205963519521 0.0
0.0 1.09955004883 0.205760187905 0.0
0.0 1.10055004883 0.205558124966 0.0
0.0 1.10155004883 0.205355684944 0.0
0.0 1.10255004883 0.205152501775 0.0
0.0 1.10355004883 0.204948326497 0.0
0.0 1.10455004883 0.204746179703 0.0
0.0 1.10555004883 0.204543258736 0.0
0.0 1.10655004883 0.204340017986 0.0
0.0 1.10755004883 0.204137989289 0.0
0.0 1.10855004883 0.203935461195 0.0
0.0 1.10955004883 0.203732595225 0.0
0.0 1.11055004883 0.203531662702 0.0
0.0 1.11155004883 0.203327341159 0.0
0.0 1.11255004883 0.203126303455 0.0
0.0 1.11355004883 0.202922518039 0.0
0.0 1.11455004883 0.202720776766 0.0
0.0 1.11555004883 0.202518249157 0.0
0.0 1.11655004883 0.202316640788 0.0
0.0 1.11755004883 0.202114849899 0.0
0.0 1.11855004883 0.201911970001 0.0
0.0 1.11955004883 0.201709745369 0.0
0.0 1.12055004883 0.201507479067 0.0
0.0 1.12155004883 0.201306417886 0.0
0.0 1.12255004883 0.201104079535 0.0
0.0 1.12355004883 0.200900494944 0.0
0.0 1.12455004883 0.200699566835 0.0
0.0 1.12555004883 0.200497424703 0.0
0.0 1.12655004883 0.200296191401 0.0
0.0 1.12755004883 0.200094667127 0.0
0.0 1.12855004883 0.19989205076 0.0
0.0 1.12955004883 0.199692648472 0.0
0.0 1.13055004883 0.199489903574 0.0
0.0 1.13155004883 0.199287597699 0.0
0.0 1.13255004883 0.199086139185 0.0
0.0 1.13355004883 0.198885022666 0.0
0.0 1.13455004883 0.198683110925 0.0
0.0 1.13555004883 0.198483138079 0.0
0.0 1.13655004883 0.198280908034 0.0
0.0 1.13755004883 0.198080353697 0.0
0.0 1.13855004883 0.1978798437 0.0
0.0 1.13955004883 0.19767753739 0.0
0.0 1.14055004883 0.19747750276 0.0
0.0 1.14155004883 0.197275688801 0.0
0.0 1.14255004883 0.19707584211 0.0
0.0 1.14355004883 0.196874837211 0.0
0.0 1.14455004883 0.19667351485 0.0
0.0 1.14555004883 0.196472627274 0.0
0.0 1.14655004883 0.196272429947 0.0
0.0 1.14755004883 0.196071112684 0.0
0.0 1.14855004883 0.195871977662 0.0
0.0 1.14955004883 0.195670954449 0.0
0.0 1.15055004883 0.195470352226 0.0
0.0 1.15155004883 0.19526976872 0.0
0.0 1.15255004883 0.195070385784 0.0
0.0 1.15355004883 0.194869639772 0.0
0.0 1.15455004883 0.194669190359 0.0
0.0 1.15555004883 0.194469928629 0.0
0.0 1.15655004883 0.194268758027 0.0
0.0 1.15755004883 0.194070407449 0.0
0.0 1.15855004883 0.193870009989 0.0
0.0 1.15955004883 0.193670590279 0.0
0.0 1.16055004883 0.19347019256 0.0
0.0 1.16155004883 0.193270247793 0.0
0.0 1.16255004883 0.19307101625 0.0
0.0 1.16355004883 0.192872241094 0.0
0.0 1.16455004883 0.1926722583 0.0
0.0 1.16555004883 0.192472772533 0.0
0.0 1.16655004883 0.192274376779 0.0
0.0 1.16755004883 0.192074698556 0.0
0.0 1.16855004883 0.191875449795 0.0
0.0 1.16955004883 0.19167606586 0.0
0.0 1.17055004883 0.191478054108 0.0
0.0 1.17155004883 0.191277322762 0.0
0.0 1.17255004883 0.191080744466 0.0
0.0 1.17355004883 0.19088230882 0.0
0.0 1.17455004883 0.190681609947 0.0
0.0 1.17555004883 0.190483562705 0.0
0.0 1.17655004883 0.190285449702 0.0
0.0 1.17755004883 0.190086975576 0.0
0.0 1.17855004883 0.189887735902 0.0
0.0 1.17955004883 0.189690286904 0.0
0.0 1.18055004883 0.189491664402 0.0
0.0 1.18155004883 0.189293099831 0.0
0.0 1.18255004883 0.189095995885 0.0
0.0 1.18355004883 0.188898015469 0.0
0.0 1.18455004883 0.188699649389 0.0
0.0 1.18555004883 0.188501661285 0.0
0.0 1.18655004883 0.188303969542 0.0
0.0 1.18755004883 0.18810723666 0.0
0.0 1.18855004883 0.187909848584 0.0
0.0 1.18955004883 0.18771134011 0.0
0.0 1.19055004883 0.187514822969 0.0
0.0 1.19155004883 0.187317060047 0.0
0.0 1.19255004883 0.187120621208 0.0
0.0 1.19355004883 0.186922163711 0.0
0.0 1.19455004883 0.186725444936 0.0
0.0 1.19555004883 0.186528663312 0.0
0.0 1.19655004883 0.186331474511 0.0
0.0 1.19755004883 0.186135608223 0.0
0.0 1.19855004883 0.185937650798 0.0
0.0 1.19955004883 0.185741963317 0.0
0.0 1.20055004883 0.185545278955 0.0
0.0 1.20155004883 0.185348892284 0.0
0.0 1.20255004883 0.185152919049 0.0
0.0 1.20355004883 0.184956189886 0.0
0.0 1.20455004883 0.184759732071 0.0
0.0 1.20555004883 0.1845632853 0.0
0.0 1.20655004883 0.184367693489 0.0
0.0 1.20755004883 0.184173157414 0.0
0.0 1.20855004883 0.183976330431 0.0
0.0 1.20955004883 0.183781185418 0.0
0.0 1.21055004883 0.183584977052 0.0
0.0 1.21155004883 0.183389848377 0.0
0.0 1.21255004883 0.183194072434 0.0
0.0 1.21355004883 0.182999082089 0.0
0.0 1.21455004883 0.182803804918 0.0
0.0 1.21555004883 0.182608222895 0.0
0.0 1.21655004883 0.182414664667 0.0
0.0 1.21755004883 0.182218401257 0.0
0.0 1.21855004883 0.182023008524 0.0
0.0 1.21955004883 0.181828818213 0.0
0.0 1.22055004883 0.181635749831 0.0
0.0 1.22155004883 0.181439559222 0.0
0.0 1.22255004883 0.181245980874 0.0
0.0 1.22355004883 0.18105160953 0.0
0.0 1.22455004883 0.180857238146 0.0
0.0 1.22555004883 0.180662706613 0.0
0.0 1.22655004883 0.180468401311 0.0
0.0 1.22755004883 0.180274296963 0.0
0.0 1.22855004883 0.180081167561 0.0
0.0 1.22955004883 0.179886708173 0.0
0.0 1.23055004883 0.179694494742 0.0
0.0 1.23155004883 0.179499252063 0.0
0.0 1.23255004883 0.179307217776 0.0
0.0 1.23355004883 0.179113226504 0.0
0.0 1.23455004883 0.178920782867 0.0
0.0 1.23555004883 0.178727771869 0.0
0.0 1.23655004883 0.178533848628 0.0
0.0 1.23755004883 0.178340674727 0.0
0.0 1.23855004883 0.178148207976 0.0
0.0 1.23955004883 0.177957183407 0.0
0.0 1.24055004883 0.17776445236 0.0
0.0 1.24155004883 0.177571850101 0.0
0.0 1.24255004883 0.177380213473 0.0
0.0 1.24355004883 0.17718606798 0.0
0.0 1.24455004883 0.176994538845 0.0
0.0 1.24555004883 0.176803601371 0.0
0.0 1.24655004883 0.176611183355 0.0
0.0 1.24755004883 0.176418469364 0.0
0.0 1.24855004883 0.17622888235 0.0
0.0 1.24955004883 0.176036382084 0.0
0.0 1.25055004883 0.175845332545 0.0
0.0 1.25155004883 0.175653126006 0.0
0.0 1.25255004883 0.175462251811 0.0
0.0 1.25355004883 0.175270162151 0.0
0.0 1.25455004883 0.175079716147 0.0
0.0 1.25555004883 0.174889043699 0.0
0.0 1.25655004883 0.174698557584 0.0
0.0 1.25755004883 0.174508507229 0.0
0.0 1.25855004883 0.174317554088 0.0
0.0 1.25955004883 0.174126959471 0.0
0.0 1.26055004883 0.173937074588 0.0
0.0 1.26155004883 0.173747673968 0.0
0.0 1.26255004883 0.173556830051 0.0
0.0 1.26355004883 0.173365935857 0.0
0.0 1.26455004883 0.173176157785 0.0
0.0 1.26555004883 0.17298855996 0.0
0.0 1.26655004883 0.172798571735 0.0
0.0 1.26755004883 0.172609366243 0.0
0.0 1.26855004883 0.172419264838 0.0
0.0 1.26955004883 0.172230469755 0.0
0.0 1.27055004883 0.172041358475 0.0
0.0 1.27155004883 0.171853314344 0.0
0.0 1.27255004883 0.171664054213 0.0
0.0 1.27355004883 0.171474194605 0.0
0.0 1.27455004883 0.171286304654 0.0
0.0 1.27555004883 0.171097839276 0.0
0.0 1.27655004883 0.170909793325 0.0
0.0 1.27755004883 0.170722353158 0.0
0.0 1.27855004883 0.17053354526 0.0
0.0 1.27955004883 0.170345271588 0.0
0.0 1.28055004883 0.170158586761 0.0
0.0 1.28155004883 0.169971770209 0.0
0.0 1.28255004883 0.169783355266 0.0
0.0 1.28355004883 0.169594940646 0.0
0.0 1.28455004883 0.169407957498 0.0
0.0 1.28555004883 0.169222231386 0.0
0.0 1.28655004883 0.169034120356 0.0
0.0 1.28755004883 0.168847687693 0.0
0.0 1.28855004883 0.168661183764 0.0
0.0 1.28955004883 0.168475183166 0.0
0.0 1.29055004883 0.16828838759 0.0
0.0 1.29155004883 0.168102179877 0.0
0.0 1.29255004883 0.167915902494 0.0
0.0 1.29355004883 0.167729580844 0.0
0.0 1.29455004883 0.16754266109 0.0
0.0 1.29555004883 0.167357926627 0.0
0.0 1.29655004883 0.167172688753 0.0
0.0 1.29755004883 0.16698657388 0.0
0.0 1.29855004883 0.166801269976 0.0
0.0 1.29955004883 0.166617591151 0.0
0.0 1.30055004883 0.166432375881 0.0
0.0 1.30155004883 0.166245856552 0.0
0.0 1.30255004883 0.166061644204 0.0
0.0 1.30355004883 0.165877286294 0.0
0.0 1.30455004883 0.165692642242 0.0
0.0 1.30555004883 0.16550804698 0.0
0.0 1.30655004883 0.165324390683 0.0
0.0 1.30755004883 0.165140247024 0.0
0.0 1.30855004883 0.16495712047 0.0
0.0 1.30955004883 0.164772154929 0.0
0.0 1.31055004883 0.16458889167 0.0
0.0 1.31155004883 0.164404879888 0.0
0.0 1.31255004883 0.16422199913 0.0
0.0 1.31355004883 0.164038983781 0.0
0.0 1.31455004883 0.163856258717 0.0
0.0 1.31555004883 0.163672249696 0.0
0.0 1.31655004883 0.163490154875 0.0
0.0 1.31755004883 0.163307468948 0.0
0.0 1.31855004883 0.163125250326 0.0
0.0 1.31955004883 0.162943549645 0.0
0.0 1.32055004883 0.162761484076 0.0
0.0 1.32155004883 0.162579107598 0.0
0.0 1.32255004883 0.162397670144 0.0
0.0 1.32355004883 0.162214377067 0.0
0.0 1.32455004883 0.162033341585 0.0
0.0 1.32555004883 0.161852776087 0.0
0.0 1.32655004883 0.161670721598 0.0
0.0 1.32755004883 0.16148977271 0.0
0.0 1.32855004883 0.161308654167 0.0
0.0 1.32955004883 0.16112888207 0.0
0.0 1.33055004883 0.160947493617 0.0
0.0 1.33155004883 0.16076642167 0.0
0.0 1.33255004883 0.160586039363 0.0
0.0 1.33355004883 0.160407309017 0.0
0.0 1.33455004883 0.160226731658 0.0
0.0 1.33555004883 0.160045619687 0.0
0.0 1.33655004883 0.159866925494 0.0
0.0 1.33755004883 0.159688269657 0.0
0.0 1.33855004883 0.159508857877 0.0
0.0 1.33955004883 0.159329098514 0.0
0.0 1.34055004883 0.159149333528 0.0
0.0 1.34155004883 0.158971295844 0.0
0.0 1.34255004883 0.158792099013 0.0
0.0 1.34355004883 0.158613937526 0.0
0.0 1.34455004883 0.158435841912 0.0
0.0 1.34555004883 0.158255950847 0.0
0.0 1.34655004883 0.158079489081 0.0
0.0 1.34755004883 0.157901506458 0.0
0.0 1.34855004883 0.15772265451 0.0
0.0 1.34955004883 0.157544668203 0.0
0.0 1.35055004883 0.157368756467 0.0
0.0 1.35155004883 0.157191136726 0.0
0.0 1.35255004883 0.157014434603 0.0
0.0 1.35355004883 0.156838183494 0.0
0.0 1.35455004883 0.156658465033 0.0
0.0 1.35555004883 0.156483655732 0.0
0.0 1.35655004883 0.156306669094 0.0
0.0 1.35755004883 0.15613177837 0.0
0.0 1.35855004883 0.155953900398 0.0
0.0 1.35955004883 0.155778861005 0.0
0.0 1.36055004883 0.155601860145 0.0
0.0 1.36155004883 0.155428334232 0.0
0.0 1.36255004883 0.155252217114 0.0
0.0 1.36355004883 0.15507589117 0.0
0.0 1.36455004883 0.154901469387 0.0
0.0 1.36555004883 0.154726093026 0.0
0.0 1.36655004883 0.154552082989 0.0
0.0 1.36755004883 0.154376534405 0.0
0.0 1.36855004883 0.154202992312 0.0
0.0 1.36955004883 0.154028192809 0.0
0.0 1.37055004883 0.153854414367 0.0
0.0 1.37155004883 0.153681088636 0.0
0.0 1.37255004883 0.153506909941 0.0
0.0 1.37355004883 0.153333497488 0.0
0.0 1.37455004883 0.153159839701 0.0
0.0 1.37555004883 0.152986957011 0.0
0.0 1.37655004883 0.152814870626 0.0
0.0 1.37755004883 0.152641585153 0.0
0.0 1.37855004883 0.152468707322 0.0
0.0 1.37955004883 0.152294425929 0.0
0.0 1.38055004883 0.152124731043 0.0
0.0 1.38155004883 0.151952682812 0.0
0.0 1.38255004883 0.151779617803 0.0
0.0 1.38355004883 0.151608552148 0.0
0.0 1.38455004883 0.151437493601 0.0
0.0 1.38555004883 0.151265490395 0.0
0.0 1.38655004883 0.15109516118 0.0
0.0 1.38755004883 0.150923381105 0.0
0.0 1.38855004883 0.150751460964 0.0
0.0 1.38955004883 0.15058193437 0.0
0.0 1.39055004883 0.150411290223 0.0
0.0 1.39155004883 0.15024043217 0.0
0.0 1.39255004883 0.150071200972 0.0
0.0 1.39355004883 0.149901289247 0.0
0.0 1.39455004883 0.149732037015 0.0
0.0 1.39555004883 0.149563059048 0.0
0.0 1.39655004883 0.149392953754 0.0
0.0 1.39755004883 0.149222589722 0.0
0.0 1.39855004883 0.149054893038 0.0
0.0 1.39955004883 0.148886488593 0.0
0.0 1.40055004883 0.148717148374 0.0
0.0 1.40155004883 0.148549622213 0.0
0.0 1.40255004883 0.14837983832 0.0
0.0 1.40355004883 0.148211390752 0.0
0.0 1.40455004883 0.148044162228 0.0
0.0 1.40555004883 0.147877378516 0.0
0.0 1.40655004883 0.147711129788 0.0
0.0 1.40755004883 0.147541447102 0.0
0.0 1.40855004883 0.147375174788 0.0
0.0 1.40955004883 0.147207935856 0.0
0.0 1.41055004883 0.147042207066 0.0
0.0 1.41155004883 0.146877236663 0.0
0.0 1.41255004883 0.146707872481 0.0
0.0 1.41355004883 0.14654347504 0.0
0.0 1.41455004883 0.146378641978 0.0
0.0 1.41555004883 0.146211629177 0.0
0.0 1.41655004883 0.14604572614 0.0
0.0 1.41755004883 0.145882126757 0.0
0.0 1.41855004883 0.145716555193 0.0
0.0 1.41955004883 0.145551966553 0.0
0.0 1.42055004883 0.145386758137 0.0
0.0 1.42155004883 0.145221386745 0.0
0.0 1.42255004883 0.145058204264 0.0
0.0 1.42355004883 0.144893661502 0.0
0.0 1.42455004883 0.144730744528 0.0
0.0 1.42555004883 0.14456502424 0.0
0.0 1.42655004883 0.144404022697 0.0
0.0 1.42755004883 0.144238313386 0.0
0.0 1.42855004883 0.144076999419 0.0
0.0 1.42955004883 0.143913429509 0.0
0.0 1.43055004883 0.143751451229 0.0
0.0 1.43155004883 0.143587878732 0.0
0.0 1.43255004883 0.143426565604 0.0
0.0 1.43355004883 0.143264349097 0.0
0.0 1.43455004883 0.143101161697 0.0
0.0 1.43555004883 0.142942006501 0.0
0.0 1.43655004883 0.14277845416 0.0
0.0 1.43755004883 0.142618991471 0.0
0.0 1.43855004883 0.142456232782 0.0
0.0 1.43955004883 0.142296222648 0.0
0.0 1.44055004883 0.142135086878 0.0
0.0 1.44155004883 0.141976175332 0.0
0.0 1.44255004883 0.141814596656 0.0
0.0 1.44355004883 0.14165530255 0.0
0.0 1.44455004883 0.141496029592 0.0
0.0 1.44555004883 0.141334701329 0.0
0.0 1.44655004883 0.14117748448 0.0
0.0 1.44755004883 0.141017421955 0.0
0.0 1.44855004883 0.140859156181 0.0
0.0 1.44955004883 0.140699279924 0.0
0.0 1.45055004883 0.140539850002 0.0
0.0 1.45155004883 0.140382758898 0.0
0.0 1.45255004883 0.140225382886 0.0
0.0 1.45355004883 0.140068010516 0.0
0.0 1.45455004883 0.139908923161 0.0
0.0 1.45555004883 0.139753433139 0.0
0.0 1.45655004883 0.139596932412 0.0
0.0 1.45755004883 0.139438990767 0.0
0.0 1.45855004883 0.139281310804 0.0
0.0 1.45955004883 0.139125099358 0.0
0.0 1.46055004883 0.138969465261 0.0
0.0 1.46155004883 0.138813705364 0.0
0.0 1.46255004883 0.138657097198 0.0
0.0 1.46355004883 0.138500344882 0.0
0.0 1.46455004883 0.138347817871 0.0
0.0 1.46555004883 0.13819148091 0.0
0.0 1.46655004883 0.138035078654 0.0
0.0 1.46755004883 0.137882161556 0.0
0.0 1.46855004883 0.137727590934 0.0
0.0 1.46955004883 0.137572284142 0.0
0.0 1.47055004883 0.137418068277 0.0
0.0 1.47155004883 0.137265006926 0.0
0.0 1.47255004883 0.137111514103 0.0
0.0 1.47355004883 0.136957646852 0.0
0.0 1.47455004883 0.136804849144 0.0
0.0 1.47555004883 0.13665297975 0.0
0.0 1.47655004883 0.136498474652 0.0
0.0 1.47755004883 0.136347191984 0.0
0.0 1.47855004883 0.136195100278 0.0
0.0 1.47955004883 0.136041822137 0.0
0.0 1.48055004883 0.135892961397 0.0
0.0 1.48155004883 0.135740008255 0.0
0.0 1.48255004883 0.13558771503 0.0
0.0 1.48355004883 0.135438447349 0.0
0.0 1.48455004883 0.135287379504 0.0
0.0 1.48555004883 0.135133814615 0.0
0.0 1.48655004883 0.134984614905 0.0
0.0 1.48755004883 0.13483675115 0.0
0.0 1.48855004883 0.134686103839 0.0
0.0 1.48955004883 0.134536658462 0.0
0.0 1.49055004883 0.134387538445 0.0
0.0 1.49155004883 0.134238170306 0.0
0.0 1.49255004883 0.134088959282 0.0
0.0 1.49355004883 0.133939046647 0.0
0.0 1.49455004883 0.133792261532 0.0
0.0 1.49555004883 0.133641701367 0.0
0.0 1.49655004883 0.133494968017 0.0
0.0 1.49755004883 0.13334592085 0.0
0.0 1.49855004883 0.133199072092 0.0
0.0 1.49955004883 0.133050799864 0.0
0.0 1.50055004883 0.132904536082 0.0
0.0 1.50155004883 0.13275633579 0.0
0.0 1.50255004883 0.132611001507 0.0
0.0 1.50355004883 0.132464994949 0.0
0.0 1.50455004883 0.132319005174 0.0
0.0 1.50555004883 0.13217220239 0.0
0.0 1.50655004883 0.132025944551 0.0
0.0 1.50755004883 0.131881464083 0.0
0.0 1.50855004883 0.131736960608 0.0
0.0 1.50955004883 0.131591795401 0.0
0.0 1.51055004883 0.131446088671 0.0
0.0 1.51155004883 0.131302838039 0.0
0.0 1.51255004883 0.131157867963 0.0
0.0 1.51355004883 0.131014787874 0.0
0.0 1.51455004883 0.130870343985 0.0
0.0 1.51555004883 0.130727886411 0.0
0.0 1.51655004883 0.130584013749 0.0
0.0 1.51755004883 0.13044117598 0.0
0.0 1.51855004883 0.130298658458 0.0
0.0 1.51955004883 0.130155797736 0.0
0.0 1.52055004883 0.130013058376 0.0
0.0 1.52155004883 0.129871830717 0.0
0.0 1.52255004883 0.129730473219 0.0
0.0 1.52355004883 0.12958881877 0.0
0.0 1.52455004883 0.129446870149 0.0
0.0 1.52555004883 0.129307082256 0.0
0.0 1.52655004883 0.129165898237 0.0
0.0 1.52755004883 0.129024977354 0.0
0.0 1.52855004883 0.128887240875 0.0
0.0 1.52955004883 0.128745039662 0.0
0.0 1.53055004883 0.128605750587 0.0
0.0 1.53155004883 0.128465784751 0.0
0.0 1.53255004883 0.128328326728 0.0
0.0 1.53355004883 0.128187955078 0.0
0.0 1.53455004883 0.128049813781 0.0
0.0 1.53555004883 0.127911031694 0.0
0.0 1.53655004883 0.127774488846 0.0
0.0 1.53755004883 0.127636129429 0.0
0.0 1.53855004883 0.127497084386 0.0
0.0 1.53955004883 0.127360322581 0.0
0.0 1.54055004883 0.127223322014 0.0
0.0 1.54155004883 0.127088338549 0.0
0.0 1.54255004883 0.12694894294 0.0
0.0 1.54355004883 0.126813812332 0.0
0.0 1.54455004883 0.126677521232 0.0
0.0 1.54555004883 0.126541156663 0.0
0.0 1.54655004883 0.126407454721 0.0
0.0 1.54755004883 0.126271067606 0.0
0.0 1.54855004883 0.126138816747 0.0
0.0 1.54955004883 0.126001549298 0.0
0.0 1.55055004883 0.125864572782 0.0
0.0 1.55155004883 0.125733609732 0.0
0.0 1.55255004883 0.125598593016 0.0
0.0 1.55355004883 0.125464262148 0.0
0.0 1.55455004883 0.125330586536 0.0
0.0 1.55555004883 0.125199189048 0.0
0.0 1.55655004883 0.125064910184 0.0
0.0 1.55755004883 0.124935007709 0.0
0.0 1.55855004883 0.124801200247 0.0
0.0 1.55955004883 0.124668882838 0.0
0.0 1.56055004883 0.12453853142 0.0
0.0 1.56155004883 0.124405295823 0.0
0.0 1.56255004883 0.124275415141 0.0
0.0 1.56355004883 0.124145693104 0.0
0.0 1.56455004883 0.124013473934 0.0
0.0 1.56555004883 0.123883840022 0.0
0.0 1.56655004883 0.123751912474 0.0
0.0 1.56755004883 0.123623145143 0.0
0.0 1.56855004883 0.123492393531 0.0
0.0 1.56955004883 0.123363824886 0.0
0.0 1.57055004883 0.123233688573 0.0
0.0 1.57155004883 0.123103902884 0.0
0.0 1.57255004883 0.122978372559 0.0
0.0 1.57355004883 0.122848251398 0.0
0.0 1.57455004883 0.122721543801 0.0
0.0 1.57555004883 0.122592943478 0.0
0.0 1.57655004883 0.122467487608 0.0
0.0 1.57755004883 0.122337912023 0.0
0.0 1.57855004883 0.12221267917 0.0
0.0 1.57955004883 0.122086996549 0.0
0.0 1.58055004883 0.121959014584 0.0
0.0 1.58155004883 0.121832752464 0.0
0.0 1.58255004883 0.121708308886 0.0
0.0 1.58355004883 0.121581767866 0.0
0.0 1.58455004883 0.121457099109 0.0
0.0 1.58555004883 0.121332578912 0.0
0.0 1.58655004883 0.12120855292 0.0
0.0 1.58755004883 0.121083441341 0.0
0.0 1.58855004883 0.120957748346 0.0
0.0 1.58955004883 0.120836006673 0.0
0.0 1.59055004883 0.120712915181 0.0
0.0 1.59155004883 0.120587014588 0.0
0.0 1.59255004883 0.120465374855 0.0
0.0 1.59355004883 0.120340673832 0.0
0.0 1.59455004883 0.120220071524 0.0
0.0 1.59555004883 0.120099732295 0.0
0.0 1.59655004883 0.119977512151 0.0
0.0 1.59755004883 0.11985545876 0.0
0.0 1.59855004883 0.119734700603 0.0
0.0 1.59955004883 0.119614483122 0.0
0.0 1.60055004883 0.119493949703 0.0
0.0 1.60155004883 0.119370100527 0.0
0.0 1.60255004883 0.119253487696 0.0
0.0 1.60355004883 0.119131394331 0.0
0.0 1.60455004883 0.119015197105 0.0
0.0 1.60555004883 0.11889284578 0.0
0.0 1.60655004883 0.118777877361 0.0
0.0 1.60755004883 0.118656935823 0.0
0.0 1.60855004883 0.11853871135 0.0
0.0 1.60955004883 0.118418826772 0.0
0.0 1.61055004883 0.118305439824 0.0
0.0 1.61155004883 0.118188460701 0.0
0.0 1.61255004883 0.118067867066 0.0
0.0 1.61355004883 0.117950510595 0.0
0.0 1.61455004883 0.11783710449 0.0
0.0 1.61555004883 0.117721476299 0.0
0.0 1.61655004883 0.11760336559 0.0
0.0 1.61755004883 0.117485750222 0.0
0.0 1.61855004883 0.117374755308 0.0
0.0 1.61955004883 0.11725969852 0.0
0.0 1.62055004883 0.117142782037 0.0
0.0 1.62155004883 0.117027540696 0.0
0.0 1.62255004883 0.116914806994 0.0
0.0 1.62355004883 0.116800419739 0.0
0.0 1.62455004883 0.116687039428 0.0
0.0 1.62555004883 0.116574521603 0.0
0.0 1.62655004883 0.11646145428 0.0
0.0 1.62755004883 0.116349750676 0.0
0.0 1.62855004883 0.116235325691 0.0
0.0 1.62955004883 0.116125268872 0.0
0.0 1.63055004883 0.116013579504 0.0
0.0 1.63155004883 0.115902600252 0.0
0.0 1.63255004883 0.115791398125 0.0
0.0 1.63355004883 0.115679304536 0.0
0.0 1.63455004883 0.115571370062 0.0
0.0 1.63555004883 0.115458612189 0.0
0.0 1.63655004883 0.115351772 0.0
0.0 1.63755004883 0.115239651372 0.0
0.0 1.63855004883 0.115130491723 0.0
0.0 1.63955004883 0.115020183039 0.0
0.0 1.64055004883 0.114912617856 0.0
0.0 1.64155004883 0.114805036735 0.0
0.0 1.64255004883 0.114695612222 0.0
0.0 1.64355004883 0.114591934629 0.0
0.0 1.64455004883 0.114481242397 0.0
0.0 1.64555004883 0.114376473414 0.0
0.0 1.64655004883 0.114269796447 0.0
0.0 1.64755004883 0.114163200209 0.0
0.0 1.64855004883 0.114056487999 0.0
0.0 1.64955004883 0.113949100004 0.0
0.0 1.65055004883 0.113847479432 0.0
0.0 1.65155004883 0.113740892701 0.0
0.0 1.65255004883 0.113636318274 0.0
0.0 1.65355004883 0.11352920456 0.0
0.0 1.65455004883 0.113430242385 0.0
0.0 1.65555004883 0.113323102947 0.0
0.0 1.65655004883 0.113218274412 0.0
0.0 1.65755004883 0.11311411297 0.0
0.0 1.65855004883 0.113012692281 0.0
0.0 1.65955004883 0.11291040875 0.0
0.0 1.66055004883 0.112808703493 0.0
0.0 1.66155004883 0.112705245747 0.0
0.0 1.66255004883 0.112602830433 0.0
0.0 1.66355004883 0.112501811541 0.0
0.0 1.66455004883 0.112403169843 0.0
0.0 1.66555004883 0.112299094928 0.0
0.0 1.66655004883 0.112200077882 0.0
0.0 1.66755004883 0.112099642919 0.0
0.0 1.66855004883 0.112001137367 0.0
0.0 1.66955004883 0.111899504024 0.0
0.0 1.67055004883 0.111800745999 0.0
0.0 1.67155004883 0.111703128533 0.0
0.0 1.67255004883 0.111606850985 0.0
0.0 1.67355004883 0.111506726848 0.0
0.0 1.67455004883 0.1114096831 0.0
0.0 1.67555004883 0.111310280636 0.0
0.0 1.67655004883 0.111216505793 0.0
0.0 1.67755004883 0.111118173601 0.0
0.0 1.67855004883 0.111023354288 0.0
0.0 1.67955004883 0.110928707806 0.0
0.0 1.68055004883 0.110826109075 0.0
0.0 1.68155004883 0.110732977877 0.0
0.0 1.68255004883 0.110638232855 0.0
0.0 1.68355004883 0.110543600911 0.0
0.0 1.68455004883 0.110450707127 0.0
0.0 1.68555004883 0.110353945108 0.0
0.0 1.68655004883 0.110263702676 0.0
0.0 1.68755004883 0.110167221324 0.0
0.0 1.68855004883 0.110073483283 0.0
0.0 1.68955004883 0.10998387998 0.0
0.0 1.69055004883 0.109891260243 0.0
0.0 1.69155004883 0.109794898524 0.0
0.0 1.69255004883 0.10970806964 0.0
0.0 1.69355004883 0.109612817419 0.0
0.0 1.69455004883 0.109525364817 0.0
0.0 1.69555004883 0.109432536321 0.0
0.0 1.69655004883 0.109344499331 0.0
0.0 1.69755004883 0.10925230031 0.0
0.0 1.69855004883 0.109159685147 0.0
0.0 1.69955004883 0.109073847112 0.0
0.0 1.70055004883 0.10898230413 0.0
0.0 1.70155004883 0.108894904149 0.0
0.0 1.70255004883 0.108804952888 0.0
0.0 1.70355004883 0.108718802835 0.0
0.0 1.70455004883 0.108630241798 0.0
0.0 1.70555004883 0.108542850931 0.0
0.0 1.70655004883 0.108456381641 0.0
0.0 1.70755004883 0.108369083722 0.0
0.0 1.70855004883 0.108282861913 0.0
0.0 1.70955004883 0.108200430425 0.0
0.0 1.71055004883 0.108112896349 0.0
0.0 1.71155004883 0.108024835771 0.0
0.0 1.71255004883 0.107942010733 0.0
0.0 1.71355004883 0.107856404621 0.0
0.0 1.71455004883 0.107774402069 0.0
0.0 1.71555004883 0.107689476122 0.0
0.0 1.71655004883 0.107603944624 0.0
0.0 1.71755004883 0.107522235718 0.0
0.0 1.71855004883 0.107436661415 0.0
0.0 1.71955004883 0.107355170178 0.0
0.0 1.72055004883 0.107275671526 0.0
0.0 1.72155004883 0.107192805954 0.0
0.0 1.72255004883 0.10711251608 0.0
0.0 1.72355004883 0.107030856443 0.0
0.0 1.72455004883 0.106949016307 0.0
0.0 1.72555004883 0.106870117443 0.0
0.0 1.72655004883 0.106790153812 0.0
0.0 1.72755004883 0.106708283979 0.0
0.0 1.72855004883 0.106633768151 0.0
0.0 1.72955004883 0.106553306233 0.0
0.0 1.73055004883 0.106471013331 0.0
0.0 1.73155004883 0.106395134578 0.0
0.0 1.73255004883 0.106317040683 0.0
0.0 1.73355004883 0.106238433314 0.0
0.0 1.73455004883 0.10616322029 0.0
0.0 1.73555004883 0.106085580235 0.0
0.0 1.73655004883 0.106010052906 0.0
0.0 1.73755004883 0.105933615767 0.0
0.0 1.73855004883 0.105856714421 0.0
0.0 1.73955004883 0.105781231955 0.0
0.0 1.74055004883 0.105710231949 0.0
0.0 1.74155004883 0.1056318033 0.0
0.0 1.74255004883 0.105556619728 0.0
0.0 1.74355004883 0.105481334459 0.0
0.0 1.74455004883 0.105409433284 0.0
0.0 1.74555004883 0.105337287996 0.0
0.0 1.74655004883 0.105264090545 0.0
0.0 1.74755004883 0.105189844972 0.0
0.0 1.74855004883 0.105121817915 0.0
0.0 1.74955004883 0.105046957355 0.0
0.0 1.75055004883 0.104975465557 0.0
0.0 1.75155004883 0.104902866425 0.0
0.0 1.75255004883 0.1048310269 0.0
0.0 1.75355004883 0.104766195819 0.0
0.0 1.75455004883 0.10469189198 0.0
0.0 1.75555004883 0.104627779281 0.0
0.0 1.75655004883 0.104551852126 0.0
0.0 1.75755004883 0.104487336513 0.0
0.0 1.75855004883 0.104416565928 0.0
0.0 1.75955004883 0.104351419903 0.0
0.0 1.76055004883 0.104278024956 0.0
0.0 1.76155004883 0.104213198743 0.0
0.0 1.76255004883 0.104143974219 0.0
0.0 1.76355004883 0.104081662265 0.0
0.0 1.76455004883 0.104013772447 0.0
0.0 1.76555004883 0.103946267456 0.0
0.0 1.76655004883 0.103882169524 0.0
0.0 1.76755004883 0.103816686326 0.0
0.0 1.76855004883 0.103751347172 0.0
0.0 1.76955004883 0.103685790255 0.0
0.0 1.77055004883 0.103625576251 0.0
0.0 1.77155004883 0.103560119214 0.0
0.0 1.77255004883 0.10349707955 0.0
0.0 1.77355004883 0.103433277715 0.0
0.0 1.77455004883 0.103369142865 0.0
0.0 1.77555004883 0.103312173892 0.0
0.0 1.77655004883 0.103248295177 0.0
0.0 1.77755004883 0.10318599397 0.0
0.0 1.77855004883 0.103127745711 0.0
0.0 1.77955004883 0.103064341704 0.0
0.0 1.78055004883 0.103003567773 0.0
0.0 1.78155004883 0.102944033008 0.0
0.0 1.78255004883 0.102886137201 0.0
0.0 1.78355004883 0.102827073693 0.0
0.0 1.78455004883 0.102765908021 0.0
0.0 1.78555004883 0.102709235458 0.0
0.0 1.78655004883 0.102652702194 0.0
0.0 1.78755004883 0.102593709178 0.0
0.0 1.78855004883 0.102535000783 0.0
0.0 1.78955004883 0.102476914592 0.0
0.0 1.79055004883 0.102419682946 0.0
0.0 1.79155004883 0.102369357269 0.0
0.0 1.79255004883 0.102309529563 0.0
0.0 1.79355004883 0.102256640507 0.0
0.0 1.79455004883 0.102198775859 0.0
0.0 1.79555004883 0.102147105447 0.0
0.0 1.79655004883 0.102094628216 0.0
0.0 1.79755004883 0.102036321598 0.0
0.0 1.79855004883 0.101985377508 0.0
0.0 1.79955004883 0.101933789629 0.0
0.0 1.80055004883 0.10187675846 0.0
0.0 1.80155004883 0.101826949943 0.0
0.0 1.80255004883 0.101776316429 0.0
0.0 1.80355004883 0.101725689956 0.0
0.0 1.80455004883 0.101670927925 0.0
0.0 1.80555004883 0.10162352513 0.0
0.0 1.80655004883 0.101572605696 0.0
0.0 1.80755004883 0.101522954515 0.0
0.0 1.80855004883 0.101475388749 0.0
0.0 1.80955004883 0.101424706568 0.0
0.0 1.81055004883 0.101379510107 0.0
0.0 1.81155004883 0.101328199303 0.0
0.0 1.81255004883 0.101284305748 0.0
0.0 1.81355004883 0.101233145039 0.0
0.0 1.81455004883 0.101188267978 0.0
0.0 1.81555004883 0.10114168852 0.0
0.0 1.81655004883 0.101090806722 0.0
0.0 1.81755004883 0.101047059236 0.0
0.0 1.81855004883 0.101002281808 0.0
0.0 1.81955004883 0.100957265788 0.0
0.0 1.82055004883 0.100909071201 0.0
0.0 1.82155004883 0.100865588315 0.0
0.0 1.82255004883 0.10082288037 0.0
0.0 1.82355004883 0.10078562615 0.0
0.0 1.82455004883 0.100735776784 0.0
0.0 1.82555004883 0.100695593369 0.0
0.0 1.82655004883 0.100649134803 0.0
0.0 1.82755004883 0.100612642592 0.0
0.0 1.82855004883 0.100570086824 0.0
0.0 1.82955004883 0.100523004287 0.0
0.0 1.83055004883 0.100491974613 0.0
0.0 1.83155004883 0.100448508515 0.0
0.0 1.83255004883 0.100413549842 0.0
0.0 1.83355004883 0.100365148666 0.0
0.0 1.83455004883 0.100325982992 0.0
0.0 1.83555004883 0.100294566398 0.0
0.0 1.83655004883 0.10025454388 0.0
0.0 1.83755004883 0.100213435676 0.0
0.0 1.83855004883 0.100176820186 0.0
0.0 1.83955004883 0.100142771305 0.0
0.0 1.84055004883 0.10010940093 0.0
0.0 1.84155004883 0.100063491596 0.0
0.0 1.84255004883 0.100027720034 0.0
0.0 1.84355004883 0.099997867206 0.0
0.0 1.84455004883 0.0999639228228 0.0
0.0 1.84555004883 0.0999288536792 0.0
0.0 1.84655004883 0.0998978647032 0.0
0.0 1.84755004883 0.0998623436478 0.0
0.0 1.84855004883 0.0998250936209 0.0
0.0 1.84955004883 0.0997992975526 0.0
0.0 1.85055004883 0.0997572866599 0.0
0.0 1.85155004883 0.0997307966007 0.0
0.0 1.85255004883 0.0996994704582 0.0
0.0 1.85355004883 0.0996693029072 0.0
0.0 1.85455004883 0.0996336920577 0.0
0.0 1.85555004883 0.0996044084059 0.0
0.0 1.85655004883 0.0995801395126 0.0
0.0 1.85755004883 0.0995429146009 0.0
0.0 1.85855004883 0.0995175926728 0.0
0.0 1.85955004883 0.0994908201122 0.0
0.0 1.86055004883 0.0994582554523 0.0
0.0 1.86155004883 0.0994273786769 0.0
0.0 1.86255004883 0.099407901142 0.0
0.0 1.86355004883 0.0993793362178 0.0
0.0 1.86455004883 0.0993504573671 0.0
0.0 1.86555004883 0.099320187164 0.0
0.0 1.86655004883 0.0992992919405 0.0
0.0 1.86755004883 0.0992766724895 0.0
0.0 1.86855004883 0.0992498833701 0.0
0.0 1.86955004883 0.0992242874143 0.0
0.0 1.87055004883 0.0991994704961 0.0
0.0 1.87155004883 0.0991797898334 0.0
0.0 1.87255004883 0.0991547408674 0.0
0.0 1.87355004883 0.0991295997529 0.0
0.0 1.87455004883 0.0991101865769 0.0
0.0 1.87555004883 0.0990911233696 0.0
0.0 1.87655004883 0.0990701173308 0.0
0.0 1.87755004883 0.0990416514866 0.0
0.0 1.87855004883 0.0990293245619 0.0
0.0 1.87955004883 0.0990037453289 0.0
0.0 1.88055004883 0.0989827063864 0.0
0.0 1.88155004883 0.0989639617405 0.0
0.0 1.88255004883 0.0989437009471 0.0
0.0 1.88355004883 0.0989261944214 0.0
0.0 1.88455004883 0.0989104507542 0.0
0.0 1.88555004883 0.0988920909196 0.0
0.0 1.88655004883 0.0988757087215 0.0
0.0 1.88755004883 0.0988584474501 0.0
0.0 1.88855004883 0.0988407296452 0.0
0.0 1.88955004883 0.0988285135559 0.0
0.0 1.89055004883 0.0988121774031 0.0
0.0 1.89155004883 0.0987947177059 0.0
0.0 1.89255004883 0.0987810839273 0.0
0.0 1.89355004883 0.0987692571353 0.0
0.0 1.89455004883 0.0987549533979 0.0
0.0 1.89555004883 0.098738803628 0.0
0.0 1.89655004883 0.0987263279777 0.0
0.0 1.89755004883 0.098714068055 0.0
0.0 1.89855004883 0.0987024561879 0.0
0.0 1.89955004883 0.0986981487223 0.0
0.0 1.90055004883 0.0986806938713 0.0
0.0 1.90155004883 0.0986671672949 0.0
0.0 1.90255004883 0.098660188792 0.0
0.0 1.90355004883 0.0986498945757 0.0
0.0 1.90455004883 0.098640533503 0.0
0.0 1.90555004883 0.0986293929659 0.0
0.0 1.90655004883 0.0986251943144 0.0
0.0 1.90755004883 0.0986150002894 0.0
0.0 1.90855004883 0.098607589796 0.0
0.0 1.90955004883 0.0986050978312 0.0
0.0 1.91055004883 0.0985989235219 0.0
0.0 1.91155004883 0.0985878480962 0.0
0.0 1.91255004883 0.0985847031301 0.0
0.0 1.91355004883 0.0985805208026 0.0
0.0 1.91455004883 0.0985749212096 0.0
0.0 1.91555004883 0.0985684647553 0.0
0.0 1.91655004883 0.0985639088294 0.0
0.0 1.91755004883 0.0985654449142 0.0
0.0 1.91855004883 0.0985577095696 0.0
0.0 1.91955004883 0.0985535254875 0.0
0.0 1.92055004883 0.098561271689 0.0
0.0 1.92155004883 0.098550973226 0.0
0.0 1.92255004883 0.0985551285447 0.0
0.0 1.92355004883 0.0985509314479 0.0
0.0 1.92455004883 0.0985512043657 0.0
0.0 1.92555004883 0.098550155643 0.0
0.0 1.92655004883 0.098556580369 0.0
0.0 1.92755004883 0.0985518557205 0.0
0.0 1.92855004883 0.0985527445836 0.0
0.0 1.92955004883 0.0985626233052 0.0
0.0 1.93055004883 0.0985626580765 0.0
0.0 1.93155004883 0.0985654901963 0.0
0.0 1.93255004883 0.0985588321917 0.0
0.0 1.93355004883 0.0985692586746 0.0
0.0 1.93455004883 0.0985753626462 0.0
0.0 1.93555004883 0.0985754128733 0.0
0.0 1.93655004883 0.098579990639 0.0
0.0 1.93755004883 0.0985863440482 0.0
0.0 1.93855004883 0.098590908217 0.0
0.0 1.93955004883 0.0986056531365 0.0
0.0 1.94055004883 0.0986058386424 0.0
0.0 1.94155004883 0.098617597162 0.0
0.0 1.94255004883 0.0986179699101 0.0
0.0 1.94355004883 0.0986323254288 0.0
0.0 1.94455004883 0.0986408114651 0.0
0.0 1.94555004883 0.098647385712 0.0
0.0 1.94655004883 0.0986566554424 0.0
0.0 1.94755004883 0.0986701470594 0.0
0.0 1.94855004883 0.098678276169 0.0
0.0 1.94955004883 0.0986927879681 0.0
0.0 1.95055004883 0.0987030134078 0.0
0.0 1.95155004883 0.0987136990631 0.0
0.0 1.95255004883 0.098726201771 0.0
0.0 1.95355004883 0.0987396198645 0.0
0.0 1.95455004883 0.0987570521055 0.0
0.0 1.95555004883 0.0987698510941 0.0
0.0 1.95655004883 0.0987860001013 0.0
0.0 1.95755004883 0.098797522333 0.0
0.0 1.95855004883 0.0988138257833 0.0
0.0 1.95955004883 0.0988290231592 0.0
0.0 1.96055004883 0.0988455392207 0.0
0.0 1.96155004883 0.0988591894947 0.0
0.0 1.96255004883 0.0988765326864 0.0
0.0 1.96355004883 0.0988953329095 0.0
0.0 1.96455004883 0.0989113922853 0.0
0.0 1.96555004883 0.0989282113347 0.0
0.0 1.96655004883 0.0989521059526 0.0
0.0 1.96755004883 0.0989720871061 0.0
0.0 1.96855004883 0.0989855776011 0.0
0.0 1.96955004883 0.0990153610888 0.0
0.0 1.97055004883 0.099031832504 0.0
0.0 1.97155004883 0.0990555703718 0.0
0.0 1.97255004883 0.0990772226861 0.0
0.0 1.97355004883 0.0991017036491 0.0
0.0 1.97455004883 0.0991145428176 0.0
0.0 1.97555004883 0.0991458097327 0.0
0.0 1.97655004883 0.0991674070353 0.0
0.0 1.97755004883 0.0991949130686 0.0
0.0 1.97855004883 0.0992144616914 0.0
0.0 1.97955004883 0.0992449531368 0.0
0.0 1.98055004883 0.0992758144187 0.0
0.0 1.98155004883 0.0992889186523 0.0
0.0 1.98255004883 0.0993227861584 0.0
0.0 1.98355004883 0.0993474513521 0.0
0.0 1.98455004883 0.0993809644543 0.0
0.0 1.98555004883 0.0993990614301 0.0
0.0 1.98655004883 0.0994314814165 0.0
0.0 1.98755004883 0.0994642711945 0.0
0.0 1.98855004883 0.0994945184171 0.0
0.0 1.98955004883 0.0995161501242 0.0
0.0 1.99055004883 0.0995504595629 0.0
0.0 1.99155004883 0.0995843516532 0.0
0.0 1.99255004883 0.0996250528641 0.0
0.0 1.99355004883 0.0996451822975 0.0
0.0 1.99455004883 0.0996777271175 0.0
0.0 1.99555004883 0.0997165549591 0.0
0.0 1.99655004883 0.0997435832932 0.0
0.0 1.99755004883 0.0997814905949 0.0
0.0 1.99855004883 0.0998144931352 0.0
0.0 1.99955004883 0.0998516516421 0.0
0.0 2.00055004883 0.0998884320506 0.0
0.0 2.00155004883 0.0999204882716 0.0
0.0 2.00255004883 0.0999577526792 0.0
0.0 2.00355004883 0.0999941401823 0.0
0.0 2.00455004883 0.100037667966 0.0
0.0 2.00555004883 0.100070769831 0.0
0.0 2.00655004883 0.100107330056 0.0
0.0 2.00755004883 0.100144035258 0.0
0.0 2.00855004883 0.10018903263 0.0
0.0 2.00955004883 0.100231267796 0.0
0.0 2.01055004883 0.100272365967 0.0
0.0 2.01155004883 0.100308964479 0.0
0.0 2.01255004883 0.100347353983 0.0
0.0 2.01355004883 0.100396627465 0.0
0.0 2.01455004883 0.100433385514 0.0
0.0 2.01555004883 0.100480212935 0.0
0.0 2.01655004883 0.100523292088 0.0
0.0 2.01755004883 0.100560639166 0.0
0.0 2.01855004883 0.100615765223 0.0
0.0 2.01955004883 0.100653082476 0.0
0.0 2.02055004883 0.100709689383 0.0
0.0 2.02155004883 0.100739303452 0.0
0.0 2.02255004883 0.100797991852 0.0
0.0 2.02355004883 0.100832726214 0.0
0.0 2.02455004883 0.100889502131 0.0
0.0 2.02555004883 0.100935748498 0.0
0.0 2.02655004883 0.100982913821 0.0
0.0 2.02755004883 0.101033718197 0.0
0.0 2.02855004883 0.101082759947 0.0
0.0 2.02955004883 0.101131646783 0.0
0.0 2.03055004883 0.101181288251 0.0
0.0 2.03155004883 0.101230016218 0.0
0.0 2.03255004883 0.101284146467 0.0
0.0 2.03355004883 0.10133655505 0.0
0.0 2.03455004883 0.101386940694 0.0
0.0 2.03555004883 0.101441880238 0.0
0.0 2.03655004883 0.101490138279 0.0
0.0 2.03755004883 0.101548223756 0.0
0.0 2.03855004883 0.101607962995 0.0
0.0 2.03955004883 0.101660877933 0.0
0.0 2.04055004883 0.101714095639 0.0
0.0 2.04155004883 0.101766550169 0.0
0.0 2.04255004883 0.101825335145 0.0
0.0 2.04355004883 0.101885599408 0.0
0.0 2.04455004883 0.101937514264 0.0
0.0 2.04555004883 0.101999151809 0.0
0.0 2.04655004883 0.102062750603 0.0
0.0 2.04755004883 0.102117886476 0.0
0.0 2.04855004883 0.102179699549 0.0
0.0 2.04955004883 0.10223669258 0.0
0.0 2.05055004883 0.10229801655 0.0
0.0 2.05155004883 0.102357182175 0.0
0.0 2.05255004883 0.102420297249 0.0
0.0 2.05355004883 0.102488205496 0.0
0.0 2.05455004883 0.102554467567 0.0
0.0 2.05555004883 0.10260936004 0.0
0.0 2.05655004883 0.102670747119 0.0
0.0 2.05755004883 0.102735294028 0.0
0.0 2.05855004883 0.1028029263 0.0
0.0 2.05955004883 0.102863893189 0.0
0.0 2.06055004883 0.102928952096 0.0
0.0 2.06155004883 0.102998302416 0.0
0.0 2.06255004883 0.103065570409 0.0
0.0 2.06355004883 0.103139976849 0.0
0.0 2.06455004883 0.103201519643 0.0
0.0 2.06555004883 0.103263977394 0.0
0.0 2.06655004883 0.103343226014 0.0
0.0 2.06755004883 0.103413799362 0.0
0.0 2.06855004883 0.103473637492 0.0
0.0 2.06955004883 0.103550247418 0.0
0.0 2.07055004883 0.103620130527 0.0
0.0 2.07155004883 0.103690391676 0.0
0.0 2.07255004883 0.103759703111 0.0
0.0 2.07355004883 0.103833064302 0.0
0.0 2.07455004883 0.103913926311 0.0
0.0 2.07555004883 0.103977537045 0.0
0.0 2.07655004883 0.104058512028 0.0
0.0 2.07755004883 0.10412947886 0.0
0.0 2.07855004883 0.104212773439 0.0
0.0 2.07955004883 0.104278667153 0.0
0.0 2.08055004883 0.104363984253 0.0
0.0 2.08155004883 0.104442998596 0.0
0.0 2.08255004883 0.104510491656 0.0
0.0 2.08355004883 0.104590442927 0.0
0.0 2.08455004883 0.104668442131 0.0
0.0 2.08555004883 0.104752550195 0.0
0.0 2.08655004883 0.104827458832 0.0
0.0 2.08755004883 0.104905713881 0.0
0.0 2.08855004883 0.104996457845 0.0
0.0 2.08955004883 0.105063509461 0.0
0.0 2.09055004883 0.105149629479 0.0
0.0 2.09155004883 0.105240104561 0.0
0.0 2.09255004883 0.105319917723 0.0
0.0 2.09355004883 0.105399915172 0.0
0.0 2.09455004883 0.105489276031 0.0
0.0 2.09555004883 0.105564288422 0.0
0.0 2.09655004883 0.105664668655 0.0
0.0 2.09755004883 0.105738253169 0.0
0.0 2.09855004883 0.105822083782 0.0
0.0 2.09955004883 0.105917738467 0.0
0.0 2.10055004883 0.105997537626 0.0
0.0 2.10155004883 0.106085630275 0.0
0.0 2.10255004883 0.106176108922 0.0
0.0 2.10355004883 0.106269763401 0.0
0.0 2.10455004883 0.106349611321 0.0
0.0 2.10555004883 0.106440901932 0.0
0.0 2.10655004883 0.10653893791 0.0
0.0 2.10755004883 0.106623555435 0.0
0.0 2.10855004883 0.10671760408 0.0
0.0 2.10955004883 0.106807658897 0.0
0.0 2.11055004883 0.106908012526 0.0
0.0 2.11155004883 0.106988325488 0.0
0.0 2.11255004883 0.107089499032 0.0
0.0 2.11355004883 0.107175053099 0.0
0.0 2.11455004883 0.107276969554 0.0
0.0 2.11555004883 0.107373926432 0.0
0.0 2.11655004883 0.107471797228 0.0
0.0 2.11755004883 0.107557885448 0.0
0.0 2.11855004883 0.107656504285 0.0
0.0 2.11955004883 0.107757808323 0.0
0.0 2.12055004883 0.107852500621 0.0
0.0 2.12155004883 0.107950474417 0.0
0.0 2.12255004883 0.108063529052 0.0
0.0 2.12355004883 0.108156596312 0.0
0.0 2.12455004883 0.108257825911 0.0
0.0 2.12555004883 0.108353846071 0.0
0.0 2.12655004883 0.108454106849 0.0
0.0 2.12755004883 0.108555851493 0.0
0.0 2.12855004883 0.108656048597 0.0
0.0 2.12955004883 0.108767091543 0.0
0.0 2.13055004883 0.108859790426 0.0
0.0 2.13155004883 0.108964227491 0.0
0.0 2.13255004883 0.109072950455 0.0
0.0 2.13355004883 0.109177318769 0.0
0.0 2.13455004883 0.109285668935 0.0
0.0 2.13555004883 0.109396790266 0.0
0.0 2.13655004883 0.109505101284 0.0
0.0 2.13755004883 0.109612895685 0.0
0.0 2.13855004883 0.109719527361 0.0
0.0 2.13955004883 0.109815198043 0.0
0.0 2.14055004883 0.10993391898 0.0
0.0 2.14155004883 0.110038152975 0.0
0.0 2.14255004883 0.110157313568 0.0
0.0 2.14355004883 0.110262186828 0.0
0.0 2.14455004883 0.110371527417 0.0
0.0 2.14555004883 0.110484381019 0.0
0.0 2.14655004883 0.110604175479 0.0
0.0 2.14755004883 0.110704928645 0.0
0.0 2.14855004883 0.110822394871 0.0
0.0 2.14955004883 0.110941845837 0.0
0.0 2.15055004883 0.111047935096 0.0
0.0 2.15155004883 0.111171438486 0.0
0.0 2.15255004883 0.111292790459 0.0
0.0 2.15355004883 0.111399981424 0.0
0.0 2.15455004883 0.111526856025 0.0
0.0 2.15555004883 0.111640195604 0.0
0.0 2.15655004883 0.111755925041 0.0
0.0 2.15755004883 0.111872276824 0.0
0.0 2.15855004883 0.11199044629 0.0
0.0 2.15955004883 0.112112499638 0.0
0.0 2.16055004883 0.112225603084 0.0
0.0 2.16155004883 0.112360020078 0.0
0.0 2.16255004883 0.112468697746 0.0
0.0 2.16355004883 0.112596026441 0.0
0.0 2.16455004883 0.112711673439 0.0
0.0 2.16555004883 0.11284800451 0.0
0.0 2.16655004883 0.112968580712 0.0
0.0 2.16755004883 0.113089371239 0.0
0.0 2.16855004883 0.113217134338 0.0
0.0 2.16955004883 0.113334286798 0.0
0.0 2.17055004883 0.113465549638 0.0
0.0 2.17155004883 0.113609095302 0.0
0.0 2.17255004883 0.113712832652 0.0
0.0 2.17355004883 0.11385519667 0.0
0.0 2.17455004883 0.113983929962 0.0
0.0 2.17555004883 0.114101909452 0.0
0.0 2.17655004883 0.114230335918 0.0
0.0 2.17755004883 0.114368727674 0.0
0.0 2.17855004883 0.114497729336 0.0
0.0 2.17955004883 0.114630242432 0.0
0.0 2.18055004883 0.114763722108 0.0
0.0 2.18155004883 0.114896647211 0.0
0.0 2.18255004883 0.115022532435 0.0
0.0 2.18355004883 0.115162223462 0.0
0.0 2.18455004883 0.115298077107 0.0
0.0 2.18555004883 0.115438264672 0.0
0.0 2.18655004883 0.115557799012 0.0
0.0 2.18755004883 0.115696073767 0.0
0.0 2.18855004883 0.115839294812 0.0
0.0 2.18955004883 0.115978776747 0.0
0.0 2.19055004883 0.116111530624 0.0
0.0 2.19155004883 0.116248123779 0.0
0.0 2.19255004883 0.116389450523 0.0
0.0 2.19355004883 0.116533052167 0.0
0.0 2.19455004883 0.116669123015 0.0
0.0 2.19555004883 0.116799752376 0.0
0.0 2.19655004883 0.116948096659 0.0
0.0 2.19755004883 0.117085100992 0.0
0.0 2.19855004883 0.117237906912 0.0
0.0 2.19955004883 0.117373979837 0.0
0.0 2.20055004883 0.117529878401 0.0
0.0 2.20155004883 0.117660115345 0.0
0.0 2.20255004883 0.117826209043 0.0
0.0 2.20355004883 0.117945441415 0.0
0.0 2.20455004883 0.11810047834 0.0
0.0 2.20555004883 0.118254033294 0.0
0.0 2.20655004883 0.118392869805 0.0
0.0 2.20755004883 0.118543669995 0.0
0.0 2.20855004883 0.118697575418 0.0
0.0 2.20955004883 0.118830999 0.0
0.0 2.21055004883 0.11899261659 0.0
0.0 2.21155004883 0.119151858014 0.0
0.0 2.21255004883 0.119295121061 0.0
0.0 2.21355004883 0.119446111107 0.0
0.0 2.21455004883 0.119594668084 0.0
0.0 2.21555004883 0.119748025524 0.0
0.0 2.21655004883 0.119897325035 0.0
0.0 2.21755004883 0.120046791057 0.0
0.0 2.21855004883 0.120216578484 0.0
0.0 2.21955004883 0.120363268264 0.0
0.0 2.22055004883 0.120510665186 0.0
0.0 2.22155004883 0.120673924632 0.0
0.0 2.22255004883 0.120837355603 0.0
0.0 2.22355004883 0.121003532578 0.0
0.0 2.22455004883 0.121136957764 0.0
0.0 2.22555004883 0.121310607122 0.0
0.0 2.22655004883 0.121460112813 0.0
0.0 2.22755004883 0.121620446109 0.0
0.0 2.22855004883 0.121779331527 0.0
0.0 2.22955004883 0.121939842098 0.0
0.0 2.23055004883 0.122120728406 0.0
0.0 2.23155004883 0.122274604358 0.0
0.0 2.23255004883 0.122431205478 0.0
0.0 2.23355004883 0.122607425446 0.0
0.0 2.23455004883 0.122752592018 0.0
0.0 2.23555004883 0.12293432171 0.0
0.0 2.23655004883 0.123106459896 0.0
0.0 2.23755004883 0.12325229014 0.0
0.0 2.23855004883 0.123421834529 0.0
0.0 2.23955004883 0.123603035484 0.0
0.0 2.24055004883 0.123757018466 0.0
0.0 2.24155004883 0.123930148898 0.0
0.0 2.24255004883 0.124109828963 0.0
0.0 2.24355004883 0.124269819174 0.0
0.0 2.24455004883 0.124447794591 0.0
0.0 2.24555004883 0.124624897972 0.0
0.0 2.24655004883 0.124780364887 0.0
0.0 2.24755004883 0.124950000668 0.0
0.0 2.24855004883 0.12513140772 0.0
0.0 2.24955004883 0.125285378534 0.0
0.0 2.25055004883 0.125475597316 0.0
0.0 2.25155004883 0.125644190755 0.0
0.0 2.25255004883 0.125818114669 0.0
0.0 2.25355004883 0.126004963566 0.0
0.0 2.25455004883 0.126168958281 0.0
0.0 2.25555004883 0.126364274416 0.0
0.0 2.25655004883 0.126546646959 0.0
0.0 2.25755004883 0.126722129706 0.0
0.0 2.25855004883 0.126867696193 0.0
0.0 2.25955004883 0.127059750262 0.0
0.0 2.26055004883 0.127245748562 0.0
0.0 2.26155004883 0.127430724973 0.0
0.0 2.26255004883 0.127591268693 0.0
0.0 2.26355004883 0.127786501084 0.0
0.0 2.26455004883 0.127974311024 0.0
0.0 2.26555004883 0.128150051282 0.0
0.0 2.26655004883 0.128331111798 0.0
0.0 2.26755004883 0.128531580918 0.0
0.0 2.26855004883 0.128699726962 0.0
0.0 2.26955004883 0.128885605385 0.0
0.0 2.27055004883 0.129066949463 0.0
0.0 2.27155004883 0.129274279397 0.0
0.0 2.27255004883 0.129458766736 0.0
0.0 2.27355004883 0.12962544334 0.0
0.0 2.27455004883 0.129833811983 0.0
0.0 2.27555004883 0.130012098857 0.0
0.0 2.27655004883 0.130195634136 0.0
0.0 2.27755004883 0.130405726296 0.0
0.0 2.27855004883 0.13057824437 0.0
0.0 2.27955004883 0.13077890902 0.0
0.0 2.28055004883 0.130967080128 0.0
0.0 2.28155004883 0.131159095256 0.0
0.0 2.28255004883 0.131354173747 0.0
0.0 2.28355004883 0.131553570584 0.0
0.0 2.28455004883 0.131736928547 0.0
0.0 2.28555004883 0.131938736609 0.0
0.0 2.28655004883 0.132128626881 0.0
0.0 2.28755004883 0.132333993466 0.0
0.0 2.28855004883 0.132531882529 0.0
0.0 2.28955004883 0.132725143641 0.0
0.0 2.29055004883 0.132928424261 0.0
0.0 2.29155004883 0.133117339839 0.0
0.0 2.29255004883 0.133327978919 0.0
0.0 2.29355004883 0.133528507837 0.0
0.0 2.29455004883 0.133724486328 0.0
0.0 2.29555004883 0.133926732296 0.0
0.0 2.29655004883 0.134131927054 0.0
0.0 2.29755004883 0.134335941028 0.0
0.0 2.29855004883 0.134537351309 0.0
0.0 2.29955004883 0.134740120901 0.0
0.0 2.30055004883 0.13494727411 0.0
0.0 2.30155004883 0.135150492191 0.0
0.0 2.30255004883 0.135361125137 0.0
0.0 2.30355004883 0.135567619833 0.0
0.0 2.30455004883 0.135773381633 0.0
0.0 2.30555004883 0.135975176413 0.0
0.0 2.30655004883 0.136194637776 0.0
0.0 2.30755004883 0.136400213606 0.0
0.0 2.30855004883 0.136611751428 0.0
0.0 2.30955004883 0.136820612581 0.0
0.0 2.31055004883 0.137035605195 0.0
0.0 2.31155004883 0.137245074187 0.0
0.0 2.31255004883 0.137452164934 0.0
0.0 2.31355004883 0.137670417271 0.0
0.0 2.31455004883 0.137886911029 0.0
0.0 2.31555004883 0.138097617619 0.0
0.0 2.31655004883 0.138313268519 0.0
0.0 2.31755004883 0.138533987123 0.0
0.0 2.31855004883 0.138746843355 0.0
0.0 2.31955004883 0.138965586687 0.0
0.0 2.32055004883 0.139182881367 0.0
0.0 2.32155004883 0.139406681213 0.0
0.0 2.32255004883 0.139617400323 0.0
0.0 2.32355004883 0.139841171415 0.0
0.0 2.32455004883 0.140061797198 0.0
0.0 2.32555004883 0.140283487395 0.0
0.0 2.32655004883 0.140504639921 0.0
0.0 2.32755004883 0.140725798512 0.0
0.0 2.32855004883 0.140950036793 0.0
0.0 2.32955004883 0.141175223179 0.0
0.0 2.33055004883 0.141400408861 0.0
0.0 2.33155004883 0.141622079228 0.0
0.0 2.33255004883 0.141851195586 0.0
0.0 2.33355004883 0.142075005991 0.0
0.0 2.33455004883 0.142303351747 0.0
0.0 2.33555004883 0.142530145098 0.0
0.0 2.33655004883 0.142760570026 0.0
0.0 2.33755004883 0.142989558878 0.0
0.0 2.33855004883 0.14321945927 0.0
0.0 2.33955004883 0.143446848869 0.0
0.0 2.34055004883 0.14367951043 0.0
0.0 2.34155004883 0.14391252145 0.0
0.0 2.34255004883 0.144144351528 0.0
0.0 2.34355004883 0.144376200988 0.0
0.0 2.34455004883 0.144612320634 0.0
0.0 2.34555004883 0.144847082325 0.0
0.0 2.34655004883 0.145081210966 0.0
0.0 2.34755004883 0.145317588609 0.0
0.0 2.34855004883 0.145555275791 0.0
0.0 2.34955004883 0.145790325461 0.0
0.0 2.35055004883 0.146026408373 0.0
0.0 2.35155004883 0.146268853788 0.0
0.0 2.35255004883 0.146507218823 0.0
0.0 2.35355004883 0.146747646385 0.0
0.0 2.35455004883 0.146985296605 0.0
0.0 2.35555004883 0.147227883764 0.0
0.0 2.35655004883 0.147469290857 0.0
0.0 2.35755004883 0.1477115899 0.0
0.0 2.35855004883 0.147955742094 0.0
0.0 2.35955004883 0.148199795713 0.0
0.0 2.36055004883 0.148443207212 0.0
0.0 2.36155004883 0.148688735529 0.0
0.0 2.36255004883 0.148934134214 0.0
0.0 2.36355004883 0.149181031308 0.0
0.0 2.36455004883 0.14942833169 0.0
0.0 2.36555004883 0.149675207122 0.0
0.0 2.36655004883 0.149923841359 0.0
0.0 2.36755004883 0.150173411881 0.0
0.0 2.36855004883 0.150423176648 0.0
0.0 2.36955004883 0.150673536703 0.0
0.0 2.37055004883 0.150924483523 0.0
0.0 2.37155004883 0.151176406191 0.0
0.0 2.37255004883 0.151428866489 0.0
0.0 2.37355004883 0.15168193837 0.0
0.0 2.37455004883 0.151935409964 0.0
0.0 2.37555004883 0.152190700228 0.0
0.0 2.37655004883 0.152445714074 0.0
0.0 2.37755004883 0.152701654382 0.0
0.0 2.37855004883 0.152958263593 0.0
0.0 2.37955004883 0.153215562511 0.0
0.0 2.38055004883 0.198779424372 0.0
0.0 2.38155004883 0.275247097022 0.0
0.0 2.38255004883 0.34441752247 0.0
0.0 2.38355004883 0.406986891228 0.0
0.0 2.38455004883 0.463585030103 0.0
0.0 2.38555004883 0.514781843878 0.0
0.0 2.38655004883 0.561092593487 0.0
0.0 2.38755004883 0.602983850717 0.0
0.0 2.38855004883 0.640877034497 0.0
0.0 2.38955004883 0.675153723793 0.0
0.0 2.39055004883 0.706159258697 0.0
0.0 2.39155004883 0.734205602085 0.0
0.0 2.39255004883 0.759575283703 0.0
0.0 2.39355004883 0.782523577683 0.0
0.0 2.39455004883 0.803281740559 0.0
0.0 2.39555004883 0.822058576748 0.0
0.0 2.39655004883 0.839043382568 0.0
0.0 2.39755004883 0.854407180392 0.0
0.0 2.39855004883 0.868304481814 0.0
0.0 2.39955004883 0.880875311201 0.0
0.0 2.40055004883 0.892246430833 0.0
0.0 2.40155004883 0.902532083599 0.0
0.0 2.40255004883 0.911836108668 0.0
0.0 2.40355004883 0.920251976709 0.0
0.0 2.40455004883 0.927864583179 0.0
0.0 2.40555004883 0.934750591375 0.0
0.0 2.40655004883 0.940979321568 0.0
0.0 2.40755004883 0.946613437844 0.0
0.0 2.40855004883 0.951709839734 0.0
0.0 2.40955004883 0.956319738025 0.0
0.0 2.41055004883 0.960489590772 0.0
0.0 2.41155004883 0.964261431421 0.0
0.0 2.41255004883 0.967673211769 0.0
0.0 2.41355004883 0.970759302392 0.0
0.0 2.41455004883 0.973550818367 0.0
0.0 2.41555004883 0.976075858284 0.0
0.0 2.41655004883 0.978359858056 0.0
0.0 2.41755004883 0.980425824061 0.0
0.0 2.41855004883 0.982294579725 0.0
0.0 2.41955004883 0.9839849297 0.0
0.0 2.42055004883 0.985513917962 0.0
0.0 2.42155004883 0.986896943958 0.0
0.0 2.42255004883 0.988147940833 0.0
0.0 2.42355004883 0.989279509652 0.0
0.0 2.42455004883 0.99030305172 0.0
0.0 2.42555004883 0.991228881917 0.0
0.0 2.42655004883 0.992066323511 0.0
0.0 2.42755004883 0.992823816587 0.0
0.0 2.42855004883 0.993508991342 0.0
0.0 2.42955004883 0.994128750089 0.0
0.0 2.43055004883 0.994689344623 0.0
0.0 2.43155004883 0.995196413215 0.0
0.0 2.43255004883 0.995655071992 0.0
0.0 2.43355004883 0.996069941682 0.0
0.0 2.43455004883 0.996445200194 0.0
0.0 2.43555004883 0.99678463157 0.0
0.0 2.43655004883 0.997091653689 0.0
0.0 2.43755004883 0.997369363908 0.0
0.0 2.43855004883 0.997620557569 0.0
0.0 2.43955004883 0.997847767124 0.0
0.0 2.44055004883 0.998053283672 0.0
0.0 2.44155004883 0.998239176177 0.0
0.0 2.44255004883 0.998407320094 0.0
0.0 2.44355004883 0.998559407996 0.0
0.0 2.44455004883 0.998696975233 0.0
0.0 2.44555004883 0.998821405862 0.0
0.0 2.44655004883 0.9989339558 0.0
0.0 2.44755004883 0.99903575862 0.0
0.0 2.44855004883 0.999127840091 0.0
0.0 2.44955004883 0.999211129167 0.0
0.0 2.45055004883 0.999286465227 0.0
0.0 2.45155004883 0.9993546075 0.0
0.0 2.45255004883 0.999416242556 0.0
0.0 2.45355004883 0.999471991845 0.0
0.0 2.45455004883 0.999522417588 0.0
0.0 2.45555004883 0.999568028267 0.0
0.0 2.45655004883 0.999609282952 0.0
0.0 2.45755004883 0.999646598378 0.0
0.0 2.45855004883 0.999680350271 0.0
0.0 2.45955004883 0.999710878772 0.0
0.0 2.46055004883 0.99973849208 0.0
0.0 2.46155004883 0.999763468208 0.0
0.0 2.46255004883 0.999786059181 0.0
0.0 2.46355004883 0.999806492683 0.0
0.0 2.46455004883 0.999824974784 0.0
0.0 2.46555004883 0.999841691852 0.0
0.0 2.46655004883 0.999856812299 0.0
0.0 2.46755004883 0.999870488722 0.0
0.0 2.46855004883 0.99988285901 0.0
0.0 2.46955004883 0.999894047795 0.0
0.0 2.47055004883 0.999904168005 0.0
0.0 2.47155004883 0.999913321699 0.0
0.0 2.47255004883 0.999921601076 0.0
0.0 2.47355004883 0.999929089712 0.0
0.0 2.47455004883 0.999935863117 0.0
0.0 2.47555004883 0.999941989566 0.0
0.0 2.47655004883 0.999947530885 0.0
0.0 2.47755004883 0.99995254291 0.0
0.0 2.47855004883 0.999957076227 0.0
0.0 2.47955004883 0.999961176561 0.0
0.0 2.48055004883 0.999964885224 0.0
0.0 2.48155004883 0.999968239664 0.0
0.0 2.48255004883 0.999971273691 0.0
0.0 2.48355004883 0.9999740179 0.0
0.0 2.48455004883 0.999976499986 0.0
0.0 2.48555004883 0.999978744993 0.0
0.0 2.48655004883 0.999980775543 0.0
0.0 2.48755004883 0.999982612139 0.0
0.0 2.48855004883 0.99998427329 0.0
0.0 2.48955004883 0.999985775761 0.0
0.0 2.49055004883 0.99998713471 0.0
0.0 2.49155004883 0.999988363844 0.0
0.0 2.49255004883 0.999989475565 0.0
0.0 2.49355004883 0.999990481082 0.0
0.0 2.49455004883 0.999991390538 0.0
0.0 2.49555004883 0.999992213123 0.0
0.0 2.49655004883 0.999992957121 0.0
0.0 2.49755004883 0.999993630044 0.0
0.0 2.49855004883 0.999994238685 0.0
0.0 2.49955004883 0.999994789176 0.0
0.0 2.50055004883 0.999995287079 0.0
0.0 2.50155004883 0.999995737407 0.0
0.0 2.50255004883 0.999996144721 0.0
0.0 2.50355004883 0.999996513117 0.0
0.0 2.50455004883 0.999996846319 0.0
0.0 2.50555004883 0.999997147685 0.0
0.0 2.50655004883 0.999997420257 0.0
0.0 2.50755004883 0.999997666791 0.0
0.0 2.50855004883 0.999997889766 0.0
0.0 2.50955004883 0.999998091437 0.0
0.0 2.51055004883 0.999998273839 0.0
0.0 2.51155004883 0.999998438813 0.0
0.0 2.51255004883 0.999998588026 0.0
0.0 2.51355004883 0.999998722975 0.0
0.0 2.51455004883 0.999998845032 0.0
0.0 2.51555004883 0.999998955425 0.0
0.0 2.51655004883 0.999999055269 0.0
0.0 2.51755004883 0.999999145572 0.0
0.0 2.51855004883 0.999999227245 0.0
0.0 2.51955004883 0.999999301112 0.0
0.0 2.52055004883 0.999999367919 0.0
0.0 2.52155004883 0.999999428343 0.0
0.0 2.52255004883 0.999999482992 0.0
0.0 2.52355004883 0.999999532415 0.0
0.0 2.52455004883 0.999999577116 0.0
0.0 2.52555004883 0.999999617545 0.0
0.0 2.52655004883 0.99999965411 0.0
0.0 2.52755004883 0.999999687179 0.0
0.0 2.52855004883 0.999999717086 0.0
0.0 2.52955004883 0.999999744136 0.0
0.0 2.53055004883 0.999999768599 0.0
0.0 2.53155004883 0.999999790725 0.0
0.0 2.53255004883 0.999999810735 0.0
0.0 2.53355004883 0.999999828832 0.0
0.0 2.53455004883 0.9999998452 0.0
0.0 2.53555004883 0.999999860003 0.0
0.0 2.53655004883 0.999999873392 0.0
0.0 2.53755004883 0.9999998855 0.0
0.0 2.53855004883 0.999999896451 0.0
0.0 2.53955004883 0.999999906357 0.0
0.0 2.54055004883 0.999999915314 0.0
0.0 2.54155004883 0.999999923415 0.0
0.0 2.54255004883 0.99999993074 0.0
0.0 2.54355004883 0.999999937366 0.0
0.0 2.54455004883 0.999999943359 0.0
0.0 2.54555004883 0.999999948778 0.0
0.0 2.54655004883 0.99999995368 0.0
0.0 2.54755004883 0.999999958113 0.0
0.0 2.54855004883 0.999999962123 0.0
0.0 2.54955004883 0.999999965748 0.0
0.0 2.55055004883 0.999999969028 0.0
0.0 2.55155004883 0.999999971994 0.0
0.0 2.55255004883 0.999999974676 0.0
0.0 2.55355004883 0.999999977102 0.0
0.0 2.55455004883 0.999999979296 0.0
0.0 2.55555004883 0.999999981279 0.0
0.0 2.55655004883 0.999999983073 0.0
0.0 2.55755004883 0.999999984696 0.0
0.0 2.55855004883 0.999999986163 0.0
0.0 2.55955004883 0.999999987489 0.0
0.0 2.56055004883 0.99999998869 0.0
0.0 2.56155004883 0.999999989774 0.0
0.0 2.56255004883 0.999999990754 0.0
0.0 2.56355004883 0.999999991641 0.0
0.0 2.56455004883 0.999999992443 0.0
0.0 2.56555004883 0.999999993167 0.0
0.0 2.56655004883 0.999999993823 0.0
0.0 2.56755004883 0.999999994415 0.0
0.0 2.56855004883 0.99999999495 0.0
0.0 2.56955004883 0.999999995434 0.0
0.0 2.57055004883 0.999999995871 0.0
0.0 2.57155004883 0.999999996266 0.0
0.0 2.57255004883 0.999999996624 0.0
0.0 2.57355004883 0.999999996948 0.0
0.0 2.57455004883 0.999999997239 0.0
0.0 2.57555004883 0.999999997503 0.0
0.0 2.57655004883 0.999999997742 0.0
0.0 2.57755004883 0.999999997957 0.0
0.0 2.57855004883 0.999999998153 0.0
0.0 2.57955004883 0.999999998329 0.0
0.0 2.58055004883 0.999999998489 0.0
0.0 2.58155004883 0.999999998633 0.0
0.0 2.58255004883 0.999999998764 0.0
0.0 2.58355004883 0.999999998882 0.0
0.0 2.58455004883 0.999999998988 0.0
0.0 2.58555004883 0.999999999085 0.0
0.0 2.58655004883 0.999999999172 0.0
0.0 2.58755004883 0.999999999252 0.0
0.0 2.58855004883 0.999999999323 0.0
0.0 2.58955004883 0.999999999387 0.0
0.0 2.59055004883 0.999999999446 0.0
0.0 2.59155004883 0.999999999499 0.0
0.0 2.59255004883 0.999999999546 0.0
0.0 2.59355004883 0.99999999959 0.0
0.0 2.59455004883 0.999999999629 0.0
0.0 2.59555004883 0.999999999664 0.0
0.0 2.59655004883 0.999999999696 0.0
0.0 2.59755004883 0.999999999725 0.0
0.0 2.59855004883 0.999999999752 0.0
