0.0 0.551200012207 0.309207932436 0.0
0.0 0.552200012207 0.309058608331 0.0
0.0 0.553200012207 0.30890904916 0.0
0.0 0.554200012207 0.308759255487 0.0
0.0 0.555200012207 0.308609227532 0.0
0.0 0.556200012207 0.308458966456 0.0
0.0 0.557200012207 0.308308472433 0.0
0.0 0.558200012207 0.308157746035 0.0
0.0 0.559200012207 0.308006787616 0.0
0.0 0.560200012207 0.307855598055 0.0
0.0 0.561200012207 0.307704177255 0.0
0.0 0.562200012207 0.307552526065 0.0
0.0 0.563200012207 0.307400644878 0.0
0.0 0.564200012207 0.307248534694 0.0
0.0 0.565200012207 0.307096195778 0.0
0.0 0.566200012207 0.306943627639 0.0
0.0 0.567200012207 0.306790831499 0.0
0.0 0.568200012207 0.306637807588 0.0
0.0 0.569200012207 0.306484557372 0.0
0.0 0.570200012207 0.306331080441 0.0
0.0 0.571200012207 0.306177378556 0.0
0.0 0.572200012207 0.306023450708 0.0
0.0 0.573200012207 0.305869297756 0.0
0.0 0.574200012207 0.305714919764 0.0
0.0 0.575200012207 0.305560318019 0.0
0.0 0.576200012207 0.30540549338 0.0
0.0 0.577200012207 0.305250445962 0.0
0.0 0.578200012207 0.305095176506 0.0
0.0 0.579200012207 0.304939684478 0.0
0.0 0.580200012207 0.304783970444 0.0
0.0 0.581200012207 0.30462803535 0.0
0.0 0.582200012207 0.304471880558 0.0
0.0 0.583200012207 0.304315507503 0.0
0.0 0.584200012207 0.30415891372 0.0
0.0 0.585200012207 0.304002101021 0.0
0.0 0.586200012207 0.303845068824 0.0
0.0 0.587200012207 0.303687819733 0.0
0.0 0.588200012207 0.303530353988 0.0
0.0 0.589200012207 0.303372671393 0.0
0.0 0.590200012207 0.303214771154 0.0
0.0 0.591200012207 0.303056655166 0.0
0.0 0.592200012207 0.302898321302 0.0
0.0 0.593200012207 0.302739774733 0.0
0.0 0.594200012207 0.302581013418 0.0
0.0 0.595200012207 0.302422041402 0.0
0.0 0.596200012207 0.302262854422 0.0
0.0 0.597200012207 0.302103453229 0.0
0.0 0.598200012207 0.301943837359 0.0
0.0 0.599200012207 0.301784013588 0.0
0.0 0.600200012207 0.301623982519 0.0
0.0 0.601200012207 0.301463752997 0.0
0.0 0.602200012207 0.301303323489 0.0
0.0 0.603200012207 0.30114269797 0.0
0.0 0.604200012207 0.300981859457 0.0
0.0 0.605200012207 0.300820801473 0.0
0.0 0.606200012207 0.300659521109 0.0
0.0 0.607200012207 0.300498014722 0.0
0.0 0.608200012207 0.300336298476 0.0
0.0 0.609200012207 0.30017437041 0.0
0.0 0.610200012207 0.300012271192 0.0
0.0 0.611200012207 0.299849991389 0.0
0.0 0.612200012207 0.299687539393 0.0
0.0 0.613200012207 0.299524898545 0.0
0.0 0.614200012207 0.299362061368 0.0
0.0 0.615200012207 0.299198995947 0.0
0.0 0.616200012207 0.299035670841 0.0
0.0 0.617200012207 0.298872108968 0.0
0.0 0.618200012207 0.298708367725 0.0
0.0 0.619200012207 0.298544520274 0.0
0.0 0.620200012207 0.298380599975 0.0
0.0 0.621200012207 0.298216593591 0.0
0.0 0.622200012207 0.298052403641 0.0
0.0 0.623200012207 0.297887911149 0.0
0.0 0.624200012207 0.297722997405 0.0
0.0 0.625200012207 0.297557691226 0.0
0.0 0.626200012207 0.297392020781 0.0
0.0 0.627200012207 0.297226123077 0.0
0.0 0.628200012207 0.29706005461 0.0
0.0 0.629200012207 0.296893898106 0.0
0.0 0.630200012207 0.296727626373 0.0
0.0 0.631200012207 0.29656120177 0.0
0.0 0.632200012207 0.296394601086 0.0
0.0 0.633200012207 0.29622782095 0.0
0.0 0.634200012207 0.296060871756 0.0
0.0 0.635200012207 0.295893756923 0.0
0.0 0.636200012207 0.295726458077 0.0
0.0 0.637200012207 0.29555896712 0.0
0.0 0.638200012207 0.295391253279 0.0
0.0 0.639200012207 0.295223333643 0.0
0.0 0.640200012207 0.295055200598 0.0
0.0 0.641200012207 0.294886882393 0.0
0.0 0.642200012207 0.294718379556 0.0
0.0 0.643200012207 0.294549697505 0.0
0.0 0.644200012207 0.294380836595 0.0
0.0 0.645200012207 0.29421179497 0.0
0.0 0.646200012207 0.294042576165 0.0
0.0 0.647200012207 0.293873174537 0.0
0.0 0.648200012207 0.293703577478 0.0
0.0 0.649200012207 0.293533795232 0.0
0.0 0.650200012207 0.293363822223 0.0
0.0 0.651200012207 0.29319366928 0.0
0.0 0.652200012207 0.293023327365 0.0
0.0 0.653200012207 0.292852800484 0.0
0.0 0.654200012207 0.292682094282 0.0
0.0 0.655200012207 0.292511209906 0.0
0.0 0.656200012207 0.292340146432 0.0
0.0 0.657200012207 0.292168892446 0.0
0.0 0.658200012207 0.291997439613 0.0
0.0 0.659200012207 0.291825807932 0.0
0.0 0.660200012207 0.291654006912 0.0
0.0 0.661200012207 0.291482032907 0.0
0.0 0.662200012207 0.291309874869 0.0
0.0 0.663200012207 0.291137530464 0.0
0.0 0.664200012207 0.290965012273 0.0
0.0 0.665200012207 0.290792312757 0.0
0.0 0.666200012207 0.290619438442 0.0
0.0 0.667200012207 0.290446401647 0.0
0.0 0.668200012207 0.290273191315 0.0
0.0 0.669200012207 0.2900997953 0.0
0.0 0.670200012207 0.289926204298 0.0
0.0 0.671200012207 0.289752433185 0.0
0.0 0.672200012207 0.289578489642 0.0
0.0 0.673200012207 0.289404375415 0.0
0.0 0.674200012207 0.289230083834 0.0
0.0 0.675200012207 0.289055622234 0.0
0.0 0.676200012207 0.288880987019 0.0
0.0 0.677200012207 0.288706176242 0.0
0.0 0.678200012207 0.288531195177 0.0
0.0 0.679200012207 0.288356035372 0.0
0.0 0.680200012207 0.288180701369 0.0
0.0 0.681200012207 0.288005181977 0.0
0.0 0.682200012207 0.28782950523 0.0
0.0 0.683200012207 0.287653661831 0.0
0.0 0.684200012207 0.287477656099 0.0
0.0 0.685200012207 0.28730147907 0.0
0.0 0.686200012207 0.287125147805 0.0
0.0 0.687200012207 0.286948658799 0.0
0.0 0.688200012207 0.286772000876 0.0
0.0 0.689200012207 0.286595174026 0.0
0.0 0.690200012207 0.286418150586 0.0
0.0 0.691200012207 0.286240977822 0.0
0.0 0.692200012207 0.286063614921 0.0
0.0 0.693200012207 0.285886111901 0.0
0.0 0.694200012207 0.285708425321 0.0
0.0 0.695200012207 0.285530586965 0.0
0.0 0.696200012207 0.285352572986 0.0
0.0 0.697200012207 0.285174404648 0.0
0.0 0.698200012207 0.284996074977 0.0
0.0 0.699200012207 0.284817589195 0.0
0.0 0.700200012207 0.284638930541 0.0
0.0 0.701200012207 0.284460124283 0.0
0.0 0.702200012207 0.284281167728 0.0
0.0 0.703200012207 0.284102058784 0.0
0.0 0.704200012207 0.283922772644 0.0
0.0 0.705200012207 0.283743325824 0.0
0.0 0.706200012207 0.283563712034 0.0
0.0 0.707200012207 0.283383956764 0.0
0.0 0.708200012207 0.283204039418 0.0
0.0 0.709200012207 0.283023981907 0.0
0.0 0.710200012207 0.282843756563 0.0
0.0 0.711200012207 0.282663353547 0.0
0.0 0.712200012207 0.282482784525 0.0
0.0 0.713200012207 0.282302064817 0.0
0.0 0.714200012207 0.282121225138 0.0
0.0 0.715200012207 0.281940213657 0.0
0.0 0.716200012207 0.281759032022 0.0
0.0 0.717200012207 0.281577706723 0.0
0.0 0.718200012207 0.281396236444 0.0
0.0 0.719200012207 0.281214644594 0.0
0.0 0.720200012207 0.281032890543 0.0
0.0 0.721200012207 0.280851005076 0.0
0.0 0.722200012207 0.280668931774 0.0
0.0 0.723200012207 0.280486706977 0.0
0.0 0.724200012207 0.280304311101 0.0
0.0 0.725200012207 0.28012181412 0.0
0.0 0.726200012207 0.279939150105 0.0
0.0 0.727200012207 0.279756359009 0.0
0.0 0.728200012207 0.279573380033 0.0
0.0 0.729200012207 0.279390274668 0.0
0.0 0.730200012207 0.279207046006 0.0
0.0 0.731200012207 0.279023675145 0.0
0.0 0.732200012207 0.278840139062 0.0
0.0 0.733200012207 0.278656441149 0.0
0.0 0.734200012207 0.278472628343 0.0
0.0 0.735200012207 0.278288657874 0.0
0.0 0.736200012207 0.27810454615 0.0
0.0 0.737200012207 0.27792026607 0.0
0.0 0.738200012207 0.277735842813 0.0
0.0 0.739200012207 0.277551285608 0.0
0.0 0.740200012207 0.277366577506 0.0
0.0 0.741200012207 0.277181782589 0.0
0.0 0.742200012207 0.276996825734 0.0
0.0 0.743200012207 0.276811707277 0.0
0.0 0.744200012207 0.276626403804 0.0
0.0 0.745200012207 0.276440945162 0.0
0.0 0.746200012207 0.276255415664 0.0
0.0 0.747200012207 0.276069789792 0.0
0.0 0.748200012207 0.275884039005 0.0
0.0 0.749200012207 0.275698114629 0.0
0.0 0.750200012207 0.275512078887 0.0
0.0 0.751200012207 0.275325873426 0.0
0.0 0.752200012207 0.27513956531 0.0
0.0 0.753200012207 0.274952999518 0.0
0.0 0.754200012207 0.274766389899 0.0
0.0 0.755200012207 0.274579655906 0.0
0.0 0.756200012207 0.274392830984 0.0
0.0 0.757200012207 0.274205832127 0.0
0.0 0.758200012207 0.274018665303 0.0
0.0 0.759200012207 0.273831376584 0.0
0.0 0.760200012207 0.273643968452 0.0
0.0 0.761200012207 0.273456412089 0.0
0.0 0.762200012207 0.273268724895 0.0
0.0 0.763200012207 0.273080915329 0.0
0.0 0.764200012207 0.27289299461 0.0
0.0 0.765200012207 0.272704964093 0.0
0.0 0.766200012207 0.272516740552 0.0
0.0 0.767200012207 0.272328420299 0.0
0.0 0.768200012207 0.272139997864 0.0
0.0 0.769200012207 0.271951497189 0.0
0.0 0.770200012207 0.27176280889 0.0
0.0 0.771200012207 0.271573972601 0.0
0.0 0.772200012207 0.271384964222 0.0
0.0 0.773200012207 0.271195842624 0.0
0.0 0.774200012207 0.271006630757 0.0
0.0 0.775200012207 0.270817379888 0.0
0.0 0.776200012207 0.270627935595 0.0
0.0 0.777200012207 0.270438387172 0.0
0.0 0.778200012207 0.270248619588 0.0
0.0 0.779200012207 0.270058896749 0.0
0.0 0.780200012207 0.269869003516 0.0
0.0 0.781200012207 0.269678979732 0.0
0.0 0.782200012207 0.269488768612 0.0
0.0 0.783200012207 0.269298388063 0.0
0.0 0.784200012207 0.269107951832 0.0
0.0 0.785200012207 0.268917444309 0.0
0.0 0.786200012207 0.268726808883 0.0
0.0 0.787200012207 0.268536054462 0.0
0.0 0.788200012207 0.268345118114 0.0
0.0 0.789200012207 0.268154127574 0.0
0.0 0.790200012207 0.267962985346 0.0
0.0 0.791200012207 0.267771738821 0.0
0.0 0.792200012207 0.2675803945 0.0
0.0 0.793200012207 0.267388974735 0.0
0.0 0.794200012207 0.267197402987 0.0
0.0 0.795200012207 0.267005694534 0.0
0.0 0.796200012207 0.266813910243 0.0
0.0 0.797200012207 0.266622001758 0.0
0.0 0.798200012207 0.266429979207 0.0
0.0 0.799200012207 0.266237796668 0.0
0.0 0.800200012207 0.266045548437 0.0
0.0 0.801200012207 0.265853190016 0.0
0.0 0.802200012207 0.265660716609 0.0
0.0 0.803200012207 0.265468137942 0.0
0.0 0.804200012207 0.265275452102 0.0
0.0 0.805200012207 0.265082656071 0.0
0.0 0.806200012207 0.264889752671 0.0
0.0 0.807200012207 0.264696751297 0.0
0.0 0.808200012207 0.264503633021 0.0
0.0 0.809200012207 0.264310408056 0.0
0.0 0.810200012207 0.264117075604 0.0
0.0 0.811200012207 0.263923647361 0.0
0.0 0.812200012207 0.263730129878 0.0
0.0 0.813200012207 0.263536479073 0.0
0.0 0.814200012207 0.263342719557 0.0
0.0 0.815200012207 0.263148840351 0.0
0.0 0.816200012207 0.262954893059 0.0
0.0 0.817200012207 0.262760835217 0.0
0.0 0.818200012207 0.262566674877 0.0
0.0 0.819200012207 0.262372394941 0.0
0.0 0.820200012207 0.262178026788 0.0
0.0 0.821200012207 0.261983566047 0.0
0.0 0.822200012207 0.261788999673 0.0
0.0 0.823200012207 0.261594346647 0.0
0.0 0.824200012207 0.261399581584 0.0
0.0 0.825200012207 0.261204730233 0.0
0.0 0.826200012207 0.261009775925 0.0
0.0 0.827200012207 0.26081470923 0.0
0.0 0.828200012207 0.260619547862 0.0
0.0 0.829200012207 0.260424278277 0.0
0.0 0.830200012207 0.260228946024 0.0
0.0 0.831200012207 0.260033503451 0.0
0.0 0.832200012207 0.259837960916 0.0
0.0 0.833200012207 0.259642337129 0.0
0.0 0.834200012207 0.259446605584 0.0
0.0 0.835200012207 0.259250780086 0.0
0.0 0.836200012207 0.259054843668 0.0
0.0 0.837200012207 0.258858835988 0.0
0.0 0.838200012207 0.258662735469 0.0
0.0 0.839200012207 0.258466551209 0.0
0.0 0.840200012207 0.258270266402 0.0
0.0 0.841200012207 0.258073909227 0.0
0.0 0.842200012207 0.257877426011 0.0
0.0 0.843200012207 0.257680865371 0.0
0.0 0.844200012207 0.257484203279 0.0
0.0 0.845200012207 0.257287471067 0.0
0.0 0.846200012207 0.257090661256 0.0
0.0 0.847200012207 0.25689376572 0.0
0.0 0.848200012207 0.256696770568 0.0
0.0 0.849200012207 0.256499699832 0.0
0.0 0.850200012207 0.256302519416 0.0
0.0 0.851200012207 0.256105275235 0.0
0.0 0.852200012207 0.255907931848 0.0
0.0 0.853200012207 0.25571050848 0.0
0.0 0.854200012207 0.255512991481 0.0
0.0 0.855200012207 0.255315380018 0.0
0.0 0.856200012207 0.255117722838 0.0
0.0 0.857200012207 0.254919965861 0.0
0.0 0.858200012207 0.254722126733 0.0
0.0 0.859200012207 0.254524213312 0.0
0.0 0.860200012207 0.254326211413 0.0
0.0 0.861200012207 0.254128145788 0.0
0.0 0.862200012207 0.253929967346 0.0
0.0 0.863200012207 0.253731728128 0.0
0.0 0.864200012207 0.253533389657 0.0
0.0 0.865200012207 0.253334980609 0.0
0.0 0.866200012207 0.253136517274 0.0
0.0 0.867200012207 0.252937965222 0.0
0.0 0.868200012207 0.252739332193 0.0
0.0 0.869200012207 0.252540622209 0.0
0.0 0.870200012207 0.252341851635 0.0
0.0 0.871200012207 0.252143050409 0.0
0.0 0.872200012207 0.251944125334 0.0
0.0 0.873200012207 0.25174509515 0.0
0.0 0.874200012207 0.251545949529 0.0
0.0 0.875200012207 0.251346806779 0.0
0.0 0.876200012207 0.251147574799 0.0
0.0 0.877200012207 0.250948296404 0.0
0.0 0.878200012207 0.250748874206 0.0
0.0 0.879200012207 0.250549478045 0.0
0.0 0.880200012207 0.250349932311 0.0
0.0 0.881200012207 0.250150427234 0.0
0.0 0.882200012207 0.249950714557 0.0
0.0 0.883200012207 0.249750984714 0.0
0.0 0.884200012207 0.249551100668 0.0
0.0 0.885200012207 0.249351257572 0.0
0.0 0.886200012207 0.249151391238 0.0
0.0 0.887200012207 0.24895142861 0.0
0.0 0.888200012207 0.248751333561 0.0
0.0 0.889200012207 0.248551127162 0.0
0.0 0.890200012207 0.248350958013 0.0
0.0 0.891200012207 0.24815068947 0.0
0.0 0.892200012207 0.247950355692 0.0
0.0 0.893200012207 0.247749881945 0.0
0.0 0.894200012207 0.247549419319 0.0
0.0 0.895200012207 0.247349068469 0.0
0.0 0.896200012207 0.24714884597 0.0
0.0 0.897200012207 0.246948194301 0.0
0.0 0.898200012207 0.246747328424 0.0
0.0 0.899200012207 0.246546203199 0.0
0.0 0.900200012207 0.24634540439 0.0
0.0 0.901200012207 0.246144493617 0.0
0.0 0.902200012207 0.245943542431 0.0
0.0 0.903200012207 0.245742493516 0.0
0.0 0.904200012207 0.245541442178 0.0
0.0 0.905200012207 0.245340300225 0.0
0.0 0.906200012207 0.245139101417 0.0
0.0 0.907200012207 0.244937865183 0.0
0.0 0.908200012207 0.244736576564 0.0
0.0 0.909200012207 0.244535222601 0.0
0.0 0.910200012207 0.244333772741 0.0
0.0 0.911200012207 0.244132262814 0.0
0.0 0.912200012207 0.243930726458 0.0
0.0 0.913200012207 0.243729143922 0.0
0.0 0.914200012207 0.243527525104 0.0
0.0 0.915200012207 0.243325844863 0.0
0.0 0.916200012207 0.24312408365 0.0
0.0 0.917200012207 0.242922284235 0.0
0.0 0.918200012207 0.242720415923 0.0
0.0 0.919200012207 0.242518553115 0.0
0.0 0.920200012207 0.24231657826 0.0
0.0 0.921200012207 0.242114619376 0.0
0.0 0.922200012207 0.241912542287 0.0
0.0 0.923200012207 0.241710438362 0.0
0.0 0.924200012207 0.241508257119 0.0
0.0 0.925200012207 0.241306051177 0.0
0.0 0.926200012207 0.241103816202 0.0
0.0 0.927200012207 0.240901510749 0.0
0.0 0.928200012207 0.240699175069 0.0
0.0 0.929200012207 0.240496769808 0.0
0.0 0.930200012207 0.240294357581 0.0
0.0 0.931200012207 0.240091861637 0.0
0.0 0.932200012207 0.239889374296 0.0
0.0 0.933200012207 0.239686798882 0.0
0.0 0.934200012207 0.239484186067 0.0
0.0 0.935200012207 0.239281494003 0.0
0.0 0.936200012207 0.239078763421 0.0
0.0 0.937200012207 0.238876033066 0.0
0.0 0.938200012207 0.238673239744 0.0
0.0 0.939200012207 0.23847043215 0.0
0.0 0.940200012207 0.238267544876 0.0
0.0 0.941200012207 0.238064679245 0.0
0.0 0.942200012207 0.237861717075 0.0
0.0 0.943200012207 0.23765872032 0.0
0.0 0.944200012207 0.237455692066 0.0
0.0 0.945200012207 0.237252663917 0.0
0.0 0.946200012207 0.237049590306 0.0
0.0 0.947200012207 0.236846472916 0.0
0.0 0.948200012207 0.236643279638 0.0
0.0 0.949200012207 0.236440103973 0.0
0.0 0.950200012207 0.236236849585 0.0
0.0 0.951200012207 0.236033606752 0.0
0.0 0.952200012207 0.235830304348 0.0
0.0 0.953200012207 0.235626929526 0.0
0.0 0.954200012207 0.235423545151 0.0
0.0 0.955200012207 0.235220126703 0.0
0.0 0.956200012207 0.235016751018 0.0
0.0 0.957200012207 0.23481333452 0.0
0.0 0.958200012207 0.234609931106 0.0
0.0 0.959200012207 0.234406522554 0.0
0.0 0.960200012207 0.23420312609 0.0
0.0 0.961200012207 0.233999734427 0.0
0.0 0.962200012207 0.233796343306 0.0
0.0 0.963200012207 0.233592935721 0.0
0.0 0.964200012207 0.233389487743 0.0
0.0 0.965200012207 0.233186032533 0.0
0.0 0.966200012207 0.232982586325 0.0
0.0 0.967200012207 0.232779239955 0.0
0.0 0.968200012207 0.232575973105 0.0
0.0 0.969200012207 0.232372848725 0.0
0.0 0.970200012207 0.232169782784 0.0
0.0 0.971200012207 0.231966827806 0.0
0.0 0.972200012207 0.231763874822 0.0
0.0 0.973200012207 0.231560904806 0.0
0.0 0.974200012207 0.231357837328 0.0
0.0 0.975200012207 0.231154730999 0.0
0.0 0.976200012207 0.230951623467 0.0
0.0 0.977200012207 0.230748691069 0.0
0.0 0.978200012207 0.230546057081 0.0
0.0 0.979200012207 0.23034391379 0.0
0.0 0.980200012207 0.230142419104 0.0
0.0 0.981200012207 0.229941811529 0.0
0.0 0.982200012207 0.22974242614 0.0
0.0 0.983200012207 0.229544581396 0.0
0.0 0.984200012207 0.229348554545 0.0
0.0 0.985200012207 0.229154759135 0.0
0.0 0.986200012207 0.22896323879 0.0
0.0 0.987200012207 0.228774218505 0.0
0.0 0.988200012207 0.228587755813 0.0
0.0 0.989200012207 0.228403854938 0.0
0.0 0.990200012207 0.228222729175 0.0
0.0 0.991200012207 0.228044219707 0.0
0.0 0.992200012207 0.227868998853 0.0
0.0 0.993200012207 0.227697855072 0.0
0.0 0.994200012207 0.227532166446 0.0
0.0 0.995200012207 0.22737348075 0.0
0.0 0.996200012207 0.227226008914 0.0
0.0 0.997200012207 0.227094322401 0.0
0.0 0.998200012207 0.237505689452 0.0
0.0 0.999200012207 0.249416769572 0.0
0.0 1.00020001221 0.262596475092 0.0
0.0 1.00120001221 0.266272740681 0.0
0.0 1.00220001221 0.27043708457 0.0
0.0 1.00320001221 0.274957606845 0.0
0.0 1.00420001221 0.280888689066 0.0
0.0 1.00520001221 0.287455363496 0.0
0.0 1.00620001221 0.295769712889 0.0
0.0 1.00720001221 0.30518453699 0.0
0.0 1.00820001221 0.316666097965 0.0
0.0 1.00920001221 0.330306679262 0.0
0.0 1.01020001221 0.34648331529 0.0
0.0 1.01120001221 0.365222430562 0.0
0.0 1.01220001221 0.385867196492 0.0
0.0 1.01320001221 0.406948462856 0.0
0.0 1.01420001221 0.426321025949 0.0
0.0 1.01520001221 0.443371735888 0.0
0.0 1.01620001221 0.456657748936 0.0
0.0 1.01720001221 0.466495929152 0.0
0.0 1.01820001221 0.472116693587 0.0
0.0 1.01920001221 0.475370531746 0.0
0.0 1.02020001221 0.476687444009 0.0
0.0 1.02120001221 0.476968696221 0.0
0.0 1.02220001221 0.477268572597 0.0
0.0 1.02320001221 0.476941746734 0.0
0.0 1.02419995117 0.476840694654 0.0
0.0 1.02519995117 0.47662109734 0.0
0.0 1.02619995117 0.476618673997 0.0
0.0 1.02719995117 0.477843939305 0.0
0.0 1.02819995117 0.478391896349 0.0
0.0 1.02919995117 0.478862417126 0.0
0.0 1.03019995117 0.479182848058 0.0
0.0 1.03119995117 0.479986025432 0.0
0.0 1.03219995117 0.481762085546 0.0
0.0 1.03319995117 0.481812020825 0.0
0.0 1.03419995117 0.482185460552 0.0
0.0 1.03519995117 0.482635141164 0.0
0.0 1.03619995117 0.483578129 0.0
0.0 1.03719995117 0.48349743194 0.0
0.0 1.03819995117 0.483572334329 0.0
0.0 1.03919995117 0.484835080371 0.0
0.0 1.04019995117 0.485675090475 0.0
0.0 1.04119995117 0.48586287872 0.0
0.0 1.04219995117 0.485189879382 0.0
0.0 1.04319995117 0.484780995689 0.0
0.0 1.04419995117 0.484928331195 0.0
0.0 1.04519995117 0.485525487773 0.0
0.0 1.04619995117 0.485888621295 0.0
0.0 1.04719995117 0.486072977345 0.0
0.0 1.04819995117 0.486627817384 0.0
0.0 1.04919995117 0.486664828942 0.0
0.0 1.05019995117 0.487069823703 0.0
0.0 1.05119995117 0.488157737522 0.0
0.0 1.05219995117 0.489525353465 0.0
0.0 1.05319995117 0.490419523539 0.0
0.0 1.05419995117 0.491150943191 0.0
0.0 1.05519995117 0.491995820888 0.0
0.0 1.05619995117 0.491743758174 0.0
0.0 1.05719995117 0.490708353958 0.0
0.0 1.05819995117 0.491135855954 0.0
0.0 1.05919995117 0.491397353785 0.0
0.0 1.06019995117 0.491267714927 0.0
0.0 1.06119995117 0.490541698795 0.0
0.0 1.06219995117 0.490383647641 0.0
0.0 1.06319995117 0.489383067571 0.0
0.0 1.06419995117 0.488007043332 0.0
0.0 1.06519995117 0.486826505391 0.0
0.0 1.06619995117 0.486710697234 0.0
0.0 1.06719995117 0.485001415378 0.0
0.0 1.06819995117 0.48326042012 0.0
0.0 1.06919995117 0.481772571008 0.0
0.0 1.07019995117 0.480006248467 0.0
0.0 1.07119995117 0.478005709759 0.0
0.0 1.07219995117 0.475709520527 0.0
0.0 1.07319995117 0.47373977196 0.0
0.0 1.07419995117 0.471660052818 0.0
0.0 1.07519995117 0.469809150695 0.0
0.0 1.07619995117 0.468406149093 0.0
0.0 1.07719995117 0.466526104526 0.0
0.0 1.07819995117 0.465657099107 0.0
0.0 1.07919995117 0.464476642323 0.0
0.0 1.08019995117 0.463756537301 0.0
0.0 1.08119995117 0.463321142115 0.0
0.0 1.08219995117 0.46412557947 0.0
0.0 1.08319995117 0.464397313625 0.0
0.0 1.08419995117 0.465068353293 0.0
0.0 1.08519995117 0.465436721062 0.0
0.0 1.08619995117 0.46708439456 0.0
0.0 1.08719995117 0.468516658088 0.0
0.0 1.08819995117 0.471031403779 0.0
0.0 1.08919995117 0.472883335111 0.0
0.0 1.09019995117 0.475957157155 0.0
0.0 1.09119995117 0.478167047415 0.0
0.0 1.09219995117 0.481120420037 0.0
0.0 1.09319995117 0.483108271864 0.0
0.0 1.09419995117 0.48550855721 0.0
0.0 1.09519995117 0.487849639045 0.0
0.0 1.09619995117 0.490007468318 0.0
0.0 1.09719995117 0.492296694193 0.0
0.0 1.09819995117 0.493641990773 0.0
0.0 1.09919995117 0.495295354563 0.0
0.0 1.10019995117 0.496286771288 0.0
0.0 1.10119995117 0.497796469988 0.0
0.0 1.10219995117 0.498451703355 0.0
0.0 1.10319995117 0.499219101986 0.0
0.0 1.10419995117 0.499562954547 0.0
0.0 1.10519995117 0.500071487432 0.0
0.0 1.10619995117 0.50006843846 0.0
0.0 1.10719995117 0.499622639517 0.0
0.0 1.10819995117 0.499548341594 0.0
0.0 1.10919995117 0.49898906344 0.0
0.0 1.11019995117 0.498889613592 0.0
0.0 1.11119995117 0.498573844956 0.0
0.0 1.11219995117 0.498585244529 0.0
0.0 1.11319995117 0.498087230974 0.0
0.0 1.11419995117 0.497675503563 0.0
0.0 1.11519995117 0.496481809707 0.0
0.0 1.11619995117 0.495494412363 0.0
0.0 1.11719995117 0.494595940628 0.0
0.0 1.11819995117 0.493658649268 0.0
0.0 1.11919995117 0.492189835896 0.0
0.0 1.12019995117 0.491675548197 0.0
0.0 1.12119995117 0.490718560301 0.0
0.0 1.12219995117 0.490483748094 0.0
0.0 1.12319995117 0.489092295316 0.0
0.0 1.12419995117 0.48947570408 0.0
0.0 1.12519995117 0.48998013806 0.0
0.0 1.12619995117 0.491355422885 0.0
0.0 1.12719995117 0.491881047821 0.0
0.0 1.12819995117 0.493617432432 0.0
0.0 1.12919995117 0.495020137334 0.0
0.0 1.13019995117 0.496963561043 0.0
0.0 1.13119995117 0.498365048122 0.0
0.0 1.13219995117 0.499981069048 0.0
0.0 1.13319995117 0.501204733736 0.0
0.0 1.13419995117 0.502911825244 0.0
0.0 1.13519995117 0.504315350893 0.0
0.0 1.13619995117 0.505604385015 0.0
0.0 1.13719995117 0.507041633629 0.0
0.0 1.13819995117 0.507800534602 0.0
0.0 1.13919995117 0.509327993523 0.0
0.0 1.14019995117 0.50953542123 0.0
0.0 1.14119995117 0.511139297109 0.0
0.0 1.14219995117 0.51261365047 0.0
0.0 1.14319995117 0.514037635563 0.0
0.0 1.14419995117 0.515127738718 0.0
0.0 1.14519995117 0.516005494036 0.0
0.0 1.14619995117 0.516742927008 0.0
0.0 1.14719995117 0.517663838949 0.0
0.0 1.14819995117 0.518450201489 0.0
0.0 1.14919995117 0.519568667928 0.0
0.0 1.15019995117 0.520464434032 0.0
0.0 1.15119995117 0.52169038565 0.0
0.0 1.15219995117 0.52312595553 0.0
0.0 1.15319995117 0.523829153868 0.0
0.0 1.15419995117 0.524837195607 0.0
0.0 1.15519995117 0.526401763432 0.0
0.0 1.15619995117 0.528105025114 0.0
0.0 1.15719995117 0.530460359112 0.0
0.0 1.15819995117 0.53222989759 0.0
0.0 1.15919995117 0.535542336483 0.0
0.0 1.16019995117 0.536411121303 0.0
0.0 1.16119995117 0.537701590019 0.0
0.0 1.16219995117 0.53854260717 0.0
0.0 1.16319995117 0.540502329453 0.0
0.0 1.16419995117 0.541509993792 0.0
0.0 1.16519995117 0.542724913744 0.0
0.0 1.16619995117 0.543152132413 0.0
0.0 1.16719995117 0.543955038659 0.0
0.0 1.16819995117 0.543648030581 0.0
0.0 1.16919995117 0.54409127916 0.0
0.0 1.17019995117 0.54473691777 0.0
0.0 1.17119995117 0.544736823372 0.0
0.0 1.17219995117 0.544788803144 0.0
0.0 1.17319995117 0.544039894086 0.0
0.0 1.17419995117 0.544297145088 0.0
0.0 1.17519995117 0.544675630929 0.0
0.0 1.17619995117 0.544231736346 0.0
0.0 1.17719995117 0.544196821397 0.0
0.0 1.17819995117 0.543332709002 0.0
0.0 1.17919995117 0.543252505859 0.0
0.0 1.18019995117 0.542743141797 0.0
0.0 1.18119995117 0.542850618915 0.0
0.0 1.18219995117 0.543378896853 0.0
0.0 1.18319995117 0.542764554311 0.0
0.0 1.18419995117 0.542650447524 0.0
0.0 1.18519995117 0.541522835285 0.0
0.0 1.18619995117 0.541069467929 0.0
0.0 1.18719995117 0.538902157329 0.0
0.0 1.18819995117 0.538933762724 0.0
0.0 1.18919995117 0.540140593456 0.0
0.0 1.19019995117 0.540765411109 0.0
0.0 1.19119995117 0.538926794233 0.0
0.0 1.19219995117 0.535545191382 0.0
0.0 1.19319995117 0.534924614738 0.0
0.0 1.19419995117 0.534167358275 0.0
0.0 1.19519995117 0.533383158764 0.0
0.0 1.19619995117 0.532254945871 0.0
0.0 1.19719995117 0.532202336053 0.0
0.0 1.19819995117 0.532331870748 0.0
0.0 1.19919995117 0.532902315118 0.0
0.0 1.20019995117 0.532976235668 0.0
0.0 1.20119995117 0.533590940557 0.0
0.0 1.20219995117 0.534034146913 0.0
0.0 1.20319995117 0.533032397986 0.0
0.0 1.20419995117 0.533461977336 0.0
0.0 1.20519995117 0.532890612336 0.0
0.0 1.20619995117 0.533695722557 0.0
0.0 1.20719995117 0.53398105901 0.0
0.0 1.20819995117 0.534068772438 0.0
0.0 1.20919995117 0.534627003089 0.0
0.0 1.21019995117 0.533867620961 0.0
0.0 1.21119995117 0.534444039595 0.0
0.0 1.21219995117 0.533481534502 0.0
0.0 1.21319995117 0.533377835035 0.0
0.0 1.21419995117 0.532478830744 0.0
0.0 1.21519995117 0.532522188804 0.0
0.0 1.21619995117 0.532447533882 0.0
0.0 1.21719995117 0.531013875737 0.0
0.0 1.21819995117 0.531888944382 0.0
0.0 1.21919995117 0.531935256107 0.0
0.0 1.22019995117 0.533072500356 0.0
0.0 1.22119995117 0.534573593639 0.0
0.0 1.22219995117 0.536272257513 0.0
0.0 1.22319995117 0.538299929283 0.0
0.0 1.22419995117 0.538454502814 0.0
0.0 1.22519995117 0.540069127048 0.0
0.0 1.22619995117 0.542096288751 0.0
0.0 1.22719995117 0.544413586029 0.0
0.0 1.22819995117 0.546222974052 0.0
0.0 1.22919995117 0.54762480145 0.0
0.0 1.23019995117 0.548779228561 0.0
0.0 1.23119995117 0.548906132749 0.0
0.0 1.23219995117 0.549642531237 0.0
0.0 1.23319995117 0.549768340376 0.0
0.0 1.23419995117 0.550978365541 0.0
0.0 1.23519995117 0.550856564831 0.0
0.0 1.23619995117 0.550481676294 0.0
0.0 1.23719995117 0.550347555157 0.0
0.0 1.23819995117 0.550156956967 0.0
0.0 1.23919995117 0.550156178736 0.0
0.0 1.24019995117 0.550621331355 0.0
0.0 1.24119995117 0.551099741875 0.0
0.0 1.24219995117 0.552987507815 0.0
0.0 1.24319995117 0.553586781303 0.0
0.0 1.24419995117 0.554690799279 0.0
0.0 1.24519995117 0.555447715768 0.0
0.0 1.24619995117 0.555666045207 0.0
0.0 1.24719995117 0.556072487176 0.0
0.0 1.24819995117 0.556892797584 0.0
0.0 1.24919995117 0.558248912471 0.0
0.0 1.25019995117 0.559786528904 0.0
0.0 1.25119995117 0.561389402315 0.0
0.0 1.25219995117 0.562602654902 0.0
0.0 1.25319995117 0.563770733141 0.0
0.0 1.25419995117 0.56460515229 0.0
0.0 1.25519995117 0.56522869089 0.0
0.0 1.25619995117 0.565552258125 0.0
0.0 1.25719995117 0.56556335164 0.0
0.0 1.25819995117 0.565148359577 0.0
0.0 1.25919995117 0.564797035604 0.0
0.0 1.26019995117 0.563982106727 0.0
0.0 1.26119995117 0.563541065242 0.0
0.0 1.26219995117 0.562666168065 0.0
0.0 1.26319995117 0.562497401995 0.0
0.0 1.26419995117 0.562562170722 0.0
0.0 1.26519995117 0.562460680904 0.0
0.0 1.26619995117 0.560931744059 0.0
0.0 1.26719995117 0.560709796949 0.0
0.0 1.26819995117 0.560812585676 0.0
0.0 1.26919995117 0.561363267416 0.0
0.0 1.27019995117 0.559553137285 0.0
0.0 1.27119995117 0.557012323573 0.0
0.0 1.27219995117 0.552574811312 0.0
0.0 1.27319995117 0.548316471241 0.0
0.0 1.27419995117 0.540022456748 0.0
0.0 1.27519995117 0.529274539056 0.0
0.0 1.27619995117 0.512213568402 0.0
0.0 1.27719995117 0.492075289437 0.0
0.0 1.27819995117 0.466956925195 0.0
0.0 1.27919995117 0.439321077655 0.0
0.0 1.28019995117 0.410079306145 0.0
0.0 1.28119995117 0.380650390883 0.0
0.0 1.28219995117 0.352260006513 0.0
0.0 1.28319995117 0.325588492544 0.0
0.0 1.28419995117 0.301944002162 0.0
0.0 1.28519995117 0.281471826849 0.0
0.0 1.28619995117 0.26421547305 0.0
0.0 1.28719995117 0.25022063607 0.0
0.0 1.28819995117 0.238096257207 0.0
0.0 1.28919995117 0.228372892326 0.0
0.0 1.29019995117 0.219885690363 0.0
0.0 1.29119995117 0.213268612931 0.0
0.0 1.29219995117 0.207401671105 0.0
0.0 1.29319995117 0.202886727116 0.0
0.0 1.29419995117 0.19858623523 0.0
0.0 1.29519995117 0.195184125669 0.0
0.0 1.29619995117 0.19163532123 0.0
0.0 1.29719995117 0.188082966203 0.0
0.0 1.29819995117 0.184282743143 0.0
0.0 1.29919995117 0.18077521802 0.0
0.0 1.30019995117 0.177833805676 0.0
0.0 1.30119995117 0.175368737251 0.0
0.0 1.30219995117 0.173392970268 0.0
0.0 1.30319995117 0.171766940764 0.0
0.0 1.30419995117 0.170471668158 0.0
0.0 1.30519995117 0.169381954662 0.0
0.0 1.30619995117 0.168461128557 0.0
0.0 1.30719995117 0.167706320544 0.0
0.0 1.30819995117 0.167070113538 0.0
0.0 1.30919995117 0.166527952412 0.0
0.0 1.31019995117 0.166059123235 0.0
0.0 1.31119995117 0.16564380113 0.0
0.0 1.31219995117 0.165271442852 0.0
0.0 1.31319995117 0.164933550088 0.0
0.0 1.31419995117 0.164620737555 0.0
0.0 1.31519995117 0.164331883028 0.0
0.0 1.31619995117 0.164058150139 0.0
0.0 1.31719995117 0.163802022032 0.0
0.0 1.31819995117 0.163556678819 0.0
0.0 1.31919995117 0.163321879968 0.0
0.0 1.32019995117 0.163093992498 0.0
0.0 1.32119995117 0.162875294691 0.0
0.0 1.32219995117 0.162662101846 0.0
0.0 1.32319995117 0.162454726464 0.0
0.0 1.32419995117 0.162249920138 0.0
0.0 1.32519995117 0.162048441342 0.0
0.0 1.32619995117 0.161851100549 0.0
0.0 1.32719995117 0.161655054763 0.0
0.0 1.32819995117 0.161462053628 0.0
0.0 1.32919995117 0.161269559219 0.0
0.0 1.33019995117 0.161080450625 0.0
0.0 1.33119995117 0.160892129562 0.0
0.0 1.33219995117 0.160705078975 0.0
0.0 1.33319995117 0.160519103245 0.0
0.0 1.33419995117 0.160334170997 0.0
0.0 1.33519995117 0.160149416076 0.0
0.0 1.33619995117 0.159965250471 0.0
0.0 1.33719995117 0.159782032538 0.0
0.0 1.33819995117 0.159599588881 0.0
0.0 1.33919995117 0.159417933605 0.0
0.0 1.34019995117 0.159236367246 0.0
0.0 1.34119995117 0.159055304125 0.0
0.0 1.34219995117 0.158874112413 0.0
0.0 1.34319995117 0.158693857867 0.0
0.0 1.34419995117 0.158514322206 0.0
0.0 1.34519995117 0.158334751367 0.0
0.0 1.34619995117 0.158154895188 0.0
0.0 1.34719995117 0.157976096947 0.0
0.0 1.34819995117 0.157797206616 0.0
0.0 1.34919995117 0.157619013208 0.0
0.0 1.35019995117 0.157439819372 0.0
0.0 1.35119995117 0.15726168163 0.0
0.0 1.35219995117 0.157084005602 0.0
0.0 1.35319995117 0.156906692152 0.0
0.0 1.35419995117 0.156729062749 0.0
0.0 1.35519995117 0.156551647218 0.0
0.0 1.35619995117 0.156374596763 0.0
0.0 1.35719995117 0.156198129048 0.0
0.0 1.35819995117 0.156021213898 0.0
0.0 1.35919995117 0.155844505749 0.0
0.0 1.36019995117 0.155668319521 0.0
0.0 1.36119995117 0.155492628412 0.0
0.0 1.36219995117 0.155316937075 0.0
0.0 1.36319995117 0.155141200222 0.0
0.0 1.36419995117 0.154965687029 0.0
0.0 1.36519995117 0.15479082098 0.0
0.0 1.36619995117 0.154615768529 0.0
0.0 1.36719995117 0.154440961657 0.0
0.0 1.36819995117 0.154266650288 0.0
0.0 1.36919995117 0.154092676275 0.0
0.0 1.37019995117 0.153918387332 0.0
0.0 1.37119995117 0.153744061387 0.0
0.0 1.37219995117 0.153571039661 0.0
0.0 1.37319995117 0.153396849944 0.0
0.0 1.37419995117 0.153223351866 0.0
0.0 1.37519995117 0.153048696166 0.0
0.0 1.37619995117 0.152876276093 0.0
0.0 1.37719995117 0.152703354782 0.0
0.0 1.37819995117 0.152531423144 0.0
0.0 1.37919995117 0.152358877668 0.0
0.0 1.38019995117 0.152186233071 0.0
0.0 1.38119995117 0.15201388652 0.0
0.0 1.38219995117 0.151841726646 0.0
0.0 1.38319995117 0.151669777084 0.0
0.0 1.38419995117 0.151498038426 0.0
0.0 1.38519995117 0.151326629847 0.0
0.0 1.38619995117 0.151155445194 0.0
0.0 1.38719995117 0.150984077019 0.0
0.0 1.38819995117 0.150813085293 0.0
0.0 1.38919995117 0.150642133648 0.0
0.0 1.39019995117 0.150471430927 0.0
0.0 1.39119995117 0.150301350718 0.0
0.0 1.39219995117 0.150131674094 0.0
0.0 1.39319995117 0.14996163966 0.0
0.0 1.39419995117 0.149791684917 0.0
0.0 1.39519995117 0.149622121418 0.0
0.0 1.39619995117 0.149452238844 0.0
0.0 1.39719995117 0.149283017379 0.0
0.0 1.39819995117 0.14911418077 0.0
0.0 1.39919995117 0.148945994598 0.0
0.0 1.40019995117 0.148777599234 0.0
0.0 1.40119995117 0.148608938709 0.0
0.0 1.40219995117 0.148440574648 0.0
0.0 1.40319995117 0.148272550175 0.0
0.0 1.40419995117 0.148104714122 0.0
0.0 1.40519995117 0.14793748432 0.0
0.0 1.40619995117 0.147769753958 0.0
0.0 1.40719995117 0.147602437271 0.0
0.0 1.40819995117 0.14743526548 0.0
0.0 1.40919995117 0.147268434011 0.0
0.0 1.41019995117 0.147101694553 0.0
0.0 1.41119995117 0.146935140988 0.0
0.0 1.41219995117 0.146768987828 0.0
0.0 1.41319995117 0.146602777661 0.0
0.0 1.41419995117 0.146436447958 0.0
0.0 1.41519995117 0.146271059228 0.0
0.0 1.41619995117 0.14610523146 0.0
0.0 1.41719995117 0.1459402254 0.0
0.0 1.41819995117 0.145775202962 0.0
0.0 1.41919995117 0.145610487665 0.0
0.0 1.42019995117 0.145445800176 0.0
0.0 1.42119995117 0.145280798406 0.0
0.0 1.42219995117 0.145116841195 0.0
0.0 1.42319995117 0.144952590109 0.0
0.0 1.42419995117 0.144788558785 0.0
0.0 1.42519995117 0.144624402967 0.0
0.0 1.42619995117 0.144460704745 0.0
0.0 1.42719995117 0.144297214733 0.0
0.0 1.42819995117 0.144134289381 0.0
0.0 1.42919995117 0.143971349999 0.0
0.0 1.43019995117 0.143808611742 0.0
0.0 1.43119995117 0.1436463846 0.0
0.0 1.43219995117 0.143484073221 0.0
0.0 1.43319995117 0.143321736663 0.0
0.0 1.43419995117 0.143159386064 0.0
0.0 1.43519995117 0.142997775972 0.0
0.0 1.43619995117 0.142836772441 0.0
0.0 1.43719995117 0.142675239085 0.0
0.0 1.43819995117 0.142514403286 0.0
0.0 1.43919995117 0.142353245022 0.0
0.0 1.44019995117 0.142193222281 0.0
0.0 1.44119995117 0.142032549874 0.0
0.0 1.44219995117 0.141872594727 0.0
0.0 1.44319995117 0.141711825327 0.0
0.0 1.44419995117 0.141552624545 0.0
0.0 1.44519995117 0.141392456227 0.0
0.0 1.44619995117 0.141233180116 0.0
0.0 1.44719995117 0.141073363466 0.0
0.0 1.44819995117 0.140914852049 0.0
0.0 1.44919995117 0.140755628383 0.0
0.0 1.45019995117 0.140596964349 0.0
0.0 1.45119995117 0.140438516456 0.0
0.0 1.45219995117 0.140281193103 0.0
0.0 1.45319995117 0.140123621383 0.0
0.0 1.45419995117 0.139965514462 0.0
0.0 1.45519995117 0.139807947209 0.0
0.0 1.45619995117 0.139650867062 0.0
0.0 1.45719995117 0.139494040193 0.0
0.0 1.45819995117 0.139337409327 0.0
0.0 1.45919995117 0.139180630245 0.0
0.0 1.46019995117 0.139024663491 0.0
0.0 1.46119995117 0.138868037017 0.0
0.0 1.46219995117 0.138712456267 0.0
0.0 1.46319995117 0.138556145367 0.0
0.0 1.46419995117 0.138401248498 0.0
0.0 1.46519995117 0.138245548353 0.0
0.0 1.46619995117 0.138090603682 0.0
0.0 1.46719995117 0.137935253843 0.0
0.0 1.46819995117 0.137780836084 0.0
0.0 1.46919995117 0.137626486693 0.0
0.0 1.47019995117 0.137472710706 0.0
0.0 1.47119995117 0.137318469872 0.0
0.0 1.47219995117 0.137165051058 0.0
0.0 1.47319995117 0.137011412254 0.0
0.0 1.47419995117 0.136857906213 0.0
0.0 1.47519995117 0.136705611484 0.0
0.0 1.47619995117 0.136553206205 0.0
0.0 1.47719995117 0.136400867343 0.0
0.0 1.47819995117 0.136247834865 0.0
0.0 1.47919995117 0.136095339617 0.0
0.0 1.48019995117 0.135943521619 0.0
0.0 1.48119995117 0.135791669997 0.0
0.0 1.48219995117 0.135640897909 0.0
0.0 1.48319995117 0.135489676761 0.0
0.0 1.48419995117 0.135339254457 0.0
0.0 1.48519995117 0.135188101671 0.0
0.0 1.48619995117 0.135037345923 0.0
0.0 1.48719995117 0.134886539235 0.0
0.0 1.48819995117 0.134736765854 0.0
0.0 1.48919995117 0.134587402787 0.0
0.0 1.49019995117 0.134438035891 0.0
0.0 1.49119995117 0.134288603842 0.0
0.0 1.49219995117 0.134139782896 0.0
0.0 1.49319995117 0.133990821576 0.0
0.0 1.49419995117 0.133842070459 0.0
0.0 1.49519995117 0.133693844012 0.0
0.0 1.49619995117 0.133546509745 0.0
0.0 1.49719995117 0.133398277878 0.0
0.0 1.49819995117 0.133250548207 0.0
0.0 1.49919995117 0.133103087856 0.0
0.0 1.50019995117 0.132956877983 0.0
0.0 1.50119995117 0.132809912797 0.0
0.0 1.50219995117 0.132663590737 0.0
0.0 1.50319995117 0.132517274401 0.0
0.0 1.50419995117 0.132370515708 0.0
0.0 1.50519995117 0.132223829263 0.0
0.0 1.50619995117 0.132077995016 0.0
0.0 1.50719995117 0.13193342181 0.0
0.0 1.50819995117 0.131788742123 0.0
0.0 1.50919995117 0.131643516328 0.0
0.0 1.51019995117 0.131497979029 0.0
0.0 1.51119995117 0.13135332429 0.0
0.0 1.51219995117 0.131208898372 0.0
0.0 1.51319995117 0.131065037804 0.0
0.0 1.51419995117 0.130920526417 0.0
0.0 1.51519995117 0.130776456757 0.0
0.0 1.51619995117 0.130633644985 0.0
0.0 1.51719995117 0.130491003496 0.0
0.0 1.51819995117 0.130348943014 0.0
0.0 1.51919995117 0.130205873832 0.0
0.0 1.52019995117 0.130064038341 0.0
0.0 1.52119995117 0.129922161657 0.0
0.0 1.52219995117 0.129780801917 0.0
0.0 1.52319995117 0.129638761282 0.0
0.0 1.52419995117 0.12949746154 0.0
0.0 1.52519995117 0.129356423535 0.0
0.0 1.52619995117 0.129215844645 0.0
0.0 1.52719995117 0.129075126658 0.0
0.0 1.52819995117 0.128935409136 0.0
0.0 1.52919995117 0.12879535636 0.0
0.0 1.53019995117 0.128656007004 0.0
0.0 1.53119995117 0.128516457854 0.0
0.0 1.53219995117 0.128377017006 0.0
0.0 1.53319995117 0.128237908609 0.0
0.0 1.53419995117 0.128098887244 0.0
0.0 1.53519995117 0.127961222213 0.0
0.0 1.53619995117 0.127823263752 0.0
0.0 1.53719995117 0.127685133023 0.0
0.0 1.53819995117 0.127547816207 0.0
0.0 1.53919995117 0.127410199423 0.0
0.0 1.54019995117 0.127273139949 0.0
0.0 1.54119995117 0.127135227443 0.0
0.0 1.54219995117 0.126998036981 0.0
0.0 1.54319995117 0.126861977671 0.0
0.0 1.54419995117 0.126725817923 0.0
0.0 1.54519995117 0.126590146234 0.0
0.0 1.54619995117 0.126454020955 0.0
0.0 1.54719995117 0.126319111607 0.0
0.0 1.54819995117 0.12618385 0.0
0.0 1.54919995117 0.126049787968 0.0
0.0 1.55019995117 0.125914141214 0.0
0.0 1.55119995117 0.125779954498 0.0
0.0 1.55219995117 0.125645618785 0.0
0.0 1.55319995117 0.125512443514 0.0
0.0 1.55419995117 0.125379173155 0.0
0.0 1.55519995117 0.125245126081 0.0
0.0 1.55619995117 0.125111898584 0.0
0.0 1.55719995117 0.124979734499 0.0
0.0 1.55819995117 0.124847795066 0.0
0.0 1.55919995117 0.124715568851 0.0
0.0 1.56019995117 0.124582792244 0.0
0.0 1.56119995117 0.124451250596 0.0
0.0 1.56219995117 0.124319926102 0.0
0.0 1.56319995117 0.124189197647 0.0
0.0 1.56419995117 0.124058497074 0.0
0.0 1.56519995117 0.123927749364 0.0
0.0 1.56619995117 0.1237977898 0.0
0.0 1.56719995117 0.123667871011 0.0
0.0 1.56819995117 0.123538351658 0.0
0.0 1.56919995117 0.123409151358 0.0
0.0 1.57019995117 0.123279105984 0.0
0.0 1.57119995117 0.12315121278 0.0
0.0 1.57219995117 0.123021601613 0.0
0.0 1.57319995117 0.122894101295 0.0
0.0 1.57419995117 0.122765912837 0.0
0.0 1.57519995117 0.122638342366 0.0
0.0 1.57619995117 0.12251114142 0.0
0.0 1.57719995117 0.122382968808 0.0
0.0 1.57819995117 0.122256128549 0.0
0.0 1.57919995117 0.122128473074 0.0
0.0 1.58019995117 0.122002885993 0.0
0.0 1.58119995117 0.121877107217 0.0
0.0 1.58219995117 0.121751992485 0.0
0.0 1.58319995117 0.121626572469 0.0
0.0 1.58419995117 0.121500824859 0.0
0.0 1.58519995117 0.121375699044 0.0
0.0 1.58619995117 0.121250691729 0.0
0.0 1.58719995117 0.121126734957 0.0
0.0 1.58819995117 0.121002504093 0.0
0.0 1.58919995117 0.120879018811 0.0
0.0 1.59019995117 0.12075482864 0.0
0.0 1.59119995117 0.120631581846 0.0
0.0 1.59219995117 0.120508242193 0.0
0.0 1.59319995117 0.120385378098 0.0
0.0 1.59419995117 0.120263786504 0.0
0.0 1.59519995117 0.120141518288 0.0
0.0 1.59619995117 0.120020672399 0.0
0.0 1.59719995117 0.11989852954 0.0
0.0 1.59819995117 0.119777474103 0.0
0.0 1.59919995117 0.119656245891 0.0
0.0 1.60019995117 0.11953495416 0.0
0.0 1.60119995117 0.119415238726 0.0
0.0 1.60219995117 0.11929445235 0.0
0.0 1.60319995117 0.11917544007 0.0
0.0 1.60419995117 0.119055678768 0.0
0.0 1.60519995117 0.118937031807 0.0
0.0 1.60619995117 0.118817871584 0.0
0.0 1.60719995117 0.118698675819 0.0
0.0 1.60819995117 0.11858041153 0.0
0.0 1.60919995117 0.118461906291 0.0
0.0 1.61019995117 0.11834362932 0.0
0.0 1.61119995117 0.11822562423 0.0
0.0 1.61219995117 0.11810870303 0.0
0.0 1.61319995117 0.117992498541 0.0
0.0 1.61419995117 0.117876291004 0.0
0.0 1.61519995117 0.117759238703 0.0
0.0 1.61619995117 0.117642642714 0.0
0.0 1.61719995117 0.117527003948 0.0
0.0 1.61819995117 0.117412402858 0.0
0.0 1.61919995117 0.117298032399 0.0
0.0 1.62019995117 0.117182761385 0.0
0.0 1.62119995117 0.117068119238 0.0
0.0 1.62219995117 0.116952930223 0.0
0.0 1.62319995117 0.116839287086 0.0
0.0 1.62419995117 0.116726139684 0.0
0.0 1.62519995117 0.11661291767 0.0
0.0 1.62619995117 0.116500563077 0.0
0.0 1.62719995117 0.116387376213 0.0
0.0 1.62819995117 0.116276345135 0.0
0.0 1.62919995117 0.116164387008 0.0
0.0 1.63019995117 0.116053058298 0.0
0.0 1.63119995117 0.115940616686 0.0
0.0 1.63219995117 0.115828440879 0.0
0.0 1.63319995117 0.115717814011 0.0
0.0 1.63419995117 0.115607555665 0.0
0.0 1.63519995117 0.115497729023 0.0
0.0 1.63619995117 0.115386923762 0.0
0.0 1.63719995117 0.115277659954 0.0
0.0 1.63819995117 0.115168540082 0.0
0.0 1.63919995117 0.115060326584 0.0
0.0 1.64019995117 0.11495186497 0.0
0.0 1.64119995117 0.114843065036 0.0
0.0 1.64219995117 0.114734918231 0.0
0.0 1.64319995117 0.114626245158 0.0
0.0 1.64419995117 0.114519099077 0.0
0.0 1.64519995117 0.114411493711 0.0
0.0 1.64619995117 0.114305033899 0.0
0.0 1.64719995117 0.114198837808 0.0
0.0 1.64819995117 0.114092542751 0.0
0.0 1.64919995117 0.113986541598 0.0
0.0 1.65019995117 0.11388063828 0.0
0.0 1.65119995117 0.113774997453 0.0
0.0 1.65219995117 0.113670051794 0.0
0.0 1.65319995117 0.113565277657 0.0
0.0 1.65419995117 0.113461690249 0.0
0.0 1.65519995117 0.113358170831 0.0
0.0 1.65619995117 0.113254517053 0.0
0.0 1.65719995117 0.113150761829 0.0
0.0 1.65819995117 0.113047166451 0.0
0.0 1.65919995117 0.112944781785 0.0
0.0 1.66019995117 0.112841843173 0.0
0.0 1.66119995117 0.11274052011 0.0
0.0 1.66219995117 0.112639542344 0.0
0.0 1.66319995117 0.112538537117 0.0
0.0 1.66419995117 0.112437094344 0.0
0.0 1.66519995117 0.112335000757 0.0
0.0 1.66619995117 0.11223472776 0.0
0.0 1.66719995117 0.112135347936 0.0
0.0 1.66819995117 0.112035946795 0.0
0.0 1.66919995117 0.111936900282 0.0
0.0 1.67019995117 0.111837038007 0.0
0.0 1.67119995117 0.111737659269 0.0
0.0 1.67219995117 0.111639502427 0.0
0.0 1.67319995117 0.111541086264 0.0
0.0 1.67419995117 0.111443795803 0.0
0.0 1.67519995117 0.111346540185 0.0
0.0 1.67619995117 0.111249283581 0.0
0.0 1.67719995117 0.111152160238 0.0
0.0 1.67819995117 0.111054617011 0.0
0.0 1.67919995117 0.110959275907 0.0
0.0 1.68019995117 0.11086261578 0.0
0.0 1.68119995117 0.110766708251 0.0
0.0 1.68219995117 0.11067014017 0.0
0.0 1.68319995117 0.110575646419 0.0
0.0 1.68419995117 0.11048181355 0.0
0.0 1.68519995117 0.110388292612 0.0
0.0 1.68619995117 0.110295056059 0.0
0.0 1.68719995117 0.110200523568 0.0
0.0 1.68819995117 0.110106235248 0.0
0.0 1.68919995117 0.110012654812 0.0
0.0 1.69019995117 0.109920664455 0.0
0.0 1.69119995117 0.109828700534 0.0
0.0 1.69219995117 0.109736686972 0.0
0.0 1.69319995117 0.109644811786 0.0
0.0 1.69419995117 0.109554666235 0.0
0.0 1.69519995117 0.109464664093 0.0
0.0 1.69619995117 0.109374279107 0.0
0.0 1.69719995117 0.109283384724 0.0
0.0 1.69819995117 0.109192866701 0.0
0.0 1.69919995117 0.10910358807 0.0
0.0 1.70019995117 0.109013870693 0.0
0.0 1.70119995117 0.108925644631 0.0
0.0 1.70219995117 0.108836389887 0.0
0.0 1.70319995117 0.108748374585 0.0
0.0 1.70419995117 0.108660342679 0.0
0.0 1.70519995117 0.108573310582 0.0
0.0 1.70619995117 0.108485707794 0.0
0.0 1.70719995117 0.10839907882 0.0
0.0 1.70819995117 0.108312807284 0.0
0.0 1.70919995117 0.108227344182 0.0
0.0 1.71019995117 0.10814208735 0.0
0.0 1.71119995117 0.108055851163 0.0
0.0 1.71219995117 0.107971764709 0.0
0.0 1.71319995117 0.107885240822 0.0
0.0 1.71419995117 0.107801515083 0.0
0.0 1.71519995117 0.107716762873 0.0
0.0 1.71619995117 0.107634088952 0.0
0.0 1.71719995117 0.107550338428 0.0
0.0 1.71819995117 0.107467068803 0.0
0.0 1.71919995117 0.107384370263 0.0
0.0 1.72019995117 0.107302792419 0.0
0.0 1.72119995117 0.107221149533 0.0
0.0 1.72219995117 0.107140269366 0.0
0.0 1.72319995117 0.107058340841 0.0
0.0 1.72419995117 0.106977618016 0.0
0.0 1.72519995117 0.106895917343 0.0
0.0 1.72619995117 0.106817206605 0.0
0.0 1.72719995117 0.106736853379 0.0
0.0 1.72819995117 0.106657733534 0.0
0.0 1.72919995117 0.106577664854 0.0
0.0 1.73019995117 0.106498843001 0.0
0.0 1.73119995117 0.106420596402 0.0
0.0 1.73219995117 0.106342487332 0.0
0.0 1.73319995117 0.106264561663 0.0
0.0 1.73419995117 0.106186727945 0.0
0.0 1.73519995117 0.106110259879 0.0
0.0 1.73619995117 0.106033894355 0.0
0.0 1.73719995117 0.105957775732 0.0
0.0 1.73819995117 0.105882370455 0.0
0.0 1.73919995117 0.105806594926 0.0
0.0 1.74019995117 0.105731341449 0.0
0.0 1.74119995117 0.105655267348 0.0
0.0 1.74219995117 0.10558126545 0.0
0.0 1.74319995117 0.105507125195 0.0
0.0 1.74419995117 0.105432915154 0.0
0.0 1.74519995117 0.105360597431 0.0
0.0 1.74619995117 0.105288389546 0.0
0.0 1.74719995117 0.105215877097 0.0
0.0 1.74819995117 0.10514284841 0.0
0.0 1.74919995117 0.105069867822 0.0
0.0 1.75019995117 0.104998631679 0.0
0.0 1.75119995117 0.104927899356 0.0
0.0 1.75219995117 0.1048571058 0.0
0.0 1.75319995117 0.104786869002 0.0
0.0 1.75419995117 0.104715293587 0.0
0.0 1.75519995117 0.104646097168 0.0
0.0 1.75619995117 0.104576432847 0.0
0.0 1.75719995117 0.104508647182 0.0
0.0 1.75819995117 0.104439405185 0.0
0.0 1.75919995117 0.104372017593 0.0
0.0 1.76019995117 0.104303461937 0.0
0.0 1.76119995117 0.104237157221 0.0
0.0 1.76219995117 0.104168952991 0.0
0.0 1.76319995117 0.104102827374 0.0
0.0 1.76419995117 0.104034931462 0.0
0.0 1.76519995117 0.103969337961 0.0
0.0 1.76619995117 0.103902688549 0.0
0.0 1.76719995117 0.103838387729 0.0
0.0 1.76819995117 0.103774232646 0.0
0.0 1.76919995117 0.103709578967 0.0
0.0 1.77019995117 0.103645551322 0.0
0.0 1.77119995117 0.103581944699 0.0
0.0 1.77219995117 0.103518510204 0.0
0.0 1.77319995117 0.103454550942 0.0
0.0 1.77419995117 0.103391518778 0.0
0.0 1.77519995117 0.103329373603 0.0
0.0 1.77619995117 0.103268571271 0.0
0.0 1.77719995117 0.103206084465 0.0
0.0 1.77819995117 0.10314597757 0.0
0.0 1.77919995117 0.103084874334 0.0
0.0 1.78019995117 0.103025705596 0.0
0.0 1.78119995117 0.102965443055 0.0
0.0 1.78219995117 0.1029058552 0.0
0.0 1.78319995117 0.102846091627 0.0
0.0 1.78419995117 0.102787023027 0.0
0.0 1.78519995117 0.10272886745 0.0
0.0 1.78619995117 0.1026709177 0.0
0.0 1.78719995117 0.102612796618 0.0
0.0 1.78819995117 0.102556764728 0.0
0.0 1.78919995117 0.102499897732 0.0
0.0 1.79019995117 0.102443589026 0.0
0.0 1.79119995117 0.102385601937 0.0
0.0 1.79219995117 0.102330177636 0.0
0.0 1.79319995117 0.102274261418 0.0
0.0 1.79419995117 0.102220092067 0.0
0.0 1.79519995117 0.102164482403 0.0
0.0 1.79619995117 0.102110127607 0.0
0.0 1.79719995117 0.102056186927 0.0
0.0 1.79819995117 0.102003373291 0.0
0.0 1.79919995117 0.101951569552 0.0
0.0 1.80019995117 0.101898273608 0.0
0.0 1.80119995117 0.101846377993 0.0
0.0 1.80219995117 0.101793351126 0.0
0.0 1.80319995117 0.101741678671 0.0
0.0 1.80419995117 0.101690725462 0.0
0.0 1.80519995117 0.101641039016 0.0
0.0 1.80619995117 0.101591290346 0.0
0.0 1.80719995117 0.101540366085 0.0
0.0 1.80819995117 0.101490962642 0.0
0.0 1.80919995117 0.101442048361 0.0
0.0 1.81019995117 0.101394699466 0.0
0.0 1.81119995117 0.101345218923 0.0
0.0 1.81219995117 0.101295522173 0.0
0.0 1.81319995117 0.10124713165 0.0
0.0 1.81419995117 0.101201700214 0.0
0.0 1.81519995117 0.101155413512 0.0
0.0 1.81619995117 0.101107147718 0.0
0.0 1.81719995117 0.101061133469 0.0
0.0 1.81819995117 0.101018783538 0.0
0.0 1.81919995117 0.100975703557 0.0
0.0 1.82019995117 0.100929246861 0.0
0.0 1.82119995117 0.100882692698 0.0
0.0 1.82219995117 0.100839272269 0.0
0.0 1.82319995117 0.100795491259 0.0
0.0 1.82419995117 0.100752992641 0.0
0.0 1.82519995117 0.100708139362 0.0
0.0 1.82619995117 0.100667869011 0.0
0.0 1.82719995117 0.100625224908 0.0
0.0 1.82819995117 0.100584721296 0.0
0.0 1.82919995117 0.10054257838 0.0
0.0 1.83019995117 0.10050085689 0.0
0.0 1.83119995117 0.100460076087 0.0
0.0 1.83219995117 0.100420456612 0.0
0.0 1.83319995117 0.100383429572 0.0
0.0 1.83419995117 0.100344093694 0.0
0.0 1.83519995117 0.100305500982 0.0
0.0 1.83619995117 0.100264852494 0.0
0.0 1.83719995117 0.100228799747 0.0
0.0 1.83819995117 0.100189829586 0.0
0.0 1.83919995117 0.100152615306 0.0
0.0 1.84019995117 0.100114640894 0.0
0.0 1.84119995117 0.100078311979 0.0
0.0 1.84219995117 0.100043686827 0.0
0.0 1.84319995117 0.100007901751 0.0
0.0 1.84419995117 0.0999764024516 0.0
0.0 1.84519995117 0.0999404287228 0.0
0.0 1.84619995117 0.0999057935123 0.0
0.0 1.84719995117 0.0998706643189 0.0
0.0 1.84819995117 0.0998380732407 0.0
0.0 1.84919995117 0.0998065536127 0.0
0.0 1.85019995117 0.0997731671818 0.0
0.0 1.85119995117 0.0997419110042 0.0
0.0 1.85219995117 0.0997114328477 0.0
0.0 1.85319995117 0.0996788916753 0.0
0.0 1.85419995117 0.0996513173822 0.0
0.0 1.85519995117 0.0996172326582 0.0
0.0 1.85619995117 0.0995880432534 0.0
0.0 1.85719995117 0.0995536482568 0.0
0.0 1.85819995117 0.0995279666014 0.0
0.0 1.85919995117 0.0994980483931 0.0
0.0 1.86019995117 0.099469838131 0.0
0.0 1.86119995117 0.0994396438981 0.0
0.0 1.86219995117 0.0994125807793 0.0
0.0 1.86319995117 0.0993873788338 0.0
0.0 1.86419995117 0.0993599506364 0.0
0.0 1.86519995117 0.0993334544182 0.0
0.0 1.86619995117 0.0993051317101 0.0
0.0 1.86719995117 0.0992812304173 0.0
0.0 1.86819995117 0.0992564063296 0.0
0.0 1.86919995117 0.0992330611571 0.0
0.0 1.87019995117 0.0992089929777 0.0
0.0 1.87119995117 0.0991864038606 0.0
0.0 1.87219995117 0.0991616466136 0.0
0.0 1.87319995117 0.0991399930668 0.0
0.0 1.87419995117 0.0991171636201 0.0
0.0 1.87519995117 0.0990973213157 0.0
0.0 1.87619995117 0.0990745813724 0.0
0.0 1.87719995117 0.0990529771293 0.0
0.0 1.87819995117 0.0990312787433 0.0
0.0 1.87919995117 0.0990109453316 0.0
0.0 1.88019995117 0.098990170601 0.0
0.0 1.88119995117 0.0989699602036 0.0
0.0 1.88219995117 0.0989521325613 0.0
0.0 1.88319995117 0.0989352589123 0.0
0.0 1.88419995117 0.0989181879654 0.0
0.0 1.88519995117 0.0988988596667 0.0
0.0 1.88619995117 0.0988829917892 0.0
0.0 1.88719995117 0.0988680694868 0.0
0.0 1.88819995117 0.0988506347236 0.0
0.0 1.88919995117 0.0988327391456 0.0
0.0 1.89019995117 0.0988164733818 0.0
0.0 1.89119995117 0.0988024115592 0.0
0.0 1.89219995117 0.0987866920257 0.0
0.0 1.89319995117 0.0987737691584 0.0
0.0 1.89419995117 0.0987596563133 0.0
0.0 1.89519995117 0.0987477067183 0.0
0.0 1.89619995117 0.0987325836415 0.0
0.0 1.89719995117 0.0987195166069 0.0
0.0 1.89819995117 0.0987081131685 0.0
0.0 1.89919995117 0.0986964567653 0.0
0.0 1.90019995117 0.0986865691502 0.0
0.0 1.90119995117 0.0986732105713 0.0
0.0 1.90219995117 0.0986648866566 0.0
0.0 1.90319995117 0.09865402343 0.0
0.0 1.90419995117 0.0986457135996 0.0
0.0 1.90519995117 0.0986350348645 0.0
0.0 1.90619995117 0.0986270902144 0.0
0.0 1.90719995117 0.0986207971076 0.0
0.0 1.90819995117 0.0986117659219 0.0
0.0 1.90919995117 0.0986058936774 0.0
0.0 1.91019995117 0.0985977449021 0.0
0.0 1.91119995117 0.098592174324 0.0
0.0 1.91219995117 0.098585621072 0.0
0.0 1.91319995117 0.0985822924142 0.0
0.0 1.91419995117 0.0985767785066 0.0
0.0 1.91519995117 0.0985718633792 0.0
0.0 1.91619995117 0.0985641886199 0.0
0.0 1.91719995117 0.0985591859448 0.0
0.0 1.91819995117 0.0985549164549 0.0
0.0 1.91919995117 0.0985534222322 0.0
0.0 1.92019995117 0.0985550603036 0.0
0.0 1.92119995117 0.0985536400102 0.0
0.0 1.92219995117 0.098553851195 0.0
0.0 1.92319995117 0.098549760478 0.0
0.0 1.92419995117 0.0985495252001 0.0
0.0 1.92519995117 0.0985479428694 0.0
0.0 1.92619995117 0.0985481192729 0.0
0.0 1.92719995117 0.0985473963536 0.0
0.0 1.92819995117 0.0985481040834 0.0
0.0 1.92919995117 0.0985503554744 0.0
0.0 1.93019995117 0.0985535540856 0.0
0.0 1.93119995117 0.098558110856 0.0
0.0 1.93219995117 0.0985598613565 0.0
0.0 1.93319995117 0.0985655297003 0.0
0.0 1.93419995117 0.0985691523552 0.0
0.0 1.93519995117 0.0985761410352 0.0
0.0 1.93619995117 0.0985795996805 0.0
0.0 1.93719995117 0.0985852157369 0.0
0.0 1.93819995117 0.0985886995835 0.0
0.0 1.93919995117 0.0985967326783 0.0
0.0 1.94019995117 0.0986031754492 0.0
0.0 1.94119995117 0.0986108290203 0.0
0.0 1.94219995117 0.0986175317016 0.0
0.0 1.94319995117 0.0986279588671 0.0
0.0 1.94419995117 0.0986377033478 0.0
0.0 1.94519995117 0.0986464880746 0.0
0.0 1.94619995117 0.0986532087316 0.0
0.0 1.94719995117 0.0986643231018 0.0
0.0 1.94819995117 0.0986746862601 0.0
0.0 1.94919995117 0.0986861654777 0.0
0.0 1.95019995117 0.0986985823314 0.0
0.0 1.95119995117 0.0987088143402 0.0
0.0 1.95219995117 0.0987233908213 0.0
0.0 1.95319995117 0.0987328682705 0.0
0.0 1.95419995117 0.0987501980409 0.0
0.0 1.95519995117 0.0987635372755 0.0
0.0 1.95619995117 0.0987780092533 0.0
0.0 1.95719995117 0.0987916516472 0.0
0.0 1.95819995117 0.0988061915803 0.0
0.0 1.95919995117 0.0988235451266 0.0
0.0 1.96019995117 0.0988391597961 0.0
0.0 1.96119995117 0.0988558117967 0.0
0.0 1.96219995117 0.0988744364015 0.0
0.0 1.96319995117 0.0988918758235 0.0
0.0 1.96419995117 0.0989092677287 0.0
0.0 1.96519995117 0.098929853205 0.0
0.0 1.96619995117 0.0989490606935 0.0
0.0 1.96719995117 0.0989666900262 0.0
0.0 1.96819995117 0.0989843074121 0.0
0.0 1.96919995117 0.0990041737911 0.0
0.0 1.97019995117 0.0990248272633 0.0
0.0 1.97119995117 0.0990464555277 0.0
0.0 1.97219995117 0.0990719263203 0.0
0.0 1.97319995117 0.099094683677 0.0
0.0 1.97419995117 0.0991146210859 0.0
0.0 1.97519995117 0.099134364157 0.0
0.0 1.97619995117 0.0991583910633 0.0
0.0 1.97719995117 0.0991836517717 0.0
0.0 1.97819995117 0.0992088162314 0.0
0.0 1.97919995117 0.0992345605181 0.0
0.0 1.98019995117 0.0992632354441 0.0
0.0 1.98119995117 0.0992863228313 0.0
0.0 1.98219995117 0.0993129407036 0.0
0.0 1.98319995117 0.0993354371341 0.0
0.0 1.98419995117 0.0993646833788 0.0
0.0 1.98519995117 0.0993942578696 0.0
0.0 1.98619995117 0.0994246315586 0.0
0.0 1.98719995117 0.0994540656358 0.0
0.0 1.98819995117 0.0994798853952 0.0
0.0 1.98919995117 0.0995093183848 0.0
0.0 1.99019995117 0.0995391545845 0.0
0.0 1.99119995117 0.0995726756274 0.0
0.0 1.99219995117 0.0996042144175 0.0
0.0 1.99319995117 0.0996357925387 0.0
0.0 1.99419995117 0.0996692678571 0.0
0.0 1.99519995117 0.0997024199257 0.0
0.0 1.99619995117 0.0997381345775 0.0
0.0 1.99719995117 0.0997708781535 0.0
0.0 1.99819995117 0.0998039103036 0.0
0.0 1.99919995117 0.0998373217549 0.0
0.0 2.00019995117 0.0998728905964 0.0
0.0 2.00119995117 0.099908301475 0.0
0.0 2.00219995117 0.0999439427189 0.0
0.0 2.00319995117 0.0999813804219 0.0
0.0 2.00419995117 0.100020272232 0.0
0.0 2.00519995117 0.100058299135 0.0
0.0 2.00619995117 0.100094949518 0.0
0.0 2.00719995117 0.100133551636 0.0
0.0 2.00819995117 0.100173250905 0.0
0.0 2.00919995117 0.100212917585 0.0
0.0 2.01019995117 0.100251898584 0.0
0.0 2.01119995117 0.100294995703 0.0
0.0 2.01219995117 0.100336156626 0.0
0.0 2.01319995117 0.100378085022 0.0
0.0 2.01419995117 0.100417899397 0.0
0.0 2.01519995117 0.100459150179 0.0
0.0 2.01619995117 0.100503013676 0.0
0.0 2.01719995117 0.100547064243 0.0
0.0 2.01819995117 0.100593609866 0.0
0.0 2.01919995117 0.100637488787 0.0
0.0 2.02019995117 0.10068125448 0.0
0.0 2.02119995117 0.100727799863 0.0
0.0 2.02219995117 0.100774526308 0.0
0.0 2.02319995117 0.100823108647 0.0
0.0 2.02419995117 0.100868895037 0.0
0.0 2.02519995117 0.100918398316 0.0
0.0 2.02619995117 0.100965824727 0.0
0.0 2.02719995117 0.101014360787 0.0
0.0 2.02819995117 0.101066914438 0.0
0.0 2.02919995117 0.101114839796 0.0
0.0 2.03019995117 0.101167996544 0.0
0.0 2.03119995117 0.101213397039 0.0
0.0 2.03219995117 0.101266249183 0.0
0.0 2.03319995117 0.101315441853 0.0
0.0 2.03419995117 0.101368042357 0.0
0.0 2.03519995117 0.101420403513 0.0
0.0 2.03619995117 0.101472766203 0.0
0.0 2.03719995117 0.101526919269 0.0
0.0 2.03819995117 0.101583624904 0.0
0.0 2.03919995117 0.101638675987 0.0
0.0 2.04019995117 0.101693738698 0.0
0.0 2.04119995117 0.101748237033 0.0
0.0 2.04219995117 0.101805875141 0.0
0.0 2.04319995117 0.101862456405 0.0
0.0 2.04419995117 0.101918220511 0.0
0.0 2.04519995117 0.101977993113 0.0
0.0 2.04619995117 0.102039581257 0.0
0.0 2.04719995117 0.102100666637 0.0
0.0 2.04819995117 0.102156875479 0.0
0.0 2.04919995117 0.102216618692 0.0
0.0 2.05019995117 0.10227667715 0.0
0.0 2.05119995117 0.102336667484 0.0
0.0 2.05219995117 0.10239529752 0.0
0.0 2.05319995117 0.102459235856 0.0
0.0 2.05419995117 0.102525861314 0.0
0.0 2.05519995117 0.102588694405 0.0
0.0 2.05619995117 0.102652096129 0.0
0.0 2.05719995117 0.102714105071 0.0
0.0 2.05819995117 0.102781139973 0.0
0.0 2.05919995117 0.102843077203 0.0
0.0 2.06019995117 0.102906721189 0.0
0.0 2.06119995117 0.102972419076 0.0
0.0 2.06219995117 0.103041806332 0.0
0.0 2.06319995117 0.103109847024 0.0
0.0 2.06419995117 0.103178270103 0.0
0.0 2.06519995117 0.103246498239 0.0
0.0 2.06619995117 0.103314693238 0.0
0.0 2.06719995117 0.103382524995 0.0
0.0 2.06819995117 0.103449557325 0.0
0.0 2.06919995117 0.103526046092 0.0
0.0 2.07019995117 0.103597169768 0.0
0.0 2.07119995117 0.103670963401 0.0
0.0 2.07219995117 0.103740734862 0.0
0.0 2.07319995117 0.103812866087 0.0
0.0 2.07419995117 0.103883137021 0.0
0.0 2.07519995117 0.103952932817 0.0
0.0 2.07619995117 0.104027799144 0.0
0.0 2.07719995117 0.10410345708 0.0
0.0 2.07819995117 0.104180422729 0.0
0.0 2.07919995117 0.104255279406 0.0
0.0 2.08019995117 0.104333078864 0.0
0.0 2.08119995117 0.104409828102 0.0
0.0 2.08219995117 0.10448689646 0.0
0.0 2.08319995117 0.104566682155 0.0
0.0 2.08419995117 0.104644697437 0.0
0.0 2.08519995117 0.104723418064 0.0
0.0 2.08619995117 0.104799316217 0.0
0.0 2.08719995117 0.104878669564 0.0
0.0 2.08819995117 0.104960079142 0.0
0.0 2.08919995117 0.105039315211 0.0
0.0 2.09019995117 0.10512389824 0.0
0.0 2.09119995117 0.105205005961 0.0
0.0 2.09219995117 0.10529192269 0.0
0.0 2.09319995117 0.105372893243 0.0
0.0 2.09419995117 0.105457879127 0.0
0.0 2.09519995117 0.105540115815 0.0
0.0 2.09619995117 0.10562489775 0.0
0.0 2.09719995117 0.105707072475 0.0
0.0 2.09819995117 0.105792786669 0.0
0.0 2.09919995117 0.105877850111 0.0
0.0 2.10019995117 0.105966261995 0.0
0.0 2.10119995117 0.106053388513 0.0
0.0 2.10219995117 0.106142268617 0.0
0.0 2.10319995117 0.106230599008 0.0
0.0 2.10419995117 0.106320294093 0.0
0.0 2.10519995117 0.106410072513 0.0
0.0 2.10619995117 0.106502307843 0.0
0.0 2.10719995117 0.106592896033 0.0
0.0 2.10819995117 0.106684757744 0.0
0.0 2.10919995117 0.106773594937 0.0
0.0 2.11019995117 0.106867093048 0.0
0.0 2.11119995117 0.106957612958 0.0
0.0 2.11219995117 0.107053867822 0.0
0.0 2.11319995117 0.107144750337 0.0
0.0 2.11419995117 0.107244448661 0.0
0.0 2.11519995117 0.107335985331 0.0
0.0 2.11619995117 0.10743362497 0.0
0.0 2.11719995117 0.107525583836 0.0
0.0 2.11819995117 0.107623651268 0.0
0.0 2.11919995117 0.107719904399 0.0
0.0 2.12019995117 0.107816743858 0.0
0.0 2.12119995117 0.107914836511 0.0
0.0 2.12219995117 0.108016161609 0.0
0.0 2.12319995117 0.108114544638 0.0
0.0 2.12419995117 0.108214665735 0.0
0.0 2.12519995117 0.108312067478 0.0
0.0 2.12619995117 0.108414428557 0.0
0.0 2.12719995117 0.10851726024 0.0
0.0 2.12819995117 0.108619621745 0.0
0.0 2.12919995117 0.108725366928 0.0
0.0 2.13019995117 0.10882725051 0.0
0.0 2.13119995117 0.108931402197 0.0
0.0 2.13219995117 0.10903475196 0.0
0.0 2.13319995117 0.10914054803 0.0
0.0 2.13419995117 0.109246640853 0.0
0.0 2.13519995117 0.109351996758 0.0
0.0 2.13619995117 0.109458272743 0.0
0.0 2.13719995117 0.109566025453 0.0
0.0 2.13819995117 0.109674392934 0.0
0.0 2.13919995117 0.109781997814 0.0
0.0 2.14019995117 0.109888005161 0.0
0.0 2.14119995117 0.109995660773 0.0
0.0 2.14219995117 0.110106570269 0.0
0.0 2.14319995117 0.110220637887 0.0
0.0 2.14419995117 0.110332666323 0.0
0.0 2.14519995117 0.110445642339 0.0
0.0 2.14619995117 0.110554901636 0.0
0.0 2.14719995117 0.110666589419 0.0
0.0 2.14819995117 0.110777490137 0.0
0.0 2.14919995117 0.110892252604 0.0
0.0 2.15019995117 0.111007470409 0.0
0.0 2.15119995117 0.111124010345 0.0
0.0 2.15219995117 0.111239647112 0.0
0.0 2.15319995117 0.111354685916 0.0
0.0 2.15419995117 0.111473294808 0.0
0.0 2.15519995117 0.111594255079 0.0
0.0 2.15619995117 0.111712499741 0.0
0.0 2.15719995117 0.111830544116 0.0
0.0 2.15819995117 0.11194904716 0.0
0.0 2.15919995117 0.112070960623 0.0
0.0 2.16019995117 0.112192218957 0.0
0.0 2.16119995117 0.112313545768 0.0
0.0 2.16219995117 0.112431905682 0.0
0.0 2.16319995117 0.112553754803 0.0
0.0 2.16419995117 0.11267512409 0.0
0.0 2.16519995117 0.112799395716 0.0
0.0 2.16619995117 0.112922397896 0.0
0.0 2.16719995117 0.113047351154 0.0
0.0 2.16819995117 0.113172548051 0.0
0.0 2.16919995117 0.113299683524 0.0
0.0 2.17019995117 0.113422052393 0.0
0.0 2.17119995117 0.113551420669 0.0
0.0 2.17219995117 0.113676954598 0.0
0.0 2.17319995117 0.113807462921 0.0
0.0 2.17419995117 0.113933761181 0.0
0.0 2.17519995117 0.114062609265 0.0
0.0 2.17619995117 0.114188289895 0.0
0.0 2.17719995117 0.114316674738 0.0
0.0 2.17819995117 0.114446595983 0.0
0.0 2.17919995117 0.114581823927 0.0
0.0 2.18019995117 0.114713669388 0.0
0.0 2.18119995117 0.114844308366 0.0
0.0 2.18219995117 0.114975264229 0.0
0.0 2.18319995117 0.115109348886 0.0
0.0 2.18419995117 0.115241729054 0.0
0.0 2.18519995117 0.11537584214 0.0
0.0 2.18619995117 0.115509795887 0.0
0.0 2.18719995117 0.115648812297 0.0
0.0 2.18819995117 0.115787704354 0.0
0.0 2.18919995117 0.115927463942 0.0
0.0 2.19019995117 0.116063323298 0.0
0.0 2.19119995117 0.116200236276 0.0
0.0 2.19219995117 0.116335838453 0.0
0.0 2.19319995117 0.116476849738 0.0
0.0 2.19419995117 0.116616755173 0.0
0.0 2.19519995117 0.116758213448 0.0
0.0 2.19619995117 0.116896404323 0.0
0.0 2.19719995117 0.117039999425 0.0
0.0 2.19819995117 0.117186314424 0.0
0.0 2.19919995117 0.117328400585 0.0
0.0 2.20019995117 0.117469088998 0.0
0.0 2.20119995117 0.117611412297 0.0
0.0 2.20219995117 0.117761737636 0.0
0.0 2.20319995117 0.117908820806 0.0
0.0 2.20419995117 0.118056152105 0.0
0.0 2.20519995117 0.118199511389 0.0
0.0 2.20619995117 0.1183431123 0.0
0.0 2.20719995117 0.118489017736 0.0
0.0 2.20819995117 0.118634472196 0.0
0.0 2.20919995117 0.118785845225 0.0
0.0 2.21019995117 0.118933753481 0.0
0.0 2.21119995117 0.119087893425 0.0
0.0 2.21219995117 0.119236756586 0.0
0.0 2.21319995117 0.119393286695 0.0
0.0 2.21419995117 0.119544169753 0.0
0.0 2.21519995117 0.119696041824 0.0
0.0 2.21619995117 0.11984224837 0.0
0.0 2.21719995117 0.119995747318 0.0
0.0 2.21819995117 0.120153331808 0.0
0.0 2.21919995117 0.120309015323 0.0
0.0 2.22019995117 0.120465671927 0.0
0.0 2.22119995117 0.120618591883 0.0
0.0 2.22219995117 0.120775697225 0.0
0.0 2.22319995117 0.120929310955 0.0
0.0 2.22419995117 0.121088263644 0.0
0.0 2.22519995117 0.121250700795 0.0
0.0 2.22619995117 0.121412198856 0.0
0.0 2.22719995117 0.121572138286 0.0
0.0 2.22819995117 0.121726211333 0.0
0.0 2.22919995117 0.121888661879 0.0
0.0 2.23019995117 0.122047052831 0.0
0.0 2.23119995117 0.122210695854 0.0
0.0 2.23219995117 0.122370609349 0.0
0.0 2.23319995117 0.122539906897 0.0
0.0 2.23419995117 0.12270868844 0.0
0.0 2.23519995117 0.122875555018 0.0
0.0 2.23619995117 0.123040940159 0.0
0.0 2.23719995117 0.123205432986 0.0
0.0 2.23819995117 0.123368694371 0.0
0.0 2.23919995117 0.123537578738 0.0
0.0 2.24019995117 0.123701441839 0.0
0.0 2.24119995117 0.123872090304 0.0
0.0 2.24219995117 0.1240361778 0.0
0.0 2.24319995117 0.124209935266 0.0
0.0 2.24419995117 0.124385993987 0.0
0.0 2.24519995117 0.124556114336 0.0
0.0 2.24619995117 0.124722902759 0.0
0.0 2.24719995117 0.124887092701 0.0
0.0 2.24819995117 0.125062960889 0.0
0.0 2.24919995117 0.125239165585 0.0
0.0 2.25019995117 0.125418055265 0.0
0.0 2.25119995117 0.125587402098 0.0
0.0 2.25219995117 0.125763538132 0.0
0.0 2.25319995117 0.125936992091 0.0
0.0 2.25419995117 0.126118331808 0.0
0.0 2.25519995117 0.126292838258 0.0
0.0 2.25619995117 0.126462956677 0.0
0.0 2.25719995117 0.126641251663 0.0
0.0 2.25819995117 0.126822324671 0.0
0.0 2.25919995117 0.127011667392 0.0
0.0 2.26019995117 0.127193647001 0.0
0.0 2.26119995117 0.127372348755 0.0
0.0 2.26219995117 0.127549074367 0.0
0.0 2.26319995117 0.127720350628 0.0
0.0 2.26419995117 0.127898735016 0.0
0.0 2.26519995117 0.128079733698 0.0
0.0 2.26619995117 0.128264239055 0.0
0.0 2.26719995117 0.128451314454 0.0
0.0 2.26819995117 0.128642748656 0.0
0.0 2.26919995117 0.128830779054 0.0
0.0 2.27019995117 0.129015917035 0.0
0.0 2.27119995117 0.129200135542 0.0
0.0 2.27219995117 0.129388690783 0.0
0.0 2.27319995117 0.129573506424 0.0
0.0 2.27419995117 0.129760574452 0.0
0.0 2.27519995117 0.12994598994 0.0
0.0 2.27619995117 0.130136964723 0.0
0.0 2.27719995117 0.130327821145 0.0
0.0 2.27819995117 0.130520934383 0.0
0.0 2.27919995117 0.13071187478 0.0
0.0 2.28019995117 0.130902470654 0.0
0.0 2.28119995117 0.131095383158 0.0
0.0 2.28219995117 0.131292391139 0.0
0.0 2.28319995117 0.131481202928 0.0
0.0 2.28419995117 0.131675302231 0.0
0.0 2.28519995117 0.131866493091 0.0
0.0 2.28619995117 0.132067035835 0.0
0.0 2.28719995117 0.132261947803 0.0
0.0 2.28819995117 0.132459964465 0.0
0.0 2.28919995117 0.132655129778 0.0
0.0 2.29019995117 0.132856579821 0.0
0.0 2.29119995117 0.133055991533 0.0
0.0 2.29219995117 0.13325524983 0.0
0.0 2.29319995117 0.133454313702 0.0
0.0 2.29419995117 0.133656139138 0.0
0.0 2.29519995117 0.133857653981 0.0
0.0 2.29619995117 0.134059815978 0.0
0.0 2.29719995117 0.134261606216 0.0
0.0 2.29819995117 0.134464691157 0.0
0.0 2.29919995117 0.134670123981 0.0
0.0 2.30019995117 0.134877197301 0.0
0.0 2.30119995117 0.13508362061 0.0
0.0 2.30219995117 0.135287004026 0.0
0.0 2.30319995117 0.13549307647 0.0
0.0 2.30419995117 0.135700508009 0.0
0.0 2.30519995117 0.135909347122 0.0
0.0 2.30619995117 0.136117217775 0.0
0.0 2.30719995117 0.136326563052 0.0
0.0 2.30819995117 0.136536571523 0.0
0.0 2.30919995117 0.136746061422 0.0
0.0 2.31019995117 0.13695694247 0.0
0.0 2.31119995117 0.137168736659 0.0
0.0 2.31219995117 0.137382084514 0.0
0.0 2.31319995117 0.137595801804 0.0
0.0 2.31419995117 0.137808596374 0.0
0.0 2.31519995117 0.138024193803 0.0
0.0 2.31619995117 0.138240225443 0.0
0.0 2.31719995117 0.138456773264 0.0
0.0 2.31819995117 0.13867257047 0.0
0.0 2.31919995117 0.138889434579 0.0
0.0 2.32019995117 0.139109150445 0.0
0.0 2.32119995117 0.139327426145 0.0
0.0 2.32219995117 0.139545610409 0.0
0.0 2.32319995117 0.13976499868 0.0
0.0 2.32419995117 0.139985357162 0.0
0.0 2.32519995117 0.140207420618 0.0
0.0 2.32619995117 0.140427530883 0.0
0.0 2.32719995117 0.140649532148 0.0
0.0 2.32819995117 0.140872415704 0.0
0.0 2.32919995117 0.141096710478 0.0
0.0 2.33019995117 0.141321399412 0.0
0.0 2.33119995117 0.141546258304 0.0
0.0 2.33219995117 0.141771347587 0.0
0.0 2.33319995117 0.141996981002 0.0
0.0 2.33419995117 0.142224077078 0.0
0.0 2.33519995117 0.142451331224 0.0
0.0 2.33619995117 0.142679257839 0.0
0.0 2.33719995117 0.142907861536 0.0
0.0 2.33819995117 0.143138143644 0.0
0.0 2.33919995117 0.143368928449 0.0
0.0 2.34019995117 0.143599466698 0.0
0.0 2.34119995117 0.143830792169 0.0
0.0 2.34219995117 0.144062859115 0.0
0.0 2.34319995117 0.144296134805 0.0
0.0 2.34419995117 0.144529750805 0.0
0.0 2.34519995117 0.14476408756 0.0
0.0 2.34619995117 0.144998781321 0.0
0.0 2.34719995117 0.145234500265 0.0
0.0 2.34819995117 0.145470509398 0.0
0.0 2.34919995117 0.145707510321 0.0
0.0 2.35019995117 0.145945034189 0.0
0.0 2.35119995117 0.146183568964 0.0
0.0 2.35219995117 0.146422754426 0.0
0.0 2.35319995117 0.146661980033 0.0
0.0 2.35419995117 0.146902455944 0.0
0.0 2.35519995117 0.147143376504 0.0
0.0 2.35619995117 0.147384543164 0.0
0.0 2.35719995117 0.147627323943 0.0
0.0 2.35819995117 0.147869927057 0.0
0.0 2.35919995117 0.148114020025 0.0
0.0 2.36019995117 0.148358006641 0.0
0.0 2.36119995117 0.148602759255 0.0
0.0 2.36219995117 0.148848502122 0.0
0.0 2.36319995117 0.149094373708 0.0
0.0 2.36419995117 0.149341110947 0.0
0.0 2.36519995117 0.149588059804 0.0
0.0 2.36619995117 0.149836496242 0.0
0.0 2.36719995117 0.150085298214 0.0
0.0 2.36819995117 0.150335053456 0.0
0.0 2.36919995117 0.150585106025 0.0
0.0 2.37019995117 0.150836021923 0.0
0.0 2.37119995117 0.151087948397 0.0
0.0 2.37219995117 0.151340145249 0.0
0.0 2.37319995117 0.151593177979 0.0
0.0 2.37419995117 0.151846477841 0.0
0.0 2.37519995117 0.152100818509 0.0
0.0 2.37619995117 0.15235589926 0.0
0.0 2.37719995117 0.15261170014 0.0
0.0 2.37819995117 0.15286817694 0.0
0.0 2.37919995117 0.153125261682 0.0
0.0 2.38019995117 0.170143079774 0.0
0.0 2.38119995117 0.249343646444 0.0
0.0 2.38219995117 0.320986018299 0.0
0.0 2.38319995117 0.385791531588 0.0
0.0 2.38419995117 0.444412389888 0.0
0.0 2.38519995117 0.497438905978 0.0
0.0 2.38619995117 0.545404788171 0.0
0.0 2.38719995117 0.58879305218 0.0
0.0 2.38819995117 0.628040463082 0.0
0.0 2.38919995117 0.663542278518 0.0
0.0 2.39019995117 0.695655884309 0.0
0.0 2.39119995117 0.724704603049 0.0
0.0 2.39219995117 0.750980965506 0.0
0.0 2.39319995117 0.774749517503 0.0
0.0 2.39419995117 0.796249600088 0.0
0.0 2.39519995117 0.815697616367 0.0
0.0 2.39619995117 0.833289487062 0.0
0.0 2.39719995117 0.849202355789 0.0
0.0 2.39819995117 0.863596454711 0.0
0.0 2.39919995117 0.876616678019 0.0
0.0 2.40019995117 0.888394154165 0.0
0.0 2.40119995117 0.899047513934 0.0
0.0 2.40219995117 0.908684042752 0.0
0.0 2.40319995117 0.917400787893 0.0
0.0 2.40419995117 0.925285538907 0.0
0.0 2.40519995117 0.932417684175 0.0
0.0 2.40619995117 0.9388690692 0.0
0.0 2.40719995117 0.944704645073 0.0
0.0 2.40819995117 0.949983212903 0.0
0.0 2.40919995117 0.954757917179 0.0
0.0 2.41019995117 0.959076856273 0.0
0.0 2.41119995117 0.962983529768 0.0
0.0 2.41219995117 0.966517293863 0.0
0.0 2.41319995117 0.969713739082 0.0
0.0 2.41419995117 0.972605056488 0.0
0.0 2.41519995117 0.975220377182 0.0
0.0 2.41619995117 0.97758603874 0.0
0.0 2.41719995117 0.979725875894 0.0
0.0 2.41819995117 0.981661439627 0.0
0.0 2.41919995117 0.983412233136 0.0
0.0 2.42019995117 0.984995891928 0.0
0.0 2.42119995117 0.986428369131 0.0
0.0 2.42219995117 0.987724096658 0.0
0.0 2.42319995117 0.988896129425 0.0
0.0 2.42419995117 0.989956271527 0.0
0.0 2.42519995117 0.990915205101 0.0
0.0 2.42619995117 0.991782590174 0.0
0.0 2.42719995117 0.99256716869 0.0
0.0 2.42819995117 0.993276843914 0.0
0.0 2.42919995117 0.993918766476 0.0
0.0 2.43019995117 0.994499403459 0.0
0.0 2.43119995117 0.995024606913 0.0
0.0 2.43219995117 0.995499667526 0.0
0.0 2.43319995117 0.995929372289 0.0
0.0 2.43419995117 0.996318050884 0.0
0.0 2.43519995117 0.996669620029 0.0
0.0 2.43619995117 0.996987623206 0.0
0.0 2.43719995117 0.997275263909 0.0
0.0 2.43819995117 0.997535441529 0.0
0.0 2.43919995117 0.997770777617 0.0
0.0 2.44019995117 0.997983644032 0.0
0.0 2.44119995117 0.998176186185 0.0
0.0 2.44219995117 0.998350343653 0.0
0.0 2.44319995117 0.998507872408 0.0
0.0 2.44419995117 0.998650359422 0.0
0.0 2.44519995117 0.998779241457 0.0
0.0 2.44619995117 0.998895816992 0.0
0.0 2.44719995117 0.99900126141 0.0
0.0 2.44819995117 0.999096637185 0.0
0.0 2.44919995117 0.999182905748 0.0
0.0 2.45019995117 0.999260936557 0.0
0.0 2.45119995117 0.999331516315 0.0
0.0 2.45219995117 0.99939535651 0.0
0.0 2.45319995117 0.999453100483 0.0
0.0 2.45419995117 0.999505330348 0.0
0.0 2.45519995117 0.999552572584 0.0
0.0 2.45619995117 0.99959530344 0.0
0.0 2.45719995117 0.999633953731 0.0
0.0 2.45819995117 0.999668913095 0.0
0.0 2.45919995117 0.999700533959 0.0
0.0 2.46019995117 0.999729135151 0.0
0.0 2.46119995117 0.999755004889 0.0
0.0 2.46219995117 0.999778404173 0.0
0.0 2.46319995117 0.999799568757 0.0
0.0 2.46419995117 0.999818712145 0.0
0.0 2.46519995117 0.999836027267 0.0
0.0 2.46619995117 0.999851688752 0.0
0.0 2.46719995117 0.999865854499 0.0
0.0 2.46819995117 0.999878667356 0.0
0.0 2.46919995117 0.999890256517 0.0
0.0 2.47019995117 0.999900738839 0.0
0.0 2.47119995117 0.999910220004 0.0
0.0 2.47219995117 0.999918795646 0.0
0.0 2.47319995117 0.999926552231 0.0
0.0 2.47419995117 0.999933567985 0.0
0.0 2.47519995117 0.999939913648 0.0
0.0 2.47619995117 0.999945653224 0.0
0.0 2.47719995117 0.999950844597 0.0
0.0 2.47819995117 0.999955540122 0.0
0.0 2.47919995117 0.999959787155 0.0
0.0 2.48019995117 0.999963628523 0.0
0.0 2.48119995117 0.99996710298 0.0
0.0 2.48219995117 0.99997024556 0.0
0.0 2.48319995117 0.999973087968 0.0
0.0 2.48419995117 0.999975658867 0.0
0.0 2.48519995117 0.999977984197 0.0
0.0 2.48619995117 0.999980087403 0.0
0.0 2.48719995117 0.999981989707 0.0
0.0 2.48819995117 0.999983710295 0.0
0.0 2.48919995117 0.999985266526 0.0
0.0 2.49019995117 0.999986674098 0.0
0.0 2.49119995117 0.999987947209 0.0
0.0 2.49219995117 0.999989098704 0.0
0.0 2.49319995117 0.999990140198 0.0
0.0 2.49419995117 0.999991082198 0.0
0.0 2.49519995117 0.999991934209 0.0
0.0 2.49619995117 0.999992704827 0.0
0.0 2.49719995117 0.999993401825 0.0
0.0 2.49819995117 0.999994032238 0.0
0.0 2.49919995117 0.999994602424 0.0
0.0 2.50019995117 0.999995118137 0.0
0.0 2.50119995117 0.999995584582 0.0
0.0 2.50219995117 0.999996006464 0.0
0.0 2.50319995117 0.999996388039 0.0
0.0 2.50419995117 0.99999673316 0.0
0.0 2.50519995117 0.999997045308 0.0
0.0 2.50619995117 0.999997327633 0.0
0.0 2.50719995117 0.999997582983 0.0
0.0 2.50819995117 0.999997813937 0.0
0.0 2.50919995117 0.999998022825 0.0
0.0 2.51019995117 0.999998211755 0.0
0.0 2.51119995117 0.999998382633 0.0
0.0 2.51219995117 0.999998537185 0.0
0.0 2.51319995117 0.999998676969 0.0
0.0 2.51419995117 0.999998803397 0.0
0.0 2.51519995117 0.999998917745 0.0
0.0 2.51619995117 0.999999021167 0.0
0.0 2.51719995117 0.999999114707 0.0
0.0 2.51819995117 0.999999199309 0.0
0.0 2.51919995117 0.999999275826 0.0
0.0 2.52019995117 0.999999345033 0.0
0.0 2.52119995117 0.999999407626 0.0
0.0 2.52219995117 0.999999464237 0.0
0.0 2.52319995117 0.99999951544 0.0
0.0 2.52419995117 0.999999561749 0.0
0.0 2.52519995117 0.999999603633 0.0
0.0 2.52619995117 0.999999641514 0.0
0.0 2.52719995117 0.999999675775 0.0
0.0 2.52819995117 0.999999706762 0.0
0.0 2.52919995117 0.999999734789 0.0
0.0 2.53019995117 0.999999760136 0.0
0.0 2.53119995117 0.999999783062 0.0
0.0 2.53219995117 0.999999803796 0.0
0.0 2.53319995117 0.999999822549 0.0
0.0 2.53419995117 0.99999983951 0.0
0.0 2.53519995117 0.99999985485 0.0
0.0 2.53619995117 0.999999868724 0.0
0.0 2.53719995117 0.999999881271 0.0
0.0 2.53819995117 0.99999989262 0.0
0.0 2.53919995117 0.999999902884 0.0
0.0 2.54019995117 0.999999912167 0.0
0.0 2.54119995117 0.999999920563 0.0
0.0 2.54219995117 0.999999928156 0.0
0.0 2.54319995117 0.999999935023 0.0
0.0 2.54419995117 0.999999941235 0.0
0.0 2.54519995117 0.999999946852 0.0
0.0 2.54619995117 0.999999951933 0.0
0.0 2.54719995117 0.999999956528 0.0
0.0 2.54819995117 0.999999960683 0.0
0.0 2.54919995117 0.999999964442 0.0
0.0 2.55019995117 0.999999967841 0.0
0.0 2.55119995117 0.999999970915 0.0
0.0 2.55219995117 0.999999973696 0.0
0.0 2.55319995117 0.999999976211 0.0
0.0 2.55419995117 0.999999978485 0.0
0.0 2.55519995117 0.999999980542 0.0
0.0 2.55619995117 0.999999982402 0.0
0.0 2.55719995117 0.999999984085 0.0
0.0 2.55819995117 0.999999985606 0.0
0.0 2.55919995117 0.999999986982 0.0
0.0 2.56019995117 0.999999988227 0.0
0.0 2.56119995117 0.999999989352 0.0
0.0 2.56219995117 0.999999990371 0.0
0.0 2.56319995117 0.999999991291 0.0
0.0 2.56419995117 0.999999992124 0.0
0.0 2.56519995117 0.999999992877 0.0
0.0 2.56619995117 0.999999993558 0.0
0.0 2.56719995117 0.999999994174 0.0
0.0 2.56819995117 0.999999994731 0.0
0.0 2.56919995117 0.999999995235 0.0
0.0 2.57019995117 0.99999999569 0.0
0.0 2.57119995117 0.999999996103 0.0
0.0 2.57219995117 0.999999996475 0.0
0.0 2.57319995117 0.999999996812 0.0
0.0 2.57419995117 0.999999997117 0.0
0.0 2.57519995117 0.999999997393 0.0
0.0 2.57619995117 0.999999997642 0.0
0.0 2.57719995117 0.999999997868 0.0
0.0 2.57819995117 0.999999998071 0.0
0.0 2.57919995117 0.999999998256 0.0
0.0 2.58019995117 0.999999998423 0.0
0.0 2.58119995117 0.999999998574 0.0
0.0 2.58219995117 0.99999999871 0.0
0.0 2.58319995117 0.999999998833 0.0
0.0 2.58419995117 0.999999998945 0.0
0.0 2.58519995117 0.999999999046 0.0
0.0 2.58619995117 0.999999999137 0.0
0.0 2.58719995117 0.99999999922 0.0
0.0 2.58819995117 0.999999999294 0.0
0.0 2.58919995117 0.999999999362 0.0
0.0 2.59019995117 0.999999999423 0.0
0.0 2.59119995117 0.999999999478 0.0
0.0 2.59219995117 0.999999999528 0.0
0.0 2.59319995117 0.999999999573 0.0
0.0 2.59419995117 0.999999999614 0.0
0.0 2.59519995117 0.999999999651 0.0
0.0 2.59619995117 0.999999999684 0.0
0.0 2.59719995117 0.999999999714 0.0
0.0 2.59819995117 0.999999999742 0.0
