0.0 0.551789978027 0.309119866219 0.0
0.0 0.552789978027 0.308970401808 0.0
0.0 0.553789978027 0.308820705033 0.0
0.0 0.554789978027 0.30867077366 0.0
0.0 0.555789978027 0.308520607856 0.0
0.0 0.556789978027 0.308370209381 0.0
0.0 0.557789978027 0.308219577306 0.0
0.0 0.558789978027 0.308068715166 0.0
0.0 0.559789978027 0.307917620185 0.0
0.0 0.560789978027 0.307766292571 0.0
0.0 0.561789978027 0.30761473625 0.0
0.0 0.562789978027 0.307462949721 0.0
0.0 0.563789978027 0.307310933681 0.0
0.0 0.564789978027 0.307158686887 0.0
0.0 0.565789978027 0.307006214473 0.0
0.0 0.566789978027 0.3068535098 0.0
0.0 0.567789978027 0.306700582949 0.0
0.0 0.568789978027 0.306547423923 0.0
0.0 0.569789978027 0.306394039752 0.0
0.0 0.570789978027 0.306240431113 0.0
0.0 0.571789978027 0.306086593564 0.0
0.0 0.572789978027 0.305932532729 0.0
0.0 0.573789978027 0.305778248604 0.0
0.0 0.574789978027 0.305623738043 0.0
0.0 0.575789978027 0.305469005069 0.0
0.0 0.576789978027 0.305314047717 0.0
0.0 0.577789978027 0.305158873076 0.0
0.0 0.578789978027 0.305003470694 0.0
0.0 0.579789978027 0.304847847588 0.0
0.0 0.580789978027 0.304692002719 0.0
0.0 0.581789978027 0.304535936343 0.0
0.0 0.582789978027 0.304379654468 0.0
0.0 0.583789978027 0.304223153374 0.0
0.0 0.584789978027 0.304066428555 0.0
0.0 0.585789978027 0.30390949216 0.0
0.0 0.586789978027 0.303752326086 0.0
0.0 0.587789978027 0.303594949845 0.0
0.0 0.588789978027 0.303437352221 0.0
0.0 0.589789978027 0.303279546635 0.0
0.0 0.590789978027 0.30312151069 0.0
0.0 0.591789978027 0.302963275191 0.0
0.0 0.592789978027 0.302804818881 0.0
0.0 0.593789978027 0.302646152134 0.0
0.0 0.594789978027 0.302487259053 0.0
0.0 0.595789978027 0.302328160417 0.0
0.0 0.596789978027 0.302168866457 0.0
0.0 0.597789978027 0.302009312437 0.0
0.0 0.598789978027 0.301849577436 0.0
0.0 0.599789978027 0.30168962364 0.0
0.0 0.600789978027 0.301529471804 0.0
0.0 0.601789978027 0.301369100675 0.0
0.0 0.602789978027 0.301208523764 0.0
0.0 0.603789978027 0.301047746217 0.0
0.0 0.604789978027 0.300886717403 0.0
0.0 0.605789978027 0.300725512258 0.0
0.0 0.606789978027 0.300564102749 0.0
0.0 0.607789978027 0.300402468785 0.0
0.0 0.608789978027 0.300240638905 0.0
0.0 0.609789978027 0.300078596503 0.0
0.0 0.610789978027 0.299916354587 0.0
0.0 0.611789978027 0.299753902518 0.0
0.0 0.612789978027 0.29959125486 0.0
0.0 0.613789978027 0.29942840067 0.0
0.0 0.614789978027 0.299265323499 0.0
0.0 0.615789978027 0.29910206621 0.0
0.0 0.616789978027 0.298938602148 0.0
0.0 0.617789978027 0.298774922654 0.0
0.0 0.618789978027 0.298611044326 0.0
0.0 0.619789978027 0.298446972982 0.0
0.0 0.620789978027 0.29828269528 0.0
0.0 0.621789978027 0.29811821787 0.0
0.0 0.622789978027 0.297953533134 0.0
0.0 0.623789978027 0.297788660784 0.0
0.0 0.624789978027 0.297623576802 0.0
0.0 0.625789978027 0.297458296115 0.0
0.0 0.626789978027 0.297292846771 0.0
0.0 0.627789978027 0.297127142043 0.0
0.0 0.628789978027 0.296961285858 0.0
0.0 0.629789978027 0.296795213925 0.0
0.0 0.630789978027 0.296628969786 0.0
0.0 0.631789978027 0.296462501944 0.0
0.0 0.632789978027 0.29629584193 0.0
0.0 0.633789978027 0.296129002207 0.0
0.0 0.634789978027 0.295961957827 0.0
0.0 0.635789978027 0.295794771857 0.0
0.0 0.636789978027 0.29562731055 0.0
0.0 0.637789978027 0.295459683737 0.0
0.0 0.638789978027 0.295291877746 0.0
0.0 0.639789978027 0.295123898451 0.0
0.0 0.640789978027 0.294955678329 0.0
0.0 0.641789978027 0.294787291633 0.0
0.0 0.642789978027 0.294618724166 0.0
0.0 0.643789978027 0.294449954536 0.0
0.0 0.644789978027 0.294281002824 0.0
0.0 0.645789978027 0.294111866776 0.0
0.0 0.646789978027 0.293942519286 0.0
0.0 0.647789978027 0.293773013371 0.0
0.0 0.648789978027 0.293603300672 0.0
0.0 0.649789978027 0.293433427011 0.0
0.0 0.650789978027 0.293263333186 0.0
0.0 0.651789978027 0.293093075453 0.0
0.0 0.652789978027 0.292922627617 0.0
0.0 0.653789978027 0.292752006047 0.0
0.0 0.654789978027 0.292581184919 0.0
0.0 0.655789978027 0.292410180925 0.0
0.0 0.656789978027 0.292239007908 0.0
0.0 0.657789978027 0.292067657847 0.0
0.0 0.658789978027 0.291896072702 0.0
0.0 0.659789978027 0.291724365474 0.0
0.0 0.660789978027 0.291552458355 0.0
0.0 0.661789978027 0.291380380521 0.0
0.0 0.662789978027 0.291208088392 0.0
0.0 0.663789978027 0.291035646826 0.0
0.0 0.664789978027 0.290863013515 0.0
0.0 0.665789978027 0.290690204927 0.0
0.0 0.666789978027 0.29051721956 0.0
0.0 0.667789978027 0.290344098731 0.0
0.0 0.668789978027 0.290170742596 0.0
0.0 0.669789978027 0.289997214587 0.0
0.0 0.670789978027 0.289823521646 0.0
0.0 0.671789978027 0.28964964481 0.0
0.0 0.672789978027 0.289475615894 0.0
0.0 0.673789978027 0.289301381327 0.0
0.0 0.674789978027 0.28912697772 0.0
0.0 0.675789978027 0.288952413117 0.0
0.0 0.676789978027 0.288777690914 0.0
0.0 0.677789978027 0.288602771465 0.0
0.0 0.678789978027 0.288427697535 0.0
0.0 0.679789978027 0.288252471114 0.0
0.0 0.680789978027 0.288077031177 0.0
0.0 0.681789978027 0.287901424879 0.0
0.0 0.682789978027 0.28772564762 0.0
0.0 0.683789978027 0.287549706175 0.0
0.0 0.684789978027 0.287373618238 0.0
0.0 0.685789978027 0.287197356737 0.0
0.0 0.686789978027 0.287020890661 0.0
0.0 0.687789978027 0.286844285502 0.0
0.0 0.688789978027 0.286667500064 0.0
0.0 0.689789978027 0.286490579775 0.0
0.0 0.690789978027 0.28631347348 0.0
0.0 0.691789978027 0.286136195441 0.0
0.0 0.692789978027 0.285958741883 0.0
0.0 0.693789978027 0.285781145365 0.0
0.0 0.694789978027 0.285603377793 0.0
0.0 0.695789978027 0.285425456284 0.0
0.0 0.696789978027 0.285247364877 0.0
0.0 0.697789978027 0.285069103844 0.0
0.0 0.698789978027 0.284890671755 0.0
0.0 0.699789978027 0.284712064386 0.0
0.0 0.700789978027 0.284533352856 0.0
0.0 0.701789978027 0.284354463248 0.0
0.0 0.702789978027 0.284175381781 0.0
0.0 0.703789978027 0.283996169154 0.0
0.0 0.704789978027 0.283816791398 0.0
0.0 0.705789978027 0.283637250966 0.0
0.0 0.706789978027 0.283457550988 0.0
0.0 0.707789978027 0.283277689065 0.0
0.0 0.708789978027 0.283097679908 0.0
0.0 0.709789978027 0.282917504463 0.0
0.0 0.710789978027 0.282737173231 0.0
0.0 0.711789978027 0.282556677658 0.0
0.0 0.712789978027 0.282376054355 0.0
0.0 0.713789978027 0.282195290438 0.0
0.0 0.714789978027 0.282014332761 0.0
0.0 0.715789978027 0.281833250436 0.0
0.0 0.716789978027 0.281651993802 0.0
0.0 0.717789978027 0.281470616031 0.0
0.0 0.718789978027 0.281289047413 0.0
0.0 0.719789978027 0.281107349961 0.0
0.0 0.720789978027 0.280925496131 0.0
0.0 0.721789978027 0.2807434875 0.0
0.0 0.722789978027 0.280561339776 0.0
0.0 0.723789978027 0.280379026876 0.0
0.0 0.724789978027 0.280196580028 0.0
0.0 0.725789978027 0.280013983341 0.0
0.0 0.726789978027 0.279831187232 0.0
0.0 0.727789978027 0.279648298456 0.0
0.0 0.728789978027 0.279465256558 0.0
0.0 0.729789978027 0.279282042186 0.0
0.0 0.730789978027 0.279098714258 0.0
0.0 0.731789978027 0.278915207151 0.0
0.0 0.732789978027 0.278731612952 0.0
0.0 0.733789978027 0.278547833932 0.0
0.0 0.734789978027 0.278363919337 0.0
0.0 0.735789978027 0.278179860094 0.0
0.0 0.736789978027 0.277995661383 0.0
0.0 0.737789978027 0.277811338094 0.0
0.0 0.738789978027 0.277626844059 0.0
0.0 0.739789978027 0.27744220061 0.0
0.0 0.740789978027 0.277257435806 0.0
0.0 0.741789978027 0.277072511831 0.0
0.0 0.742789978027 0.276887477268 0.0
0.0 0.743789978027 0.276702250543 0.0
0.0 0.744789978027 0.276516930377 0.0
0.0 0.745789978027 0.276331436932 0.0
0.0 0.746789978027 0.276145839066 0.0
0.0 0.747789978027 0.275960104211 0.0
0.0 0.748789978027 0.275774254628 0.0
0.0 0.749789978027 0.275588253553 0.0
0.0 0.750789978027 0.275402099078 0.0
0.0 0.751789978027 0.27521581564 0.0
0.0 0.752789978027 0.275029373015 0.0
0.0 0.753789978027 0.274842827301 0.0
0.0 0.754789978027 0.274656117001 0.0
0.0 0.755789978027 0.274469266386 0.0
0.0 0.756789978027 0.274282350273 0.0
0.0 0.757789978027 0.274095248033 0.0
0.0 0.758789978027 0.27390801757 0.0
0.0 0.759789978027 0.273720648917 0.0
0.0 0.760789978027 0.273533173222 0.0
0.0 0.761789978027 0.27334554198 0.0
0.0 0.762789978027 0.273157803111 0.0
0.0 0.763789978027 0.272969927631 0.0
0.0 0.764789978027 0.272781941128 0.0
0.0 0.765789978027 0.272593815599 0.0
0.0 0.766789978027 0.272405546715 0.0
0.0 0.767789978027 0.272217149273 0.0
0.0 0.768789978027 0.272028630324 0.0
0.0 0.769789978027 0.271839996714 0.0
0.0 0.770789978027 0.271651251873 0.0
0.0 0.771789978027 0.271462341571 0.0
0.0 0.772789978027 0.271273304344 0.0
0.0 0.773789978027 0.271084176267 0.0
0.0 0.774789978027 0.270894913625 0.0
0.0 0.775789978027 0.270705511656 0.0
0.0 0.776789978027 0.270515979495 0.0
0.0 0.777789978027 0.270326349855 0.0
0.0 0.778789978027 0.270136610276 0.0
0.0 0.779789978027 0.26994673615 0.0
0.0 0.780789978027 0.269756707279 0.0
0.0 0.781789978027 0.269566639383 0.0
0.0 0.782789978027 0.269376370125 0.0
0.0 0.783789978027 0.269186062848 0.0
0.0 0.784789978027 0.268995534743 0.0
0.0 0.785789978027 0.268804924669 0.0
0.0 0.786789978027 0.268614204891 0.0
0.0 0.787789978027 0.268423415548 0.0
0.0 0.788789978027 0.268232455811 0.0
0.0 0.789789978027 0.268041354498 0.0
0.0 0.790789978027 0.267850204925 0.0
0.0 0.791789978027 0.267658887277 0.0
0.0 0.792789978027 0.267467504738 0.0
0.0 0.793789978027 0.267275936443 0.0
0.0 0.794789978027 0.267084301279 0.0
0.0 0.795789978027 0.266892546409 0.0
0.0 0.796789978027 0.266700666894 0.0
0.0 0.797789978027 0.266508719307 0.0
0.0 0.798789978027 0.266316608859 0.0
0.0 0.799789978027 0.266124435297 0.0
0.0 0.800789978027 0.265932138062 0.0
0.0 0.801789978027 0.265739717497 0.0
0.0 0.802789978027 0.265547153298 0.0
0.0 0.803789978027 0.265354537053 0.0
0.0 0.804789978027 0.265161741673 0.0
0.0 0.805789978027 0.264968915301 0.0
0.0 0.806789978027 0.264775934514 0.0
0.0 0.807789978027 0.264582850496 0.0
0.0 0.808789978027 0.264389690821 0.0
0.0 0.809789978027 0.264196378987 0.0
0.0 0.810789978027 0.264003022059 0.0
0.0 0.811789978027 0.263809469476 0.0
0.0 0.812789978027 0.263615927787 0.0
0.0 0.813789978027 0.263422196069 0.0
0.0 0.814789978027 0.263228404594 0.0
0.0 0.815789978027 0.263034523528 0.0
0.0 0.816789978027 0.262840449152 0.0
0.0 0.817789978027 0.262646325583 0.0
0.0 0.818789978027 0.262452114457 0.0
0.0 0.819789978027 0.262257817612 0.0
0.0 0.820789978027 0.26206335952 0.0
0.0 0.821789978027 0.261868878823 0.0
0.0 0.822789978027 0.261674256019 0.0
0.0 0.823789978027 0.261479470498 0.0
0.0 0.824789978027 0.261284661587 0.0
0.0 0.825789978027 0.26108975378 0.0
0.0 0.826789978027 0.26089467704 0.0
0.0 0.827789978027 0.260699585279 0.0
0.0 0.828789978027 0.260504411216 0.0
0.0 0.829789978027 0.260309100751 0.0
0.0 0.830789978027 0.260113682825 0.0
0.0 0.831789978027 0.259918176701 0.0
0.0 0.832789978027 0.259722588864 0.0
0.0 0.833789978027 0.259526940662 0.0
0.0 0.834789978027 0.25933117166 0.0
0.0 0.835789978027 0.259135317172 0.0
0.0 0.836789978027 0.258939284834 0.0
0.0 0.837789978027 0.258743197584 0.0
0.0 0.838789978027 0.258547102405 0.0
0.0 0.839789978027 0.2583508695 0.0
0.0 0.840789978027 0.258154491967 0.0
0.0 0.841789978027 0.2579580048 0.0
0.0 0.842789978027 0.257761528328 0.0
0.0 0.843789978027 0.257564950462 0.0
0.0 0.844789978027 0.257368247755 0.0
0.0 0.845789978027 0.25717149549 0.0
0.0 0.846789978027 0.256974562856 0.0
0.0 0.847789978027 0.256777645425 0.0
0.0 0.848789978027 0.256580630992 0.0
0.0 0.849789978027 0.256383446745 0.0
0.0 0.850789978027 0.256186244718 0.0
0.0 0.851789978027 0.25598895815 0.0
0.0 0.852789978027 0.25579153497 0.0
0.0 0.853789978027 0.255594017966 0.0
0.0 0.854789978027 0.255396585665 0.0
0.0 0.855789978027 0.25519891907 0.0
0.0 0.856789978027 0.255001188942 0.0
0.0 0.857789978027 0.254803351509 0.0
0.0 0.858789978027 0.254605358892 0.0
0.0 0.859789978027 0.254407498553 0.0
0.0 0.860789978027 0.254209544041 0.0
0.0 0.861789978027 0.254011386195 0.0
0.0 0.862789978027 0.253813145462 0.0
0.0 0.863789978027 0.25361479827 0.0
0.0 0.864789978027 0.253416417874 0.0
0.0 0.865789978027 0.25321794433 0.0
0.0 0.866789978027 0.253019445143 0.0
0.0 0.867789978027 0.252820765952 0.0
0.0 0.868789978027 0.252622160384 0.0
0.0 0.869789978027 0.252423333024 0.0
0.0 0.870789978027 0.252224502556 0.0
0.0 0.871789978027 0.252025596754 0.0
0.0 0.872789978027 0.251826700396 0.0
0.0 0.873789978027 0.25162756115 0.0
0.0 0.874789978027 0.25142853617 0.0
0.0 0.875789978027 0.251229518245 0.0
0.0 0.876789978027 0.251030300936 0.0
0.0 0.877789978027 0.250830607977 0.0
0.0 0.878789978027 0.250631188863 0.0
0.0 0.879789978027 0.250432055701 0.0
0.0 0.880789978027 0.250232221399 0.0
0.0 0.881789978027 0.250032582267 0.0
0.0 0.882789978027 0.249833094535 0.0
0.0 0.883789978027 0.249633336409 0.0
0.0 0.884789978027 0.249433435041 0.0
0.0 0.885789978027 0.249233939032 0.0
0.0 0.886789978027 0.249033746732 0.0
0.0 0.887789978027 0.248833275465 0.0
0.0 0.888789978027 0.248633789725 0.0
0.0 0.889789978027 0.2484329813 0.0
0.0 0.890789978027 0.248233622827 0.0
0.0 0.891789978027 0.248032432061 0.0
0.0 0.892789978027 0.247832059971 0.0
0.0 0.893789978027 0.247632419894 0.0
0.0 0.894789978027 0.247431123355 0.0
0.0 0.895789978027 0.247232002293 0.0
0.0 0.896789978027 0.247029933499 0.0
0.0 0.897789978027 0.246829374817 0.0
0.0 0.898789978027 0.246628533419 0.0
0.0 0.899789978027 0.246427796146 0.0
0.0 0.900789978027 0.246226830104 0.0
0.0 0.901789978027 0.246025950537 0.0
0.0 0.902789978027 0.245824914851 0.0
0.0 0.903789978027 0.245623917364 0.0
0.0 0.904789978027 0.245422857273 0.0
0.0 0.905789978027 0.245221689341 0.0
0.0 0.906789978027 0.245020421248 0.0
0.0 0.907789978027 0.244819100983 0.0
0.0 0.908789978027 0.244617797591 0.0
0.0 0.909789978027 0.24441642205 0.0
0.0 0.910789978027 0.244214868599 0.0
0.0 0.911789978027 0.244013454269 0.0
0.0 0.912789978027 0.243811966681 0.0
0.0 0.913789978027 0.243610242924 0.0
0.0 0.914789978027 0.243408620803 0.0
0.0 0.915789978027 0.24320684843 0.0
0.0 0.916789978027 0.243005119552 0.0
0.0 0.917789978027 0.242803275449 0.0
0.0 0.918789978027 0.242601348336 0.0
0.0 0.919789978027 0.242399502635 0.0
0.0 0.920789978027 0.242197476152 0.0
0.0 0.921789978027 0.241995448935 0.0
0.0 0.922789978027 0.241793414401 0.0
0.0 0.923789978027 0.241591229261 0.0
0.0 0.924789978027 0.241389088889 0.0
0.0 0.925789978027 0.241186846239 0.0
0.0 0.926789978027 0.240984498674 0.0
0.0 0.927789978027 0.24078227663 0.0
0.0 0.928789978027 0.240579966365 0.0
0.0 0.929789978027 0.240377550695 0.0
0.0 0.930789978027 0.240174969276 0.0
0.0 0.931789978027 0.239972548342 0.0
0.0 0.932789978027 0.239770027989 0.0
0.0 0.933789978027 0.239567330602 0.0
0.0 0.934789978027 0.23936475648 0.0
0.0 0.935789978027 0.239162083453 0.0
0.0 0.936789978027 0.238959371542 0.0
0.0 0.937789978027 0.23875655826 0.0
0.0 0.938789978027 0.238553794991 0.0
0.0 0.939789978027 0.238350853944 0.0
0.0 0.940789978027 0.238147980404 0.0
0.0 0.941789978027 0.237945016404 0.0
0.0 0.942789978027 0.237742106715 0.0
0.0 0.943789978027 0.237539083536 0.0
0.0 0.944789978027 0.237335982371 0.0
0.0 0.945789978027 0.23713285001 0.0
0.0 0.946789978027 0.236929835337 0.0
0.0 0.947789978027 0.236726679197 0.0
0.0 0.948789978027 0.236523471507 0.0
0.0 0.949789978027 0.236320149684 0.0
0.0 0.950789978027 0.236116982261 0.0
0.0 0.951789978027 0.23591364353 0.0
0.0 0.952789978027 0.235710327691 0.0
0.0 0.953789978027 0.235507004424 0.0
0.0 0.954789978027 0.235303517893 0.0
0.0 0.955789978027 0.235100070848 0.0
0.0 0.956789978027 0.234896614755 0.0
0.0 0.957789978027 0.234693186792 0.0
0.0 0.958789978027 0.23448957829 0.0
0.0 0.959789978027 0.234285935319 0.0
0.0 0.960789978027 0.23408235499 0.0
0.0 0.961789978027 0.233878737238 0.0
0.0 0.962789978027 0.233674971504 0.0
0.0 0.963789978027 0.233471355114 0.0
0.0 0.964789978027 0.233267622057 0.0
0.0 0.965789978027 0.233063930949 0.0
0.0 0.966789978027 0.232860115622 0.0
0.0 0.967789978027 0.232656267133 0.0
0.0 0.968789978027 0.232452565933 0.0
0.0 0.969789978027 0.232248664242 0.0
0.0 0.970789978027 0.232044755757 0.0
0.0 0.971789978027 0.231840878099 0.0
0.0 0.972789978027 0.231636981394 0.0
0.0 0.973789978027 0.231432927679 0.0
0.0 0.974789978027 0.231228948771 0.0
0.0 0.975789978027 0.23102499661 0.0
0.0 0.976789978027 0.230820921809 0.0
0.0 0.977789978027 0.230616821327 0.0
0.0 0.978789978027 0.230412684839 0.0
0.0 0.979789978027 0.230208694643 0.0
0.0 0.980789978027 0.230004557553 0.0
0.0 0.981789978027 0.229800455383 0.0
0.0 0.982789978027 0.229596216172 0.0
0.0 0.983789978027 0.229392063761 0.0
0.0 0.984789978027 0.229187904198 0.0
0.0 0.985789978027 0.228983726638 0.0
0.0 0.986789978027 0.228779566228 0.0
0.0 0.987789978027 0.228575173215 0.0
0.0 0.988789978027 0.228371010119 0.0
0.0 0.989789978027 0.228166787332 0.0
0.0 0.990789978027 0.227962445679 0.0
0.0 0.991789978027 0.227758086352 0.0
0.0 0.992789978027 0.227553780614 0.0
0.0 0.993789978027 0.227349458166 0.0
0.0 0.994789978027 0.227145134913 0.0
0.0 0.995789978027 0.226940767546 0.0
0.0 0.996789978027 0.226736369539 0.0
0.0 0.997789978027 0.226531990996 0.0
0.0 0.998789978027 0.226329031278 0.0
0.0 0.999789978027 0.226124401141 0.0
0.0 1.00078997803 0.225920116301 0.0
0.0 1.00178997803 0.225715792793 0.0
0.0 1.00278997803 0.225511160933 0.0
0.0 1.00378997803 0.225306772101 0.0
0.0 1.00478997803 0.225102398978 0.0
0.0 1.00578997803 0.224898181107 0.0
0.0 1.00678997803 0.224693315074 0.0
0.0 1.00778997803 0.224488442581 0.0
0.0 1.00878997803 0.224284016409 0.0
0.0 1.00978997803 0.224079832412 0.0
0.0 1.01078997803 0.223875366989 0.0
0.0 1.01178997803 0.223670537669 0.0
0.0 1.01278997803 0.223466077844 0.0
0.0 1.01378997803 0.223261674417 0.0
0.0 1.01478997803 0.223057399057 0.0
0.0 1.01578997803 0.222852775673 0.0
0.0 1.01678997803 0.222648183559 0.0
0.0 1.01778997803 0.222443276949 0.0
0.0 1.01878997803 0.222238931839 0.0
0.0 1.01978997803 0.222034657988 0.0
0.0 1.02078997803 0.221829956148 0.0
0.0 1.02178997803 0.221625761572 0.0
0.0 1.02278997803 0.221420776723 0.0
0.0 1.02378997803 0.221216386348 0.0
0.0 1.02479003906 0.221012121683 0.0
0.0 1.02579003906 0.220807310052 0.0
0.0 1.02679003906 0.220602582141 0.0
0.0 1.02779003906 0.220398224378 0.0
0.0 1.02879003906 0.22019347658 0.0
0.0 1.02979003906 0.219988782122 0.0
0.0 1.03079003906 0.219784379417 0.0
0.0 1.03179003906 0.219580046343 0.0
0.0 1.03279003906 0.219375261311 0.0
0.0 1.03379003906 0.219171041307 0.0
0.0 1.03479003906 0.218966500675 0.0
0.0 1.03579003906 0.218761895161 0.0
0.0 1.03679003906 0.218557733963 0.0
0.0 1.03779003906 0.218353025212 0.0
0.0 1.03879003906 0.218148490339 0.0
0.0 1.03979003906 0.217944303619 0.0
0.0 1.04079003906 0.217739724105 0.0
0.0 1.04179003906 0.217535097028 0.0
0.0 1.04279003906 0.217330688529 0.0
0.0 1.04379003906 0.217126784609 0.0
0.0 1.04479003906 0.216922119073 0.0
0.0 1.04579003906 0.216717902768 0.0
0.0 1.04679003906 0.216513413672 0.0
0.0 1.04779003906 0.216309002374 0.0
0.0 1.04879003906 0.216104617285 0.0
0.0 1.04979003906 0.215899846053 0.0
0.0 1.05079003906 0.215695887599 0.0
0.0 1.05179003906 0.215491434798 0.0
0.0 1.05279003906 0.215287189912 0.0
0.0 1.05379003906 0.21508296215 0.0
0.0 1.05479003906 0.214878774733 0.0
0.0 1.05579003906 0.214674271461 0.0
0.0 1.05679003906 0.214470047441 0.0
0.0 1.05779003906 0.214266042331 0.0
0.0 1.05879003906 0.214061651141 0.0
0.0 1.05979003906 0.213857823478 0.0
0.0 1.06079003906 0.21365361456 0.0
0.0 1.06179003906 0.213449538461 0.0
0.0 1.06279003906 0.213245171681 0.0
0.0 1.06379003906 0.213041143651 0.0
0.0 1.06479003906 0.212837209153 0.0
0.0 1.06579003906 0.212633346868 0.0
0.0 1.06679003906 0.212429500108 0.0
0.0 1.06779003906 0.212225208575 0.0
0.0 1.06879003906 0.212020847983 0.0
0.0 1.06979003906 0.211817005386 0.0
0.0 1.07079003906 0.211613301865 0.0
0.0 1.07179003906 0.211409442251 0.0
0.0 1.07279003906 0.211205543158 0.0
0.0 1.07379003906 0.211001590228 0.0
0.0 1.07479003906 0.210797938488 0.0
0.0 1.07579003906 0.210593806439 0.0
0.0 1.07679003906 0.21039037916 0.0
0.0 1.07779003906 0.21018625628 0.0
0.0 1.07879003906 0.209982548963 0.0
0.0 1.07979003906 0.209779084669 0.0
0.0 1.08079003906 0.209575204491 0.0
0.0 1.08179003906 0.20937175385 0.0
0.0 1.08279003906 0.209167884401 0.0
0.0 1.08379003906 0.208964487992 0.0
0.0 1.08479003906 0.208761354722 0.0
0.0 1.08579003906 0.208557217793 0.0
0.0 1.08679003906 0.208354011333 0.0
0.0 1.08779003906 0.208150688674 0.0
0.0 1.08879003906 0.207947234822 0.0
0.0 1.08979003906 0.207743583972 0.0
0.0 1.09079003906 0.207540469728 0.0
0.0 1.09179003906 0.207337144688 0.0
0.0 1.09279003906 0.207134135975 0.0
0.0 1.09379003906 0.206930584156 0.0
0.0 1.09479003906 0.20672723442 0.0
0.0 1.09579003906 0.206524318261 0.0
0.0 1.09679003906 0.206321157699 0.0
0.0 1.09779003906 0.206118167689 0.0
0.0 1.09879003906 0.205915149611 0.0
0.0 1.09979003906 0.205711998649 0.0
0.0 1.10079003906 0.205509372927 0.0
0.0 1.10179003906 0.20530636338 0.0
0.0 1.10279003906 0.205103110861 0.0
0.0 1.10379003906 0.204900197683 0.0
0.0 1.10479003906 0.204697953613 0.0
0.0 1.10579003906 0.204495231645 0.0
0.0 1.10679003906 0.204292317365 0.0
0.0 1.10779003906 0.204089374496 0.0
0.0 1.10879003906 0.20388686706 0.0
0.0 1.10979003906 0.203684163981 0.0
0.0 1.11079003906 0.203481525081 0.0
0.0 1.11179003906 0.203279623108 0.0
0.0 1.11279003906 0.203076901438 0.0
0.0 1.11379003906 0.202874513537 0.0
0.0 1.11479003906 0.202672322393 0.0
0.0 1.11579003906 0.202469656524 0.0
0.0 1.11679003906 0.202267665365 0.0
0.0 1.11779003906 0.202065185589 0.0
0.0 1.11879003906 0.20186318228 0.0
0.0 1.11979003906 0.201660891386 0.0
0.0 1.12079003906 0.201458729747 0.0
0.0 1.12179003906 0.20125660721 0.0
0.0 1.12279003906 0.201054726615 0.0
0.0 1.12379003906 0.20085307591 0.0
0.0 1.12479003906 0.200650977953 0.0
0.0 1.12579003906 0.200449064394 0.0
0.0 1.12679003906 0.200247593391 0.0
0.0 1.12779003906 0.200045846771 0.0
0.0 1.12879003906 0.199844305017 0.0
0.0 1.12979003906 0.199642954764 0.0
0.0 1.13079003906 0.199441274832 0.0
0.0 1.13179003906 0.199239760977 0.0
0.0 1.13279003906 0.199038050562 0.0
0.0 1.13379003906 0.198836700837 0.0
0.0 1.13479003906 0.198635520389 0.0
0.0 1.13579003906 0.198434036893 0.0
0.0 1.13679003906 0.198232934262 0.0
0.0 1.13779003906 0.198031563894 0.0
0.0 1.13879003906 0.197830657761 0.0
0.0 1.13979003906 0.197629650924 0.0
0.0 1.14079003906 0.197428753458 0.0
0.0 1.14179003906 0.197227690557 0.0
0.0 1.14279003906 0.197026812942 0.0
0.0 1.14379003906 0.196826162833 0.0
0.0 1.14479003906 0.196625495061 0.0
0.0 1.14579003906 0.196424756274 0.0
0.0 1.14679003906 0.19622400508 0.0
0.0 1.14779003906 0.196023471533 0.0
0.0 1.14879003906 0.195823054096 0.0
0.0 1.14979003906 0.195622513347 0.0
0.0 1.15079003906 0.195422187747 0.0
0.0 1.15179003906 0.195222024307 0.0
0.0 1.15279003906 0.195021991367 0.0
0.0 1.15379003906 0.194821832032 0.0
0.0 1.15479003906 0.194621597681 0.0
0.0 1.15579003906 0.194421811242 0.0
0.0 1.15679003906 0.194221722975 0.0
0.0 1.15779003906 0.194021663741 0.0
0.0 1.15879003906 0.193821859711 0.0
0.0 1.15979003906 0.19362191427 0.0
0.0 1.16079003906 0.193422500283 0.0
0.0 1.16179003906 0.193222659124 0.0
0.0 1.16279003906 0.193023514884 0.0
0.0 1.16379003906 0.192823871863 0.0
0.0 1.16479003906 0.192624481415 0.0
0.0 1.16579003906 0.192424869388 0.0
0.0 1.16679003906 0.192226088264 0.0
0.0 1.16779003906 0.192026607583 0.0
0.0 1.16879003906 0.191827624556 0.0
0.0 1.16979003906 0.191628890401 0.0
0.0 1.17079003906 0.191429633994 0.0
0.0 1.17179003906 0.191230645997 0.0
0.0 1.17279003906 0.191031929003 0.0
0.0 1.17379003906 0.19083320899 0.0
0.0 1.17479003906 0.190634696999 0.0
0.0 1.17579003906 0.190436099263 0.0
0.0 1.17679003906 0.190237803484 0.0
0.0 1.17779003906 0.190039205988 0.0
0.0 1.17879003906 0.189840733945 0.0
0.0 1.17979003906 0.189642413631 0.0
0.0 1.18079003906 0.189444358892 0.0
0.0 1.18179003906 0.189245971066 0.0
0.0 1.18279003906 0.18904808055 0.0
0.0 1.18379003906 0.188850115942 0.0
0.0 1.18479003906 0.188652082125 0.0
0.0 1.18579003906 0.188454317479 0.0
0.0 1.18679003906 0.188256739141 0.0
0.0 1.18779003906 0.188059136796 0.0
0.0 1.18879003906 0.187861581734 0.0
0.0 1.18979003906 0.187664153878 0.0
0.0 1.19079003906 0.187466741888 0.0
0.0 1.19179003906 0.187269367657 0.0
0.0 1.19279003906 0.187072017752 0.0
0.0 1.19379003906 0.186875252151 0.0
0.0 1.19479003906 0.186678170373 0.0
0.0 1.19579003906 0.18648148801 0.0
0.0 1.19679003906 0.186284620176 0.0
0.0 1.19779003906 0.186087616245 0.0
0.0 1.19879003906 0.185890878629 0.0
0.0 1.19979003906 0.185694603035 0.0
0.0 1.20079003906 0.185498063534 0.0
0.0 1.20179003906 0.185301784301 0.0
0.0 1.20279003906 0.185105639075 0.0
0.0 1.20379003906 0.184908950633 0.0
0.0 1.20479003906 0.184713378362 0.0
0.0 1.20579003906 0.184517097049 0.0
0.0 1.20679003906 0.184321013192 0.0
0.0 1.20779003906 0.184125208748 0.0
0.0 1.20879003906 0.183929332779 0.0
0.0 1.20979003906 0.183733831244 0.0
0.0 1.21079003906 0.183538053564 0.0
0.0 1.21179003906 0.183342823224 0.0
0.0 1.21279003906 0.183147504674 0.0
0.0 1.21379003906 0.18295196176 0.0
0.0 1.21479003906 0.182757129121 0.0
0.0 1.21579003906 0.182561753464 0.0
0.0 1.21679003906 0.182366705521 0.0
0.0 1.21779003906 0.182172029496 0.0
0.0 1.21879003906 0.181977317283 0.0
0.0 1.21979003906 0.181782930028 0.0
0.0 1.22079003906 0.18158810809 0.0
0.0 1.22179003906 0.181393630665 0.0
0.0 1.22279003906 0.181199346271 0.0
0.0 1.22379003906 0.181004990409 0.0
0.0 1.22479003906 0.180810800883 0.0
0.0 1.22579003906 0.180616889973 0.0
0.0 1.22679003906 0.180422952034 0.0
0.0 1.22779003906 0.180229166701 0.0
0.0 1.22879003906 0.180035209171 0.0
0.0 1.22979003906 0.179841671001 0.0
0.0 1.23079003906 0.179648273323 0.0
0.0 1.23179003906 0.179454645891 0.0
0.0 1.23279003906 0.179260992768 0.0
0.0 1.23379003906 0.179068172536 0.0
0.0 1.23479003906 0.1788749758 0.0
0.0 1.23579003906 0.17868200386 0.0
0.0 1.23679003906 0.178489240272 0.0
0.0 1.23779003906 0.17829667158 0.0
0.0 1.23879003906 0.178103958643 0.0
0.0 1.23979003906 0.177911683826 0.0
0.0 1.24079003906 0.177719014262 0.0
0.0 1.24179003906 0.177526978491 0.0
0.0 1.24279003906 0.177335118796 0.0
0.0 1.24379003906 0.177142452757 0.0
0.0 1.24479003906 0.176950984003 0.0
0.0 1.24579003906 0.176759203522 0.0
0.0 1.24679003906 0.176567698929 0.0
0.0 1.24779003906 0.176376315553 0.0
0.0 1.24879003906 0.176184872634 0.0
0.0 1.24979003906 0.175993929634 0.0
0.0 1.25079003906 0.175802826387 0.0
0.0 1.25179003906 0.175612306005 0.0
0.0 1.25279003906 0.175421560714 0.0
0.0 1.25379003906 0.175230952606 0.0
0.0 1.25479003906 0.175040928986 0.0
0.0 1.25579003906 0.174850791157 0.0
0.0 1.25679003906 0.174660797393 0.0
0.0 1.25779003906 0.174470900523 0.0
0.0 1.25879003906 0.174281460288 0.0
0.0 1.25979003906 0.174092048693 0.0
0.0 1.26079003906 0.173903182653 0.0
0.0 1.26179003906 0.173714044325 0.0
0.0 1.26279003906 0.173525927111 0.0
0.0 1.26379003906 0.173337612615 0.0
0.0 1.26479003906 0.173149596744 0.0
0.0 1.26579003906 0.172962182245 0.0
0.0 1.26679003906 0.172774880058 0.0
0.0 1.26779003906 0.172588180511 0.0
0.0 1.26879003906 0.172401678141 0.0
0.0 1.26979003906 0.17221574015 0.0
0.0 1.27079003906 0.172031067352 0.0
0.0 1.27179003906 0.171846344861 0.0
0.0 1.27279003906 0.171663014787 0.0
0.0 1.27379003906 0.171480018797 0.0
0.0 1.27479003906 0.17129858692 0.0
0.0 1.27579003906 0.171118325087 0.0
0.0 1.27679003906 0.170939614304 0.0
0.0 1.27779003906 0.170762071968 0.0
0.0 1.27879003906 0.170586650431 0.0
0.0 1.27979003906 0.170413312609 0.0
0.0 1.28079003906 0.170242487345 0.0
0.0 1.28179003906 0.170074555399 0.0
0.0 1.28279003906 0.169909312448 0.0
0.0 1.28379003906 0.169747497531 0.0
0.0 1.28479003906 0.16958938258 0.0
0.0 1.28579003906 0.169436505253 0.0
0.0 1.28679003906 0.16929069712 0.0
0.0 1.28779003906 0.169147551558 0.0
0.0 1.28879003906 0.169016559525 0.0
0.0 1.28979003906 0.168894800606 0.0
0.0 1.29079003906 0.168781182507 0.0
0.0 1.29179003906 0.1686806177 0.0
0.0 1.29279003906 0.168607523578 0.0
0.0 1.29379003906 0.168544284429 0.0
0.0 1.29479003906 0.168504389289 0.0
0.0 1.29579003906 0.168513191707 0.0
0.0 1.29679003906 0.168548047779 0.0
0.0 1.29779003906 0.168634623408 0.0
0.0 1.29879003906 0.16879947896 0.0
0.0 1.29979003906 0.169031744264 0.0
0.0 1.30079003906 0.169357631802 0.0
0.0 1.30179003906 0.169818490553 0.0
0.0 1.30279003906 0.170428704847 0.0
0.0 1.30379003906 0.171188787325 0.0
0.0 1.30479003906 0.172141064126 0.0
0.0 1.30579003906 0.173265771365 0.0
0.0 1.30679003906 0.174304842924 0.0
0.0 1.30779003906 0.174988579295 0.0
0.0 1.30879003906 0.1758954411 0.0
0.0 1.30979003906 0.17666874878 0.0
0.0 1.31079003906 0.177622106843 0.0
0.0 1.31179003906 0.178876088045 0.0
0.0 1.31279003906 0.180451020097 0.0
0.0 1.31379003906 0.182133569062 0.0
0.0 1.31479003906 0.184518112041 0.0
0.0 1.31579003906 0.186517923365 0.0
0.0 1.31679003906 0.189672228872 0.0
0.0 1.31779003906 0.192986007831 0.0
0.0 1.31879003906 0.197771206562 0.0
0.0 1.31979003906 0.2029712177 0.0
0.0 1.32079003906 0.210263771541 0.0
0.0 1.32179003906 0.218223665582 0.0
0.0 1.32279003906 0.228309425601 0.0
0.0 1.32379003906 0.239117305427 0.0
0.0 1.32479003906 0.253253720633 0.0
0.0 1.32579003906 0.267079643923 0.0
0.0 1.32679003906 0.284244806349 0.0
0.0 1.32779003906 0.302886675708 0.0
0.0 1.32879003906 0.324416697556 0.0
0.0 1.32979003906 0.347410844371 0.0
0.0 1.33079003906 0.372313941789 0.0
0.0 1.33179003906 0.396740392335 0.0
0.0 1.33279003906 0.421209561826 0.0
0.0 1.33379003906 0.445115288481 0.0
0.0 1.33479003906 0.466206385009 0.0
0.0 1.33579003906 0.484850495461 0.0
0.0 1.33679003906 0.50042598752 0.0
0.0 1.33779003906 0.513452695817 0.0
0.0 1.33879003906 0.523047221807 0.0
0.0 1.33979003906 0.530155874632 0.0
0.0 1.34079003906 0.535101192039 0.0
0.0 1.34179003906 0.53827262307 0.0
0.0 1.34279003906 0.540469684731 0.0
0.0 1.34379003906 0.543721457453 0.0
0.0 1.34479003906 0.542798784628 0.0
0.0 1.34579003906 0.54418286608 0.0
0.0 1.34679003906 0.546179075395 0.0
0.0 1.34779003906 0.546436682587 0.0
0.0 1.34879003906 0.547514164417 0.0
0.0 1.34979003906 0.548129363828 0.0
0.0 1.35079003906 0.549736967507 0.0
0.0 1.35179003906 0.550033610977 0.0
0.0 1.35279003906 0.550154322708 0.0
0.0 1.35379003906 0.551369989095 0.0
0.0 1.35479003906 0.550377338533 0.0
0.0 1.35579003906 0.550830012405 0.0
0.0 1.35679003906 0.550636920168 0.0
0.0 1.35779003906 0.549996248508 0.0
0.0 1.35879003906 0.549692243158 0.0
0.0 1.35979003906 0.549053877781 0.0
0.0 1.36079003906 0.548173310554 0.0
0.0 1.36179003906 0.547365374681 0.0
0.0 1.36279003906 0.546007038867 0.0
0.0 1.36379003906 0.546076774364 0.0
0.0 1.36479003906 0.546673393565 0.0
0.0 1.36579003906 0.546534270855 0.0
0.0 1.36679003906 0.545074254239 0.0
0.0 1.36779003906 0.544563374122 0.0
0.0 1.36879003906 0.545352998346 0.0
0.0 1.36979003906 0.544868122297 0.0
0.0 1.37079003906 0.545760854898 0.0
0.0 1.37179003906 0.545441933772 0.0
0.0 1.37279003906 0.544277370971 0.0
0.0 1.37379003906 0.544117979171 0.0
0.0 1.37479003906 0.54379116767 0.0
0.0 1.37579003906 0.543774904212 0.0
0.0 1.37679003906 0.543342105068 0.0
0.0 1.37779003906 0.543296918679 0.0
0.0 1.37879003906 0.542683391051 0.0
0.0 1.37979003906 0.542031146542 0.0
0.0 1.38079003906 0.541044745087 0.0
0.0 1.38179003906 0.540843093141 0.0
0.0 1.38279003906 0.542041557247 0.0
0.0 1.38379003906 0.541137655268 0.0
0.0 1.38479003906 0.540653784385 0.0
0.0 1.38579003906 0.540778841038 0.0
0.0 1.38679003906 0.540638502156 0.0
0.0 1.38779003906 0.539210195046 0.0
0.0 1.38879003906 0.539460466317 0.0
0.0 1.38979003906 0.540262621304 0.0
0.0 1.39079003906 0.540617858997 0.0
0.0 1.39179003906 0.539893333475 0.0
0.0 1.39279003906 0.54096782118 0.0
0.0 1.39379003906 0.540610808044 0.0
0.0 1.39479003906 0.541383155059 0.0
0.0 1.39579003906 0.541818698853 0.0
0.0 1.39679003906 0.541952562012 0.0
0.0 1.39779003906 0.54356880625 0.0
0.0 1.39879003906 0.54366607693 0.0
0.0 1.39979003906 0.543700935394 0.0
0.0 1.40079003906 0.545267911851 0.0
0.0 1.40179003906 0.545579177082 0.0
0.0 1.40279003906 0.546100564376 0.0
0.0 1.40379003906 0.546945340356 0.0
0.0 1.40479003906 0.547184903135 0.0
0.0 1.40579003906 0.548611139485 0.0
0.0 1.40679003906 0.548736448721 0.0
0.0 1.40779003906 0.548540709541 0.0
0.0 1.40879003906 0.549657915867 0.0
0.0 1.40979003906 0.550561276131 0.0
0.0 1.41079003906 0.549741419188 0.0
0.0 1.41179003906 0.551258640259 0.0
0.0 1.41279003906 0.551796818295 0.0
0.0 1.41379003906 0.553080453415 0.0
0.0 1.41479003906 0.552918635434 0.0
0.0 1.41579003906 0.553556519545 0.0
0.0 1.41679003906 0.554525468356 0.0
0.0 1.41779003906 0.55377120242 0.0
0.0 1.41879003906 0.555370115119 0.0
0.0 1.41979003906 0.555218741281 0.0
0.0 1.42079003906 0.555401073313 0.0
0.0 1.42179003906 0.556764368146 0.0
0.0 1.42279003906 0.556820994286 0.0
0.0 1.42379003906 0.557824360924 0.0
0.0 1.42479003906 0.557872396413 0.0
0.0 1.42579003906 0.556898209011 0.0
0.0 1.42679003906 0.558093454512 0.0
0.0 1.42779003906 0.558060191342 0.0
0.0 1.42879003906 0.557946076786 0.0
0.0 1.42979003906 0.559996674393 0.0
0.0 1.43079003906 0.560035318902 0.0
0.0 1.43179003906 0.560528949496 0.0
0.0 1.43279003906 0.559494578809 0.0
0.0 1.43379003906 0.559762319306 0.0
0.0 1.43479003906 0.560465341809 0.0
0.0 1.43579003906 0.559796388643 0.0
0.0 1.43679003906 0.559641161943 0.0
0.0 1.43779003906 0.560654674407 0.0
0.0 1.43879003906 0.560616106719 0.0
0.0 1.43979003906 0.560376329058 0.0
0.0 1.44079003906 0.561354680088 0.0
0.0 1.44179003906 0.560415958523 0.0
0.0 1.44279003906 0.560943406188 0.0
0.0 1.44379003906 0.561373300019 0.0
0.0 1.44479003906 0.561728735693 0.0
0.0 1.44579003906 0.560668687337 0.0
0.0 1.44679003906 0.561230789517 0.0
0.0 1.44779003906 0.560797636705 0.0
0.0 1.44879003906 0.562190910454 0.0
0.0 1.44979003906 0.560914048214 0.0
0.0 1.45079003906 0.560633073893 0.0
0.0 1.45179003906 0.561576123349 0.0
0.0 1.45279003906 0.561313560078 0.0
0.0 1.45379003906 0.559550656402 0.0
0.0 1.45479003906 0.558426355803 0.0
0.0 1.45579003906 0.559484825211 0.0
0.0 1.45679003906 0.558182670776 0.0
0.0 1.45779003906 0.557808945623 0.0
0.0 1.45879003906 0.558158755646 0.0
0.0 1.45979003906 0.557129682343 0.0
0.0 1.46079003906 0.555210337374 0.0
0.0 1.46179003906 0.553865600472 0.0
0.0 1.46279003906 0.553398461115 0.0
0.0 1.46379003906 0.552751622882 0.0
0.0 1.46479003906 0.552705095567 0.0
0.0 1.46579003906 0.552617220085 0.0
0.0 1.46679003906 0.55052038285 0.0
0.0 1.46779003906 0.550161311441 0.0
0.0 1.46879003906 0.550014326662 0.0
0.0 1.46979003906 0.548805591136 0.0
0.0 1.47079003906 0.547134651359 0.0
0.0 1.47179003906 0.546655955335 0.0
0.0 1.47279003906 0.547334176691 0.0
0.0 1.47379003906 0.545761314399 0.0
0.0 1.47479003906 0.547432097577 0.0
0.0 1.47579003906 0.546219042163 0.0
0.0 1.47679003906 0.546618400184 0.0
0.0 1.47779003906 0.546618923847 0.0
0.0 1.47879003906 0.546632632714 0.0
0.0 1.47979003906 0.546736003545 0.0
0.0 1.48079003906 0.546121450962 0.0
0.0 1.48179003906 0.546630331003 0.0
0.0 1.48279003906 0.547198621116 0.0
0.0 1.48379003906 0.546990705573 0.0
0.0 1.48479003906 0.548299099834 0.0
0.0 1.48579003906 0.550676998606 0.0
0.0 1.48679003906 0.549705439835 0.0
0.0 1.48779003906 0.550606288245 0.0
0.0 1.48879003906 0.550970539087 0.0
0.0 1.48979003906 0.551406669668 0.0
0.0 1.49079003906 0.55200492345 0.0
0.0 1.49179003906 0.553670247596 0.0
0.0 1.49279003906 0.553874270992 0.0
0.0 1.49379003906 0.554185312866 0.0
0.0 1.49479003906 0.554868542503 0.0
0.0 1.49579003906 0.556043126487 0.0
0.0 1.49679003906 0.557075302481 0.0
0.0 1.49779003906 0.556694435182 0.0
0.0 1.49879003906 0.557576425303 0.0
0.0 1.49979003906 0.559916192553 0.0
0.0 1.50079003906 0.560281169276 0.0
0.0 1.50179003906 0.560133120156 0.0
0.0 1.50279003906 0.560306727398 0.0
0.0 1.50379003906 0.561735791784 0.0
0.0 1.50479003906 0.562019998412 0.0
0.0 1.50579003906 0.56247558516 0.0
0.0 1.50679003906 0.563876426374 0.0
0.0 1.50779003906 0.563762781288 0.0
0.0 1.50879003906 0.564894744524 0.0
0.0 1.50979003906 0.565865788536 0.0
0.0 1.51079003906 0.566433849625 0.0
0.0 1.51179003906 0.565955907739 0.0
0.0 1.51279003906 0.567262597195 0.0
0.0 1.51379003906 0.567667309419 0.0
0.0 1.51479003906 0.566482703733 0.0
0.0 1.51579003906 0.567148827149 0.0
0.0 1.51679003906 0.567170186033 0.0
0.0 1.51779003906 0.568404052445 0.0
0.0 1.51879003906 0.566630756741 0.0
0.0 1.51979003906 0.567686136469 0.0
0.0 1.52079003906 0.566718313309 0.0
0.0 1.52179003906 0.565839913566 0.0
0.0 1.52279003906 0.567833969003 0.0
0.0 1.52379003906 0.566067609779 0.0
0.0 1.52479003906 0.564906291179 0.0
0.0 1.52579003906 0.565460673727 0.0
0.0 1.52679003906 0.565588826389 0.0
0.0 1.52779003906 0.565090345069 0.0
0.0 1.52879003906 0.564299301955 0.0
0.0 1.52979003906 0.562627794131 0.0
0.0 1.53079003906 0.563989856588 0.0
0.0 1.53179003906 0.562858021298 0.0
0.0 1.53279003906 0.562346986957 0.0
0.0 1.53379003906 0.560965167853 0.0
0.0 1.53479003906 0.561397209863 0.0
0.0 1.53579003906 0.56122363569 0.0
0.0 1.53679003906 0.560218611321 0.0
0.0 1.53779003906 0.56120313311 0.0
0.0 1.53879003906 0.560177718138 0.0
0.0 1.53979003906 0.559042930197 0.0
0.0 1.54079003906 0.55872192545 0.0
0.0 1.54179003906 0.558589577281 0.0
0.0 1.54279003906 0.558198344227 0.0
0.0 1.54379003906 0.558542989619 0.0
0.0 1.54479003906 0.557398427873 0.0
0.0 1.54579003906 0.557327389887 0.0
0.0 1.54679003906 0.557346814778 0.0
0.0 1.54779003906 0.556620631886 0.0
0.0 1.54879003906 0.558000760997 0.0
0.0 1.54979003906 0.555553406176 0.0
0.0 1.55079003906 0.556349256601 0.0
0.0 1.55179003906 0.554249571385 0.0
0.0 1.55279003906 0.555365498657 0.0
0.0 1.55379003906 0.55396850068 0.0
0.0 1.55479003906 0.5546887041 0.0
0.0 1.55579003906 0.552634103645 0.0
0.0 1.55679003906 0.551649121652 0.0
0.0 1.55779003906 0.551302223169 0.0
0.0 1.55879003906 0.551159185939 0.0
0.0 1.55979003906 0.551028841735 0.0
0.0 1.56079003906 0.550133209671 0.0
0.0 1.56179003906 0.550770812564 0.0
0.0 1.56279003906 0.548542323442 0.0
0.0 1.56379003906 0.549589439993 0.0
0.0 1.56479003906 0.549116392347 0.0
0.0 1.56579003906 0.549189099963 0.0
0.0 1.56679003906 0.549975322959 0.0
0.0 1.56779003906 0.549913996702 0.0
0.0 1.56879003906 0.550190080573 0.0
0.0 1.56979003906 0.55055519567 0.0
0.0 1.57079003906 0.550650574924 0.0
0.0 1.57179003906 0.551608202251 0.0
0.0 1.57279003906 0.553888405502 0.0
0.0 1.57379003906 0.552821401198 0.0
0.0 1.57479003906 0.554844291878 0.0
0.0 1.57579003906 0.554310218945 0.0
0.0 1.57679003906 0.556499624216 0.0
0.0 1.57779003906 0.557101274489 0.0
0.0 1.57879003906 0.556789314094 0.0
0.0 1.57979003906 0.558534033862 0.0
0.0 1.58079003906 0.559693023685 0.0
0.0 1.58179003906 0.559972119869 0.0
0.0 1.58279003906 0.560890993572 0.0
0.0 1.58379003906 0.562256821889 0.0
0.0 1.58479003906 0.563563018773 0.0
0.0 1.58579003906 0.563808094137 0.0
0.0 1.58679003906 0.562480042176 0.0
0.0 1.58779003906 0.564157330121 0.0
0.0 1.58879003906 0.563393790616 0.0
0.0 1.58979003906 0.564463945687 0.0
0.0 1.59079003906 0.564276834537 0.0
0.0 1.59179003906 0.565363435904 0.0
0.0 1.59279003906 0.565696636372 0.0
0.0 1.59379003906 0.565227646719 0.0
0.0 1.59479003906 0.56451079955 0.0
0.0 1.59579003906 0.564716779479 0.0
0.0 1.59679003906 0.566401760082 0.0
0.0 1.59779003906 0.565872268215 0.0
0.0 1.59879003906 0.565821735877 0.0
0.0 1.59979003906 0.564030153782 0.0
0.0 1.60079003906 0.566581470074 0.0
0.0 1.60179003906 0.565456367444 0.0
0.0 1.60279003906 0.565411474415 0.0
0.0 1.60379003906 0.564912752567 0.0
0.0 1.60479003906 0.566141520237 0.0
0.0 1.60579003906 0.565955700384 0.0
0.0 1.60679003906 0.565974104184 0.0
0.0 1.60779003906 0.565481210659 0.0
0.0 1.60879003906 0.564977713335 0.0
0.0 1.60979003906 0.565341929107 0.0
0.0 1.61079003906 0.565199025165 0.0
0.0 1.61179003906 0.565392632355 0.0
0.0 1.61279003906 0.564044717301 0.0
0.0 1.61379003906 0.565003095785 0.0
0.0 1.61479003906 0.565053079654 0.0
0.0 1.61579003906 0.565410993656 0.0
0.0 1.61679003906 0.565426263204 0.0
0.0 1.61779003906 0.566408683294 0.0
0.0 1.61879003906 0.563180991178 0.0
0.0 1.61979003906 0.564610432521 0.0
0.0 1.62079003906 0.562379222286 0.0
0.0 1.62179003906 0.564037991434 0.0
0.0 1.62279003906 0.562232479746 0.0
0.0 1.62379003906 0.562214284882 0.0
0.0 1.62479003906 0.561529060177 0.0
0.0 1.62579003906 0.560857193475 0.0
0.0 1.62679003906 0.559495857609 0.0
0.0 1.62779003906 0.560685471794 0.0
0.0 1.62879003906 0.559709837943 0.0
0.0 1.62979003906 0.558267530525 0.0
0.0 1.63079003906 0.558421703445 0.0
0.0 1.63179003906 0.558645930188 0.0
0.0 1.63279003906 0.559220270473 0.0
0.0 1.63379003906 0.558134273109 0.0
0.0 1.63479003906 0.558378338225 0.0
0.0 1.63579003906 0.559658586193 0.0
0.0 1.63679003906 0.559252355055 0.0
0.0 1.63779003906 0.559793734453 0.0
0.0 1.63879003906 0.559395868242 0.0
0.0 1.63979003906 0.5606629202 0.0
0.0 1.64079003906 0.559579319574 0.0
0.0 1.64179003906 0.560438167145 0.0
0.0 1.64279003906 0.560179773999 0.0
0.0 1.64379003906 0.560903625475 0.0
0.0 1.64479003906 0.557811707856 0.0
0.0 1.64579003906 0.56090899583 0.0
0.0 1.64679003906 0.560451742166 0.0
0.0 1.64779003906 0.562101565689 0.0
0.0 1.64879003906 0.561199753291 0.0
0.0 1.64979003906 0.561905669508 0.0
0.0 1.65079003906 0.56285047509 0.0
0.0 1.65179003906 0.563013482982 0.0
0.0 1.65279003906 0.565034242416 0.0
0.0 1.65379003906 0.565376200113 0.0
0.0 1.65479003906 0.56515775884 0.0
0.0 1.65579003906 0.562590540736 0.0
0.0 1.65679003906 0.561141584837 0.0
0.0 1.65779003906 0.557687059811 0.0
0.0 1.65879003906 0.550909665907 0.0
0.0 1.65979003906 0.540946305078 0.0
0.0 1.66079003906 0.529647738591 0.0
0.0 1.66179003906 0.512543078246 0.0
0.0 1.66279003906 0.493243971619 0.0
0.0 1.66379003906 0.46792610801 0.0
0.0 1.66479003906 0.442549130079 0.0
0.0 1.66579003906 0.415328965501 0.0
0.0 1.66679003906 0.385680722458 0.0
0.0 1.66779003906 0.357837829235 0.0
0.0 1.66879003906 0.328522220086 0.0
0.0 1.66979003906 0.30031771377 0.0
0.0 1.67079003906 0.276069714839 0.0
0.0 1.67179003906 0.252427750604 0.0
0.0 1.67279003906 0.232170525137 0.0
0.0 1.67379003906 0.214340278291 0.0
0.0 1.67479003906 0.19990893459 0.0
0.0 1.67579003906 0.188647623916 0.0
0.0 1.67679003906 0.178420648417 0.0
0.0 1.67779003906 0.170467687237 0.0
0.0 1.67879003906 0.162570296916 0.0
0.0 1.67979003906 0.156258966972 0.0
0.0 1.68079003906 0.150674156524 0.0
0.0 1.68179003906 0.146443451322 0.0
0.0 1.68279003906 0.141961292264 0.0
0.0 1.68379003906 0.138489306002 0.0
0.0 1.68479003906 0.134836616667 0.0
0.0 1.68579003906 0.131168210837 0.0
0.0 1.68679003906 0.127940568857 0.0
0.0 1.68779003906 0.125055203661 0.0
0.0 1.68879003906 0.122506648312 0.0
0.0 1.68979003906 0.120468548628 0.0
0.0 1.69079003906 0.118708980863 0.0
0.0 1.69179003906 0.117236351631 0.0
0.0 1.69279003906 0.115932982751 0.0
0.0 1.69379003906 0.114892401787 0.0
0.0 1.69479003906 0.113979150695 0.0
0.0 1.69579003906 0.113183735791 0.0
0.0 1.69679003906 0.112545287833 0.0
0.0 1.69779003906 0.111964225203 0.0
0.0 1.69879003906 0.111473003183 0.0
0.0 1.69979003906 0.11105074096 0.0
0.0 1.70079003906 0.110685485127 0.0
0.0 1.70179003906 0.11034963845 0.0
0.0 1.70279003906 0.110060650474 0.0
0.0 1.70379003906 0.10980180765 0.0
0.0 1.70479003906 0.109565102102 0.0
0.0 1.70579003906 0.10935671548 0.0
0.0 1.70679003906 0.109164092466 0.0
0.0 1.70779003906 0.108984928135 0.0
0.0 1.70879003906 0.108819948546 0.0
0.0 1.70979003906 0.108667377911 0.0
0.0 1.71079003906 0.10852262566 0.0
0.0 1.71179003906 0.108386214281 0.0
0.0 1.71279003906 0.108259282307 0.0
0.0 1.71379003906 0.108133723226 0.0
0.0 1.71479003906 0.108018288572 0.0
0.0 1.71579003906 0.107905090922 0.0
0.0 1.71679003906 0.10779681279 0.0
0.0 1.71779003906 0.107690533862 0.0
0.0 1.71879003906 0.10758878172 0.0
0.0 1.71979003906 0.10748928777 0.0
0.0 1.72079003906 0.107392118926 0.0
0.0 1.72179003906 0.107297594119 0.0
0.0 1.72279003906 0.107203001943 0.0
0.0 1.72379003906 0.107112018442 0.0
0.0 1.72479003906 0.107021585597 0.0
0.0 1.72579003906 0.106933214607 0.0
0.0 1.72679003906 0.106844368145 0.0
0.0 1.72779003906 0.106759345614 0.0
0.0 1.72879003906 0.106672487466 0.0
0.0 1.72979003906 0.106589168013 0.0
0.0 1.73079003906 0.10650563124 0.0
0.0 1.73179003906 0.106422170698 0.0
0.0 1.73279003906 0.106341289303 0.0
0.0 1.73379003906 0.106258147939 0.0
0.0 1.73479003906 0.106178758709 0.0
0.0 1.73579003906 0.106098790787 0.0
0.0 1.73679003906 0.106019346381 0.0
0.0 1.73779003906 0.10594160474 0.0
0.0 1.73879003906 0.105863441939 0.0
0.0 1.73979003906 0.105785819661 0.0
0.0 1.74079003906 0.105708616592 0.0
0.0 1.74179003906 0.105632171669 0.0
0.0 1.74279003906 0.10555634319 0.0
0.0 1.74379003906 0.10548157349 0.0
0.0 1.74479003906 0.105406125572 0.0
0.0 1.74579003906 0.105332305323 0.0
0.0 1.74679003906 0.105257850419 0.0
0.0 1.74779003906 0.105185096827 0.0
0.0 1.74879003906 0.105112385252 0.0
0.0 1.74979003906 0.105039099564 0.0
0.0 1.75079003906 0.104967232602 0.0
0.0 1.75179003906 0.104895318949 0.0
0.0 1.75279003906 0.104823689916 0.0
0.0 1.75379003906 0.104752956159 0.0
0.0 1.75479003906 0.10468309289 0.0
0.0 1.75579003906 0.104612443593 0.0
0.0 1.75679003906 0.10454313841 0.0
0.0 1.75779003906 0.104473574712 0.0
0.0 1.75879003906 0.104405536286 0.0
0.0 1.75979003906 0.104335933938 0.0
0.0 1.76079003906 0.104269673338 0.0
0.0 1.76179003906 0.104200440615 0.0
0.0 1.76279003906 0.104133253554 0.0
0.0 1.76379003906 0.104067347911 0.0
0.0 1.76479003906 0.104000505896 0.0
0.0 1.76579003906 0.103935185707 0.0
0.0 1.76679003906 0.103868501241 0.0
0.0 1.76779003906 0.10380358176 0.0
0.0 1.76879003906 0.10373748496 0.0
0.0 1.76979003906 0.103675049057 0.0
0.0 1.77079003906 0.10361023987 0.0
0.0 1.77179003906 0.103545892468 0.0
0.0 1.77279003906 0.103483334371 0.0
0.0 1.77379003906 0.103419864497 0.0
0.0 1.77479003906 0.103357219334 0.0
0.0 1.77579003906 0.103295137286 0.0
0.0 1.77679003906 0.103234061682 0.0
0.0 1.77779003906 0.103172946095 0.0
0.0 1.77879003906 0.103112076438 0.0
0.0 1.77979003906 0.103050646586 0.0
0.0 1.78079003906 0.102989547104 0.0
0.0 1.78179003906 0.102930800404 0.0
0.0 1.78279003906 0.102870545633 0.0
0.0 1.78379003906 0.102812262422 0.0
0.0 1.78479003906 0.102753224031 0.0
0.0 1.78579003906 0.102695676362 0.0
0.0 1.78679003906 0.102637196417 0.0
0.0 1.78779003906 0.102580002476 0.0
0.0 1.78879003906 0.102522368301 0.0
0.0 1.78979003906 0.102466499362 0.0
0.0 1.79079003906 0.102409412632 0.0
0.0 1.79179003906 0.102353470899 0.0
0.0 1.79279003906 0.102298147536 0.0
0.0 1.79379003906 0.102242531054 0.0
0.0 1.79479003906 0.102188032503 0.0
0.0 1.79579003906 0.102134179362 0.0
0.0 1.79679003906 0.102078660677 0.0
0.0 1.79779003906 0.102025619435 0.0
0.0 1.79879003906 0.101971532732 0.0
0.0 1.79979003906 0.101918504671 0.0
0.0 1.80079003906 0.101867131995 0.0
0.0 1.80179003906 0.10181594352 0.0
0.0 1.80279003906 0.101763682359 0.0
0.0 1.80379003906 0.101712600601 0.0
0.0 1.80479003906 0.101659945752 0.0
0.0 1.80579003906 0.101610110026 0.0
0.0 1.80679003906 0.101560787408 0.0
0.0 1.80779003906 0.101511314029 0.0
0.0 1.80879003906 0.101462052092 0.0
0.0 1.80979003906 0.101413002515 0.0
0.0 1.81079003906 0.101365102459 0.0
0.0 1.81179003906 0.101316884961 0.0
0.0 1.81279003906 0.101268104332 0.0
0.0 1.81379003906 0.101220893702 0.0
0.0 1.81479003906 0.101174166333 0.0
0.0 1.81579003906 0.101127179542 0.0
0.0 1.81679003906 0.101080864681 0.0
0.0 1.81779003906 0.101035791628 0.0
0.0 1.81879003906 0.100990949055 0.0
0.0 1.81979003906 0.100945293613 0.0
0.0 1.82079003906 0.100900341625 0.0
0.0 1.82179003906 0.100856649274 0.0
0.0 1.82279003906 0.100812925619 0.0
0.0 1.82379003906 0.10077032768 0.0
0.0 1.82479003906 0.10072643211 0.0
0.0 1.82579003906 0.100684880007 0.0
0.0 1.82679003906 0.100641236456 0.0
0.0 1.82779003906 0.100599080636 0.0
0.0 1.82879003906 0.100559529566 0.0
0.0 1.82979003906 0.100517922989 0.0
0.0 1.83079003906 0.100478075893 0.0
0.0 1.83179003906 0.100436401601 0.0
0.0 1.83279003906 0.10039741942 0.0
0.0 1.83379003906 0.100356907949 0.0
0.0 1.83479003906 0.100320136857 0.0
0.0 1.83579003906 0.100280900319 0.0
0.0 1.83679003906 0.100242425341 0.0
0.0 1.83779003906 0.100203467616 0.0
0.0 1.83879003906 0.100168479 0.0
0.0 1.83979003906 0.100129949525 0.0
0.0 1.84079003906 0.100095043569 0.0
0.0 1.84179003906 0.100057174292 0.0
0.0 1.84279003906 0.100022923016 0.0
0.0 1.84379003906 0.0999881989693 0.0
0.0 1.84479003906 0.0999522766561 0.0
0.0 1.84579003906 0.0999171604228 0.0
0.0 1.84679003906 0.0998852272492 0.0
0.0 1.84779003906 0.0998521724424 0.0
0.0 1.84879003906 0.0998169161515 0.0
0.0 1.84979003906 0.0997863974483 0.0
0.0 1.85079003906 0.09975257908 0.0
0.0 1.85179003906 0.0997220119505 0.0
0.0 1.85279003906 0.0996891347468 0.0
0.0 1.85379003906 0.0996576510129 0.0
0.0 1.85479003906 0.0996277429968 0.0
0.0 1.85579003906 0.0995992401165 0.0
0.0 1.85679003906 0.099567607388 0.0
0.0 1.85779003906 0.0995372871403 0.0
0.0 1.85879003906 0.0995101622295 0.0
0.0 1.85979003906 0.0994791043534 0.0
0.0 1.86079003906 0.0994532261082 0.0
0.0 1.86179003906 0.0994250499988 0.0
0.0 1.86279003906 0.0993980781152 0.0
0.0 1.86379003906 0.0993707018113 0.0
0.0 1.86479003906 0.0993456848243 0.0
0.0 1.86579003906 0.0993178651642 0.0
0.0 1.86679003906 0.0992919980958 0.0
0.0 1.86779003906 0.0992690328022 0.0
0.0 1.86879003906 0.0992428740604 0.0
0.0 1.86979003906 0.0992187078235 0.0
0.0 1.87079003906 0.0991950227604 0.0
0.0 1.87179003906 0.099171109451 0.0
0.0 1.87279003906 0.0991459117315 0.0
0.0 1.87379003906 0.0991237543438 0.0
0.0 1.87479003906 0.0991022031269 0.0
0.0 1.87579003906 0.0990808738398 0.0
0.0 1.87679003906 0.0990608974725 0.0
0.0 1.87779003906 0.099040005298 0.0
0.0 1.87879003906 0.0990191064684 0.0
0.0 1.87979003906 0.0989980658715 0.0
0.0 1.88079003906 0.0989782750065 0.0
0.0 1.88179003906 0.0989584452772 0.0
0.0 1.88279003906 0.0989410103008 0.0
0.0 1.88379003906 0.0989218780952 0.0
0.0 1.88479003906 0.0989066443204 0.0
0.0 1.88579003906 0.0988868015524 0.0
0.0 1.88679003906 0.0988704541122 0.0
0.0 1.88779003906 0.0988535878318 0.0
0.0 1.88879003906 0.0988371514252 0.0
0.0 1.88979003906 0.0988215858855 0.0
0.0 1.89079003906 0.0988059126005 0.0
0.0 1.89179003906 0.0987920946474 0.0
0.0 1.89279003906 0.0987767112991 0.0
0.0 1.89379003906 0.0987627207485 0.0
0.0 1.89479003906 0.0987490713068 0.0
0.0 1.89579003906 0.0987377217359 0.0
0.0 1.89679003906 0.0987233384908 0.0
0.0 1.89779003906 0.0987128453626 0.0
0.0 1.89879003906 0.0986994159411 0.0
0.0 1.89979003906 0.0986875535684 0.0
0.0 1.90079003906 0.0986762368796 0.0
0.0 1.90179003906 0.0986669341865 0.0
0.0 1.90279003906 0.0986580449913 0.0
0.0 1.90379003906 0.0986463776309 0.0
0.0 1.90479003906 0.0986377037092 0.0
0.0 1.90579003906 0.0986291496184 0.0
0.0 1.90679003906 0.0986213652354 0.0
0.0 1.90779003906 0.0986138324513 0.0
0.0 1.90879003906 0.0986045266029 0.0
0.0 1.90979003906 0.0985997017153 0.0
0.0 1.91079003906 0.0985928865906 0.0
0.0 1.91179003906 0.0985863037826 0.0
0.0 1.91279003906 0.0985822356885 0.0
0.0 1.91379003906 0.0985749694021 0.0
0.0 1.91479003906 0.0985700349666 0.0
0.0 1.91579003906 0.0985667680109 0.0
0.0 1.91679003906 0.098562241113 0.0
0.0 1.91779003906 0.0985593751449 0.0
0.0 1.91879003906 0.0985564583476 0.0
0.0 1.91979003906 0.0985550787792 0.0
0.0 1.92079003906 0.0985528450595 0.0
0.0 1.92179003906 0.0985515951776 0.0
0.0 1.92279003906 0.0985503957496 0.0
0.0 1.92379003906 0.0985480794244 0.0
0.0 1.92479003906 0.0985490629519 0.0
0.0 1.92579003906 0.0985478031943 0.0
0.0 1.92679003906 0.0985500622095 0.0
0.0 1.92779003906 0.0985508615625 0.0
0.0 1.92879003906 0.0985518291143 0.0
0.0 1.92979003906 0.098553677246 0.0
0.0 1.93079003906 0.0985573831844 0.0
0.0 1.93179003906 0.0985589989326 0.0
0.0 1.93279003906 0.0985618678587 0.0
0.0 1.93379003906 0.0985678758765 0.0
0.0 1.93479003906 0.0985717681562 0.0
0.0 1.93579003906 0.0985771561147 0.0
0.0 1.93679003906 0.098581936697 0.0
0.0 1.93779003906 0.0985880846021 0.0
0.0 1.93879003906 0.098592136007 0.0
0.0 1.93979003906 0.0986004952247 0.0
0.0 1.94079003906 0.0986078041322 0.0
0.0 1.94179003906 0.0986156485736 0.0
0.0 1.94279003906 0.0986234420627 0.0
0.0 1.94379003906 0.0986315340997 0.0
0.0 1.94479003906 0.0986434729775 0.0
0.0 1.94579003906 0.098650003668 0.0
0.0 1.94679003906 0.0986608646134 0.0
0.0 1.94779003906 0.0986712402496 0.0
0.0 1.94879003906 0.0986796838026 0.0
0.0 1.94979003906 0.0986932963384 0.0
0.0 1.95079003906 0.0987050335271 0.0
0.0 1.95179003906 0.0987153045225 0.0
0.0 1.95279003906 0.0987294342137 0.0
0.0 1.95379003906 0.0987413940748 0.0
0.0 1.95479003906 0.0987547071017 0.0
0.0 1.95579003906 0.0987691412793 0.0
0.0 1.95679003906 0.0987834608258 0.0
0.0 1.95779003906 0.0987999278361 0.0
0.0 1.95879003906 0.0988142629202 0.0
0.0 1.95979003906 0.0988305489931 0.0
0.0 1.96079003906 0.0988463099088 0.0
0.0 1.96179003906 0.0988638130174 0.0
0.0 1.96279003906 0.0988803254937 0.0
0.0 1.96379003906 0.0988978616008 0.0
0.0 1.96479003906 0.0989169497928 0.0
0.0 1.96579003906 0.0989364206896 0.0
0.0 1.96679003906 0.0989551251242 0.0
0.0 1.96779003906 0.0989742498165 0.0
0.0 1.96879003906 0.0989959876617 0.0
0.0 1.96979003906 0.0990159177967 0.0
0.0 1.97079003906 0.0990373169126 0.0
0.0 1.97179003906 0.0990585812332 0.0
0.0 1.97279003906 0.0990803398326 0.0
0.0 1.97379003906 0.0991029378009 0.0
0.0 1.97479003906 0.0991267646269 0.0
0.0 1.97579003906 0.0991486243908 0.0
0.0 1.97679003906 0.0991734659055 0.0
0.0 1.97779003906 0.0991979919639 0.0
0.0 1.97879003906 0.0992234945702 0.0
0.0 1.97979003906 0.0992487218653 0.0
0.0 1.98079003906 0.0992734708642 0.0
0.0 1.98179003906 0.099300428607 0.0
0.0 1.98279003906 0.0993295547835 0.0
0.0 1.98379003906 0.0993554150818 0.0
0.0 1.98479003906 0.099383076192 0.0
0.0 1.98579003906 0.0994106258319 0.0
0.0 1.98679003906 0.0994392458617 0.0
0.0 1.98779003906 0.0994688745033 0.0
0.0 1.98879003906 0.0994996528387 0.0
0.0 1.98979003906 0.0995303886969 0.0
0.0 1.99079003906 0.0995582908529 0.0
0.0 1.99179003906 0.0995929362557 0.0
0.0 1.99279003906 0.0996231429113 0.0
0.0 1.99379003906 0.0996538437438 0.0
0.0 1.99479003906 0.099687535188 0.0
0.0 1.99579003906 0.0997217915571 0.0
0.0 1.99679003906 0.0997545314679 0.0
0.0 1.99779003906 0.0997894777576 0.0
0.0 1.99879003906 0.0998243548491 0.0
0.0 1.99979003906 0.0998587961104 0.0
0.0 2.00079003906 0.0998937915225 0.0
0.0 2.00179003906 0.0999300248534 0.0
0.0 2.00279003906 0.0999671158801 0.0
0.0 2.00379003906 0.100005330043 0.0
0.0 2.00479003906 0.100042616487 0.0
0.0 2.00579003906 0.100079394304 0.0
0.0 2.00679003906 0.100119944034 0.0
0.0 2.00779003906 0.100159236751 0.0
0.0 2.00879003906 0.100197337517 0.0
0.0 2.00979003906 0.100238553619 0.0
0.0 2.01079003906 0.100278534663 0.0
0.0 2.01179003906 0.100320560805 0.0
0.0 2.01279003906 0.100361302942 0.0
0.0 2.01379003906 0.100402641331 0.0
0.0 2.01479003906 0.100446075754 0.0
0.0 2.01579003906 0.100489525855 0.0
0.0 2.01679003906 0.100530213098 0.0
0.0 2.01779003906 0.100577413502 0.0
0.0 2.01879003906 0.100620674156 0.0
0.0 2.01979003906 0.100668077358 0.0
0.0 2.02079003906 0.100710551351 0.0
0.0 2.02179003906 0.100758161913 0.0
0.0 2.02279003906 0.100803125732 0.0
0.0 2.02379003906 0.100851186686 0.0
0.0 2.02479003906 0.100898991621 0.0
0.0 2.02579003906 0.100945318855 0.0
0.0 2.02679003906 0.100995135055 0.0
0.0 2.02779003906 0.101043435236 0.0
0.0 2.02879003906 0.101095214049 0.0
0.0 2.02979003906 0.101143479178 0.0
0.0 2.03079003906 0.101194769221 0.0
0.0 2.03179003906 0.101245929609 0.0
0.0 2.03279003906 0.101298214646 0.0
0.0 2.03379003906 0.101350086811 0.0
0.0 2.03479003906 0.101400546982 0.0
0.0 2.03579003906 0.101455778222 0.0
0.0 2.03679003906 0.10150714231 0.0
0.0 2.03779003906 0.101562919763 0.0
0.0 2.03879003906 0.101616167642 0.0
0.0 2.03979003906 0.101672887529 0.0
0.0 2.04079003906 0.101726393568 0.0
0.0 2.04179003906 0.101787604326 0.0
0.0 2.04279003906 0.101839595625 0.0
0.0 2.04379003906 0.101898307444 0.0
0.0 2.04479003906 0.101954032899 0.0
0.0 2.04579003906 0.102016342767 0.0
0.0 2.04679003906 0.102072611802 0.0
0.0 2.04779003906 0.102131378267 0.0
0.0 2.04879003906 0.102193364194 0.0
0.0 2.04979003906 0.102250846202 0.0
0.0 2.05079003906 0.10231445814 0.0
0.0 2.05179003906 0.102374052415 0.0
0.0 2.05279003906 0.102436403237 0.0
0.0 2.05379003906 0.102497700039 0.0
0.0 2.05479003906 0.102560845416 0.0
0.0 2.05579003906 0.102626499735 0.0
0.0 2.05679003906 0.102687417572 0.0
0.0 2.05779003906 0.102751144909 0.0
0.0 2.05879003906 0.102819205866 0.0
0.0 2.05979003906 0.102883178706 0.0
0.0 2.06079003906 0.102949653919 0.0
0.0 2.06179003906 0.10301649154 0.0
0.0 2.06279003906 0.103082795864 0.0
0.0 2.06379003906 0.103151774532 0.0
0.0 2.06479003906 0.103219803027 0.0
0.0 2.06579003906 0.10328748283 0.0
0.0 2.06679003906 0.103354756995 0.0
0.0 2.06779003906 0.103425467806 0.0
0.0 2.06879003906 0.103497579301 0.0
0.0 2.06979003906 0.103566812214 0.0
0.0 2.07079003906 0.103637979767 0.0
0.0 2.07179003906 0.103711007722 0.0
0.0 2.07279003906 0.103781290273 0.0
0.0 2.07379003906 0.103854591374 0.0
0.0 2.07479003906 0.103930514978 0.0
0.0 2.07579003906 0.104001230937 0.0
0.0 2.07679003906 0.104077166118 0.0
0.0 2.07779003906 0.104149936177 0.0
0.0 2.07879003906 0.104226251749 0.0
0.0 2.07979003906 0.10430342934 0.0
0.0 2.08079003906 0.104379816887 0.0
0.0 2.08179003906 0.104454973934 0.0
0.0 2.08279003906 0.104534806471 0.0
0.0 2.08379003906 0.104611351551 0.0
0.0 2.08479003906 0.104690924696 0.0
0.0 2.08579003906 0.104770097298 0.0
0.0 2.08679003906 0.104849646641 0.0
0.0 2.08779003906 0.104928344856 0.0
0.0 2.08879003906 0.105009876796 0.0
0.0 2.08979003906 0.105093553673 0.0
0.0 2.09079003906 0.105173541603 0.0
0.0 2.09179003906 0.105254825491 0.0
0.0 2.09279003906 0.105338203796 0.0
0.0 2.09379003906 0.105421689247 0.0
0.0 2.09479003906 0.105505215971 0.0
0.0 2.09579003906 0.105590425081 0.0
0.0 2.09679003906 0.105675457941 0.0
0.0 2.09779003906 0.105761167231 0.0
0.0 2.09879003906 0.105845820802 0.0
0.0 2.09979003906 0.105933111867 0.0
0.0 2.10079003906 0.106020968044 0.0
0.0 2.10179003906 0.106108773635 0.0
0.0 2.10279003906 0.106197099712 0.0
0.0 2.10379003906 0.106287420244 0.0
0.0 2.10479003906 0.106375825162 0.0
0.0 2.10579003906 0.106463580326 0.0
0.0 2.10679003906 0.106555662298 0.0
0.0 2.10779003906 0.106646785165 0.0
0.0 2.10879003906 0.106736626236 0.0
0.0 2.10979003906 0.106830033484 0.0
0.0 2.11079003906 0.106921435305 0.0
0.0 2.11179003906 0.107017133621 0.0
0.0 2.11279003906 0.10710957752 0.0
0.0 2.11379003906 0.107204368189 0.0
0.0 2.11479003906 0.107300256498 0.0
0.0 2.11579003906 0.1073943594 0.0
0.0 2.11679003906 0.107490948972 0.0
0.0 2.11779003906 0.10758618697 0.0
0.0 2.11879003906 0.10768627036 0.0
0.0 2.11979003906 0.107782375095 0.0
0.0 2.12079003906 0.107879703405 0.0
0.0 2.12179003906 0.107977652497 0.0
0.0 2.12279003906 0.108077456391 0.0
0.0 2.12379003906 0.108175903948 0.0
0.0 2.12479003906 0.108276354981 0.0
0.0 2.12579003906 0.108379629054 0.0
0.0 2.12679003906 0.10848174233 0.0
0.0 2.12779003906 0.108585581446 0.0
0.0 2.12879003906 0.108685485361 0.0
0.0 2.12979003906 0.108789204203 0.0
0.0 2.13079003906 0.108893191637 0.0
0.0 2.13179003906 0.108994670726 0.0
0.0 2.13279003906 0.109103925912 0.0
0.0 2.13379003906 0.109205724308 0.0
0.0 2.13479003906 0.109308680619 0.0
0.0 2.13579003906 0.109418016753 0.0
0.0 2.13679003906 0.109526197585 0.0
0.0 2.13779003906 0.109628904127 0.0
0.0 2.13879003906 0.109742411222 0.0
0.0 2.13979003906 0.109850139168 0.0
0.0 2.14079003906 0.109959535147 0.0
0.0 2.14179003906 0.110071366095 0.0
0.0 2.14279003906 0.110178830308 0.0
0.0 2.14379003906 0.11029113675 0.0
0.0 2.14479003906 0.110401304188 0.0
0.0 2.14579003906 0.110514659786 0.0
0.0 2.14679003906 0.110625105947 0.0
0.0 2.14779003906 0.110739490416 0.0
0.0 2.14879003906 0.110855702996 0.0
0.0 2.14979003906 0.110967652471 0.0
0.0 2.15079003906 0.111079939863 0.0
0.0 2.15179003906 0.111199309679 0.0
0.0 2.15279003906 0.111316766429 0.0
0.0 2.15379003906 0.11143397423 0.0
0.0 2.15479003906 0.111548627224 0.0
0.0 2.15579003906 0.11166751366 0.0
0.0 2.15679003906 0.111783169028 0.0
0.0 2.15779003906 0.111903423082 0.0
0.0 2.15879003906 0.112021037503 0.0
0.0 2.15979003906 0.112142253235 0.0
0.0 2.16079003906 0.112261832399 0.0
0.0 2.16179003906 0.112383159631 0.0
0.0 2.16279003906 0.112504330505 0.0
0.0 2.16379003906 0.11262840318 0.0
0.0 2.16479003906 0.112750870822 0.0
0.0 2.16579003906 0.112870346512 0.0
0.0 2.16679003906 0.112996346878 0.0
0.0 2.16779003906 0.1131199758 0.0
0.0 2.16879003906 0.113246239584 0.0
0.0 2.16979003906 0.113373619128 0.0
0.0 2.17079003906 0.113500259824 0.0
0.0 2.17179003906 0.11362564598 0.0
0.0 2.17279003906 0.11375274907 0.0
0.0 2.17379003906 0.113883461536 0.0
0.0 2.17479003906 0.114009953802 0.0
0.0 2.17579003906 0.11413965445 0.0
0.0 2.17679003906 0.114264185457 0.0
0.0 2.17779003906 0.114397448219 0.0
0.0 2.17879003906 0.114528757582 0.0
0.0 2.17979003906 0.114660182151 0.0
0.0 2.18079003906 0.114790488516 0.0
0.0 2.18179003906 0.11492680118 0.0
0.0 2.18279003906 0.115058558118 0.0
0.0 2.18379003906 0.115192582555 0.0
0.0 2.18479003906 0.115328686958 0.0
0.0 2.18579003906 0.115461469371 0.0
0.0 2.18679003906 0.115597223057 0.0
0.0 2.18779003906 0.115730472261 0.0
0.0 2.18879003906 0.115869313458 0.0
0.0 2.18979003906 0.116008358317 0.0
0.0 2.19079003906 0.116145288513 0.0
0.0 2.19179003906 0.116286909825 0.0
0.0 2.19279003906 0.116423717258 0.0
0.0 2.19379003906 0.116561242097 0.0
0.0 2.19479003906 0.116703633937 0.0
0.0 2.19579003906 0.116844091588 0.0
0.0 2.19679003906 0.116988245509 0.0
0.0 2.19779003906 0.117128335784 0.0
0.0 2.19879003906 0.117272803027 0.0
0.0 2.19979003906 0.11741397463 0.0
0.0 2.20079003906 0.117557516584 0.0
0.0 2.20179003906 0.117703117112 0.0
0.0 2.20279003906 0.117848775195 0.0
0.0 2.20379003906 0.117994418931 0.0
0.0 2.20479003906 0.118139754819 0.0
0.0 2.20579003906 0.118288188716 0.0
0.0 2.20679003906 0.118435426858 0.0
0.0 2.20779003906 0.11858199758 0.0
0.0 2.20879003906 0.118730263694 0.0
0.0 2.20979003906 0.118882911191 0.0
0.0 2.21079003906 0.119030138139 0.0
0.0 2.21179003906 0.119183979911 0.0
0.0 2.21279003906 0.119334722629 0.0
0.0 2.21379003906 0.119486594911 0.0
0.0 2.21479003906 0.119637455139 0.0
0.0 2.21579003906 0.119782819608 0.0
0.0 2.21679003906 0.11994310221 0.0
0.0 2.21779003906 0.120098235177 0.0
0.0 2.21879003906 0.120249906812 0.0
0.0 2.21979003906 0.120404522171 0.0
0.0 2.22079003906 0.120559023439 0.0
0.0 2.22179003906 0.120718903909 0.0
0.0 2.22279003906 0.120872736971 0.0
0.0 2.22379003906 0.121029989194 0.0
0.0 2.22479003906 0.121189920055 0.0
0.0 2.22579003906 0.121345963608 0.0
0.0 2.22679003906 0.121508988112 0.0
0.0 2.22779003906 0.121668219408 0.0
0.0 2.22879003906 0.121826331085 0.0
0.0 2.22979003906 0.121992116382 0.0
0.0 2.23079003906 0.12214971508 0.0
0.0 2.23179003906 0.122312219331 0.0
0.0 2.23279003906 0.122476306461 0.0
0.0 2.23379003906 0.122642320248 0.0
0.0 2.23479003906 0.122804460833 0.0
0.0 2.23579003906 0.122969320999 0.0
0.0 2.23679003906 0.12313125094 0.0
0.0 2.23779003906 0.123301964259 0.0
0.0 2.23879003906 0.123464178125 0.0
0.0 2.23979003906 0.123637088904 0.0
0.0 2.24079003906 0.123804330634 0.0
0.0 2.24179003906 0.123969676433 0.0
0.0 2.24279003906 0.124143167947 0.0
0.0 2.24379003906 0.124310834004 0.0
0.0 2.24479003906 0.124480532764 0.0
0.0 2.24579003906 0.12465099202 0.0
0.0 2.24679003906 0.124820525747 0.0
0.0 2.24779003906 0.125000026037 0.0
0.0 2.24879003906 0.125166075766 0.0
0.0 2.24979003906 0.125343131817 0.0
0.0 2.25079003906 0.125515197563 0.0
0.0 2.25179003906 0.125688077163 0.0
0.0 2.25279003906 0.12586496698 0.0
0.0 2.25379003906 0.126041461858 0.0
0.0 2.25479003906 0.126218520694 0.0
0.0 2.25579003906 0.126396187808 0.0
0.0 2.25679003906 0.126573053609 0.0
0.0 2.25779003906 0.12674883319 0.0
0.0 2.25879003906 0.126927078685 0.0
0.0 2.25979003906 0.127111699933 0.0
0.0 2.26079003906 0.127289648797 0.0
0.0 2.26179003906 0.127471764613 0.0
0.0 2.26279003906 0.127649654792 0.0
0.0 2.26379003906 0.127834024982 0.0
0.0 2.26479003906 0.128014402973 0.0
0.0 2.26579003906 0.128199229659 0.0
0.0 2.26679003906 0.128384725119 0.0
0.0 2.26779003906 0.128568086064 0.0
0.0 2.26879003906 0.128754725156 0.0
0.0 2.26979003906 0.128937550707 0.0
0.0 2.27079003906 0.129124818135 0.0
0.0 2.27179003906 0.129309521178 0.0
0.0 2.27279003906 0.129498069533 0.0
0.0 2.27379003906 0.129686538115 0.0
0.0 2.27479003906 0.129874150542 0.0
0.0 2.27579003906 0.130064527519 0.0
0.0 2.27679003906 0.130251964521 0.0
0.0 2.27779003906 0.130441019497 0.0
0.0 2.27879003906 0.130634609247 0.0
0.0 2.27979003906 0.13082548406 0.0
0.0 2.28079003906 0.131017402127 0.0
0.0 2.28179003906 0.131208424793 0.0
0.0 2.28279003906 0.131399540562 0.0
0.0 2.28379003906 0.131596628365 0.0
0.0 2.28479003906 0.13179346688 0.0
0.0 2.28579003906 0.131987007509 0.0
0.0 2.28679003906 0.132183570892 0.0
0.0 2.28779003906 0.13237847396 0.0
0.0 2.28879003906 0.13258032156 0.0
0.0 2.28979003906 0.132774862628 0.0
0.0 2.29079003906 0.13297467521 0.0
0.0 2.29179003906 0.133174514074 0.0
0.0 2.29279003906 0.133372846244 0.0
0.0 2.29379003906 0.133575102285 0.0
0.0 2.29479003906 0.133776836697 0.0
0.0 2.29579003906 0.133975120925 0.0
0.0 2.29679003906 0.134179742355 0.0
0.0 2.29779003906 0.134381141842 0.0
0.0 2.29879003906 0.134585484476 0.0
0.0 2.29979003906 0.134791176479 0.0
0.0 2.30079003906 0.134995664944 0.0
0.0 2.30179003906 0.135203457819 0.0
0.0 2.30279003906 0.135408039258 0.0
0.0 2.30379003906 0.135615879169 0.0
0.0 2.30479003906 0.135822931711 0.0
0.0 2.30579003906 0.136032702351 0.0
0.0 2.30679003906 0.136241173652 0.0
0.0 2.30779003906 0.136448917543 0.0
0.0 2.30879003906 0.136662472792 0.0
0.0 2.30979003906 0.136871367201 0.0
0.0 2.31079003906 0.137084191183 0.0
0.0 2.31179003906 0.137295824317 0.0
0.0 2.31279003906 0.137508110112 0.0
0.0 2.31379003906 0.137722087631 0.0
0.0 2.31479003906 0.13793689784 0.0
0.0 2.31579003906 0.138151690243 0.0
0.0 2.31679003906 0.138367072316 0.0
0.0 2.31779003906 0.138581787734 0.0
0.0 2.31879003906 0.138798843699 0.0
0.0 2.31979003906 0.139017751735 0.0
0.0 2.32079003906 0.139235170809 0.0
0.0 2.32179003906 0.139453893786 0.0
0.0 2.32279003906 0.139673814695 0.0
0.0 2.32379003906 0.139892501486 0.0
0.0 2.32479003906 0.140113947705 0.0
0.0 2.32579003906 0.140335738914 0.0
0.0 2.32679003906 0.140557652822 0.0
0.0 2.32779003906 0.140780539566 0.0
0.0 2.32879003906 0.141003296698 0.0
0.0 2.32979003906 0.141227430493 0.0
0.0 2.33079003906 0.141452031891 0.0
0.0 2.33179003906 0.141677251225 0.0
0.0 2.33279003906 0.141903529926 0.0
0.0 2.33379003906 0.142130144835 0.0
0.0 2.33479003906 0.142357080136 0.0
0.0 2.33579003906 0.142585037849 0.0
0.0 2.33679003906 0.142813627147 0.0
0.0 2.33779003906 0.143043152552 0.0
0.0 2.33879003906 0.143273152528 0.0
0.0 2.33979003906 0.143503696943 0.0
0.0 2.34079003906 0.143734853602 0.0
0.0 2.34179003906 0.143967304506 0.0
0.0 2.34279003906 0.144199900877 0.0
0.0 2.34379003906 0.144432893676 0.0
0.0 2.34479003906 0.144666900561 0.0
0.0 2.34579003906 0.144901448405 0.0
0.0 2.34679003906 0.145136946567 0.0
0.0 2.34779003906 0.145372802712 0.0
0.0 2.34879003906 0.145609534826 0.0
0.0 2.34979003906 0.145847143271 0.0
0.0 2.35079003906 0.146084704895 0.0
0.0 2.35179003906 0.146323476304 0.0
0.0 2.35279003906 0.146562728344 0.0
0.0 2.35379003906 0.146802823394 0.0
0.0 2.35479003906 0.147043530792 0.0
0.0 2.35579003906 0.147284247938 0.0
0.0 2.35679003906 0.147527135601 0.0
0.0 2.35779003906 0.147769324693 0.0
0.0 2.35879003906 0.148012473273 0.0
0.0 2.35979003906 0.148256782064 0.0
0.0 2.36079003906 0.148501207203 0.0
0.0 2.36179003906 0.148746311189 0.0
0.0 2.36279003906 0.148992530714 0.0
0.0 2.36379003906 0.149239127259 0.0
0.0 2.36479003906 0.149486363769 0.0
0.0 2.36579003906 0.149734247088 0.0
0.0 2.36679003906 0.149982787714 0.0
0.0 2.36779003906 0.150232211815 0.0
0.0 2.36879003906 0.15048204549 0.0
0.0 2.36979003906 0.150732771688 0.0
0.0 2.37079003906 0.150984153734 0.0
0.0 2.37179003906 0.151236209952 0.0
0.0 2.37279003906 0.15148892072 0.0
0.0 2.37379003906 0.151742235458 0.0
0.0 2.37479003906 0.151996416236 0.0
0.0 2.37579003906 0.152251193036 0.0
0.0 2.37679003906 0.152506636935 0.0
0.0 2.37779003906 0.152762808158 0.0
0.0 2.37879003906 0.153019661684 0.0
0.0 2.37979003906 0.153277182058 0.0
0.0 2.38079003906 0.217835875304 0.0
0.0 2.38179003906 0.292485139559 0.0
0.0 2.38279003906 0.36001046043 0.0
0.0 2.38379003906 0.421091644522 0.0
0.0 2.38479003906 0.476343695153 0.0
0.0 2.38579003906 0.526322820514 0.0
0.0 2.38679003906 0.571532154961 0.0
0.0 2.38779003906 0.612426923745 0.0
0.0 2.38879003906 0.649418879826 0.0
0.0 2.38979003906 0.682880384439 0.0
0.0 2.39079003906 0.71314841398 0.0
0.0 2.39179003906 0.740527720961 0.0
0.0 2.39279003906 0.765293886696 0.0
0.0 2.39379003906 0.787696401337 0.0
0.0 2.39479003906 0.807960769207 0.0
0.0 2.39579003906 0.826291074043 0.0
0.0 2.39679003906 0.84287187622 0.0
0.0 2.39779003906 0.857870140994 0.0
0.0 2.39879003906 0.871436909532 0.0
0.0 2.39979003906 0.883708801583 0.0
0.0 2.40079003906 0.894809376648 0.0
0.0 2.40179003906 0.90485042892 0.0
0.0 2.40279003906 0.913933093202 0.0
0.0 2.40379003906 0.922148820982 0.0
0.0 2.40479003906 0.929580367056 0.0
0.0 2.40579003906 0.936302570156 0.0
0.0 2.40679003906 0.942383131125 0.0
0.0 2.40779003906 0.947883284828 0.0
0.0 2.40879003906 0.952858437552 0.0
0.0 2.40979003906 0.957358692233 0.0
0.0 2.41079003906 0.961429375971 0.0
0.0 2.41179003906 0.965111493752 0.0
0.0 2.41279003906 0.968442129735 0.0
0.0 2.41379003906 0.971454833808 0.0
0.0 2.41479003906 0.974179948995 0.0
0.0 2.41579003906 0.976644930901 0.0
0.0 2.41679003906 0.978874605816 0.0
0.0 2.41779003906 0.98089143447 0.0
0.0 2.41879003906 0.982715735701 0.0
0.0 2.41979003906 0.984365883405 0.0
0.0 2.42079003906 0.985858503783 0.0
0.0 2.42179003906 0.987208633029 0.0
0.0 2.42279003906 0.988429873157 0.0
0.0 2.42379003906 0.989534525571 0.0
0.0 2.42479003906 0.990533721995 0.0
0.0 2.42579003906 0.991437527688 0.0
0.0 2.42679003906 0.992255048816 0.0
0.0 2.42779003906 0.992994521977 0.0
0.0 2.42879003906 0.993663397879 0.0
0.0 2.42979003906 0.994268415668 0.0
0.0 2.43079003906 0.994815671504 0.0
0.0 2.43179003906 0.995310679456 0.0
0.0 2.43279003906 0.99575842743 0.0
0.0 2.43379003906 0.996163427275 0.0
0.0 2.43479003906 0.996529759406 0.0
0.0 2.43579003906 0.996861115675 0.0
0.0 2.43679003906 0.997160835472 0.0
0.0 2.43779003906 0.997431938412 0.0
0.0 2.43879003906 0.997677156994 0.0
0.0 2.43979003906 0.997898962292 0.0
0.0 2.44079003906 0.998099589349 0.0
0.0 2.44179003906 0.998281060533 0.0
0.0 2.44279003906 0.998445204395 0.0
0.0 2.44379003906 0.998593675409 0.0
0.0 2.44479003906 0.998727969698 0.0
0.0 2.44579003906 0.998849441157 0.0
0.0 2.44679003906 0.998959313724 0.0
0.0 2.44779003906 0.999058694994 0.0
0.0 2.44879003906 0.999148586508 0.0
0.0 2.44979003906 0.999229894584 0.0
0.0 2.45079003906 0.999303438513 0.0
0.0 2.45179003906 0.999369959796 0.0
0.0 2.45279003906 0.999430128932 0.0
0.0 2.45379003906 0.999484552348 0.0
0.0 2.45479003906 0.99953377875 0.0
0.0 2.45579003906 0.999578304338 0.0
0.0 2.45679003906 0.999618577991 0.0
0.0 2.45779003906 0.9996550057 0.0
0.0 2.45879003906 0.9996879547 0.0
0.0 2.45979003906 0.999717757155 0.0
0.0 2.46079003906 0.999744713521 0.0
0.0 2.46179003906 0.999769095601 0.0
0.0 2.46279003906 0.999791149198 0.0
0.0 2.46379003906 0.999811096628 0.0
0.0 2.46479003906 0.999829139065 0.0
0.0 2.46579003906 0.999845458409 0.0
0.0 2.46679003906 0.999860219183 0.0
0.0 2.46779003906 0.999873570245 0.0
0.0 2.46879003906 0.999885646206 0.0
0.0 2.46979003906 0.999896568834 0.0
0.0 2.47079003906 0.999906448275 0.0
0.0 2.47179003906 0.999915384149 0.0
0.0 2.47279003906 0.999923466561 0.0
0.0 2.47379003906 0.999930777031 0.0
0.0 2.47479003906 0.999937389266 0.0
0.0 2.47579003906 0.999943369954 0.0
0.0 2.47679003906 0.999948779412 0.0
0.0 2.47779003906 0.999953672187 0.0
0.0 2.47879003906 0.999958097633 0.0
0.0 2.47979003906 0.999962100382 0.0
0.0 2.48079003906 0.999965720803 0.0
0.0 2.48179003906 0.999968995408 0.0
0.0 2.48279003906 0.999971957228 0.0
0.0 2.48379003906 0.999974636137 0.0
0.0 2.48479003906 0.999977059155 0.0
0.0 2.48579003906 0.999979250726 0.0
0.0 2.48679003906 0.999981232951 0.0
0.0 2.48779003906 0.999983025829 0.0
0.0 2.48879003906 0.999984647443 0.0
0.0 2.48979003906 0.999986114153 0.0
0.0 2.49079003906 0.999987440754 0.0
0.0 2.49179003906 0.999988640628 0.0
0.0 2.49279003906 0.999989725881 0.0
0.0 2.49379003906 0.999990707461 0.0
0.0 2.49479003906 0.999991595271 0.0
0.0 2.49579003906 0.999992398267 0.0
0.0 2.49679003906 0.999993124552 0.0
0.0 2.49779003906 0.999993781453 0.0
0.0 2.49879003906 0.999994375598 0.0
0.0 2.49979003906 0.999994912982 0.0
0.0 2.50079003906 0.999995399026 0.0
0.0 2.50179003906 0.999995838635 0.0
0.0 2.50279003906 0.999996236245 0.0
0.0 2.50379003906 0.999996595868 0.0
0.0 2.50479003906 0.999996921132 0.0
0.0 2.50579003906 0.99999721532 0.0
0.0 2.50679003906 0.999997481403 0.0
0.0 2.50779003906 0.999997722062 0.0
0.0 2.50879003906 0.999997939727 0.0
0.0 2.50979003906 0.999998136597 0.0
0.0 2.51079003906 0.999998314656 0.0
0.0 2.51179003906 0.999998475702 0.0
0.0 2.51279003906 0.999998621361 0.0
0.0 2.51379003906 0.999998753102 0.0
0.0 2.51479003906 0.999998872256 0.0
0.0 2.51579003906 0.999998980024 0.0
0.0 2.51679003906 0.999999077495 0.0
0.0 2.51779003906 0.999999165653 0.0
0.0 2.51879003906 0.999999245386 0.0
0.0 2.51979003906 0.999999317501 0.0
0.0 2.52079003906 0.999999382725 0.0
0.0 2.52179003906 0.999999441716 0.0
0.0 2.52279003906 0.99999949507 0.0
0.0 2.52379003906 0.999999543326 0.0
0.0 2.52479003906 0.99999958697 0.0
0.0 2.52579003906 0.999999626444 0.0
0.0 2.52679003906 0.999999662146 0.0
0.0 2.52779003906 0.999999694436 0.0
0.0 2.52879003906 0.99999972364 0.0
0.0 2.52979003906 0.999999750053 0.0
0.0 2.53079003906 0.999999773942 0.0
0.0 2.53179003906 0.999999795548 0.0
0.0 2.53279003906 0.999999815089 0.0
0.0 2.53379003906 0.999999832763 0.0
0.0 2.53479003906 0.999999848748 0.0
0.0 2.53579003906 0.999999863205 0.0
0.0 2.53679003906 0.99999987628 0.0
0.0 2.53779003906 0.999999888106 0.0
0.0 2.53879003906 0.999999898801 0.0
0.0 2.53979003906 0.999999908474 0.0
0.0 2.54079003906 0.999999917223 0.0
0.0 2.54179003906 0.999999925135 0.0
0.0 2.54279003906 0.999999932292 0.0
0.0 2.54379003906 0.999999938764 0.0
0.0 2.54479003906 0.999999944617 0.0
0.0 2.54579003906 0.999999949912 0.0
0.0 2.54679003906 0.9999999547 0.0
0.0 2.54779003906 0.99999995903 0.0
0.0 2.54879003906 0.999999962947 0.0
0.0 2.54979003906 0.999999966489 0.0
0.0 2.55079003906 0.999999969692 0.0
0.0 2.55179003906 0.99999997259 0.0
0.0 2.55279003906 0.99999997521 0.0
0.0 2.55379003906 0.99999997758 0.0
0.0 2.55479003906 0.999999979724 0.0
0.0 2.55579003906 0.999999981662 0.0
0.0 2.55679003906 0.999999983415 0.0
0.0 2.55779003906 0.999999985001 0.0
0.0 2.55879003906 0.999999986435 0.0
0.0 2.55979003906 0.999999987732 0.0
0.0 2.56079003906 0.999999988905 0.0
0.0 2.56179003906 0.999999989966 0.0
0.0 2.56279003906 0.999999990925 0.0
0.0 2.56379003906 0.999999991793 0.0
0.0 2.56479003906 0.999999992577 0.0
0.0 2.56579003906 0.999999993287 0.0
0.0 2.56679003906 0.999999993929 0.0
0.0 2.56779003906 0.999999994509 0.0
0.0 2.56879003906 0.999999995034 0.0
0.0 2.56979003906 0.999999995509 0.0
0.0 2.57079003906 0.999999995939 0.0
0.0 2.57179003906 0.999999996327 0.0
0.0 2.57279003906 0.999999996678 0.0
0.0 2.57379003906 0.999999996996 0.0
0.0 2.57479003906 0.999999997283 0.0
0.0 2.57579003906 0.999999997543 0.0
0.0 2.57679003906 0.999999997778 0.0
0.0 2.57779003906 0.99999999799 0.0
0.0 2.57879003906 0.999999998183 0.0
0.0 2.57979003906 0.999999998356 0.0
0.0 2.58079003906 0.999999998514 0.0
0.0 2.58179003906 0.999999998656 0.0
0.0 2.58279003906 0.999999998784 0.0
0.0 2.58379003906 0.999999998901 0.0
0.0 2.58479003906 0.999999999006 0.0
0.0 2.58579003906 0.999999999101 0.0
0.0 2.58679003906 0.999999999187 0.0
0.0 2.58779003906 0.999999999265 0.0
0.0 2.58879003906 0.999999999335 0.0
0.0 2.58979003906 0.999999999398 0.0
0.0 2.59079003906 0.999999999456 0.0
0.0 2.59179003906 0.999999999508 0.0
0.0 2.59279003906 0.999999999555 0.0
0.0 2.59379003906 0.999999999598 0.0
0.0 2.59479003906 0.999999999636 0.0
0.0 2.59579003906 0.999999999671 0.0
0.0 2.59679003906 0.999999999702 0.0
0.0 2.59779003906 0.999999999731 0.0
