0.0 0.551400024414 0.309178084507 0.0
0.0 0.552400024414 0.309028713182 0.0
0.0 0.553400024414 0.308879107008 0.0
0.0 0.554400024414 0.30872926649 0.0
0.0 0.555400024414 0.308579192124 0.0
0.0 0.556400024414 0.308428884416 0.0
0.0 0.557400024414 0.30827834386 0.0
0.0 0.558400024414 0.308127570965 0.0
0.0 0.559400024414 0.307976566226 0.0
0.0 0.560400024414 0.307825330148 0.0
0.0 0.561400024414 0.30767386323 0.0
0.0 0.562400024414 0.307522165973 0.0
0.0 0.563400024414 0.307370238879 0.0
0.0 0.564400024414 0.307218082449 0.0
0.0 0.565400024414 0.307065697183 0.0
0.0 0.566400024414 0.306913083582 0.0
0.0 0.567400024414 0.306760242149 0.0
0.0 0.568400024414 0.306607173381 0.0
0.0 0.569400024414 0.306453877782 0.0
0.0 0.570400024414 0.306300355852 0.0
0.0 0.571400024414 0.306146608093 0.0
0.0 0.572400024414 0.305992635006 0.0
0.0 0.573400024414 0.305838437091 0.0
0.0 0.574400024414 0.30568401485 0.0
0.0 0.575400024414 0.305529368783 0.0
0.0 0.576400024414 0.305374499391 0.0
0.0 0.577400024414 0.305219407176 0.0
0.0 0.578400024414 0.305064092639 0.0
0.0 0.579400024414 0.304908556278 0.0
0.0 0.580400024414 0.304752798601 0.0
0.0 0.581400024414 0.304596820104 0.0
0.0 0.582400024414 0.304440621282 0.0
0.0 0.583400024414 0.304284202646 0.0
0.0 0.584400024414 0.304127564696 0.0
0.0 0.585400024414 0.30397070793 0.0
0.0 0.586400024414 0.303813632842 0.0
0.0 0.587400024414 0.30365633995 0.0
0.0 0.588400024414 0.303498829754 0.0
0.0 0.589400024414 0.303341102719 0.0
0.0 0.590400024414 0.303183159408 0.0
0.0 0.591400024414 0.303025000252 0.0
0.0 0.592400024414 0.302866625802 0.0
0.0 0.593400024414 0.302708036542 0.0
0.0 0.594400024414 0.302549232976 0.0
0.0 0.595400024414 0.302390215608 0.0
0.0 0.596400024414 0.302230984935 0.0
0.0 0.597400024414 0.30207154146 0.0
0.0 0.598400024414 0.301911885682 0.0
0.0 0.599400024414 0.301752018096 0.0
0.0 0.600400024414 0.301591939218 0.0
0.0 0.601400024414 0.301431649537 0.0
0.0 0.602400024414 0.301271149557 0.0
0.0 0.603400024414 0.30111043978 0.0
0.0 0.604400024414 0.300949520702 0.0
0.0 0.605400024414 0.300788392835 0.0
0.0 0.606400024414 0.30062705668 0.0
0.0 0.607400024414 0.300465512716 0.0
0.0 0.608400024414 0.300303761468 0.0
0.0 0.609400024414 0.300141803424 0.0
0.0 0.610400024414 0.299979639085 0.0
0.0 0.611400024414 0.299817268969 0.0
0.0 0.612400024414 0.29965469356 0.0
0.0 0.613400024414 0.299491913362 0.0
0.0 0.614400024414 0.299328928868 0.0
0.0 0.615400024414 0.299165740601 0.0
0.0 0.616400024414 0.299002349044 0.0
0.0 0.617400024414 0.298838754705 0.0
0.0 0.618400024414 0.298674958085 0.0
0.0 0.619400024414 0.298510959681 0.0
0.0 0.620400024414 0.298346759998 0.0
0.0 0.621400024414 0.298182359536 0.0
0.0 0.622400024414 0.298017758791 0.0
0.0 0.623400024414 0.297852958272 0.0
0.0 0.624400024414 0.297687958478 0.0
0.0 0.625400024414 0.297522759904 0.0
0.0 0.626400024414 0.297357363065 0.0
0.0 0.627400024414 0.297191768439 0.0
0.0 0.628400024414 0.297025976554 0.0
0.0 0.629400024414 0.296859987883 0.0
0.0 0.630400024414 0.296693802948 0.0
0.0 0.631400024414 0.296527422264 0.0
0.0 0.632400024414 0.2963608463 0.0
0.0 0.633400024414 0.296194075555 0.0
0.0 0.634400024414 0.296027110525 0.0
0.0 0.635400024414 0.295859951752 0.0
0.0 0.636400024414 0.295692599715 0.0
0.0 0.637400024414 0.295525054931 0.0
0.0 0.638400024414 0.295357317856 0.0
0.0 0.639400024414 0.295189389049 0.0
0.0 0.640400024414 0.295021268943 0.0
0.0 0.641400024414 0.294852958098 0.0
0.0 0.642400024414 0.294684456997 0.0
0.0 0.643400024414 0.294515766148 0.0
0.0 0.644400024414 0.294346886024 0.0
0.0 0.645400024414 0.294177817145 0.0
0.0 0.646400024414 0.294008560015 0.0
0.0 0.647400024414 0.293839115154 0.0
0.0 0.648400024414 0.293669483 0.0
0.0 0.649400024414 0.293499664116 0.0
0.0 0.650400024414 0.293329658984 0.0
0.0 0.651400024414 0.2931594681 0.0
0.0 0.652400024414 0.292989091956 0.0
0.0 0.653400024414 0.292818531081 0.0
0.0 0.654400024414 0.292647785955 0.0
0.0 0.655400024414 0.292476857077 0.0
0.0 0.656400024414 0.29230574496 0.0
0.0 0.657400024414 0.292134450091 0.0
0.0 0.658400024414 0.291962972986 0.0
0.0 0.659400024414 0.291791314181 0.0
0.0 0.660400024414 0.29161947407 0.0
0.0 0.661400024414 0.291447453234 0.0
0.0 0.662400024414 0.291275252172 0.0
0.0 0.663400024414 0.29110287139 0.0
0.0 0.664400024414 0.290930311333 0.0
0.0 0.665400024414 0.290757572553 0.0
0.0 0.666400024414 0.290584655553 0.0
0.0 0.667400024414 0.290411560798 0.0
0.0 0.668400024414 0.290238288823 0.0
0.0 0.669400024414 0.29006484012 0.0
0.0 0.670400024414 0.289891215175 0.0
0.0 0.671400024414 0.28971741451 0.0
0.0 0.672400024414 0.28954343863 0.0
0.0 0.673400024414 0.289369287989 0.0
0.0 0.674400024414 0.289194963162 0.0
0.0 0.675400024414 0.289020464583 0.0
0.0 0.676400024414 0.288845792769 0.0
0.0 0.677400024414 0.288670948248 0.0
0.0 0.678400024414 0.288495931517 0.0
0.0 0.679400024414 0.288320743036 0.0
0.0 0.680400024414 0.288145383353 0.0
0.0 0.681400024414 0.287969852949 0.0
0.0 0.682400024414 0.287794152309 0.0
0.0 0.683400024414 0.287618281973 0.0
0.0 0.684400024414 0.28744224241 0.0
0.0 0.685400024414 0.287266034133 0.0
0.0 0.686400024414 0.287089657627 0.0
0.0 0.687400024414 0.286913113456 0.0
0.0 0.688400024414 0.286736402027 0.0
0.0 0.689400024414 0.286559523889 0.0
0.0 0.690400024414 0.286382479574 0.0
0.0 0.691400024414 0.286205269522 0.0
0.0 0.692400024414 0.286027894258 0.0
0.0 0.693400024414 0.28585035432 0.0
0.0 0.694400024414 0.285672650166 0.0
0.0 0.695400024414 0.285494782251 0.0
0.0 0.696400024414 0.285316751208 0.0
0.0 0.697400024414 0.285138557424 0.0
0.0 0.698400024414 0.284960201439 0.0
0.0 0.699400024414 0.284781683753 0.0
0.0 0.700400024414 0.284603004875 0.0
0.0 0.701400024414 0.284424165295 0.0
0.0 0.702400024414 0.284245165554 0.0
0.0 0.703400024414 0.284066006082 0.0
0.0 0.704400024414 0.283886687457 0.0
0.0 0.705400024414 0.283707210218 0.0
0.0 0.706400024414 0.283527574792 0.0
0.0 0.707400024414 0.28334778187 0.0
0.0 0.708400024414 0.283167831876 0.0
0.0 0.709400024414 0.282987725458 0.0
0.0 0.710400024414 0.282807463236 0.0
0.0 0.711400024414 0.282627045372 0.0
0.0 0.712400024414 0.282446472035 0.0
0.0 0.713400024414 0.282265744066 0.0
0.0 0.714400024414 0.282084860675 0.0
0.0 0.715400024414 0.281903824452 0.0
0.0 0.716400024414 0.281722633715 0.0
0.0 0.717400024414 0.281541289978 0.0
0.0 0.718400024414 0.281359793974 0.0
0.0 0.719400024414 0.281178146399 0.0
0.0 0.720400024414 0.280996347925 0.0
0.0 0.721400024414 0.280814399057 0.0
0.0 0.722400024414 0.280632300028 0.0
0.0 0.723400024414 0.280450051538 0.0
0.0 0.724400024414 0.280267654073 0.0
0.0 0.725400024414 0.280085107894 0.0
0.0 0.726400024414 0.279902413578 0.0
0.0 0.727400024414 0.279719571634 0.0
0.0 0.728400024414 0.279536582516 0.0
0.0 0.729400024414 0.279353446702 0.0
0.0 0.730400024414 0.279170164774 0.0
0.0 0.731400024414 0.278986737154 0.0
0.0 0.732400024414 0.27880316438 0.0
0.0 0.733400024414 0.278619446922 0.0
0.0 0.734400024414 0.278435585311 0.0
0.0 0.735400024414 0.278251580031 0.0
0.0 0.736400024414 0.278067431587 0.0
0.0 0.737400024414 0.277883140472 0.0
0.0 0.738400024414 0.277698707236 0.0
0.0 0.739400024414 0.277514132326 0.0
0.0 0.740400024414 0.277329416267 0.0
0.0 0.741400024414 0.277144559551 0.0
0.0 0.742400024414 0.276959562688 0.0
0.0 0.743400024414 0.276774426306 0.0
0.0 0.744400024414 0.276589150529 0.0
0.0 0.745400024414 0.276403736119 0.0
0.0 0.746400024414 0.276218183355 0.0
0.0 0.747400024414 0.276032493337 0.0
0.0 0.748400024414 0.27584666591 0.0
0.0 0.749400024414 0.275660702063 0.0
0.0 0.750400024414 0.275474601879 0.0
0.0 0.751400024414 0.275288365923 0.0
0.0 0.752400024414 0.27510199531 0.0
0.0 0.753400024414 0.274915489585 0.0
0.0 0.754400024414 0.274728850063 0.0
0.0 0.755400024414 0.274542077563 0.0
0.0 0.756400024414 0.274355170565 0.0
0.0 0.757400024414 0.274168130753 0.0
0.0 0.758400024414 0.273980959229 0.0
0.0 0.759400024414 0.273793656258 0.0
0.0 0.760400024414 0.273606222127 0.0
0.0 0.761400024414 0.273418657372 0.0
0.0 0.762400024414 0.273230962478 0.0
0.0 0.763400024414 0.273043137986 0.0
0.0 0.764400024414 0.272855184324 0.0
0.0 0.765400024414 0.272667102032 0.0
0.0 0.766400024414 0.272478891612 0.0
0.0 0.767400024414 0.272290553561 0.0
0.0 0.768400024414 0.272102088375 0.0
0.0 0.769400024414 0.27191349656 0.0
0.0 0.770400024414 0.271724778611 0.0
0.0 0.771400024414 0.271535935036 0.0
0.0 0.772400024414 0.271346966329 0.0
0.0 0.773400024414 0.271157872998 0.0
0.0 0.774400024414 0.270968655538 0.0
0.0 0.775400024414 0.270779314456 0.0
0.0 0.776400024414 0.270589850246 0.0
0.0 0.777400024414 0.270400263414 0.0
0.0 0.778400024414 0.270210554456 0.0
0.0 0.779400024414 0.270020723882 0.0
0.0 0.780400024414 0.26983077219 0.0
0.0 0.781400024414 0.26964069987 0.0
0.0 0.782400024414 0.269450507433 0.0
0.0 0.783400024414 0.269260195378 0.0
0.0 0.784400024414 0.269069764214 0.0
0.0 0.785400024414 0.268879214423 0.0
0.0 0.786400024414 0.268688546528 0.0
0.0 0.787400024414 0.268497761016 0.0
0.0 0.788400024414 0.268306858387 0.0
0.0 0.789400024414 0.26811583916 0.0
0.0 0.790400024414 0.267924703824 0.0
0.0 0.791400024414 0.26773345285 0.0
0.0 0.792400024414 0.267542086783 0.0
0.0 0.793400024414 0.267350606128 0.0
0.0 0.794400024414 0.267159011339 0.0
0.0 0.795400024414 0.266967302951 0.0
0.0 0.796400024414 0.266775481436 0.0
0.0 0.797400024414 0.266583547366 0.0
0.0 0.798400024414 0.266391501545 0.0
0.0 0.799400024414 0.266199343736 0.0
0.0 0.800400024414 0.266007076795 0.0
0.0 0.801400024414 0.265814697124 0.0
0.0 0.802400024414 0.265622207499 0.0
0.0 0.803400024414 0.265429608593 0.0
0.0 0.804400024414 0.265236899315 0.0
0.0 0.805400024414 0.26504408118 0.0
0.0 0.806400024414 0.264851156306 0.0
0.0 0.807400024414 0.264658124691 0.0
0.0 0.808400024414 0.264464985778 0.0
0.0 0.809400024414 0.264271738875 0.0
0.0 0.810400024414 0.264078385986 0.0
0.0 0.811400024414 0.263884928344 0.0
0.0 0.812400024414 0.2636913658 0.0
0.0 0.813400024414 0.263497698668 0.0
0.0 0.814400024414 0.263303926928 0.0
0.0 0.815400024414 0.263110051127 0.0
0.0 0.816400024414 0.262916072323 0.0
0.0 0.817400024414 0.262721991409 0.0
0.0 0.818400024414 0.262527808262 0.0
0.0 0.819400024414 0.262333523844 0.0
0.0 0.820400024414 0.262139137787 0.0
0.0 0.821400024414 0.261944651537 0.0
0.0 0.822400024414 0.261750065317 0.0
0.0 0.823400024414 0.261555378465 0.0
0.0 0.824400024414 0.261360593286 0.0
0.0 0.825400024414 0.26116571013 0.0
0.0 0.826400024414 0.260970729209 0.0
0.0 0.827400024414 0.260775649693 0.0
0.0 0.828400024414 0.26058047293 0.0
0.0 0.829400024414 0.260385199819 0.0
0.0 0.830400024414 0.260189831109 0.0
0.0 0.831400024414 0.25999436746 0.0
0.0 0.832400024414 0.259798807664 0.0
0.0 0.833400024414 0.259603152822 0.0
0.0 0.834400024414 0.259407405063 0.0
0.0 0.835400024414 0.259211563347 0.0
0.0 0.836400024414 0.259015628099 0.0
0.0 0.837400024414 0.258819601121 0.0
0.0 0.838400024414 0.258623481794 0.0
0.0 0.839400024414 0.258427270072 0.0
0.0 0.840400024414 0.258230967752 0.0
0.0 0.841400024414 0.258034574989 0.0
0.0 0.842400024414 0.257838092722 0.0
0.0 0.843400024414 0.257641520695 0.0
0.0 0.844400024414 0.257444858778 0.0
0.0 0.845400024414 0.257248108913 0.0
0.0 0.846400024414 0.257051271009 0.0
0.0 0.847400024414 0.256854345744 0.0
0.0 0.848400024414 0.256657333327 0.0
0.0 0.849400024414 0.256460233947 0.0
0.0 0.850400024414 0.25626304884 0.0
0.0 0.851400024414 0.256065778252 0.0
0.0 0.852400024414 0.255868422847 0.0
0.0 0.853400024414 0.255670982585 0.0
0.0 0.854400024414 0.255473457984 0.0
0.0 0.855400024414 0.255275849926 0.0
0.0 0.856400024414 0.255078158765 0.0
0.0 0.857400024414 0.254880385231 0.0
0.0 0.858400024414 0.254682530135 0.0
0.0 0.859400024414 0.254484592904 0.0
0.0 0.860400024414 0.254286575022 0.0
0.0 0.861400024414 0.254088476131 0.0
0.0 0.862400024414 0.253890297112 0.0
0.0 0.863400024414 0.253692039179 0.0
0.0 0.864400024414 0.253493702438 0.0
0.0 0.865400024414 0.253295286349 0.0
0.0 0.866400024414 0.253096792449 0.0
0.0 0.867400024414 0.252898221022 0.0
0.0 0.868400024414 0.252699572734 0.0
0.0 0.869400024414 0.252500848149 0.0
0.0 0.870400024414 0.252302047054 0.0
0.0 0.871400024414 0.252103170599 0.0
0.0 0.872400024414 0.251904219167 0.0
0.0 0.873400024414 0.251705193169 0.0
0.0 0.874400024414 0.251506092952 0.0
0.0 0.875400024414 0.251306919378 0.0
0.0 0.876400024414 0.251107673048 0.0
0.0 0.877400024414 0.250908353824 0.0
0.0 0.878400024414 0.250708962559 0.0
0.0 0.879400024414 0.250509500017 0.0
0.0 0.880400024414 0.250309965925 0.0
0.0 0.881400024414 0.250110361619 0.0
0.0 0.882400024414 0.249910687463 0.0
0.0 0.883400024414 0.24971094382 0.0
0.0 0.884400024414 0.249511130908 0.0
0.0 0.885400024414 0.249311249392 0.0
0.0 0.886400024414 0.249111300188 0.0
0.0 0.887400024414 0.248911283468 0.0
0.0 0.888400024414 0.248711199532 0.0
0.0 0.889400024414 0.248511049235 0.0
0.0 0.890400024414 0.24831083305 0.0
0.0 0.891400024414 0.24811055112 0.0
0.0 0.892400024414 0.247910204449 0.0
0.0 0.893400024414 0.247709792927 0.0
0.0 0.894400024414 0.247509317947 0.0
0.0 0.895400024414 0.247308778736 0.0
0.0 0.896400024414 0.247108177056 0.0
0.0 0.897400024414 0.246907512812 0.0
0.0 0.898400024414 0.246706786335 0.0
0.0 0.899400024414 0.246505998221 0.0
0.0 0.900400024414 0.246305149522 0.0
0.0 0.901400024414 0.246104240269 0.0
0.0 0.902400024414 0.245903271014 0.0
0.0 0.903400024414 0.245702241904 0.0
0.0 0.904400024414 0.245501153455 0.0
0.0 0.905400024414 0.245300007421 0.0
0.0 0.906400024414 0.245098802717 0.0
0.0 0.907400024414 0.24489754077 0.0
0.0 0.908400024414 0.244696222084 0.0
0.0 0.909400024414 0.244494846876 0.0
0.0 0.910400024414 0.244293415467 0.0
0.0 0.911400024414 0.244091928313 0.0
0.0 0.912400024414 0.243890386554 0.0
0.0 0.913400024414 0.243688790464 0.0
0.0 0.914400024414 0.243487139998 0.0
0.0 0.915400024414 0.243285435898 0.0
0.0 0.916400024414 0.243083678986 0.0
0.0 0.917400024414 0.242881869489 0.0
0.0 0.918400024414 0.242680008285 0.0
0.0 0.919400024414 0.2424780957 0.0
0.0 0.920400024414 0.242276131882 0.0
0.0 0.921400024414 0.242074117569 0.0
0.0 0.922400024414 0.241872053525 0.0
0.0 0.923400024414 0.241669939956 0.0
0.0 0.924400024414 0.241467777387 0.0
0.0 0.925400024414 0.241265566313 0.0
0.0 0.926400024414 0.24106330735 0.0
0.0 0.927400024414 0.240861000807 0.0
0.0 0.928400024414 0.240658647355 0.0
0.0 0.929400024414 0.240456247975 0.0
0.0 0.930400024414 0.240253802232 0.0
0.0 0.931400024414 0.240051311331 0.0
0.0 0.932400024414 0.23984877541 0.0
0.0 0.933400024414 0.23964619466 0.0
0.0 0.934400024414 0.239443570005 0.0
0.0 0.935400024414 0.239240901695 0.0
0.0 0.936400024414 0.239038189825 0.0
0.0 0.937400024414 0.238835435846 0.0
0.0 0.938400024414 0.23863264 0.0
0.0 0.939400024414 0.238429802879 0.0
0.0 0.940400024414 0.238226924292 0.0
0.0 0.941400024414 0.238024005045 0.0
0.0 0.942400024414 0.237821046235 0.0
0.0 0.943400024414 0.237618048314 0.0
0.0 0.944400024414 0.23741501173 0.0
0.0 0.945400024414 0.237211936425 0.0
0.0 0.946400024414 0.237008822595 0.0
0.0 0.947400024414 0.23680567228 0.0
0.0 0.948400024414 0.236602484339 0.0
0.0 0.949400024414 0.236399259783 0.0
0.0 0.950400024414 0.236196000275 0.0
0.0 0.951400024414 0.235992704595 0.0
0.0 0.952400024414 0.235789373757 0.0
0.0 0.953400024414 0.235586008689 0.0
0.0 0.954400024414 0.235382609947 0.0
0.0 0.955400024414 0.23517917768 0.0
0.0 0.956400024414 0.234975712333 0.0
0.0 0.957400024414 0.234772214541 0.0
0.0 0.958400024414 0.234568684692 0.0
0.0 0.959400024414 0.234365123472 0.0
0.0 0.960400024414 0.234161531256 0.0
0.0 0.961400024414 0.233957908938 0.0
0.0 0.962400024414 0.233754256236 0.0
0.0 0.963400024414 0.233550574306 0.0
0.0 0.964400024414 0.233346863604 0.0
0.0 0.965400024414 0.233143124361 0.0
0.0 0.966400024414 0.232939357022 0.0
0.0 0.967400024414 0.232735562629 0.0
0.0 0.968400024414 0.232531740938 0.0
0.0 0.969400024414 0.232327892742 0.0
0.0 0.970400024414 0.2321240192 0.0
0.0 0.971400024414 0.231920119132 0.0
0.0 0.972400024414 0.231716197284 0.0
0.0 0.973400024414 0.231512247286 0.0
0.0 0.974400024414 0.23130827559 0.0
0.0 0.975400024414 0.231104280449 0.0
0.0 0.976400024414 0.230900263101 0.0
0.0 0.977400024414 0.230696222761 0.0
0.0 0.978400024414 0.230492160723 0.0
0.0 0.979400024414 0.230288076381 0.0
0.0 0.980400024414 0.230083971873 0.0
0.0 0.981400024414 0.229879856463 0.0
0.0 0.982400024414 0.229675709454 0.0
0.0 0.983400024414 0.22947154909 0.0
0.0 0.984400024414 0.229267367743 0.0
0.0 0.985400024414 0.229063176995 0.0
0.0 0.986400024414 0.228858967259 0.0
0.0 0.987400024414 0.228654728762 0.0
0.0 0.988400024414 0.228450495162 0.0
0.0 0.989400024414 0.22824622609 0.0
0.0 0.990400024414 0.228041952296 0.0
0.0 0.991400024414 0.227837655876 0.0
0.0 0.992400024414 0.227633375298 0.0
0.0 0.993400024414 0.22742903176 0.0
0.0 0.994400024414 0.227224703668 0.0
0.0 0.995400024414 0.22702032083 0.0
0.0 0.996400024414 0.226815982447 0.0
0.0 0.997400024414 0.226611628167 0.0
0.0 0.998400024414 0.226407152907 0.0
0.0 0.999400024414 0.226202803259 0.0
0.0 1.00040002441 0.225998402069 0.0
0.0 1.00140002441 0.225794104541 0.0
0.0 1.00240002441 0.22559004945 0.0
0.0 1.00340002441 0.225385167488 0.0
0.0 1.00440002441 0.225181087112 0.0
0.0 1.00540002441 0.224976460335 0.0
0.0 1.00640002441 0.224771933205 0.0
0.0 1.00740002441 0.224567655027 0.0
0.0 1.00840002441 0.224362860153 0.0
0.0 1.00940002441 0.22415916631 0.0
0.0 1.01040002441 0.223954601465 0.0
0.0 1.01140002441 0.22374950064 0.0
0.0 1.01240002441 0.223545276062 0.0
0.0 1.01340002441 0.223340276811 0.0
0.0 1.01440002441 0.223135726568 0.0
0.0 1.01540002441 0.222931273994 0.0
0.0 1.01640002441 0.22272707298 0.0
0.0 1.01740002441 0.222522665222 0.0
0.0 1.01840002441 0.222318037195 0.0
0.0 1.01940002441 0.222112935348 0.0
0.0 1.02040002441 0.221908968502 0.0
0.0 1.02140002441 0.221704697495 0.0
0.0 1.02240002441 0.221500636363 0.0
0.0 1.02340002441 0.22129495047 0.0
0.0 1.02440002441 0.22109103873 0.0
0.0 1.02540002441 0.220886210347 0.0
0.0 1.02640002441 0.220681297653 0.0
0.0 1.02740002441 0.220477225 0.0
0.0 1.02840002441 0.220272267592 0.0
0.0 1.02940002441 0.220068336565 0.0
0.0 1.03040002441 0.2198636236 0.0
0.0 1.03140002441 0.2196588818 0.0
0.0 1.03240002441 0.219454762349 0.0
0.0 1.03340002441 0.219249923828 0.0
0.0 1.03440002441 0.219045453264 0.0
0.0 1.03540002441 0.218841374589 0.0
0.0 1.03640002441 0.218637279279 0.0
0.0 1.03740002441 0.218432213809 0.0
0.0 1.03840002441 0.218227566693 0.0
0.0 1.03940002441 0.218023261297 0.0
0.0 1.04040002441 0.217818282521 0.0
0.0 1.04140002441 0.217615633751 0.0
0.0 1.04240002441 0.217410312736 0.0
0.0 1.04340002441 0.21720593859 0.0
0.0 1.04440002441 0.217001297277 0.0
0.0 1.04540002441 0.216796592873 0.0
0.0 1.04640002441 0.216592488544 0.0
0.0 1.04740002441 0.216387959733 0.0
0.0 1.04840002441 0.216183949916 0.0
0.0 1.04940002441 0.215978941553 0.0
0.0 1.05040002441 0.215774962246 0.0
0.0 1.05140002441 0.215571423109 0.0
0.0 1.05240002441 0.215365863615 0.0
0.0 1.05340002441 0.215162922821 0.0
0.0 1.05440002441 0.214958275497 0.0
0.0 1.05540002441 0.214753058126 0.0
0.0 1.05640002441 0.214549594503 0.0
0.0 1.05740002441 0.214344798235 0.0
0.0 1.05840002441 0.214140670178 0.0
0.0 1.05940002441 0.213936946015 0.0
0.0 1.06040002441 0.213732419668 0.0
0.0 1.06140002441 0.213527988336 0.0
0.0 1.06240002441 0.213324439797 0.0
0.0 1.06340002441 0.213120163227 0.0
0.0 1.06440002441 0.212916765112 0.0
0.0 1.06540002441 0.212711966759 0.0
0.0 1.06640002441 0.212508168452 0.0
0.0 1.06740002441 0.212303576623 0.0
0.0 1.06840002441 0.212100349614 0.0
0.0 1.06940002441 0.211896012298 0.0
0.0 1.07040002441 0.211691693697 0.0
0.0 1.07140002441 0.21148870357 0.0
0.0 1.07240002441 0.211283894263 0.0
0.0 1.07340002441 0.21108043275 0.0
0.0 1.07440002441 0.21087739645 0.0
0.0 1.07540002441 0.210673427539 0.0
0.0 1.07640002441 0.210468832623 0.0
0.0 1.07740002441 0.210265746974 0.0
0.0 1.07840002441 0.210061866841 0.0
0.0 1.07940002441 0.209858297002 0.0
0.0 1.08040002441 0.209654493528 0.0
0.0 1.08140002441 0.209450358937 0.0
0.0 1.08240002441 0.209247295512 0.0
0.0 1.08340002441 0.209042987058 0.0
0.0 1.08440002441 0.208839638427 0.0
0.0 1.08540002441 0.208636649571 0.0
0.0 1.08640002441 0.208432866055 0.0
0.0 1.08740002441 0.208229984431 0.0
0.0 1.08840002441 0.208026136112 0.0
0.0 1.08940002441 0.207822492289 0.0
0.0 1.09040002441 0.207619046366 0.0
0.0 1.09140002441 0.207415899269 0.0
0.0 1.09240002441 0.207212933674 0.0
0.0 1.09340002441 0.207009243304 0.0
0.0 1.09440002441 0.206805916915 0.0
0.0 1.09540002441 0.206603344335 0.0
0.0 1.09640002441 0.206399913193 0.0
0.0 1.09740002441 0.206196643234 0.0
0.0 1.09840002441 0.205993912788 0.0
0.0 1.09940002441 0.205790561119 0.0
0.0 1.10040002441 0.205587744734 0.0
0.0 1.10140002441 0.205384696429 0.0
0.0 1.10240002441 0.205181469996 0.0
0.0 1.10340002441 0.204979231189 0.0
0.0 1.10440002441 0.204775924277 0.0
0.0 1.10540002441 0.204574519765 0.0
0.0 1.10640002441 0.204370460928 0.0
0.0 1.10740002441 0.204167978788 0.0
0.0 1.10840002441 0.203965033881 0.0
0.0 1.10940002441 0.203762516112 0.0
0.0 1.11040002441 0.203559989036 0.0
0.0 1.11140002441 0.203357995777 0.0
0.0 1.11240002441 0.203155273934 0.0
0.0 1.11340002441 0.202952519009 0.0
0.0 1.11440002441 0.202750849497 0.0
0.0 1.11540002441 0.202548344158 0.0
0.0 1.11640002441 0.202345385372 0.0
0.0 1.11740002441 0.202143401733 0.0
0.0 1.11840002441 0.201941238435 0.0
0.0 1.11940002441 0.201740290607 0.0
0.0 1.12040002441 0.201536801157 0.0
0.0 1.12140002441 0.201334923757 0.0
0.0 1.12240002441 0.201133683644 0.0
0.0 1.12340002441 0.200930787195 0.0
0.0 1.12440002441 0.200729796654 0.0
0.0 1.12540002441 0.200527316883 0.0
0.0 1.12640002441 0.200325980679 0.0
0.0 1.12740002441 0.200123821057 0.0
0.0 1.12840002441 0.199922252 0.0
0.0 1.12940002441 0.199721058476 0.0
0.0 1.13040002441 0.199519443831 0.0
0.0 1.13140002441 0.199317137915 0.0
0.0 1.13240002441 0.199116204201 0.0
0.0 1.13340002441 0.19891518099 0.0
0.0 1.13440002441 0.198713741732 0.0
0.0 1.13540002441 0.198511943225 0.0
0.0 1.13640002441 0.198311275686 0.0
0.0 1.13740002441 0.198109223823 0.0
0.0 1.13840002441 0.197908571207 0.0
0.0 1.13940002441 0.197707528277 0.0
0.0 1.14040002441 0.197506727404 0.0
0.0 1.14140002441 0.197305193154 0.0
0.0 1.14240002441 0.197104545291 0.0
0.0 1.14340002441 0.196903406277 0.0
0.0 1.14440002441 0.196703676985 0.0
0.0 1.14540002441 0.19650292168 0.0
0.0 1.14640002441 0.196301317527 0.0
0.0 1.14740002441 0.196101525008 0.0
0.0 1.14840002441 0.195900830085 0.0
0.0 1.14940002441 0.195699866503 0.0
0.0 1.15040002441 0.195500022863 0.0
0.0 1.15140002441 0.195299290642 0.0
0.0 1.15240002441 0.195099151303 0.0
0.0 1.15340002441 0.194898663281 0.0
0.0 1.15440002441 0.194698860846 0.0
0.0 1.15540002441 0.194498493691 0.0
0.0 1.15640002441 0.194299226603 0.0
0.0 1.15740002441 0.194098718956 0.0
0.0 1.15840002441 0.193899249061 0.0
0.0 1.15940002441 0.193699137173 0.0
0.0 1.16040002441 0.193499358726 0.0
0.0 1.16140002441 0.193299783748 0.0
0.0 1.16240002441 0.193100424957 0.0
0.0 1.16340002441 0.192900906528 0.0
0.0 1.16440002441 0.192701124539 0.0
0.0 1.16540002441 0.192502325981 0.0
0.0 1.16640002441 0.192302959881 0.0
0.0 1.16740002441 0.192104404989 0.0
0.0 1.16840002441 0.191904151764 0.0
0.0 1.16940002441 0.191705550291 0.0
0.0 1.17040002441 0.191507254274 0.0
0.0 1.17140002441 0.191307252793 0.0
0.0 1.17240002441 0.191108497137 0.0
0.0 1.17340002441 0.190910864442 0.0
0.0 1.17440002441 0.190711682129 0.0
0.0 1.17540002441 0.190513045256 0.0
0.0 1.17640002441 0.190314917811 0.0
0.0 1.17740002441 0.19011606006 0.0
0.0 1.17840002441 0.189917005163 0.0
0.0 1.17940002441 0.189719005034 0.0
0.0 1.18040002441 0.189520832409 0.0
0.0 1.18140002441 0.189322231317 0.0
0.0 1.18240002441 0.189124250342 0.0
0.0 1.18340002441 0.188926841103 0.0
0.0 1.18440002441 0.188728807731 0.0
0.0 1.18540002441 0.188530685096 0.0
0.0 1.18640002441 0.188333895826 0.0
0.0 1.18740002441 0.188135210446 0.0
0.0 1.18840002441 0.187938169242 0.0
0.0 1.18940002441 0.187740260708 0.0
0.0 1.19040002441 0.187543188365 0.0
0.0 1.19140002441 0.187345590683 0.0
0.0 1.19240002441 0.187148565557 0.0
0.0 1.19340002441 0.186951037429 0.0
0.0 1.19440002441 0.186754099515 0.0
0.0 1.19540002441 0.186557374858 0.0
0.0 1.19640002441 0.186360084634 0.0
0.0 1.19740002441 0.186163395743 0.0
0.0 1.19840002441 0.185966813877 0.0
0.0 1.19940002441 0.185770513929 0.0
0.0 1.20040002441 0.185573461743 0.0
0.0 1.20140002441 0.185377235866 0.0
0.0 1.20240002441 0.185180851038 0.0
0.0 1.20340002441 0.184984474734 0.0
0.0 1.20440002441 0.184788367615 0.0
0.0 1.20540002441 0.184592729412 0.0
0.0 1.20640002441 0.184396645997 0.0
0.0 1.20740002441 0.184200616235 0.0
0.0 1.20840002441 0.184004725798 0.0
0.0 1.20940002441 0.18380938482 0.0
0.0 1.21040002441 0.183613282709 0.0
0.0 1.21140002441 0.183418205798 0.0
0.0 1.21240002441 0.183222341673 0.0
0.0 1.21340002441 0.183027585064 0.0
0.0 1.21440002441 0.182831725721 0.0
0.0 1.21540002441 0.182636517005 0.0
0.0 1.21640002441 0.182441484997 0.0
0.0 1.21740002441 0.182246882141 0.0
0.0 1.21840002441 0.182052432849 0.0
0.0 1.21940002441 0.181857008936 0.0
0.0 1.22040002441 0.181662551646 0.0
0.0 1.22140002441 0.181468146304 0.0
0.0 1.22240002441 0.181273742227 0.0
0.0 1.22340002441 0.181079359714 0.0
0.0 1.22440002441 0.180885206813 0.0
0.0 1.22540002441 0.180690855535 0.0
0.0 1.22640002441 0.180497231813 0.0
0.0 1.22740002441 0.180303018913 0.0
0.0 1.22840002441 0.180109714101 0.0
0.0 1.22940002441 0.179915152556 0.0
0.0 1.23040002441 0.179721535569 0.0
0.0 1.23140002441 0.179528520506 0.0
0.0 1.23240002441 0.179334921613 0.0
0.0 1.23340002441 0.179141368315 0.0
0.0 1.23440002441 0.17894822913 0.0
0.0 1.23540002441 0.17875503311 0.0
0.0 1.23640002441 0.178562513877 0.0
0.0 1.23740002441 0.178370178782 0.0
0.0 1.23840002441 0.178176415651 0.0
0.0 1.23940002441 0.177983763274 0.0
0.0 1.24040002441 0.177791253919 0.0
0.0 1.24140002441 0.177599319778 0.0
0.0 1.24240002441 0.177407235219 0.0
0.0 1.24340002441 0.177214291562 0.0
0.0 1.24440002441 0.177022603019 0.0
0.0 1.24540002441 0.176830684681 0.0
0.0 1.24640002441 0.176638261392 0.0
0.0 1.24740002441 0.176446877224 0.0
0.0 1.24840002441 0.176254885061 0.0
0.0 1.24940002441 0.176063489985 0.0
0.0 1.25040002441 0.175872850295 0.0
0.0 1.25140002441 0.175681666378 0.0
0.0 1.25240002441 0.175489993687 0.0
0.0 1.25340002441 0.175298405413 0.0
0.0 1.25440002441 0.175107825551 0.0
0.0 1.25540002441 0.174916677574 0.0
0.0 1.25640002441 0.174726247907 0.0
0.0 1.25740002441 0.17453514409 0.0
0.0 1.25840002441 0.174344995299 0.0
0.0 1.25940002441 0.174154922226 0.0
0.0 1.26040002441 0.173964391658 0.0
0.0 1.26140002441 0.173774689667 0.0
0.0 1.26240002441 0.173584034324 0.0
0.0 1.26340002441 0.173395011454 0.0
0.0 1.26440002441 0.17320516641 0.0
0.0 1.26540002441 0.173014724988 0.0
0.0 1.26640002441 0.172825754256 0.0
0.0 1.26740002441 0.172635629263 0.0
0.0 1.26840002441 0.172446540954 0.0
0.0 1.26940002441 0.172257899933 0.0
0.0 1.27040002441 0.172068209837 0.0
0.0 1.27140002441 0.171879299602 0.0
0.0 1.27240002441 0.171690466815 0.0
0.0 1.27340002441 0.171502470789 0.0
0.0 1.27440002441 0.171313431126 0.0
0.0 1.27540002441 0.171125405448 0.0
0.0 1.27640002441 0.170936760243 0.0
0.0 1.27740002441 0.170748788602 0.0
0.0 1.27840002441 0.17056102168 0.0
0.0 1.27940002441 0.170372992116 0.0
0.0 1.28040002441 0.170184972877 0.0
0.0 1.28140002441 0.169998263781 0.0
0.0 1.28240002441 0.169809644975 0.0
0.0 1.28340002441 0.169622952795 0.0
0.0 1.28440002441 0.16943611627 0.0
0.0 1.28540002441 0.169248234273 0.0
0.0 1.28640002441 0.169061086584 0.0
0.0 1.28740002441 0.168874450781 0.0
0.0 1.28840002441 0.168688439474 0.0
0.0 1.28940002441 0.168501077429 0.0
0.0 1.29040002441 0.168315351873 0.0
0.0 1.29140002441 0.168128735088 0.0
0.0 1.29240002441 0.167942315818 0.0
0.0 1.29340002441 0.167755928822 0.0
0.0 1.29440002441 0.16757077135 0.0
0.0 1.29540002441 0.167384299526 0.0
0.0 1.29640002441 0.167199137561 0.0
0.0 1.29740002441 0.167013732696 0.0
0.0 1.29840002441 0.166828099797 0.0
0.0 1.29940002441 0.16664300701 0.0
0.0 1.30040002441 0.166457709478 0.0
0.0 1.30140002441 0.166273413475 0.0
0.0 1.30240002441 0.166088536225 0.0
0.0 1.30340002441 0.165903529754 0.0
0.0 1.30440002441 0.165718997035 0.0
0.0 1.30540002441 0.165534862235 0.0
0.0 1.30640002441 0.165350919743 0.0
0.0 1.30740002441 0.165166191205 0.0
0.0 1.30840002441 0.164982887206 0.0
0.0 1.30940002441 0.164798703302 0.0
0.0 1.31040002441 0.164614868526 0.0
0.0 1.31140002441 0.164431069976 0.0
0.0 1.31240002441 0.1642479568 0.0
0.0 1.31340002441 0.1640650006 0.0
0.0 1.31440002441 0.163881556471 0.0
0.0 1.31540002441 0.163699075026 0.0
0.0 1.31640002441 0.163515958125 0.0
0.0 1.31740002441 0.163334017157 0.0
0.0 1.31840002441 0.16315134467 0.0
0.0 1.31940002441 0.16296841348 0.0
0.0 1.32040002441 0.162786566566 0.0
0.0 1.32140002441 0.162604292985 0.0
0.0 1.32240002441 0.162422780441 0.0
0.0 1.32340002441 0.16224091422 0.0
0.0 1.32440002441 0.162058989309 0.0
0.0 1.32540002441 0.161877532701 0.0
0.0 1.32640002441 0.161696279083 0.0
0.0 1.32740002441 0.161515382995 0.0
0.0 1.32840002441 0.161334202883 0.0
0.0 1.32940002441 0.161154257629 0.0
0.0 1.33040002441 0.160973370985 0.0
0.0 1.33140002441 0.160792954989 0.0
0.0 1.33240002441 0.160612388874 0.0
0.0 1.33340002441 0.160432104907 0.0
0.0 1.33440002441 0.160251876384 0.0
0.0 1.33540002441 0.160071793564 0.0
0.0 1.33640002441 0.159892830973 0.0
0.0 1.33740002441 0.159713179153 0.0
0.0 1.33840002441 0.159533332493 0.0
0.0 1.33940002441 0.159354856255 0.0
0.0 1.34040002441 0.159174841941 0.0
0.0 1.34140002441 0.158996031575 0.0
0.0 1.34240002441 0.158817377203 0.0
0.0 1.34340002441 0.158638770444 0.0
0.0 1.34440002441 0.158460698692 0.0
0.0 1.34540002441 0.158282146669 0.0
0.0 1.34640002441 0.158104137548 0.0
0.0 1.34740002441 0.157926637719 0.0
0.0 1.34840002441 0.157749187694 0.0
0.0 1.34940002441 0.157571105397 0.0
0.0 1.35040002441 0.157393488656 0.0
0.0 1.35140002441 0.157216006286 0.0
0.0 1.35240002441 0.157038568192 0.0
0.0 1.35340002441 0.1568627624 0.0
0.0 1.35440002441 0.156684657619 0.0
0.0 1.35540002441 0.156509146691 0.0
0.0 1.35640002441 0.156331832625 0.0
0.0 1.35740002441 0.156155805932 0.0
0.0 1.35840002441 0.155979859266 0.0
0.0 1.35940002441 0.155803979608 0.0
0.0 1.36040002441 0.15562760058 0.0
0.0 1.36140002441 0.155452480606 0.0
0.0 1.36240002441 0.155278081277 0.0
0.0 1.36340002441 0.15510150321 0.0
0.0 1.36440002441 0.154926972337 0.0
0.0 1.36540002441 0.154751282214 0.0
0.0 1.36640002441 0.154577535987 0.0
0.0 1.36740002441 0.154403498924 0.0
0.0 1.36840002441 0.154227642527 0.0
0.0 1.36940002441 0.154053538006 0.0
0.0 1.37040002441 0.153879395917 0.0
0.0 1.37140002441 0.15370614504 0.0
0.0 1.37240002441 0.153531788916 0.0
0.0 1.37340002441 0.153360017714 0.0
0.0 1.37440002441 0.153185260375 0.0
0.0 1.37540002441 0.153012698482 0.0
0.0 1.37640002441 0.152839086507 0.0
0.0 1.37740002441 0.152666381985 0.0
0.0 1.37840002441 0.152494220006 0.0
0.0 1.37940002441 0.152320546968 0.0
0.0 1.38040002441 0.152149397977 0.0
0.0 1.38140002441 0.151976176708 0.0
0.0 1.38240002441 0.151805623166 0.0
0.0 1.38340002441 0.151632815926 0.0
0.0 1.38440002441 0.151460817432 0.0
0.0 1.38540002441 0.151289678043 0.0
0.0 1.38640002441 0.151118848127 0.0
0.0 1.38740002441 0.150948973289 0.0
0.0 1.38840002441 0.150777145307 0.0
0.0 1.38940002441 0.150606129797 0.0
0.0 1.39040002441 0.150436510958 0.0
0.0 1.39140002441 0.150265756476 0.0
0.0 1.39240002441 0.150094766542 0.0
0.0 1.39340002441 0.149925859646 0.0
0.0 1.39440002441 0.149755359784 0.0
0.0 1.39540002441 0.149587309114 0.0
0.0 1.39640002441 0.149417165501 0.0
0.0 1.39740002441 0.149248279041 0.0
0.0 1.39840002441 0.149078493172 0.0
0.0 1.39940002441 0.148909975731 0.0
0.0 1.40040002441 0.148741024858 0.0
0.0 1.40140002441 0.148572751286 0.0
0.0 1.40240002441 0.148404418477 0.0
0.0 1.40340002441 0.148237302817 0.0
0.0 1.40440002441 0.148069184928 0.0
0.0 1.40540002441 0.147901421234 0.0
0.0 1.40640002441 0.147733512576 0.0
0.0 1.40740002441 0.147566413882 0.0
0.0 1.40840002441 0.147399162674 0.0
0.0 1.40940002441 0.147231802106 0.0
0.0 1.41040002441 0.147066216696 0.0
0.0 1.41140002441 0.146899166866 0.0
0.0 1.41240002441 0.146733245775 0.0
0.0 1.41340002441 0.146566581846 0.0
0.0 1.41440002441 0.146401538635 0.0
0.0 1.41540002441 0.146235121116 0.0
0.0 1.41640002441 0.14606956883 0.0
0.0 1.41740002441 0.145904393365 0.0
0.0 1.41840002441 0.145739411675 0.0
0.0 1.41940002441 0.145574520492 0.0
0.0 1.42040002441 0.145409639477 0.0
0.0 1.42140002441 0.145245457118 0.0
0.0 1.42240002441 0.145081434794 0.0
0.0 1.42340002441 0.144917499664 0.0
0.0 1.42440002441 0.144752567148 0.0
0.0 1.42540002441 0.144590452933 0.0
0.0 1.42640002441 0.144425800227 0.0
0.0 1.42740002441 0.144262980686 0.0
0.0 1.42840002441 0.144099695273 0.0
0.0 1.42940002441 0.143936285864 0.0
0.0 1.43040002441 0.143774126602 0.0
0.0 1.43140002441 0.143611498374 0.0
0.0 1.43240002441 0.143449752582 0.0
0.0 1.43340002441 0.14328707969 0.0
0.0 1.43440002441 0.143125244681 0.0
0.0 1.43540002441 0.142963744767 0.0
0.0 1.43640002441 0.142802103127 0.0
0.0 1.43740002441 0.14264096481 0.0
0.0 1.43840002441 0.142480470245 0.0
0.0 1.43940002441 0.142318994864 0.0
0.0 1.44040002441 0.142158785715 0.0
0.0 1.44140002441 0.141998478467 0.0
0.0 1.44240002441 0.141837946402 0.0
0.0 1.44340002441 0.141679227722 0.0
0.0 1.44440002441 0.141519254958 0.0
0.0 1.44540002441 0.14135981376 0.0
0.0 1.44640002441 0.141199786658 0.0
0.0 1.44740002441 0.141040967497 0.0
0.0 1.44840002441 0.140882259044 0.0
0.0 1.44940002441 0.140723490496 0.0
0.0 1.45040002441 0.140565579144 0.0
0.0 1.45140002441 0.140407155111 0.0
0.0 1.45240002441 0.140249237514 0.0
0.0 1.45340002441 0.140091686012 0.0
0.0 1.45440002441 0.139933499712 0.0
0.0 1.45540002441 0.139776952643 0.0
0.0 1.45640002441 0.139619802626 0.0
0.0 1.45740002441 0.139463272309 0.0
0.0 1.45840002441 0.139306632664 0.0
0.0 1.45940002441 0.139150037582 0.0
0.0 1.46040002441 0.138995092533 0.0
0.0 1.46140002441 0.138839128898 0.0
0.0 1.46240002441 0.13868373792 0.0
0.0 1.46340002441 0.13852918652 0.0
0.0 1.46440002441 0.138374024377 0.0
0.0 1.46540002441 0.138219793169 0.0
0.0 1.46640002441 0.138067188836 0.0
0.0 1.46740002441 0.13791176586 0.0
0.0 1.46840002441 0.137759537904 0.0
0.0 1.46940002441 0.137606583846 0.0
0.0 1.47040002441 0.13745325834 0.0
0.0 1.47140002441 0.137303411903 0.0
0.0 1.47240002441 0.137151748321 0.0
0.0 1.47340002441 0.137000534055 0.0
0.0 1.47440002441 0.136850269998 0.0
0.0 1.47540002441 0.136701159168 0.0
0.0 1.47640002441 0.13655102801 0.0
0.0 1.47740002441 0.136403404608 0.0
0.0 1.47840002441 0.136254496697 0.0
0.0 1.47940002441 0.136109091733 0.0
0.0 1.48040002441 0.135961808181 0.0
0.0 1.48140002441 0.135815117816 0.0
0.0 1.48240002441 0.135672690112 0.0
0.0 1.48340002441 0.135527041485 0.0
0.0 1.48440002441 0.135385641822 0.0
0.0 1.48540002441 0.135244070889 0.0
0.0 1.48640002441 0.135104963532 0.0
0.0 1.48740002441 0.134967750865 0.0
0.0 1.48840002441 0.134829576021 0.0
0.0 1.48940002441 0.134698761344 0.0
0.0 1.49040002441 0.134569301956 0.0
0.0 1.49140002441 0.134442005446 0.0
0.0 1.49240002441 0.134319972725 0.0
0.0 1.49340002441 0.13419901578 0.0
0.0 1.49440002441 0.134094097765 0.0
0.0 1.49540002441 0.133976186928 0.0
0.0 1.49640002441 0.133881005893 0.0
0.0 1.49740002441 0.133792688133 0.0
0.0 1.49840002441 0.133721305866 0.0
0.0 1.49940002441 0.133650982288 0.0
0.0 1.50040002441 0.133611714335 0.0
0.0 1.50140002441 0.133576792023 0.0
0.0 1.50240002441 0.133562215659 0.0
0.0 1.50340002441 0.133579761449 0.0
0.0 1.50440002441 0.133613678125 0.0
0.0 1.50540002441 0.133711225648 0.0
0.0 1.50640002441 0.133832500564 0.0
0.0 1.50740002441 0.134014899268 0.0
0.0 1.50840002441 0.134196714706 0.0
0.0 1.50940002441 0.134466103067 0.0
0.0 1.51040002441 0.134798344124 0.0
0.0 1.51140002441 0.135303054142 0.0
0.0 1.51240002441 0.135705497341 0.0
0.0 1.51340002441 0.13643118865 0.0
0.0 1.51440002441 0.136934253033 0.0
0.0 1.51540002441 0.138009230161 0.0
0.0 1.51640002441 0.139071832102 0.0
0.0 1.51740002441 0.140284061737 0.0
0.0 1.51840002441 0.141720291081 0.0
0.0 1.51940002441 0.142964765401 0.0
0.0 1.52040002441 0.14419063109 0.0
0.0 1.52140002441 0.14542576394 0.0
0.0 1.52240002441 0.147063149469 0.0
0.0 1.52340002441 0.14879840422 0.0
0.0 1.52440002441 0.150268552922 0.0
0.0 1.52540002441 0.153230785595 0.0
0.0 1.52640002441 0.155558942895 0.0
0.0 1.52740002441 0.15864897969 0.0
0.0 1.52840002441 0.162708220143 0.0
0.0 1.52940002441 0.16694772516 0.0
0.0 1.53040002441 0.172348684436 0.0
0.0 1.53140002441 0.178138700773 0.0
0.0 1.53240002441 0.185276471825 0.0
0.0 1.53340002441 0.19420350854 0.0
0.0 1.53440002441 0.203023117852 0.0
0.0 1.53540002441 0.216897525619 0.0
0.0 1.53640002441 0.228965409395 0.0
0.0 1.53740002441 0.242337589615 0.0
0.0 1.53840002441 0.266328843409 0.0
0.0 1.53940002441 0.284874912113 0.0
0.0 1.54040002441 0.307644000672 0.0
0.0 1.54140002441 0.333430140567 0.0
0.0 1.54240002441 0.359440115625 0.0
0.0 1.54340002441 0.384250617265 0.0
0.0 1.54440002441 0.410097306353 0.0
0.0 1.54540002441 0.438341056956 0.0
0.0 1.54640002441 0.456704072985 0.0
0.0 1.54740002441 0.475274020564 0.0
0.0 1.54840002441 0.491576783201 0.0
0.0 1.54940002441 0.501043116452 0.0
0.0 1.55040002441 0.508086803578 0.0
0.0 1.55140002441 0.513415680024 0.0
0.0 1.55240002441 0.518081466724 0.0
0.0 1.55340002441 0.521575868901 0.0
0.0 1.55440002441 0.523500273878 0.0
0.0 1.55540002441 0.53033758344 0.0
0.0 1.55640002441 0.527797251036 0.0
0.0 1.55740002441 0.529604174072 0.0
0.0 1.55840002441 0.524216195702 0.0
0.0 1.55940002441 0.536681302889 0.0
0.0 1.56040002441 0.531725928306 0.0
0.0 1.56140002441 0.533975415293 0.0
0.0 1.56240002441 0.539316903971 0.0
0.0 1.56340002441 0.545109802091 0.0
0.0 1.56440002441 0.534889908321 0.0
0.0 1.56540002441 0.539275294022 0.0
0.0 1.56640002441 0.537680918265 0.0
0.0 1.56740002441 0.543881769069 0.0
0.0 1.56840002441 0.53778445763 0.0
0.0 1.56940002441 0.540341262244 0.0
0.0 1.57040002441 0.540176643632 0.0
0.0 1.57140002441 0.542602773673 0.0
0.0 1.57240002441 0.542539238884 0.0
0.0 1.57340002441 0.534008853107 0.0
0.0 1.57440002441 0.541972542915 0.0
0.0 1.57540002441 0.550031242983 0.0
0.0 1.57640002441 0.542709117637 0.0
0.0 1.57740002441 0.542357796592 0.0
0.0 1.57840002441 0.540070572242 0.0
0.0 1.57940002441 0.538235868932 0.0
0.0 1.58040002441 0.557526205871 0.0
0.0 1.58140002441 0.54104697911 0.0
0.0 1.58240002441 0.553751659232 0.0
0.0 1.58340002441 0.545755120688 0.0
0.0 1.58440002441 0.542718907367 0.0
0.0 1.58540002441 0.552719093651 0.0
0.0 1.58640002441 0.545751819305 0.0
0.0 1.58740002441 0.547854195748 0.0
0.0 1.58840002441 0.542485538039 0.0
0.0 1.58940002441 0.544363282295 0.0
0.0 1.59040002441 0.545796835861 0.0
0.0 1.59140002441 0.545450658834 0.0
0.0 1.59240002441 0.541566029492 0.0
0.0 1.59340002441 0.545059531841 0.0
0.0 1.59440002441 0.539645113929 0.0
0.0 1.59540002441 0.542260668332 0.0
0.0 1.59640002441 0.540819809747 0.0
0.0 1.59740002441 0.542628114392 0.0
0.0 1.59840002441 0.537425313345 0.0
0.0 1.59940002441 0.539746168655 0.0
0.0 1.60040002441 0.53819891069 0.0
0.0 1.60140002441 0.541065664095 0.0
0.0 1.60240002441 0.541363714762 0.0
0.0 1.60340002441 0.540094776545 0.0
0.0 1.60440002441 0.54249108826 0.0
0.0 1.60540002441 0.544142082026 0.0
0.0 1.60640002441 0.535258504442 0.0
0.0 1.60740002441 0.534041759724 0.0
0.0 1.60840002441 0.539479742314 0.0
0.0 1.60940002441 0.540649062458 0.0
0.0 1.61040002441 0.536214256819 0.0
0.0 1.61140002441 0.537477694594 0.0
0.0 1.61240002441 0.534378344647 0.0
0.0 1.61340002441 0.532285893599 0.0
0.0 1.61440002441 0.531797720047 0.0
0.0 1.61540002441 0.541919170475 0.0
0.0 1.61640002441 0.529648716263 0.0
0.0 1.61740002441 0.538151667228 0.0
0.0 1.61840002441 0.528841859815 0.0
0.0 1.61940002441 0.533882862804 0.0
0.0 1.62040002441 0.538093224415 0.0
0.0 1.62140002441 0.535263542022 0.0
0.0 1.62240002441 0.533275077039 0.0
0.0 1.62340002441 0.537040686618 0.0
0.0 1.62440002441 0.535450310272 0.0
0.0 1.62540002441 0.52853221485 0.0
0.0 1.62640002441 0.550690923292 0.0
0.0 1.62740002441 0.537308025479 0.0
0.0 1.62840002441 0.541923258265 0.0
0.0 1.62940002441 0.541929404306 0.0
0.0 1.63040002441 0.542017041183 0.0
0.0 1.63140002441 0.539988854818 0.0
0.0 1.63240002441 0.54336222213 0.0
0.0 1.63340002441 0.543398715412 0.0
0.0 1.63440002441 0.538103983764 0.0
0.0 1.63540002441 0.55004337623 0.0
0.0 1.63640002441 0.550044112178 0.0
0.0 1.63740002441 0.541784171183 0.0
0.0 1.63840002441 0.544474149722 0.0
0.0 1.63940002441 0.547791743614 0.0
0.0 1.64040002441 0.54670277596 0.0
0.0 1.64140002441 0.547103899249 0.0
0.0 1.64240002441 0.549760402286 0.0
0.0 1.64340002441 0.543494048876 0.0
0.0 1.64440002441 0.547817779682 0.0
0.0 1.64540002441 0.547665871802 0.0
0.0 1.64640002441 0.542134750208 0.0
0.0 1.64740002441 0.545510921183 0.0
0.0 1.64840002441 0.549259689073 0.0
0.0 1.64940002441 0.547037493469 0.0
0.0 1.65040002441 0.547947770942 0.0
0.0 1.65140002441 0.554183684369 0.0
0.0 1.65240002441 0.542331167307 0.0
0.0 1.65340002441 0.544150632174 0.0
0.0 1.65440002441 0.546011140244 0.0
0.0 1.65540002441 0.546180819568 0.0
0.0 1.65640002441 0.542895982824 0.0
0.0 1.65740002441 0.546768667403 0.0
0.0 1.65840002441 0.537146126413 0.0
0.0 1.65940002441 0.546526015348 0.0
0.0 1.66040002441 0.546044408387 0.0
0.0 1.66140002441 0.539676937667 0.0
0.0 1.66240002441 0.541469736728 0.0
0.0 1.66340002441 0.53743815133 0.0
0.0 1.66440002441 0.540140712438 0.0
0.0 1.66540002441 0.534349707126 0.0
0.0 1.66640002441 0.536059542156 0.0
0.0 1.66740002441 0.539112603384 0.0
0.0 1.66840002441 0.53558674718 0.0
0.0 1.66940002441 0.53284709695 0.0
0.0 1.67040002441 0.532603208524 0.0
0.0 1.67140002441 0.530676479757 0.0
0.0 1.67240002441 0.527001266403 0.0
0.0 1.67340002441 0.534133979578 0.0
0.0 1.67440002441 0.534150541471 0.0
0.0 1.67540002441 0.535732315383 0.0
0.0 1.67640002441 0.541219293365 0.0
0.0 1.67740002441 0.53075870755 0.0
0.0 1.67840002441 0.53881709454 0.0
0.0 1.67940002441 0.54222636019 0.0
0.0 1.68040002441 0.54384939384 0.0
0.0 1.68140002441 0.536897290555 0.0
0.0 1.68240002441 0.539176097087 0.0
0.0 1.68340002441 0.550808348741 0.0
0.0 1.68440002441 0.545738880935 0.0
0.0 1.68540002441 0.547964906408 0.0
0.0 1.68640002441 0.542198469465 0.0
0.0 1.68740002441 0.548532591201 0.0
0.0 1.68840002441 0.546911707499 0.0
0.0 1.68940002441 0.542673560565 0.0
0.0 1.69040002441 0.539157902722 0.0
0.0 1.69140002441 0.547456999299 0.0
0.0 1.69240002441 0.547522042933 0.0
0.0 1.69340002441 0.545359119852 0.0
0.0 1.69440002441 0.537482575984 0.0
0.0 1.69540002441 0.550224826558 0.0
0.0 1.69640002441 0.537467240683 0.0
0.0 1.69740002441 0.537103915688 0.0
0.0 1.69840002441 0.537630796509 0.0
0.0 1.69940002441 0.527947320611 0.0
0.0 1.70040002441 0.527710437426 0.0
0.0 1.70140002441 0.524945281085 0.0
0.0 1.70240002441 0.514406562873 0.0
0.0 1.70340002441 0.506327722053 0.0
0.0 1.70440002441 0.495375932711 0.0
0.0 1.70540002441 0.48558726802 0.0
0.0 1.70640002441 0.471179179232 0.0
0.0 1.70740002441 0.458651155067 0.0
0.0 1.70840002441 0.437945998345 0.0
0.0 1.70940002441 0.415031523259 0.0
0.0 1.71040002441 0.394780571549 0.0
0.0 1.71140002441 0.373190160935 0.0
0.0 1.71240002441 0.342917841812 0.0
0.0 1.71340002441 0.335636804087 0.0
0.0 1.71440002441 0.305621290777 0.0
0.0 1.71540002441 0.28536809662 0.0
0.0 1.71640002441 0.266072231227 0.0
0.0 1.71740002441 0.24748920254 0.0
0.0 1.71840002441 0.229728592181 0.0
0.0 1.71940002441 0.218015669467 0.0
0.0 1.72040002441 0.204975042148 0.0
0.0 1.72140002441 0.193440582617 0.0
0.0 1.72240002441 0.182818714284 0.0
0.0 1.72340002441 0.174604528555 0.0
0.0 1.72440002441 0.166783650704 0.0
0.0 1.72540002441 0.158725122432 0.0
0.0 1.72640002441 0.155243779337 0.0
0.0 1.72740002441 0.149829223569 0.0
0.0 1.72840002441 0.145518029024 0.0
0.0 1.72940002441 0.141234532349 0.0
0.0 1.73040002441 0.138913121669 0.0
0.0 1.73140002441 0.135195813391 0.0
0.0 1.73240002441 0.132239143691 0.0
0.0 1.73340002441 0.128985038616 0.0
0.0 1.73440002441 0.125596543669 0.0
0.0 1.73540002441 0.122679607264 0.0
0.0 1.73640002441 0.120278184545 0.0
0.0 1.73740002441 0.117747499597 0.0
0.0 1.73840002441 0.116465621257 0.0
0.0 1.73940002441 0.114731430209 0.0
0.0 1.74040002441 0.113558757406 0.0
0.0 1.74140002441 0.112227146333 0.0
0.0 1.74240002441 0.111309234737 0.0
0.0 1.74340002441 0.110421429468 0.0
0.0 1.74440002441 0.109551649609 0.0
0.0 1.74540002441 0.108977779112 0.0
0.0 1.74640002441 0.108488385014 0.0
0.0 1.74740002441 0.108046112867 0.0
0.0 1.74840002441 0.107578658081 0.0
0.0 1.74940002441 0.107209421959 0.0
0.0 1.75040002441 0.106862750878 0.0
0.0 1.75140002441 0.106579698182 0.0
0.0 1.75240002441 0.106307277755 0.0
0.0 1.75340002441 0.106056749738 0.0
0.0 1.75440002441 0.105873565983 0.0
0.0 1.75540002441 0.10564292554 0.0
0.0 1.75640002441 0.105464830111 0.0
0.0 1.75740002441 0.105323305859 0.0
0.0 1.75840002441 0.105165348234 0.0
0.0 1.75940002441 0.105024932865 0.0
0.0 1.76040002441 0.104875776367 0.0
0.0 1.76140002441 0.104757294262 0.0
0.0 1.76240002441 0.10463288841 0.0
0.0 1.76340002441 0.104516155944 0.0
0.0 1.76440002441 0.104410773143 0.0
0.0 1.76540002441 0.104317698213 0.0
0.0 1.76640002441 0.104221532189 0.0
0.0 1.76740002441 0.104124465532 0.0
0.0 1.76840002441 0.104033049907 0.0
0.0 1.76940002441 0.103945262275 0.0
0.0 1.77040002441 0.103855236341 0.0
0.0 1.77140002441 0.103775312914 0.0
0.0 1.77240002441 0.103699044788 0.0
0.0 1.77340002441 0.103616923173 0.0
0.0 1.77440002441 0.103545060477 0.0
0.0 1.77540002441 0.103461595132 0.0
0.0 1.77640002441 0.103396751331 0.0
0.0 1.77740002441 0.103317984107 0.0
0.0 1.77840002441 0.103249374488 0.0
0.0 1.77940002441 0.103181339149 0.0
0.0 1.78040002441 0.103110889141 0.0
0.0 1.78140002441 0.103047180551 0.0
0.0 1.78240002441 0.102977998346 0.0
0.0 1.78340002441 0.102912577937 0.0
0.0 1.78440002441 0.102847387699 0.0
0.0 1.78540002441 0.102783465155 0.0
0.0 1.78640002441 0.102723499852 0.0
0.0 1.78740002441 0.102658283121 0.0
0.0 1.78840002441 0.102597085966 0.0
0.0 1.78940002441 0.102535838783 0.0
0.0 1.79040002441 0.102477698116 0.0
0.0 1.79140002441 0.102415595648 0.0
0.0 1.79240002441 0.102359250083 0.0
0.0 1.79340002441 0.102301561153 0.0
0.0 1.79440002441 0.102241766415 0.0
0.0 1.79540002441 0.102184235515 0.0
0.0 1.79640002441 0.10212937322 0.0
0.0 1.79740002441 0.102073690076 0.0
0.0 1.79840002441 0.102018170845 0.0
0.0 1.79940002441 0.101962659502 0.0
0.0 1.80040002441 0.10190929969 0.0
0.0 1.80140002441 0.101856743566 0.0
0.0 1.80240002441 0.101801714715 0.0
0.0 1.80340002441 0.10174690832 0.0
0.0 1.80440002441 0.101698372917 0.0
0.0 1.80540002441 0.101645079428 0.0
0.0 1.80640002441 0.101590815505 0.0
0.0 1.80740002441 0.101545039101 0.0
0.0 1.80840002441 0.101495980587 0.0
0.0 1.80940002441 0.101442571287 0.0
0.0 1.81040002441 0.101393716162 0.0
0.0 1.81140002441 0.101344911199 0.0
0.0 1.81240002441 0.101296961232 0.0
0.0 1.81340002441 0.101247573852 0.0
0.0 1.81440002441 0.101200233102 0.0
0.0 1.81540002441 0.101154917734 0.0
0.0 1.81640002441 0.101104734162 0.0
0.0 1.81740002441 0.101062941639 0.0
0.0 1.81840002441 0.101014267078 0.0
0.0 1.81940002441 0.10096657684 0.0
0.0 1.82040002441 0.100922635096 0.0
0.0 1.82140002441 0.100880904624 0.0
0.0 1.82240002441 0.100832878049 0.0
0.0 1.82340002441 0.100791422925 0.0
0.0 1.82440002441 0.100749453811 0.0
0.0 1.82540002441 0.100703748805 0.0
0.0 1.82640002441 0.100660283539 0.0
0.0 1.82740002441 0.100619624873 0.0
0.0 1.82840002441 0.100580122946 0.0
0.0 1.82940002441 0.100536715431 0.0
0.0 1.83040002441 0.100493039978 0.0
0.0 1.83140002441 0.100456801877 0.0
0.0 1.83240002441 0.100419378381 0.0
0.0 1.83340002441 0.100376024208 0.0
0.0 1.83440002441 0.100332885061 0.0
0.0 1.83540002441 0.100300506626 0.0
0.0 1.83640002441 0.100259207017 0.0
0.0 1.83740002441 0.100220607965 0.0
0.0 1.83840002441 0.100187453608 0.0
0.0 1.83940002441 0.100148259166 0.0
0.0 1.84040002441 0.100112375308 0.0
0.0 1.84140002441 0.100072537192 0.0
0.0 1.84240002441 0.100043007743 0.0
0.0 1.84340002441 0.100002201699 0.0
0.0 1.84440002441 0.0999677644815 0.0
0.0 1.84540002441 0.099937891942 0.0
0.0 1.84640002441 0.0998945227709 0.0
0.0 1.84740002441 0.0998668309221 0.0
0.0 1.84840002441 0.0998333237188 0.0
0.0 1.84940002441 0.0997984571159 0.0
0.0 1.85040002441 0.0997641658374 0.0
0.0 1.85140002441 0.0997331491174 0.0
0.0 1.85240002441 0.0997044237527 0.0
0.0 1.85340002441 0.0996706864315 0.0
0.0 1.85440002441 0.0996367781736 0.0
0.0 1.85540002441 0.0996088919302 0.0
0.0 1.85640002441 0.0995814390282 0.0
0.0 1.85740002441 0.0995503721236 0.0
0.0 1.85840002441 0.0995181271604 0.0
0.0 1.85940002441 0.0994954848826 0.0
0.0 1.86040002441 0.0994655405593 0.0
0.0 1.86140002441 0.0994344617423 0.0
0.0 1.86240002441 0.0994100192258 0.0
0.0 1.86340002441 0.0993821063237 0.0
0.0 1.86440002441 0.0993537800629 0.0
0.0 1.86540002441 0.0993269407066 0.0
0.0 1.86640002441 0.0993053234018 0.0
0.0 1.86740002441 0.0992786003863 0.0
0.0 1.86840002441 0.0992510714272 0.0
0.0 1.86940002441 0.0992305188956 0.0
0.0 1.87040002441 0.0992044469363 0.0
0.0 1.87140002441 0.0991800350265 0.0
0.0 1.87240002441 0.0991587908761 0.0
0.0 1.87340002441 0.0991323904161 0.0
0.0 1.87440002441 0.0991122951485 0.0
0.0 1.87540002441 0.0990923993033 0.0
0.0 1.87640002441 0.0990685180255 0.0
0.0 1.87740002441 0.0990491031192 0.0
0.0 1.87840002441 0.0990287131092 0.0
0.0 1.87940002441 0.0990038019047 0.0
0.0 1.88040002441 0.0989864839066 0.0
0.0 1.88140002441 0.0989660836579 0.0
0.0 1.88240002441 0.0989449385456 0.0
0.0 1.88340002441 0.0989288835227 0.0
0.0 1.88440002441 0.0989109681022 0.0
0.0 1.88540002441 0.0988900926312 0.0
0.0 1.88640002441 0.0988746821355 0.0
0.0 1.88740002441 0.0988596160863 0.0
0.0 1.88840002441 0.0988396896245 0.0
0.0 1.88940002441 0.0988253331341 0.0
0.0 1.89040002441 0.0988133978761 0.0
0.0 1.89140002441 0.0987967581555 0.0
0.0 1.89240002441 0.0987785439083 0.0
0.0 1.89340002441 0.0987666276246 0.0
0.0 1.89440002441 0.0987556020252 0.0
0.0 1.89540002441 0.0987421355523 0.0
0.0 1.89640002441 0.0987285282168 0.0
0.0 1.89740002441 0.0987108321446 0.0
0.0 1.89840002441 0.09870123566 0.0
0.0 1.89940002441 0.0986948747217 0.0
0.0 1.90040002441 0.0986804416858 0.0
0.0 1.90140002441 0.0986701551363 0.0
0.0 1.90240002441 0.0986573243983 0.0
0.0 1.90340002441 0.0986500786926 0.0
0.0 1.90440002441 0.0986404912584 0.0
0.0 1.90540002441 0.0986321454996 0.0
0.0 1.90640002441 0.0986251081002 0.0
0.0 1.90740002441 0.0986140522282 0.0
0.0 1.90840002441 0.0986089353936 0.0
0.0 1.90940002441 0.0985981780255 0.0
0.0 1.91040002441 0.0985895456827 0.0
0.0 1.91140002441 0.0985953901674 0.0
0.0 1.91240002441 0.0985781867885 0.0
0.0 1.91340002441 0.0985754167609 0.0
0.0 1.91440002441 0.0985706555688 0.0
0.0 1.91540002441 0.0985696062682 0.0
0.0 1.91640002441 0.0985605936099 0.0
0.0 1.91740002441 0.098560796792 0.0
0.0 1.91840002441 0.0985564007096 0.0
0.0 1.91940002441 0.0985534589145 0.0
0.0 1.92040002441 0.0985516794459 0.0
0.0 1.92140002441 0.0985493691777 0.0
0.0 1.92240002441 0.0985495386189 0.0
0.0 1.92340002441 0.0985478956295 0.0
0.0 1.92440002441 0.0985459706215 0.0
0.0 1.92540002441 0.0985455361229 0.0
0.0 1.92640002441 0.0985437648898 0.0
0.0 1.92740002441 0.098545863731 0.0
0.0 1.92840002441 0.0985501366807 0.0
0.0 1.92940002441 0.0985485722228 0.0
0.0 1.93040002441 0.0985549205203 0.0
0.0 1.93140002441 0.0985557120402 0.0
0.0 1.93240002441 0.0985584432475 0.0
0.0 1.93340002441 0.0985639673552 0.0
0.0 1.93440002441 0.0985652950324 0.0
0.0 1.93540002441 0.0985729696499 0.0
0.0 1.93640002441 0.0985755940249 0.0
0.0 1.93740002441 0.0985802144333 0.0
0.0 1.93840002441 0.0985883680761 0.0
0.0 1.93940002441 0.0985917923723 0.0
0.0 1.94040002441 0.0986019927149 0.0
0.0 1.94140002441 0.0986121318819 0.0
0.0 1.94240002441 0.0986140048543 0.0
0.0 1.94340002441 0.0986228381182 0.0
0.0 1.94440002441 0.0986354240545 0.0
0.0 1.94540002441 0.0986431091001 0.0
0.0 1.94640002441 0.0986512173252 0.0
0.0 1.94740002441 0.0986631313607 0.0
0.0 1.94840002441 0.0986730675006 0.0
0.0 1.94940002441 0.098682947467 0.0
0.0 1.95040002441 0.0986954434357 0.0
0.0 1.95140002441 0.0987099625669 0.0
0.0 1.95240002441 0.0987186105834 0.0
0.0 1.95340002441 0.0987348829284 0.0
0.0 1.95440002441 0.0987464253718 0.0
0.0 1.95540002441 0.0987581480466 0.0
0.0 1.95640002441 0.0987779182948 0.0
0.0 1.95740002441 0.0987888437534 0.0
0.0 1.95840002441 0.0988023937305 0.0
0.0 1.95940002441 0.0988201039219 0.0
0.0 1.96040002441 0.0988373337888 0.0
0.0 1.96140002441 0.098851008361 0.0
0.0 1.96240002441 0.0988724267917 0.0
0.0 1.96340002441 0.0988887064348 0.0
0.0 1.96440002441 0.0989039018113 0.0
0.0 1.96540002441 0.0989230604712 0.0
0.0 1.96640002441 0.0989415260986 0.0
0.0 1.96740002441 0.0989653918473 0.0
0.0 1.96840002441 0.0989812544905 0.0
0.0 1.96940002441 0.0990063927141 0.0
0.0 1.97040002441 0.099022461478 0.0
0.0 1.97140002441 0.0990520852134 0.0
0.0 1.97240002441 0.0990712400612 0.0
0.0 1.97340002441 0.0990881547485 0.0
0.0 1.97440002441 0.0991112961271 0.0
0.0 1.97540002441 0.0991347393861 0.0
0.0 1.97640002441 0.0991603752826 0.0
0.0 1.97740002441 0.0991894840945 0.0
0.0 1.97840002441 0.0992112319837 0.0
0.0 1.97940002441 0.0992359355274 0.0
0.0 1.98040002441 0.0992597768185 0.0
0.0 1.98140002441 0.0992844858241 0.0
0.0 1.98240002441 0.099313662271 0.0
0.0 1.98340002441 0.0993389680843 0.0
0.0 1.98440002441 0.0993658675981 0.0
0.0 1.98540002441 0.0993977518762 0.0
0.0 1.98640002441 0.0994259172228 0.0
0.0 1.98740002441 0.0994517136828 0.0
0.0 1.98840002441 0.0994856347302 0.0
0.0 1.98940002441 0.099516933332 0.0
0.0 1.99040002441 0.0995474877323 0.0
0.0 1.99140002441 0.0995729546909 0.0
0.0 1.99240002441 0.0996096778079 0.0
0.0 1.99340002441 0.0996364897394 0.0
0.0 1.99440002441 0.0996727445253 0.0
0.0 1.99540002441 0.0997046132166 0.0
0.0 1.99640002441 0.0997358174283 0.0
0.0 1.99740002441 0.0997718914314 0.0
0.0 1.99840002441 0.0998083033159 0.0
0.0 1.99940002441 0.0998402339949 0.0
0.0 2.00040002441 0.0998773721482 0.0
0.0 2.00140002441 0.099911317522 0.0
0.0 2.00240002441 0.0999487854541 0.0
0.0 2.00340002441 0.0999874757437 0.0
0.0 2.00440002441 0.100024417178 0.0
0.0 2.00540002441 0.100060577705 0.0
0.0 2.00640002441 0.100100763392 0.0
0.0 2.00740002441 0.10014190078 0.0
0.0 2.00840002441 0.100175383816 0.0
0.0 2.00940002441 0.100216626203 0.0
0.0 2.01040002441 0.100256891912 0.0
0.0 2.01140002441 0.100300825484 0.0
0.0 2.01240002441 0.100338217128 0.0
0.0 2.01340002441 0.100381063802 0.0
0.0 2.01440002441 0.100422007087 0.0
0.0 2.01540002441 0.100468547956 0.0
0.0 2.01640002441 0.10051247134 0.0
0.0 2.01740002441 0.100553360948 0.0
0.0 2.01840002441 0.100597969918 0.0
0.0 2.01940002441 0.100641983699 0.0
0.0 2.02040002441 0.100686544478 0.0
0.0 2.02140002441 0.100735754157 0.0
0.0 2.02240002441 0.100782429838 0.0
0.0 2.02340002441 0.100826507569 0.0
0.0 2.02440002441 0.100876033611 0.0
0.0 2.02540002441 0.100925632492 0.0
0.0 2.02640002441 0.100969132117 0.0
0.0 2.02740002441 0.101022574446 0.0
0.0 2.02840002441 0.101074349999 0.0
0.0 2.02940002441 0.101119143018 0.0
0.0 2.03040002441 0.101174179979 0.0
0.0 2.03140002441 0.101219913137 0.0
0.0 2.03240002441 0.101272154092 0.0
0.0 2.03340002441 0.101321679816 0.0
0.0 2.03440002441 0.101376567582 0.0
0.0 2.03540002441 0.101427434088 0.0
0.0 2.03640002441 0.101480380631 0.0
0.0 2.03740002441 0.101534951716 0.0
0.0 2.03840002441 0.101593409035 0.0
0.0 2.03940002441 0.101646139105 0.0
0.0 2.04040002441 0.10170481397 0.0
0.0 2.04140002441 0.101755587003 0.0
0.0 2.04240002441 0.101813286302 0.0
0.0 2.04340002441 0.101869687141 0.0
0.0 2.04440002441 0.101929974368 0.0
0.0 2.04540002441 0.101984963279 0.0
0.0 2.04640002441 0.102048245307 0.0
0.0 2.04740002441 0.102103238171 0.0
0.0 2.04839990234 0.102163576549 0.0
0.0 2.04939990234 0.1022252788 0.0
0.0 2.05039990234 0.102282634962 0.0
0.0 2.05139990234 0.102343830171 0.0
0.0 2.05239990234 0.102407565909 0.0
0.0 2.05339990234 0.102469277234 0.0
0.0 2.05439990234 0.102534557681 0.0
0.0 2.05539990234 0.102595380677 0.0
0.0 2.05639990234 0.102656017607 0.0
0.0 2.05739990234 0.102723883253 0.0
0.0 2.05839990234 0.102784926267 0.0
0.0 2.05939990234 0.102853187101 0.0
0.0 2.06039990234 0.102922266909 0.0
0.0 2.06139990234 0.102982187948 0.0
0.0 2.06239990234 0.10305121296 0.0
0.0 2.06339990234 0.103118947978 0.0
0.0 2.06439990234 0.103184931075 0.0
0.0 2.06539990234 0.103255857637 0.0
0.0 2.06639990234 0.103329535448 0.0
0.0 2.06739990234 0.103392715041 0.0
0.0 2.06839990234 0.10346072923 0.0
0.0 2.06939990234 0.103537613765 0.0
0.0 2.07039990234 0.103603120536 0.0
0.0 2.07139990234 0.10367587131 0.0
0.0 2.07239990234 0.103745872077 0.0
0.0 2.07339990234 0.103823135184 0.0
0.0 2.07439990234 0.103891363025 0.0
0.0 2.07539990234 0.103968905029 0.0
0.0 2.07639990234 0.104039123674 0.0
0.0 2.07739990234 0.104114178871 0.0
0.0 2.07839990234 0.104188999028 0.0
0.0 2.07939990234 0.104269092426 0.0
0.0 2.08039990234 0.104343594223 0.0
0.0 2.08139990234 0.104419174508 0.0
0.0 2.08239990234 0.104496700104 0.0
0.0 2.08339990234 0.104572965554 0.0
0.0 2.08439990234 0.104655613772 0.0
0.0 2.08539990234 0.10473191295 0.0
0.0 2.08639990234 0.104816923825 0.0
0.0 2.08739990234 0.104890254723 0.0
0.0 2.08839990234 0.104972885298 0.0
0.0 2.08939990234 0.105053383732 0.0
0.0 2.09039990234 0.105133616849 0.0
0.0 2.09139990234 0.105217832532 0.0
0.0 2.09239990234 0.105301106871 0.0
0.0 2.09339990234 0.105381819309 0.0
0.0 2.09439990234 0.105464612218 0.0
0.0 2.09539990234 0.105555029795 0.0
0.0 2.09639990234 0.105633700281 0.0
0.0 2.09739990234 0.10572237578 0.0
0.0 2.09839990234 0.105812059637 0.0
0.0 2.09939990234 0.105891373852 0.0
0.0 2.10039990234 0.105979456566 0.0
0.0 2.10139990234 0.106070560216 0.0
0.0 2.10239990234 0.106154005547 0.0
0.0 2.10339990234 0.106250174799 0.0
0.0 2.10439990234 0.106332069017 0.0
0.0 2.10539990234 0.106425309229 0.0
0.0 2.10639990234 0.106511542538 0.0
0.0 2.10739990234 0.106606613052 0.0
0.0 2.10839990234 0.106693619434 0.0
0.0 2.10939990234 0.106792272654 0.0
0.0 2.11039990234 0.106882643666 0.0
0.0 2.11139990234 0.106978051371 0.0
0.0 2.11239990234 0.107064313733 0.0
0.0 2.11339990234 0.107158792292 0.0
0.0 2.11439990234 0.107265114696 0.0
0.0 2.11539990234 0.107348073183 0.0
0.0 2.11639990234 0.10744375543 0.0
0.0 2.11739990234 0.107540638663 0.0
0.0 2.11839990234 0.107645132896 0.0
0.0 2.11939990234 0.107738396037 0.0
0.0 2.12039990234 0.107831980677 0.0
0.0 2.12139990234 0.107930407426 0.0
0.0 2.12239990234 0.108038131683 0.0
0.0 2.12339990234 0.108136649797 0.0
0.0 2.12439990234 0.108230259928 0.0
0.0 2.12539990234 0.108330380109 0.0
0.0 2.12639990234 0.108436627561 0.0
0.0 2.12739990234 0.108532585637 0.0
0.0 2.12839990234 0.108635583292 0.0
0.0 2.12939990234 0.10874021215 0.0
0.0 2.13039990234 0.108845270311 0.0
0.0 2.13139990234 0.108955243664 0.0
0.0 2.13239990234 0.109049637473 0.0
0.0 2.13339990234 0.109155909867 0.0
0.0 2.13439990234 0.109261962024 0.0
0.0 2.13539990234 0.109368013751 0.0
0.0 2.13639990234 0.109473297118 0.0
0.0 2.13739990234 0.109595708276 0.0
0.0 2.13839990234 0.109697301054 0.0
0.0 2.13939990234 0.1097988528 0.0
0.0 2.14039990234 0.109910699975 0.0
0.0 2.14139990234 0.110024978886 0.0
0.0 2.14239990234 0.110133334004 0.0
0.0 2.14339990234 0.110236493572 0.0
0.0 2.14439990234 0.110347467815 0.0
0.0 2.14539990234 0.110468649161 0.0
0.0 2.14639990234 0.110579017637 0.0
0.0 2.14739990234 0.110689724311 0.0
0.0 2.14839990234 0.110798396834 0.0
0.0 2.14939990234 0.110914225464 0.0
0.0 2.15039990234 0.111026717074 0.0
0.0 2.15139990234 0.111143888081 0.0
0.0 2.15239990234 0.111263783732 0.0
0.0 2.15339990234 0.111378610795 0.0
0.0 2.15439990234 0.111513677474 0.0
0.0 2.15539990234 0.111608311665 0.0
0.0 2.15639990234 0.111726785728 0.0
0.0 2.15739990234 0.111850522187 0.0
0.0 2.15839990234 0.111967055666 0.0
0.0 2.15939990234 0.112088684529 0.0
0.0 2.16039990234 0.112209275662 0.0
0.0 2.16139990234 0.112326424362 0.0
0.0 2.16239990234 0.112447280247 0.0
0.0 2.16339990234 0.11257125896 0.0
0.0 2.16439990234 0.112692833724 0.0
0.0 2.16539990234 0.112823099433 0.0
0.0 2.16639990234 0.112937914411 0.0
0.0 2.16739990234 0.11306907088 0.0
0.0 2.16839990234 0.113187908006 0.0
0.0 2.16939990234 0.113317626293 0.0
0.0 2.17039990234 0.113438778952 0.0
0.0 2.17139990234 0.11356518987 0.0
0.0 2.17239990234 0.113693698866 0.0
0.0 2.17339990234 0.113829534082 0.0
0.0 2.17439990234 0.113949166478 0.0
0.0 2.17539990234 0.114077380116 0.0
0.0 2.17639990234 0.114210824212 0.0
0.0 2.17739990234 0.114340508039 0.0
0.0 2.17839990234 0.114471850111 0.0
0.0 2.17939990234 0.114601244904 0.0
0.0 2.18039990234 0.114733629629 0.0
0.0 2.18139990234 0.114864202287 0.0
0.0 2.18239990234 0.115000345452 0.0
0.0 2.18339990234 0.115139215998 0.0
0.0 2.18439990234 0.115265526006 0.0
0.0 2.18539990234 0.115398405143 0.0
0.0 2.18639990234 0.115535248232 0.0
0.0 2.18739990234 0.115677521838 0.0
0.0 2.18839990234 0.115813061068 0.0
0.0 2.18939990234 0.115943228749 0.0
0.0 2.19039990234 0.116082168004 0.0
0.0 2.19139990234 0.116219712794 0.0
0.0 2.19239990234 0.116357798329 0.0
0.0 2.19339990234 0.116503127237 0.0
0.0 2.19439990234 0.116640941955 0.0
0.0 2.19539990234 0.116783763916 0.0
0.0 2.19639990234 0.116925775436 0.0
0.0 2.19739990234 0.117067572388 0.0
0.0 2.19839990234 0.117203013736 0.0
0.0 2.19939990234 0.117346930166 0.0
0.0 2.20039990234 0.117489465247 0.0
0.0 2.20139990234 0.117639781747 0.0
0.0 2.20239990234 0.117783096403 0.0
0.0 2.20339990234 0.117930928383 0.0
0.0 2.20439990234 0.118073805152 0.0
0.0 2.20539990234 0.118217762468 0.0
0.0 2.20639990234 0.118363015022 0.0
0.0 2.20739990234 0.118512545167 0.0
0.0 2.20839990234 0.118666299752 0.0
0.0 2.20939990234 0.118815396223 0.0
0.0 2.21039990234 0.118957399684 0.0
0.0 2.21139990234 0.119108579499 0.0
0.0 2.21239990234 0.119258033754 0.0
0.0 2.21339990234 0.119412764271 0.0
0.0 2.21439990234 0.119561019916 0.0
0.0 2.21539990234 0.119713455432 0.0
0.0 2.21639990234 0.119870411129 0.0
0.0 2.21739990234 0.120020518211 0.0
0.0 2.21839990234 0.120175118529 0.0
0.0 2.21939990234 0.120330496321 0.0
0.0 2.22039990234 0.12049628796 0.0
0.0 2.22139990234 0.120646100015 0.0
0.0 2.22239990234 0.120799662018 0.0
0.0 2.22339990234 0.120954520997 0.0
0.0 2.22439990234 0.121112359388 0.0
0.0 2.22539990234 0.121273201252 0.0
0.0 2.22639990234 0.12143980008 0.0
0.0 2.22739990234 0.121590179255 0.0
0.0 2.22839990234 0.121750842011 0.0
0.0 2.22939990234 0.121910603723 0.0
0.0 2.23039990234 0.122078937632 0.0
0.0 2.23139990234 0.122245100252 0.0
0.0 2.23239990234 0.122397043964 0.0
0.0 2.23339990234 0.122560092116 0.0
0.0 2.23439990234 0.122729071967 0.0
0.0 2.23539990234 0.12289058636 0.0
0.0 2.23639990234 0.123053583656 0.0
0.0 2.23739990234 0.12322149427 0.0
0.0 2.23839990234 0.123399553917 0.0
0.0 2.23939990234 0.123565895986 0.0
0.0 2.24039990234 0.123720098422 0.0
0.0 2.24139990234 0.123901024245 0.0
0.0 2.24239990234 0.124066765372 0.0
0.0 2.24339990234 0.124231449943 0.0
0.0 2.24439990234 0.124396386635 0.0
0.0 2.24539990234 0.124572269941 0.0
0.0 2.24639990234 0.12474961007 0.0
0.0 2.24739990234 0.124912747364 0.0
0.0 2.24839990234 0.125082480357 0.0
0.0 2.24939990234 0.125262714835 0.0
0.0 2.25039990234 0.125435369359 0.0
0.0 2.25139990234 0.125606540454 0.0
0.0 2.25239990234 0.125786368746 0.0
0.0 2.25339990234 0.12596625052 0.0
0.0 2.25439990234 0.126130076411 0.0
0.0 2.25539990234 0.126318660895 0.0
0.0 2.25639990234 0.126499686941 0.0
0.0 2.25739990234 0.126663597406 0.0
0.0 2.25839990234 0.126841458187 0.0
0.0 2.25939990234 0.127031112318 0.0
0.0 2.26039990234 0.127199915221 0.0
0.0 2.26139990234 0.127394191555 0.0
0.0 2.26239990234 0.127564579107 0.0
0.0 2.26339990234 0.127751450364 0.0
0.0 2.26439990234 0.127939044279 0.0
0.0 2.26539990234 0.128119517334 0.0
0.0 2.26639990234 0.128296320102 0.0
0.0 2.26739990234 0.128478350896 0.0
0.0 2.26839990234 0.128680260998 0.0
0.0 2.26939990234 0.128846615329 0.0
0.0 2.27039990234 0.129038869268 0.0
0.0 2.27139990234 0.12922418487 0.0
0.0 2.27239990234 0.129409712487 0.0
0.0 2.27339990234 0.12960736077 0.0
0.0 2.27439990234 0.129784924548 0.0
0.0 2.27539990234 0.129973629713 0.0
0.0 2.27639990234 0.130177451262 0.0
0.0 2.27739990234 0.130370324056 0.0
0.0 2.27839990234 0.130548270838 0.0
0.0 2.27939990234 0.130737976687 0.0
0.0 2.28039990234 0.130938641142 0.0
0.0 2.28139990234 0.131127452418 0.0
0.0 2.28239990234 0.131315720872 0.0
0.0 2.28339990234 0.131511004503 0.0
0.0 2.28439990234 0.131703862352 0.0
0.0 2.28539990234 0.131900319912 0.0
0.0 2.28639990234 0.132096778671 0.0
0.0 2.28739990234 0.132294230771 0.0
0.0 2.28839990234 0.13249070817 0.0
0.0 2.28939990234 0.132688293401 0.0
0.0 2.29039990234 0.132890515409 0.0
0.0 2.29139990234 0.133093622124 0.0
0.0 2.29239990234 0.133287981137 0.0
0.0 2.29339990234 0.133486882569 0.0
0.0 2.29439990234 0.133687699869 0.0
0.0 2.29539990234 0.133896106915 0.0
0.0 2.29639990234 0.134093312295 0.0
0.0 2.29739990234 0.134297732871 0.0
0.0 2.29839990234 0.134502196261 0.0
0.0 2.29939990234 0.134709274618 0.0
0.0 2.30039990234 0.134911105795 0.0
0.0 2.30139990234 0.135119034288 0.0
0.0 2.30239990234 0.13532642552 0.0
0.0 2.30339990234 0.135529370862 0.0
0.0 2.30439990234 0.135736165869 0.0
0.0 2.30539990234 0.135944057359 0.0
0.0 2.30639990234 0.136154413925 0.0
0.0 2.30739990234 0.136365707875 0.0
0.0 2.30839990234 0.136577800377 0.0
0.0 2.30939990234 0.136783562514 0.0
0.0 2.31039990234 0.1370009229 0.0
0.0 2.31139990234 0.137211153101 0.0
0.0 2.31239990234 0.137422142937 0.0
0.0 2.31339990234 0.137633145119 0.0
0.0 2.31439990234 0.137848329711 0.0
0.0 2.31539990234 0.138067879667 0.0
0.0 2.31639990234 0.138280705955 0.0
0.0 2.31739990234 0.138495963612 0.0
0.0 2.31839990234 0.138710124704 0.0
0.0 2.31939990234 0.13893131634 0.0
0.0 2.32039990234 0.139150605902 0.0
0.0 2.32139990234 0.139364107466 0.0
0.0 2.32239990234 0.1395855488 0.0
0.0 2.32339990234 0.139804083081 0.0
0.0 2.32439990234 0.140024505212 0.0
0.0 2.32539990234 0.140246829731 0.0
0.0 2.32639990234 0.140469532011 0.0
0.0 2.32739990234 0.140691568221 0.0
0.0 2.32839990234 0.140914204449 0.0
0.0 2.32939990234 0.141138883019 0.0
0.0 2.33039990234 0.14136313004 0.0
0.0 2.33139990234 0.141587098598 0.0
0.0 2.33239990234 0.141812548598 0.0
0.0 2.33339990234 0.142040663745 0.0
0.0 2.33439990234 0.142267220217 0.0
0.0 2.33539990234 0.142494085011 0.0
0.0 2.33639990234 0.142722788794 0.0
0.0 2.33739990234 0.142953298563 0.0
0.0 2.33839990234 0.14318403538 0.0
0.0 2.33939990234 0.143412074977 0.0
0.0 2.34039990234 0.143644561433 0.0
0.0 2.34139990234 0.143875317767 0.0
0.0 2.34239990234 0.14410895326 0.0
0.0 2.34339990234 0.144339994499 0.0
0.0 2.34439990234 0.144575100769 0.0
0.0 2.34539990234 0.144809248843 0.0
0.0 2.34639990234 0.145043764189 0.0
0.0 2.34739990234 0.145279034065 0.0
0.0 2.34839990234 0.145516682969 0.0
0.0 2.34939990234 0.145754463854 0.0
0.0 2.35039990234 0.1459915058 0.0
0.0 2.35139990234 0.146229144478 0.0
0.0 2.35239990234 0.146469256559 0.0
0.0 2.35339990234 0.146708666023 0.0
0.0 2.35439990234 0.146949469209 0.0
0.0 2.35539990234 0.147189215638 0.0
0.0 2.35639990234 0.147432239458 0.0
0.0 2.35739990234 0.147673527205 0.0
0.0 2.35839990234 0.14791752322 0.0
0.0 2.35939990234 0.148160425711 0.0
0.0 2.36039990234 0.148405389792 0.0
0.0 2.36139990234 0.148650271668 0.0
0.0 2.36239990234 0.148896243622 0.0
0.0 2.36339990234 0.1491425719 0.0
0.0 2.36439990234 0.149389356888 0.0
0.0 2.36539990234 0.149637316963 0.0
0.0 2.36639990234 0.149885149791 0.0
0.0 2.36739990234 0.150134543441 0.0
0.0 2.36839990234 0.150384132742 0.0
0.0 2.36939990234 0.150634582704 0.0
0.0 2.37039990234 0.150886041293 0.0
0.0 2.37139990234 0.151137513959 0.0
0.0 2.37239990234 0.151390403977 0.0
0.0 2.37339990234 0.151643042906 0.0
0.0 2.37439990234 0.151897230081 0.0
0.0 2.37539990234 0.152151609365 0.0
0.0 2.37639990234 0.152406864108 0.0
0.0 2.37739990234 0.152662830738 0.0
0.0 2.37839990234 0.15291933969 0.0
0.0 2.37939990234 0.153176727429 0.0
0.0 2.38039990234 0.186620778903 0.0
0.0 2.38139990234 0.264249029991 0.0
0.0 2.38239990234 0.334468883688 0.0
0.0 2.38339990234 0.39798754845 0.0
0.0 2.38439990234 0.455444471607 0.0
0.0 2.38539990234 0.507418284579 0.0
0.0 2.38639990234 0.554431716428 0.0
0.0 2.38739990234 0.596958440137 0.0
0.0 2.38839990234 0.635426595293 0.0
0.0 2.38939990234 0.670223468533 0.0
0.0 2.39039990234 0.701699454154 0.0
0.0 2.39139990234 0.730171392589 0.0
0.0 2.39239990234 0.755926001988 0.0
0.0 2.39339990234 0.779222601647 0.0
0.0 2.39439990234 0.80029571778 0.0
0.0 2.39539990234 0.819357642789 0.0
0.0 2.39639990234 0.836600141849 0.0
0.0 2.39739990234 0.85219706231 0.0
0.0 2.39839990234 0.866305298499 0.0
0.0 2.39939990234 0.879066937301 0.0
0.0 2.40039990234 0.890610559047 0.0
0.0 2.40139990234 0.901052380606 0.0
0.0 2.40239990234 0.910497569212 0.0
0.0 2.40339990234 0.919041239351 0.0
0.0 2.40439990234 0.926769377991 0.0
0.0 2.40539990234 0.933759901168 0.0
0.0 2.40639990234 0.940083152295 0.0
0.0 2.40739990234 0.945802850349 0.0
0.0 2.40839990234 0.950976590479 0.0
0.0 2.40939990234 0.95565647964 0.0
0.0 2.41039990234 0.959889640499 0.0
0.0 2.41139990234 0.963718733509 0.0
0.0 2.41239990234 0.96718232507 0.0
0.0 2.41339990234 0.970315279217 0.0
0.0 2.41439990234 0.973149176337 0.0
0.0 2.41539990234 0.975712554169 0.0
0.0 2.41639990234 0.978031233933 0.0
0.0 2.41739990234 0.980128572257 0.0
0.0 2.41839990234 0.982025697526 0.0
0.0 2.41939990234 0.983741719906 0.0
0.0 2.42039990234 0.985293923173 0.0
0.0 2.42139990234 0.986697949668 0.0
0.0 2.42239990234 0.987967940443 0.0
0.0 2.42339990234 0.989116693411 0.0
0.0 2.42439990234 0.990155779444 0.0
0.0 2.42539990234 0.991095665199 0.0
0.0 2.42639990234 0.991945823574 0.0
0.0 2.42739990234 0.992714818954 0.0
0.0 2.42839990234 0.993410397812 0.0
0.0 2.42939990234 0.994039570112 0.0
0.0 2.43039990234 0.994608673834 0.0
0.0 2.43139990234 0.995123444133 0.0
0.0 2.43239990234 0.995589068917 0.0
0.0 2.43339990234 0.996010237081 0.0
0.0 2.43439990234 0.996391195373 0.0
0.0 2.43539990234 0.996735781512 0.0
0.0 2.43639990234 0.99704746771 0.0
0.0 2.43739990234 0.997329394588 0.0
0.0 2.43839990234 0.997584403942 0.0
0.0 2.43939990234 0.997815065475 0.0
0.0 2.44039990234 0.99802370306 0.0
0.0 2.44139990234 0.998212419875 0.0
0.0 2.44239990234 0.998383117675 0.0
0.0 2.44339990234 0.998537516843 0.0
0.0 2.44439990234 0.998677173553 0.0
0.0 2.44539990234 0.998803495173 0.0
0.0 2.44639990234 0.99891775488 0.0
0.0 2.44739990234 0.999021104503 0.0
0.0 2.44839990234 0.999114585536 0.0
0.0 2.44939990234 0.999199140195 0.0
0.0 2.45039990234 0.999275620904 0.0
0.0 2.45139990234 0.999344798504 0.0
0.0 2.45239990234 0.999407370249 0.0
0.0 2.45339990234 0.999463966956 0.0
0.0 2.45439990234 0.999515159157 0.0
0.0 2.45539990234 0.999561462843 0.0
0.0 2.45639990234 0.999603344736 0.0
0.0 2.45739990234 0.999641227135 0.0
0.0 2.45839990234 0.999675491956 0.0
0.0 2.45939990234 0.999706484549 0.0
0.0 2.46039990234 0.999734517433 0.0
0.0 2.46139990234 0.99975987323 0.0
0.0 2.46239990234 0.999782807577 0.0
0.0 2.46339990234 0.999803551655 0.0
0.0 2.46439990234 0.999822314644 0.0
0.0 2.46539990234 0.999839285741 0.0
0.0 2.46639990234 0.999854636045 0.0
0.0 2.46739990234 0.999868520294 0.0
0.0 2.46839990234 0.99988107856 0.0
0.0 2.46939990234 0.999892437436 0.0
0.0 2.47039990234 0.999902711456 0.0
0.0 2.47139990234 0.999912004225 0.0
0.0 2.47239990234 0.999920409451 0.0
0.0 2.47339990234 0.999928011912 0.0
0.0 2.47439990234 0.999934888239 0.0
0.0 2.47539990234 0.99994110781 0.0
0.0 2.47639990234 0.999946733328 0.0
0.0 2.47739990234 0.999951821534 0.0
0.0 2.47839990234 0.999956423754 0.0
0.0 2.47939990234 0.999960586378 0.0
0.0 2.48039990234 0.999964351416 0.0
0.0 2.48139990234 0.999967756816 0.0
0.0 2.48239990234 0.999970836946 0.0
0.0 2.48339990234 0.999973622863 0.0
0.0 2.48439990234 0.999976142675 0.0
0.0 2.48539990234 0.999978421784 0.0
0.0 2.48639990234 0.999980483193 0.0
0.0 2.48739990234 0.999982347693 0.0
0.0 2.48839990234 0.999984034084 0.0
0.0 2.48939990234 0.999985559386 0.0
0.0 2.49039990234 0.999986938979 0.0
0.0 2.49139990234 0.99998818679 0.0
0.0 2.49239990234 0.999989315394 0.0
0.0 2.49339990234 0.999990336188 0.0
0.0 2.49439990234 0.999991259467 0.0
0.0 2.49539990234 0.999992094542 0.0
0.0 2.49639990234 0.999992849844 0.0
0.0 2.49739990234 0.999993532987 0.0
0.0 2.49839990234 0.99999415087 0.0
0.0 2.49939990234 0.999994709722 0.0
0.0 2.50039990234 0.999995215186 0.0
0.0 2.50139990234 0.999995672357 0.0
0.0 2.50239990234 0.999996085853 0.0
0.0 2.50339990234 0.999996459845 0.0
0.0 2.50439990234 0.999996798105 0.0
0.0 2.50539990234 0.999997104047 0.0
0.0 2.50639990234 0.999997380761 0.0
0.0 2.50739990234 0.999997631035 0.0
0.0 2.50839990234 0.999997857398 0.0
0.0 2.50939990234 0.999998062134 0.0
0.0 2.51039990234 0.999998247308 0.0
0.0 2.51139990234 0.999998414789 0.0
0.0 2.51239990234 0.999998566268 0.0
0.0 2.51339990234 0.999998703273 0.0
0.0 2.51439990234 0.999998827188 0.0
0.0 2.51539990234 0.999998939263 0.0
0.0 2.51639990234 0.999999040628 0.0
0.0 2.51739990234 0.999999132308 0.0
0.0 2.51839990234 0.999999215228 0.0
0.0 2.51939990234 0.999999290225 0.0
0.0 2.52039990234 0.999999358055 0.0
0.0 2.52139990234 0.999999419404 0.0
0.0 2.52239990234 0.99999947489 0.0
0.0 2.52339990234 0.999999525074 0.0
0.0 2.52439990234 0.999999570463 0.0
0.0 2.52539990234 0.999999611514 0.0
0.0 2.52639990234 0.999999648642 0.0
0.0 2.52739990234 0.999999682222 0.0
0.0 2.52839990234 0.999999712594 0.0
0.0 2.52939990234 0.999999740063 0.0
0.0 2.53039990234 0.999999764906 0.0
0.0 2.53139990234 0.999999787376 0.0
0.0 2.53239990234 0.999999807698 0.0
0.0 2.53339990234 0.999999826078 0.0
0.0 2.53439990234 0.999999842702 0.0
0.0 2.53539990234 0.999999857736 0.0
0.0 2.53639990234 0.999999871334 0.0
0.0 2.53739990234 0.999999883633 0.0
0.0 2.53839990234 0.999999894756 0.0
0.0 2.53939990234 0.999999904815 0.0
0.0 2.54039990234 0.999999913914 0.0
0.0 2.54139990234 0.999999922143 0.0
0.0 2.54239990234 0.999999929585 0.0
0.0 2.54339990234 0.999999936316 0.0
0.0 2.54439990234 0.999999942403 0.0
0.0 2.54539990234 0.999999947909 0.0
0.0 2.54639990234 0.999999952889 0.0
0.0 2.54739990234 0.999999957392 0.0
0.0 2.54839990234 0.999999961465 0.0
0.0 2.54939990234 0.999999965149 0.0
0.0 2.55039990234 0.999999968481 0.0
0.0 2.55139990234 0.999999971494 0.0
0.0 2.55239990234 0.999999974219 0.0
0.0 2.55339990234 0.999999976684 0.0
0.0 2.55439990234 0.999999978913 0.0
0.0 2.55539990234 0.999999980929 0.0
0.0 2.55639990234 0.999999982752 0.0
0.0 2.55739990234 0.999999984401 0.0
0.0 2.55839990234 0.999999985892 0.0
0.0 2.55939990234 0.999999987241 0.0
0.0 2.56039990234 0.999999988461 0.0
0.0 2.56139990234 0.999999989564 0.0
0.0 2.56239990234 0.999999990562 0.0
0.0 2.56339990234 0.999999991464 0.0
0.0 2.56439990234 0.999999992281 0.0
0.0 2.56539990234 0.999999993019 0.0
0.0 2.56639990234 0.999999993686 0.0
0.0 2.56739990234 0.99999999429 0.0
0.0 2.56839990234 0.999999994836 0.0
0.0 2.56939990234 0.99999999533 0.0
0.0 2.57039990234 0.999999995776 0.0
0.0 2.57139990234 0.99999999618 0.0
0.0 2.57239990234 0.999999996545 0.0
0.0 2.57339990234 0.999999996876 0.0
0.0 2.57439990234 0.999999997174 0.0
0.0 2.57539990234 0.999999997445 0.0
0.0 2.57639990234 0.999999997689 0.0
0.0 2.57739990234 0.99999999791 0.0
0.0 2.57839990234 0.99999999811 0.0
0.0 2.57939990234 0.999999998291 0.0
0.0 2.58039990234 0.999999998454 0.0
0.0 2.58139990234 0.999999998602 0.0
0.0 2.58239990234 0.999999998736 0.0
0.0 2.58339990234 0.999999998857 0.0
0.0 2.58439990234 0.999999998966 0.0
0.0 2.58539990234 0.999999999065 0.0
0.0 2.58639990234 0.999999999154 0.0
0.0 2.58739990234 0.999999999235 0.0
0.0 2.58839990234 0.999999999308 0.0
0.0 2.58939990234 0.999999999374 0.0
0.0 2.59039990234 0.999999999434 0.0
0.0 2.59139990234 0.999999999488 0.0
0.0 2.59239990234 0.999999999537 0.0
0.0 2.59339990234 0.999999999582 0.0
0.0 2.59439990234 0.999999999622 0.0
0.0 2.59539990234 0.999999999658 0.0
0.0 2.59639990234 0.999999999691 0.0
0.0 2.59739990234 0.99999999972 0.0
0.0 2.59839990234 0.999999999747 0.0
0.0 2.59939990234 0.999999999771 0.0
0.0 2.60039990234 0.999999999793 0.0
