0.0 0.551900024414 0.309103428232 0.0
0.0 0.552900024414 0.30895393942 0.0
0.0 0.553900024414 0.308804216011 0.0
0.0 0.554900024414 0.308654258506 0.0
0.0 0.555900024414 0.308504067405 0.0
0.0 0.556900024414 0.308353643211 0.0
0.0 0.557900024414 0.308202986424 0.0
0.0 0.558900024414 0.308052097544 0.0
0.0 0.559900024414 0.307900977073 0.0
0.0 0.560900024414 0.307749625514 0.0
0.0 0.561900024414 0.307598043364 0.0
0.0 0.562900024414 0.307446231126 0.0
0.0 0.563900024414 0.307294189301 0.0
0.0 0.564900024414 0.30714191839 0.0
0.0 0.565900024414 0.306989418894 0.0
0.0 0.566900024414 0.306836693552 0.0
0.0 0.567900024414 0.306683736346 0.0
0.0 0.568900024414 0.306530553905 0.0
0.0 0.569900024414 0.306377145533 0.0
0.0 0.570900024414 0.306223510172 0.0
0.0 0.571900024414 0.30606965016 0.0
0.0 0.572900024414 0.305915565222 0.0
0.0 0.573900024414 0.305761253983 0.0
0.0 0.574900024414 0.305606719801 0.0
0.0 0.575900024414 0.305451961974 0.0
0.0 0.576900024414 0.305296981108 0.0
0.0 0.577900024414 0.305141778063 0.0
0.0 0.578900024414 0.304986352158 0.0
0.0 0.579900024414 0.304830705076 0.0
0.0 0.580900024414 0.304674836925 0.0
0.0 0.581900024414 0.304518748203 0.0
0.0 0.582900024414 0.304362439415 0.0
0.0 0.583900024414 0.304205911058 0.0
0.0 0.584900024414 0.304049163636 0.0
0.0 0.585900024414 0.303892197648 0.0
0.0 0.586900024414 0.303735013597 0.0
0.0 0.587900024414 0.303577611982 0.0
0.0 0.588900024414 0.303419993305 0.0
0.0 0.589900024414 0.303262158068 0.0
0.0 0.590900024414 0.30310410677 0.0
0.0 0.591900024414 0.302945839912 0.0
0.0 0.592900024414 0.302787359839 0.0
0.0 0.593900024414 0.302628661524 0.0
0.0 0.594900024414 0.302469750995 0.0
0.0 0.595900024414 0.302310626915 0.0
0.0 0.596900024414 0.302151293722 0.0
0.0 0.597900024414 0.301991743855 0.0
0.0 0.598900024414 0.301831978341 0.0
0.0 0.599900024414 0.301672005047 0.0
0.0 0.600900024414 0.301511820703 0.0
0.0 0.601900024414 0.301351425809 0.0
0.0 0.602900024414 0.301190820869 0.0
0.0 0.603900024414 0.30103000638 0.0
0.0 0.604900024414 0.300868985086 0.0
0.0 0.605900024414 0.300707750766 0.0
0.0 0.606900024414 0.300546310643 0.0
0.0 0.607900024414 0.300384668483 0.0
0.0 0.608900024414 0.300222808268 0.0
0.0 0.609900024414 0.300060747018 0.0
0.0 0.610900024414 0.299898479728 0.0
0.0 0.611900024414 0.299736006899 0.0
0.0 0.612900024414 0.299573329031 0.0
0.0 0.613900024414 0.299410449915 0.0
0.0 0.614900024414 0.299247360188 0.0
0.0 0.615900024414 0.299084070212 0.0
0.0 0.616900024414 0.298920577203 0.0
0.0 0.617900024414 0.29875688166 0.0
0.0 0.618900024414 0.298592985222 0.0
0.0 0.619900024414 0.298428892328 0.0
0.0 0.620900024414 0.298264584844 0.0
0.0 0.621900024414 0.298100084179 0.0
0.0 0.622900024414 0.297935383486 0.0
0.0 0.623900024414 0.297770483266 0.0
0.0 0.624900024414 0.29760538402 0.0
0.0 0.625900024414 0.297440086249 0.0
0.0 0.626900024414 0.297274590454 0.0
0.0 0.627900024414 0.297108898517 0.0
0.0 0.628900024414 0.296943007064 0.0
0.0 0.629900024414 0.296776920186 0.0
0.0 0.630900024414 0.296610639874 0.0
0.0 0.631900024414 0.29644415865 0.0
0.0 0.632900024414 0.296277498274 0.0
0.0 0.633900024414 0.296110617296 0.0
0.0 0.634900024414 0.295943555344 0.0
0.0 0.635900024414 0.295776299877 0.0
0.0 0.636900024414 0.295608863397 0.0
0.0 0.637900024414 0.295441210401 0.0
0.0 0.638900024414 0.295273404371 0.0
0.0 0.639900024414 0.295105366054 0.0
0.0 0.640900024414 0.29493713735 0.0
0.0 0.641900024414 0.294768738552 0.0
0.0 0.642900024414 0.294600135268 0.0
0.0 0.643900024414 0.294431349716 0.0
0.0 0.644900024414 0.294262408897 0.0
0.0 0.645900024414 0.294093234383 0.0
0.0 0.646900024414 0.293923868486 0.0
0.0 0.647900024414 0.293754322458 0.0
0.0 0.648900024414 0.29358463602 0.0
0.0 0.649900024414 0.293414701482 0.0
0.0 0.650900024414 0.293244597481 0.0
0.0 0.651900024414 0.293074309353 0.0
0.0 0.652900024414 0.292903840784 0.0
0.0 0.653900024414 0.292733190535 0.0
0.0 0.654900024414 0.292562369128 0.0
0.0 0.655900024414 0.292391348126 0.0
0.0 0.656900024414 0.292220133964 0.0
0.0 0.657900024414 0.292048734306 0.0
0.0 0.658900024414 0.29187716975 0.0
0.0 0.659900024414 0.291705432792 0.0
0.0 0.660900024414 0.291533547205 0.0
0.0 0.661900024414 0.291361391295 0.0
0.0 0.662900024414 0.291189084214 0.0
0.0 0.663900024414 0.291016636944 0.0
0.0 0.664900024414 0.290843989487 0.0
0.0 0.665900024414 0.290671157341 0.0
0.0 0.666900024414 0.290498185531 0.0
0.0 0.667900024414 0.290324958454 0.0
0.0 0.668900024414 0.290151641424 0.0
0.0 0.669900024414 0.289978054411 0.0
0.0 0.670900024414 0.28980433679 0.0
0.0 0.671900024414 0.289630448447 0.0
0.0 0.672900024414 0.289456394028 0.0
0.0 0.673900024414 0.289282165385 0.0
0.0 0.674900024414 0.289107770893 0.0
0.0 0.675900024414 0.288933150298 0.0
0.0 0.676900024414 0.288758403975 0.0
0.0 0.677900024414 0.288583480789 0.0
0.0 0.678900024414 0.288408360025 0.0
0.0 0.679900024414 0.288233091167 0.0
0.0 0.680900024414 0.288057662994 0.0
0.0 0.681900024414 0.287882023873 0.0
0.0 0.682900024414 0.287706238324 0.0
0.0 0.683900024414 0.287530284604 0.0
0.0 0.684900024414 0.287354188795 0.0
0.0 0.685900024414 0.28717786688 0.0
0.0 0.686900024414 0.287001406471 0.0
0.0 0.687900024414 0.286824778597 0.0
0.0 0.688900024414 0.286647985457 0.0
0.0 0.689900024414 0.286471022464 0.0
0.0 0.690900024414 0.286293918473 0.0
0.0 0.691900024414 0.286116621056 0.0
0.0 0.692900024414 0.2859391734 0.0
0.0 0.693900024414 0.285761568975 0.0
0.0 0.694900024414 0.285583736598 0.0
0.0 0.695900024414 0.285405807436 0.0
0.0 0.696900024414 0.285227680316 0.0
0.0 0.697900024414 0.285049421729 0.0
0.0 0.698900024414 0.284870962707 0.0
0.0 0.699900024414 0.284692380563 0.0
0.0 0.700900024414 0.284513614258 0.0
0.0 0.701900024414 0.284334692693 0.0
0.0 0.702900024414 0.28415560932 0.0
0.0 0.703900024414 0.283976366453 0.0
0.0 0.704900024414 0.283797011616 0.0
0.0 0.705900024414 0.283617413573 0.0
0.0 0.706900024414 0.283437761003 0.0
0.0 0.707900024414 0.283257825413 0.0
0.0 0.708900024414 0.283077815548 0.0
0.0 0.709900024414 0.282897621211 0.0
0.0 0.710900024414 0.282717269988 0.0
0.0 0.711900024414 0.282536788714 0.0
0.0 0.712900024414 0.282356121674 0.0
0.0 0.713900024414 0.282175341745 0.0
0.0 0.714900024414 0.281994355612 0.0
0.0 0.715900024414 0.281813242178 0.0
0.0 0.716900024414 0.281632007406 0.0
0.0 0.717900024414 0.281450581202 0.0
0.0 0.718900024414 0.281268988092 0.0
0.0 0.719900024414 0.281087270261 0.0
0.0 0.720900024414 0.280905391015 0.0
0.0 0.721900024414 0.280723367492 0.0
0.0 0.722900024414 0.280541196548 0.0
0.0 0.723900024414 0.280358890689 0.0
0.0 0.724900024414 0.280176438466 0.0
0.0 0.725900024414 0.279993779126 0.0
0.0 0.726900024414 0.279811010972 0.0
0.0 0.727900024414 0.279628095395 0.0
0.0 0.728900024414 0.279445085294 0.0
0.0 0.729900024414 0.279261831505 0.0
0.0 0.730900024414 0.279078551425 0.0
0.0 0.731900024414 0.278894979767 0.0
0.0 0.732900024414 0.27871137439 0.0
0.0 0.733900024414 0.278527547397 0.0
0.0 0.734900024414 0.278343633187 0.0
0.0 0.735900024414 0.278159539594 0.0
0.0 0.736900024414 0.277975308237 0.0
0.0 0.737900024414 0.277790941573 0.0
0.0 0.738900024414 0.277606452762 0.0
0.0 0.739900024414 0.277421868405 0.0
0.0 0.740900024414 0.277237005344 0.0
0.0 0.741900024414 0.277052149736 0.0
0.0 0.742900024414 0.276867036148 0.0
0.0 0.743900024414 0.276681805435 0.0
0.0 0.744900024414 0.276496486346 0.0
0.0 0.745900024414 0.276310994911 0.0
0.0 0.746900024414 0.276125407634 0.0
0.0 0.747900024414 0.275939596541 0.0
0.0 0.748900024414 0.275753717571 0.0
0.0 0.749900024414 0.275567693028 0.0
0.0 0.750900024414 0.275381568858 0.0
0.0 0.751900024414 0.275195238749 0.0
0.0 0.752900024414 0.275008758885 0.0
0.0 0.753900024414 0.274822186158 0.0
0.0 0.754900024414 0.27463553644 0.0
0.0 0.755900024414 0.274448680186 0.0
0.0 0.756900024414 0.274261711111 0.0
0.0 0.757900024414 0.27407459055 0.0
0.0 0.758900024414 0.273887345893 0.0
0.0 0.759900024414 0.273699987966 0.0
0.0 0.760900024414 0.273512456037 0.0
0.0 0.761900024414 0.27332482628 0.0
0.0 0.762900024414 0.273137118025 0.0
0.0 0.763900024414 0.272949204534 0.0
0.0 0.764900024414 0.272761176727 0.0
0.0 0.765900024414 0.272573049953 0.0
0.0 0.766900024414 0.272384777043 0.0
0.0 0.767900024414 0.272196349205 0.0
0.0 0.768900024414 0.272007835689 0.0
0.0 0.769900024414 0.271819153345 0.0
0.0 0.770900024414 0.271630372521 0.0
0.0 0.771900024414 0.271441466318 0.0
0.0 0.772900024414 0.271252459966 0.0
0.0 0.773900024414 0.271063279778 0.0
0.0 0.774900024414 0.270874000444 0.0
0.0 0.775900024414 0.270684597734 0.0
0.0 0.776900024414 0.270495099852 0.0
0.0 0.777900024414 0.270305443972 0.0
0.0 0.778900024414 0.270115654365 0.0
0.0 0.779900024414 0.269925825046 0.0
0.0 0.780900024414 0.269735758744 0.0
0.0 0.781900024414 0.269545626717 0.0
0.0 0.782900024414 0.269355366349 0.0
0.0 0.783900024414 0.269165056272 0.0
0.0 0.784900024414 0.268974534683 0.0
0.0 0.785900024414 0.268783895229 0.0
0.0 0.786900024414 0.268593200188 0.0
0.0 0.787900024414 0.268402372173 0.0
0.0 0.788900024414 0.268211381149 0.0
0.0 0.789900024414 0.268020286247 0.0
0.0 0.790900024414 0.267829124117 0.0
0.0 0.791900024414 0.267637900469 0.0
0.0 0.792900024414 0.267446360753 0.0
0.0 0.793900024414 0.267254828652 0.0
0.0 0.794900024414 0.267063171316 0.0
0.0 0.795900024414 0.266871417416 0.0
0.0 0.796900024414 0.266679576601 0.0
0.0 0.797900024414 0.266487618382 0.0
0.0 0.798900024414 0.266295436192 0.0
0.0 0.799900024414 0.266103273712 0.0
0.0 0.800900024414 0.265910916499 0.0
0.0 0.801900024414 0.265718494108 0.0
0.0 0.802900024414 0.265525955844 0.0
0.0 0.803900024414 0.265333300256 0.0
0.0 0.804900024414 0.265140537395 0.0
0.0 0.805900024414 0.264947634324 0.0
0.0 0.806900024414 0.264754670553 0.0
0.0 0.807900024414 0.264561567567 0.0
0.0 0.808900024414 0.264368379716 0.0
0.0 0.809900024414 0.264175135583 0.0
0.0 0.810900024414 0.263981680685 0.0
0.0 0.811900024414 0.263788211265 0.0
0.0 0.812900024414 0.263594551801 0.0
0.0 0.813900024414 0.26340088173 0.0
0.0 0.814900024414 0.263207000155 0.0
0.0 0.815900024414 0.263013109154 0.0
0.0 0.816900024414 0.262819077041 0.0
0.0 0.817900024414 0.262624978324 0.0
0.0 0.818900024414 0.262430679269 0.0
0.0 0.819900024414 0.262236376404 0.0
0.0 0.820900024414 0.262041926607 0.0
0.0 0.821900024414 0.261847383276 0.0
0.0 0.822900024414 0.261652741344 0.0
0.0 0.823900024414 0.261457998175 0.0
0.0 0.824900024414 0.261263168722 0.0
0.0 0.825900024414 0.261068283522 0.0
0.0 0.826900024414 0.260873200609 0.0
0.0 0.827900024414 0.260678073776 0.0
0.0 0.828900024414 0.260482874438 0.0
0.0 0.829900024414 0.260287569087 0.0
0.0 0.830900024414 0.260092118099 0.0
0.0 0.831900024414 0.259896598217 0.0
0.0 0.832900024414 0.259701002465 0.0
0.0 0.833900024414 0.259505328133 0.0
0.0 0.834900024414 0.259309523072 0.0
0.0 0.835900024414 0.259113658922 0.0
0.0 0.836900024414 0.258917695339 0.0
0.0 0.837900024414 0.258721600695 0.0
0.0 0.838900024414 0.258525435351 0.0
0.0 0.839900024414 0.258329197238 0.0
0.0 0.840900024414 0.258132828371 0.0
0.0 0.841900024414 0.257936373154 0.0
0.0 0.842900024414 0.25773991164 0.0
0.0 0.843900024414 0.257543284966 0.0
0.0 0.844900024414 0.257346652251 0.0
0.0 0.845900024414 0.257149890947 0.0
0.0 0.846900024414 0.256953020828 0.0
0.0 0.847900024414 0.256756107454 0.0
0.0 0.848900024414 0.256559014775 0.0
0.0 0.849900024414 0.256361883676 0.0
0.0 0.850900024414 0.256164540755 0.0
0.0 0.851900024414 0.255967173068 0.0
0.0 0.852900024414 0.255769775288 0.0
0.0 0.853900024414 0.25557223373 0.0
0.0 0.854900024414 0.25537468792 0.0
0.0 0.855900024414 0.255177042178 0.0
0.0 0.856900024414 0.25497929612 0.0
0.0 0.857900024414 0.254781467415 0.0
0.0 0.858900024414 0.254583653388 0.0
0.0 0.859900024414 0.254385606457 0.0
0.0 0.860900024414 0.254187534975 0.0
0.0 0.861900024414 0.253989416581 0.0
0.0 0.862900024414 0.253791197178 0.0
0.0 0.863900024414 0.25359288065 0.0
0.0 0.864900024414 0.253394506288 0.0
0.0 0.865900024414 0.253196048473 0.0
0.0 0.866900024414 0.252997515817 0.0
0.0 0.867900024414 0.252798905877 0.0
0.0 0.868900024414 0.252600219156 0.0
0.0 0.869900024414 0.252401503197 0.0
0.0 0.870900024414 0.252202617371 0.0
0.0 0.871900024414 0.252003708874 0.0
0.0 0.872900024414 0.251804716197 0.0
0.0 0.873900024414 0.251605681605 0.0
0.0 0.874900024414 0.251406514458 0.0
0.0 0.875900024414 0.251207330454 0.0
0.0 0.876900024414 0.251008204922 0.0
0.0 0.877900024414 0.250808666132 0.0
0.0 0.878900024414 0.250609282475 0.0
0.0 0.879900024414 0.250409740886 0.0
0.0 0.880900024414 0.250210171857 0.0
0.0 0.881900024414 0.250010761654 0.0
0.0 0.882900024414 0.249810976047 0.0
0.0 0.883900024414 0.24961104516 0.0
0.0 0.884900024414 0.24941121157 0.0
0.0 0.885900024414 0.249211308227 0.0
0.0 0.886900024414 0.249011539587 0.0
0.0 0.887900024414 0.248811764754 0.0
0.0 0.888900024414 0.248611132024 0.0
0.0 0.889900024414 0.24841154849 0.0
0.0 0.890900024414 0.248210699435 0.0
0.0 0.891900024414 0.248010479092 0.0
0.0 0.892900024414 0.247810005809 0.0
0.0 0.893900024414 0.247610216294 0.0
0.0 0.894900024414 0.2474094801 0.0
0.0 0.895900024414 0.247208798638 0.0
0.0 0.896900024414 0.247007964214 0.0
0.0 0.897900024414 0.246807182541 0.0
0.0 0.898900024414 0.24660647206 0.0
0.0 0.899900024414 0.246405580325 0.0
0.0 0.900900024414 0.246204701104 0.0
0.0 0.901900024414 0.246003914539 0.0
0.0 0.902900024414 0.245802762417 0.0
0.0 0.903900024414 0.245601764176 0.0
0.0 0.904900024414 0.245400881198 0.0
0.0 0.905900024414 0.245199875631 0.0
0.0 0.906900024414 0.24499825961 0.0
0.0 0.907900024414 0.244797256817 0.0
0.0 0.908900024414 0.244595540457 0.0
0.0 0.909900024414 0.244394281593 0.0
0.0 0.910900024414 0.244192677864 0.0
0.0 0.911900024414 0.243991163459 0.0
0.0 0.912900024414 0.243789955218 0.0
0.0 0.913900024414 0.243588167124 0.0
0.0 0.914900024414 0.243386434125 0.0
0.0 0.915900024414 0.243184563466 0.0
0.0 0.916900024414 0.24298278038 0.0
0.0 0.917900024414 0.242781215969 0.0
0.0 0.918900024414 0.242579097673 0.0
0.0 0.919900024414 0.242377119728 0.0
0.0 0.920900024414 0.242175130715 0.0
0.0 0.921900024414 0.241973300438 0.0
0.0 0.922900024414 0.241771308303 0.0
0.0 0.923900024414 0.241568864308 0.0
0.0 0.924900024414 0.241366969389 0.0
0.0 0.925900024414 0.241164442238 0.0
0.0 0.926900024414 0.240962189863 0.0
0.0 0.927900024414 0.240760066907 0.0
0.0 0.928900024414 0.240557452454 0.0
0.0 0.929900024414 0.240355029416 0.0
0.0 0.930900024414 0.240152659458 0.0
0.0 0.931900024414 0.239950117577 0.0
0.0 0.932900024414 0.23974781942 0.0
0.0 0.933900024414 0.239544973356 0.0
0.0 0.934900024414 0.239342250734 0.0
0.0 0.935900024414 0.239139876672 0.0
0.0 0.936900024414 0.238936967325 0.0
0.0 0.937900024414 0.238734534357 0.0
0.0 0.938900024414 0.238531931056 0.0
0.0 0.939900024414 0.238329526072 0.0
0.0 0.940900024414 0.238126535946 0.0
0.0 0.941900024414 0.237923843743 0.0
0.0 0.942900024414 0.237721326353 0.0
0.0 0.943900024414 0.237517681051 0.0
0.0 0.944900024414 0.237314721586 0.0
0.0 0.945900024414 0.237111158848 0.0
0.0 0.946900024414 0.23690790815 0.0
0.0 0.947900024414 0.236704650185 0.0
0.0 0.948900024414 0.23650113237 0.0
0.0 0.949900024414 0.236298244366 0.0
0.0 0.950900024414 0.236094819838 0.0
0.0 0.951900024414 0.235891160008 0.0
0.0 0.952900024414 0.235687787051 0.0
0.0 0.953900024414 0.235484558294 0.0
0.0 0.954900024414 0.235281071225 0.0
0.0 0.955900024414 0.235077506313 0.0
0.0 0.956900024414 0.234874282699 0.0
0.0 0.957900024414 0.234670867615 0.0
0.0 0.958900024414 0.234467021772 0.0
0.0 0.959900024414 0.23426338378 0.0
0.0 0.960900024414 0.234059844317 0.0
0.0 0.961900024414 0.233856215748 0.0
0.0 0.962900024414 0.233652418175 0.0
0.0 0.963900024414 0.233448955452 0.0
0.0 0.964900024414 0.233245041752 0.0
0.0 0.965900024414 0.233041546437 0.0
0.0 0.966900024414 0.232837462222 0.0
0.0 0.967900024414 0.232633852263 0.0
0.0 0.968900024414 0.232430085848 0.0
0.0 0.969900024414 0.232226056095 0.0
0.0 0.970900024414 0.23202207134 0.0
0.0 0.971900024414 0.231818159419 0.0
0.0 0.972900024414 0.231614416736 0.0
0.0 0.973900024414 0.231410262044 0.0
0.0 0.974900024414 0.231206415428 0.0
0.0 0.975900024414 0.23100240369 0.0
0.0 0.976900024414 0.230798358202 0.0
0.0 0.977900024414 0.230594348947 0.0
0.0 0.978900024414 0.230390223624 0.0
0.0 0.979900024414 0.230186275768 0.0
0.0 0.980900024414 0.229982069825 0.0
0.0 0.981900024414 0.229778272381 0.0
0.0 0.982900024414 0.229573670566 0.0
0.0 0.983900024414 0.229369838745 0.0
0.0 0.984900024414 0.229165922871 0.0
0.0 0.985900024414 0.22896210143 0.0
0.0 0.986900024414 0.228757923942 0.0
0.0 0.987900024414 0.228553596915 0.0
0.0 0.988900024414 0.228348895988 0.0
0.0 0.989900024414 0.228144709614 0.0
0.0 0.990900024414 0.227940472462 0.0
0.0 0.991900024414 0.227735835545 0.0
0.0 0.992900024414 0.227531267861 0.0
0.0 0.993900024414 0.227326848782 0.0
0.0 0.994900024414 0.227122545373 0.0
0.0 0.995900024414 0.226918022196 0.0
0.0 0.996900024414 0.226713945829 0.0
0.0 0.997900024414 0.226509818578 0.0
0.0 0.998900024414 0.226305671048 0.0
0.0 0.999900024414 0.226100895195 0.0
0.0 1.00090002441 0.225896354245 0.0
0.0 1.00190002441 0.225692518663 0.0
0.0 1.00290002441 0.225487918651 0.0
0.0 1.00390002441 0.225283378521 0.0
0.0 1.00490002441 0.225078998499 0.0
0.0 1.00590002441 0.224874419546 0.0
0.0 1.00690002441 0.224669614762 0.0
0.0 1.00790002441 0.224465321516 0.0
0.0 1.00890002441 0.224260923303 0.0
0.0 1.00990002441 0.224056676629 0.0
0.0 1.01090002441 0.223852082328 0.0
0.0 1.01190002441 0.223647713875 0.0
0.0 1.01290002441 0.22344352469 0.0
0.0 1.01390002441 0.223238280792 0.0
0.0 1.01490002441 0.223034252275 0.0
0.0 1.01590002441 0.222829383496 0.0
0.0 1.01690002441 0.222625752976 0.0
0.0 1.01790002441 0.222420109156 0.0
0.0 1.01890002441 0.222216941975 0.0
0.0 1.01990002441 0.222011431696 0.0
0.0 1.02090002441 0.221807083963 0.0
0.0 1.02190002441 0.22160333767 0.0
0.0 1.02290002441 0.221397727385 0.0
0.0 1.02390002441 0.221193515021 0.0
0.0 1.02490002441 0.220988365398 0.0
0.0 1.02590002441 0.220784188988 0.0
0.0 1.02690002441 0.220579889047 0.0
0.0 1.02790002441 0.220375183757 0.0
0.0 1.02890002441 0.220170442337 0.0
0.0 1.02990002441 0.219966016744 0.0
0.0 1.03090002441 0.219761553295 0.0
0.0 1.03190002441 0.219556471667 0.0
0.0 1.03290002441 0.219352670328 0.0
0.0 1.03390002441 0.219147638435 0.0
0.0 1.03490002441 0.21894323587 0.0
0.0 1.03590002441 0.218738502178 0.0
0.0 1.03690002441 0.218534368682 0.0
0.0 1.03790002441 0.218330027137 0.0
0.0 1.03890002441 0.21812531388 0.0
0.0 1.03990002441 0.217920692448 0.0
0.0 1.04090002441 0.217716713698 0.0
0.0 1.04190002441 0.217511816973 0.0
0.0 1.04290002441 0.217307462076 0.0
0.0 1.04390002441 0.217103002865 0.0
0.0 1.04490002441 0.216898836481 0.0
0.0 1.04590002441 0.21669448347 0.0
0.0 1.04690002441 0.216490005869 0.0
0.0 1.04790002441 0.216285628995 0.0
0.0 1.04890002441 0.216081508581 0.0
0.0 1.04990002441 0.215877042429 0.0
0.0 1.05090002441 0.215673260229 0.0
0.0 1.05190002441 0.21546864682 0.0
0.0 1.05290002441 0.21526448566 0.0
0.0 1.05390002441 0.215061145934 0.0
0.0 1.05490002441 0.214855179469 0.0
0.0 1.05590002441 0.214651369931 0.0
0.0 1.05690002441 0.214447644624 0.0
0.0 1.05790002441 0.214243378346 0.0
0.0 1.05890002441 0.214038936407 0.0
0.0 1.05990002441 0.213835455714 0.0
0.0 1.06090002441 0.213631331766 0.0
0.0 1.06190002441 0.213426573188 0.0
0.0 1.06290002441 0.213222953577 0.0
0.0 1.06390002441 0.213018892387 0.0
0.0 1.06490002441 0.212815590657 0.0
0.0 1.06590002441 0.212611183834 0.0
0.0 1.06690002441 0.212407038031 0.0
0.0 1.06790002441 0.212203417215 0.0
0.0 1.06890002441 0.211999113071 0.0
0.0 1.06990002441 0.211794983893 0.0
0.0 1.07090002441 0.211591430301 0.0
0.0 1.07190002441 0.211386738398 0.0
0.0 1.07290002441 0.211183428569 0.0
0.0 1.07390002441 0.210979556235 0.0
0.0 1.07490002441 0.210774538964 0.0
0.0 1.07590002441 0.21057148738 0.0
0.0 1.07690002441 0.210367601252 0.0
0.0 1.07790002441 0.21016414157 0.0
0.0 1.07890002441 0.209959568524 0.0
0.0 1.07990002441 0.209755812154 0.0
0.0 1.08090002441 0.209552758165 0.0
0.0 1.08190002441 0.209348787628 0.0
0.0 1.08290002441 0.209144999356 0.0
0.0 1.08390002441 0.208942072261 0.0
0.0 1.08490002441 0.208738540749 0.0
0.0 1.08590002441 0.208534344373 0.0
0.0 1.08690002441 0.208331449077 0.0
0.0 1.08790002441 0.208128213505 0.0
0.0 1.08890002441 0.207924293142 0.0
0.0 1.08990002441 0.207721236548 0.0
0.0 1.09090002441 0.207517576193 0.0
0.0 1.09190002441 0.20731442983 0.0
0.0 1.09290002441 0.20711101316 0.0
0.0 1.09390002441 0.206908188767 0.0
0.0 1.09490002441 0.2067043457 0.0
0.0 1.09590002441 0.206501922543 0.0
0.0 1.09690002441 0.206298141515 0.0
0.0 1.09790002441 0.206095423964 0.0
0.0 1.09890002441 0.205892040887 0.0
0.0 1.09990002441 0.205689116781 0.0
0.0 1.10090002441 0.205486378985 0.0
0.0 1.10190002441 0.205283029242 0.0
0.0 1.10290002441 0.205080373617 0.0
0.0 1.10390002441 0.204878293118 0.0
0.0 1.10490002441 0.204674536792 0.0
0.0 1.10590002441 0.204471931034 0.0
0.0 1.10690002441 0.204269670133 0.0
0.0 1.10790002441 0.204067042926 0.0
0.0 1.10890002441 0.203863923071 0.0
0.0 1.10990002441 0.203661390023 0.0
0.0 1.11090002441 0.203458825061 0.0
0.0 1.11190002441 0.203257097907 0.0
0.0 1.11290002441 0.203054117879 0.0
0.0 1.11390002441 0.202851370596 0.0
0.0 1.11490002441 0.202649174366 0.0
0.0 1.11590002441 0.202447632122 0.0
0.0 1.11690002441 0.202245238876 0.0
0.0 1.11790002441 0.202043110553 0.0
0.0 1.11890002441 0.201841223371 0.0
0.0 1.11990002441 0.201639041197 0.0
0.0 1.12090002441 0.201436866513 0.0
0.0 1.12190002441 0.201234825954 0.0
0.0 1.12290002441 0.201033256208 0.0
0.0 1.12390002441 0.200830969665 0.0
0.0 1.12490002441 0.200628833206 0.0
0.0 1.12590002441 0.20042734438 0.0
0.0 1.12690002441 0.200225177416 0.0
0.0 1.12790002441 0.200023572102 0.0
0.0 1.12890002441 0.199822386004 0.0
0.0 1.12990002441 0.199619457298 0.0
0.0 1.13090002441 0.199418458428 0.0
0.0 1.13190002441 0.199216801395 0.0
0.0 1.13290002441 0.199015255584 0.0
0.0 1.13390002441 0.198813592531 0.0
0.0 1.13490002441 0.198612621531 0.0
0.0 1.13590002441 0.198411493015 0.0
0.0 1.13690002441 0.198209814996 0.0
0.0 1.13790002441 0.19800905843 0.0
0.0 1.13890002441 0.197807589285 0.0
0.0 1.13990002441 0.197606914992 0.0
0.0 1.14090002441 0.197405713334 0.0
0.0 1.14190002441 0.197204682056 0.0
0.0 1.14290002441 0.197004123746 0.0
0.0 1.14390002441 0.196803439878 0.0
0.0 1.14490002441 0.196602702093 0.0
0.0 1.14590002441 0.196401809832 0.0
0.0 1.14690002441 0.196201336682 0.0
0.0 1.14790002441 0.196000526583 0.0
0.0 1.14890002441 0.195800352166 0.0
0.0 1.14990002441 0.195600204859 0.0
0.0 1.15090002441 0.195399421622 0.0
0.0 1.15190002441 0.195198983697 0.0
0.0 1.15290002441 0.194999262536 0.0
0.0 1.15390002441 0.194798974637 0.0
0.0 1.15490002441 0.194598715708 0.0
0.0 1.15590002441 0.194398873066 0.0
0.0 1.15690002441 0.194198666058 0.0
0.0 1.15790002441 0.193998839816 0.0
0.0 1.15890002441 0.193799231465 0.0
0.0 1.15990002441 0.193599425861 0.0
0.0 1.16090002441 0.193399426517 0.0
0.0 1.16190002441 0.193200165541 0.0
0.0 1.16290002441 0.193000461383 0.0
0.0 1.16390002441 0.192800986055 0.0
0.0 1.16490002441 0.192602118813 0.0
0.0 1.16590002441 0.192402210135 0.0
0.0 1.16690002441 0.192202911847 0.0
0.0 1.16790002441 0.192004003149 0.0
0.0 1.16890002441 0.1918050117 0.0
0.0 1.16990002441 0.191605559308 0.0
0.0 1.17090002441 0.191407229876 0.0
0.0 1.17190002441 0.191207809551 0.0
0.0 1.17290002441 0.191008926894 0.0
0.0 1.17390002441 0.190811245851 0.0
0.0 1.17490002441 0.190612073874 0.0
0.0 1.17590002441 0.190413280521 0.0
0.0 1.17690002441 0.190215240151 0.0
0.0 1.17790002441 0.190016658651 0.0
0.0 1.17890002441 0.189818078141 0.0
0.0 1.17990002441 0.189620045278 0.0
0.0 1.18090002441 0.189421574233 0.0
0.0 1.18190002441 0.189223674833 0.0
0.0 1.18290002441 0.189025193249 0.0
0.0 1.18390002441 0.188827440768 0.0
0.0 1.18490002441 0.188629701841 0.0
0.0 1.18590002441 0.18843159983 0.0
0.0 1.18690002441 0.188234018458 0.0
0.0 1.18790002441 0.18803683419 0.0
0.0 1.18890002441 0.18783898638 0.0
0.0 1.18990002441 0.18764145362 0.0
0.0 1.19090002441 0.187443974186 0.0
0.0 1.19190002441 0.187246750673 0.0
0.0 1.19290002441 0.187049609008 0.0
0.0 1.19390002441 0.186852551222 0.0
0.0 1.19490002441 0.186656103934 0.0
0.0 1.19590002441 0.186458801754 0.0
0.0 1.19690002441 0.186261827446 0.0
0.0 1.19790002441 0.18606508334 0.0
0.0 1.19890002441 0.185868342115 0.0
0.0 1.19990002441 0.185672211934 0.0
0.0 1.20090002441 0.185475465087 0.0
0.0 1.20190002441 0.185279251091 0.0
0.0 1.20290002441 0.185082466053 0.0
0.0 1.20390002441 0.184886340244 0.0
0.0 1.20490002441 0.184690559255 0.0
0.0 1.20590002441 0.184494132468 0.0
0.0 1.20690002441 0.184298451011 0.0
0.0 1.20790002441 0.184102857517 0.0
0.0 1.20890002441 0.183906574735 0.0
0.0 1.20990002441 0.183711617709 0.0
0.0 1.21090002441 0.183515496297 0.0
0.0 1.21190002441 0.18332041171 0.0
0.0 1.21290002441 0.183124521688 0.0
0.0 1.21390002441 0.18292944358 0.0
0.0 1.21490002441 0.182734271747 0.0
0.0 1.21590002441 0.182539300906 0.0
0.0 1.21690002441 0.18234426027 0.0
0.0 1.21790002441 0.182149120552 0.0
0.0 1.21890002441 0.181954646847 0.0
0.0 1.21990002441 0.18175987381 0.0
0.0 1.22090002441 0.18156533559 0.0
0.0 1.22190002441 0.181370774669 0.0
0.0 1.22290002441 0.181176359321 0.0
0.0 1.22390002441 0.18098210879 0.0
0.0 1.22490002441 0.180787712843 0.0
0.0 1.22590002441 0.180594090726 0.0
0.0 1.22690002441 0.180400567802 0.0
0.0 1.22790002441 0.1802057735 0.0
0.0 1.22890002441 0.18001244808 0.0
0.0 1.22990002441 0.179818697709 0.0
0.0 1.23090002441 0.179624943109 0.0
0.0 1.23190002441 0.17943182075 0.0
0.0 1.23290002441 0.179237952832 0.0
0.0 1.23390002441 0.179045440228 0.0
0.0 1.23490002441 0.178851894277 0.0
0.0 1.23590002441 0.178658845413 0.0
0.0 1.23690002441 0.178465978316 0.0
0.0 1.23790002441 0.178272997547 0.0
0.0 1.23890002441 0.178080613234 0.0
0.0 1.23990002441 0.177887717572 0.0
0.0 1.24090002441 0.177695825453 0.0
0.0 1.24190002441 0.177503074047 0.0
0.0 1.24290002441 0.177310634487 0.0
0.0 1.24390002441 0.177118798286 0.0
0.0 1.24490002441 0.176926384762 0.0
0.0 1.24590002441 0.176734471767 0.0
0.0 1.24690002441 0.176542876148 0.0
0.0 1.24790002441 0.17635068414 0.0
0.0 1.24890002441 0.176159511447 0.0
0.0 1.24990002441 0.17596811811 0.0
0.0 1.25090002441 0.175777059797 0.0
0.0 1.25190002441 0.175585081544 0.0
0.0 1.25290002441 0.175394256949 0.0
0.0 1.25390002441 0.175203769558 0.0
0.0 1.25490002441 0.175012174672 0.0
0.0 1.25590002441 0.174821104392 0.0
0.0 1.25690002441 0.174631235852 0.0
0.0 1.25790002441 0.174440379144 0.0
0.0 1.25890002441 0.174249954132 0.0
0.0 1.25990002441 0.174059548433 0.0
0.0 1.26090002441 0.173869498969 0.0
0.0 1.26190002441 0.173678927807 0.0
0.0 1.26290002441 0.173488914231 0.0
0.0 1.26390002441 0.17330007178 0.0
0.0 1.26490002441 0.173109894509 0.0
0.0 1.26590002441 0.17292004172 0.0
0.0 1.26690002441 0.172730447996 0.0
0.0 1.26790002441 0.172541665539 0.0
0.0 1.26890002441 0.172352019576 0.0
0.0 1.26990002441 0.172163512122 0.0
0.0 1.27090002441 0.171974467364 0.0
0.0 1.27190002441 0.171785230362 0.0
0.0 1.27290002441 0.171596488316 0.0
0.0 1.27390002441 0.171407997638 0.0
0.0 1.27490002441 0.171219140761 0.0
0.0 1.27590002441 0.17103195814 0.0
0.0 1.27690002441 0.170842817038 0.0
0.0 1.27790002441 0.170654950241 0.0
0.0 1.27890002441 0.170466980431 0.0
0.0 1.27990002441 0.170279090727 0.0
0.0 1.28090002441 0.170091797949 0.0
0.0 1.28190002441 0.169903416206 0.0
0.0 1.28290002441 0.169716186143 0.0
0.0 1.28390002441 0.169529499784 0.0
0.0 1.28490002441 0.169342106815 0.0
0.0 1.28590002441 0.169154873109 0.0
0.0 1.28690002441 0.168967866609 0.0
0.0 1.28790002441 0.168780946517 0.0
0.0 1.28890002441 0.168594517203 0.0
0.0 1.28990002441 0.16840792917 0.0
0.0 1.29090002441 0.168221532536 0.0
0.0 1.29190002441 0.168035310157 0.0
0.0 1.29290002441 0.167849156066 0.0
0.0 1.29390002441 0.16766327868 0.0
0.0 1.29490002441 0.167477494782 0.0
0.0 1.29590002441 0.167291389433 0.0
0.0 1.29690002441 0.167106549387 0.0
0.0 1.29790002441 0.166920745346 0.0
0.0 1.29890002441 0.16673549705 0.0
0.0 1.29990002441 0.166550165553 0.0
0.0 1.30090002441 0.166365488143 0.0
0.0 1.30190002441 0.166180690982 0.0
0.0 1.30290002441 0.165995545037 0.0
0.0 1.30390002441 0.165810930823 0.0
0.0 1.30490002441 0.1656267283 0.0
0.0 1.30590002441 0.165442119672 0.0
0.0 1.30690002441 0.165258043647 0.0
0.0 1.30790002441 0.165074793743 0.0
0.0 1.30890002441 0.164890172641 0.0
0.0 1.30990002441 0.164706618334 0.0
0.0 1.31090002441 0.16452360356 0.0
0.0 1.31190002441 0.164339666932 0.0
0.0 1.31290002441 0.164156456345 0.0
0.0 1.31390002441 0.163973322486 0.0
0.0 1.31490002441 0.163790104782 0.0
0.0 1.31590002441 0.163607278397 0.0
0.0 1.31690002441 0.163425251418 0.0
0.0 1.31790002441 0.163242089448 0.0
0.0 1.31890002441 0.163060521116 0.0
0.0 1.31990002441 0.162877502221 0.0
0.0 1.32090002441 0.162695930683 0.0
0.0 1.32190002441 0.162513541831 0.0
0.0 1.32290002441 0.162331368894 0.0
0.0 1.32390002441 0.162149735663 0.0
0.0 1.32490002441 0.161969065444 0.0
0.0 1.32590002441 0.161786892367 0.0
0.0 1.32690002441 0.161606438555 0.0
0.0 1.32790002441 0.161425028527 0.0
0.0 1.32890002441 0.161243778263 0.0
0.0 1.32990002441 0.161063075677 0.0
0.0 1.33090002441 0.160883302897 0.0
0.0 1.33190002441 0.160702343008 0.0
0.0 1.33290002441 0.160522000499 0.0
0.0 1.33390002441 0.160342260897 0.0
0.0 1.33490002441 0.160161703613 0.0
0.0 1.33590002441 0.15998196816 0.0
0.0 1.33690002441 0.1598026678 0.0
0.0 1.33790002441 0.159623247662 0.0
0.0 1.33890002441 0.159444366432 0.0
0.0 1.33990002441 0.159264551908 0.0
0.0 1.34090002441 0.159085649027 0.0
0.0 1.34190002441 0.158906714915 0.0
0.0 1.34290002441 0.158728086282 0.0
0.0 1.34390002441 0.158549589149 0.0
0.0 1.34490002441 0.158372053995 0.0
0.0 1.34590002441 0.158192843879 0.0
0.0 1.34690002441 0.158015752311 0.0
0.0 1.34790002441 0.157837338058 0.0
0.0 1.34890002441 0.157659095894 0.0
0.0 1.34990002441 0.157482161445 0.0
0.0 1.35090002441 0.157304175624 0.0
0.0 1.35190002441 0.15712726843 0.0
0.0 1.35290002441 0.156950320694 0.0
0.0 1.35390002441 0.156773541003 0.0
0.0 1.35490002441 0.15659662752 0.0
0.0 1.35590002441 0.156419889311 0.0
0.0 1.35690002441 0.156243395668 0.0
0.0 1.35790002441 0.15606734347 0.0
0.0 1.35890002441 0.155891288278 0.0
0.0 1.35990002441 0.155715339636 0.0
0.0 1.36090002441 0.155539569309 0.0
0.0 1.36190002441 0.15536442687 0.0
0.0 1.36290002441 0.155188740403 0.0
0.0 1.36390002441 0.155013953364 0.0
0.0 1.36490002441 0.154838460684 0.0
0.0 1.36590002441 0.154663730224 0.0
0.0 1.36690002441 0.15448899362 0.0
0.0 1.36790002441 0.154314437834 0.0
0.0 1.36890002441 0.154140951235 0.0
0.0 1.36990002441 0.153965997105 0.0
0.0 1.37090002441 0.153792059208 0.0
0.0 1.37190002441 0.153618776488 0.0
0.0 1.37290002441 0.153444886376 0.0
0.0 1.37390002441 0.153271412023 0.0
0.0 1.37490002441 0.153097939268 0.0
0.0 1.37590002441 0.15292502936 0.0
0.0 1.37690002441 0.152752494183 0.0
0.0 1.37790002441 0.152579613462 0.0
0.0 1.37890002441 0.152406775875 0.0
0.0 1.37990002441 0.152234159528 0.0
0.0 1.38090002441 0.152061912492 0.0
0.0 1.38190002441 0.151890579879 0.0
0.0 1.38290002441 0.151718685736 0.0
0.0 1.38390002441 0.151546426852 0.0
0.0 1.38490002441 0.151375146774 0.0
0.0 1.38590002441 0.15120368971 0.0
0.0 1.38690002441 0.151032491941 0.0
0.0 1.38790002441 0.150861560255 0.0
0.0 1.38890002441 0.150691095258 0.0
0.0 1.38990002441 0.150520322368 0.0
0.0 1.39090002441 0.150349869631 0.0
0.0 1.39190002441 0.150179846659 0.0
0.0 1.39290002441 0.150010013941 0.0
0.0 1.39390002441 0.149840083682 0.0
0.0 1.39490002441 0.149670793008 0.0
0.0 1.39590002441 0.149500908031 0.0
0.0 1.39690002441 0.149332061617 0.0
0.0 1.39790002441 0.149162843045 0.0
0.0 1.39890002441 0.148993743888 0.0
0.0 1.39990002441 0.14882505874 0.0
0.0 1.40090002441 0.148657072635 0.0
0.0 1.40190002441 0.14848813423 0.0
0.0 1.40290002441 0.148320823377 0.0
0.0 1.40390002441 0.148152095652 0.0
0.0 1.40490002441 0.147984508871 0.0
0.0 1.40590002441 0.147817873944 0.0
0.0 1.40690002441 0.147650033945 0.0
0.0 1.40790002441 0.147483186314 0.0
0.0 1.40890002441 0.147315307153 0.0
0.0 1.40990002441 0.147148887174 0.0
0.0 1.41090002441 0.146982282518 0.0
0.0 1.41190002441 0.146815714411 0.0
0.0 1.41290002441 0.146649979096 0.0
0.0 1.41390002441 0.146484018541 0.0
0.0 1.41490002441 0.146318029156 0.0
0.0 1.41590002441 0.146151901315 0.0
0.0 1.41690002441 0.145987263475 0.0
0.0 1.41790002441 0.14582205373 0.0
0.0 1.41890002441 0.145656489681 0.0
0.0 1.41990002441 0.145492372465 0.0
0.0 1.42090002441 0.14532697752 0.0
0.0 1.42190002441 0.145163087258 0.0
0.0 1.42290002441 0.144998395045 0.0
0.0 1.42390002441 0.144834593686 0.0
0.0 1.42490002441 0.144671463054 0.0
0.0 1.42590002441 0.144507514406 0.0
0.0 1.42690002441 0.144343986733 0.0
0.0 1.42790002441 0.144180643327 0.0
0.0 1.42890002441 0.144018182542 0.0
0.0 1.42990002441 0.143854915468 0.0
0.0 1.43090002441 0.143692674839 0.0
0.0 1.43190002441 0.143530133383 0.0
0.0 1.43290002441 0.143367723151 0.0
0.0 1.43390002441 0.143205785571 0.0
0.0 1.43490002441 0.143043941143 0.0
0.0 1.43590002441 0.142883171433 0.0
0.0 1.43690002441 0.142722280641 0.0
0.0 1.43790002441 0.142560761596 0.0
0.0 1.43890002441 0.142399400135 0.0
0.0 1.43990002441 0.142238160005 0.0
0.0 1.44090002441 0.14207891582 0.0
0.0 1.44190002441 0.141917299348 0.0
0.0 1.44290002441 0.141758019096 0.0
0.0 1.44390002441 0.141598192925 0.0
0.0 1.44490002441 0.141437784512 0.0
0.0 1.44590002441 0.14127856894 0.0
0.0 1.44690002441 0.141119055105 0.0
0.0 1.44790002441 0.140960352999 0.0
0.0 1.44890002441 0.140801315516 0.0
0.0 1.44990002441 0.140642691334 0.0
0.0 1.45090002441 0.140484664119 0.0
0.0 1.45190002441 0.140326166741 0.0
0.0 1.45290002441 0.140168276064 0.0
0.0 1.45390002441 0.140010809615 0.0
0.0 1.45490002441 0.139853056648 0.0
0.0 1.45590002441 0.139695872429 0.0
0.0 1.45690002441 0.139538857778 0.0
0.0 1.45790002441 0.139382737828 0.0
0.0 1.45890002441 0.139225240554 0.0
0.0 1.45990002441 0.139068688477 0.0
0.0 1.46090002441 0.138913251753 0.0
0.0 1.46190002441 0.138756787659 0.0
0.0 1.46290002441 0.138600579634 0.0
0.0 1.46390002441 0.13844536343 0.0
0.0 1.46490002441 0.138289969519 0.0
0.0 1.46590002441 0.138136064972 0.0
0.0 1.46690002441 0.137979731084 0.0
0.0 1.46790002441 0.137826414235 0.0
0.0 1.46890002441 0.137670759258 0.0
0.0 1.46990002441 0.137516984403 0.0
0.0 1.47090002441 0.137363046475 0.0
0.0 1.47190002441 0.137209575711 0.0
0.0 1.47290002441 0.137055482073 0.0
0.0 1.47390002441 0.136902915061 0.0
0.0 1.47490002441 0.136749294131 0.0
0.0 1.47590002441 0.136597143608 0.0
0.0 1.47690002441 0.136443865588 0.0
0.0 1.47790002441 0.136291139764 0.0
0.0 1.47890002441 0.136139501938 0.0
0.0 1.47990002441 0.135987250046 0.0
0.0 1.48090002441 0.135836416801 0.0
0.0 1.48190002441 0.135684640256 0.0
0.0 1.48290002441 0.13553332865 0.0
0.0 1.48390002441 0.135381813143 0.0
0.0 1.48490002441 0.135231523741 0.0
0.0 1.48590002441 0.135080235873 0.0
0.0 1.48690002441 0.134930253267 0.0
0.0 1.48790002441 0.134780039379 0.0
0.0 1.48890002441 0.134630678648 0.0
0.0 1.48990002441 0.134480933122 0.0
0.0 1.49090002441 0.134331797538 0.0
0.0 1.49190002441 0.134182056284 0.0
0.0 1.49290002441 0.134033564891 0.0
0.0 1.49390002441 0.13388457552 0.0
0.0 1.49490002441 0.133736743883 0.0
0.0 1.49590002441 0.133587718186 0.0
0.0 1.49690002441 0.133440070239 0.0
0.0 1.49790002441 0.133292207931 0.0
0.0 1.49890002441 0.13314502383 0.0
0.0 1.49990002441 0.132997207152 0.0
0.0 1.50090002441 0.132850891177 0.0
0.0 1.50190002441 0.13270473264 0.0
0.0 1.50290002441 0.132557761298 0.0
0.0 1.50390002441 0.13241118416 0.0
0.0 1.50490002441 0.132264987133 0.0
0.0 1.50590002441 0.132119048653 0.0
0.0 1.50690002441 0.131975195513 0.0
0.0 1.50790002441 0.131828554617 0.0
0.0 1.50890002441 0.131684070566 0.0
0.0 1.50990002441 0.131539004391 0.0
0.0 1.51090002441 0.131394309777 0.0
0.0 1.51190002441 0.13124928799 0.0
0.0 1.51290002441 0.13110618495 0.0
0.0 1.51390002441 0.130962515976 0.0
0.0 1.51490002441 0.130817826281 0.0
0.0 1.51590002441 0.130674346389 0.0
0.0 1.51690002441 0.1305320213 0.0
0.0 1.51790002441 0.130388923072 0.0
0.0 1.51890002441 0.130246515145 0.0
0.0 1.51990002441 0.130103662863 0.0
0.0 1.52090002441 0.129962526456 0.0
0.0 1.52190002441 0.129819727934 0.0
0.0 1.52290002441 0.129678821767 0.0
0.0 1.52390002441 0.129536975432 0.0
0.0 1.52490002441 0.129395678916 0.0
0.0 1.52590002441 0.129255332523 0.0
0.0 1.52690002441 0.129114210718 0.0
0.0 1.52790002441 0.128974331939 0.0
0.0 1.52890002441 0.128833650055 0.0
0.0 1.52990002441 0.128694234504 0.0
0.0 1.53090002441 0.128554541047 0.0
0.0 1.53190002441 0.128415360852 0.0
0.0 1.53290002441 0.128276025193 0.0
0.0 1.53390002441 0.128137086795 0.0
0.0 1.53490002441 0.12799853093 0.0
0.0 1.53590002441 0.12786092557 0.0
0.0 1.53690002441 0.127722342555 0.0
0.0 1.53790002441 0.127585145569 0.0
0.0 1.53890002441 0.12744692585 0.0
0.0 1.53990002441 0.127309671817 0.0
0.0 1.54090002441 0.127173721334 0.0
0.0 1.54190002441 0.127036273417 0.0
0.0 1.54290002441 0.126899619717 0.0
0.0 1.54390002441 0.126764056986 0.0
0.0 1.54490002441 0.126627384268 0.0
0.0 1.54590002441 0.126491622761 0.0
0.0 1.54690002441 0.126356198465 0.0
0.0 1.54790002441 0.126221938909 0.0
0.0 1.54890002441 0.126086741697 0.0
0.0 1.54990002441 0.125952039651 0.0
0.0 1.55090002441 0.125818050329 0.0
0.0 1.55190002441 0.125683037957 0.0
0.0 1.55290002441 0.125549552433 0.0
0.0 1.55390002441 0.12541595133 0.0
0.0 1.55490002441 0.125282456024 0.0
0.0 1.55590002441 0.125149545089 0.0
0.0 1.55690002441 0.125016524998 0.0
0.0 1.55790002441 0.1248841801 0.0
0.0 1.55890002441 0.124751795155 0.0
0.0 1.55990002441 0.124620295981 0.0
0.0 1.56090002441 0.124488199825 0.0
0.0 1.56190002441 0.124356722211 0.0
0.0 1.56290002441 0.124225621425 0.0
0.0 1.56390002441 0.124094929788 0.0
0.0 1.56490002441 0.123964427206 0.0
0.0 1.56590002441 0.123833940952 0.0
0.0 1.56690002441 0.123703692222 0.0
0.0 1.56790002441 0.12357419713 0.0
0.0 1.56890002441 0.123444390638 0.0
0.0 1.56990002441 0.123315200191 0.0
0.0 1.57090002441 0.12318658675 0.0
0.0 1.57190002441 0.123057497656 0.0
0.0 1.57290002441 0.122929272423 0.0
0.0 1.57390002441 0.122801054319 0.0
0.0 1.57490002441 0.122674102662 0.0
0.0 1.57590002441 0.122545505591 0.0
0.0 1.57690002441 0.122418259622 0.0
0.0 1.57790002441 0.12229117511 0.0
0.0 1.57890002441 0.122164775075 0.0
0.0 1.57990002441 0.122037960341 0.0
0.0 1.58090002441 0.121912273946 0.0
0.0 1.58190002441 0.121785865292 0.0
0.0 1.58290002441 0.121660238914 0.0
0.0 1.58390002441 0.121535700451 0.0
0.0 1.58490002441 0.121410117993 0.0
0.0 1.58590002441 0.121286008044 0.0
0.0 1.58690002441 0.12116080078 0.0
0.0 1.58790002441 0.121037037572 0.0
0.0 1.58890002441 0.120912761109 0.0
0.0 1.58990002441 0.120789704627 0.0
0.0 1.59090002441 0.120665401564 0.0
0.0 1.59190002441 0.12054285875 0.0
0.0 1.59290002441 0.120420044489 0.0
0.0 1.59390002441 0.120297115317 0.0
0.0 1.59490002441 0.120175144784 0.0
0.0 1.59590002441 0.120053928956 0.0
0.0 1.59690002441 0.119931846736 0.0
0.0 1.59790002441 0.119810067769 0.0
0.0 1.59890002441 0.11968909717 0.0
0.0 1.59990002441 0.11956805855 0.0
0.0 1.60090002441 0.119448061071 0.0
0.0 1.60190002441 0.119327521301 0.0
0.0 1.60290002441 0.119208534472 0.0
0.0 1.60390002441 0.119087867532 0.0
0.0 1.60490002441 0.118969516557 0.0
0.0 1.60590002441 0.118849629443 0.0
0.0 1.60690002441 0.118730820913 0.0
0.0 1.60790002441 0.118613176048 0.0
0.0 1.60890002441 0.118494242992 0.0
0.0 1.60990002441 0.118376481799 0.0
0.0 1.61090002441 0.118259820691 0.0
0.0 1.61190002441 0.118142944937 0.0
0.0 1.61290002441 0.118024582298 0.0
0.0 1.61390002441 0.117909430465 0.0
0.0 1.61490002441 0.117792876091 0.0
0.0 1.61590002441 0.117675450309 0.0
0.0 1.61690002441 0.1175597987 0.0
0.0 1.61790002441 0.117444711759 0.0
0.0 1.61890002441 0.117329655175 0.0
0.0 1.61990002441 0.117214136725 0.0
0.0 1.62090002441 0.117100092504 0.0
0.0 1.62190002441 0.11698550699 0.0
0.0 1.62290002441 0.116872096192 0.0
0.0 1.62390002441 0.116757901898 0.0
0.0 1.62490002441 0.11664445309 0.0
0.0 1.62590002441 0.116531876533 0.0
0.0 1.62690002441 0.116418447028 0.0
0.0 1.62790002441 0.116306690949 0.0
0.0 1.62890002441 0.116194193139 0.0
0.0 1.62990002441 0.116082368213 0.0
0.0 1.63090002441 0.115970603608 0.0
0.0 1.63190002441 0.11585912134 0.0
0.0 1.63290002441 0.115748514173 0.0
0.0 1.63390002441 0.1156384698 0.0
0.0 1.63490002441 0.115527721426 0.0
0.0 1.63590002441 0.115417759463 0.0
0.0 1.63690002441 0.11530777153 0.0
0.0 1.63790002441 0.115198561571 0.0
0.0 1.63890002441 0.115089368745 0.0
0.0 1.63990002441 0.114980946186 0.0
0.0 1.64090002441 0.114873039622 0.0
0.0 1.64190002441 0.11476389191 0.0
0.0 1.64290002441 0.114656360366 0.0
0.0 1.64390002441 0.114549119508 0.0
0.0 1.64490002441 0.114441137195 0.0
0.0 1.64590002441 0.114334525762 0.0
0.0 1.64690002441 0.114227706766 0.0
0.0 1.64790002441 0.114121856872 0.0
0.0 1.64890002441 0.114015639107 0.0
0.0 1.64990002441 0.113910158304 0.0
0.0 1.65090002441 0.113805223736 0.0
0.0 1.65190002441 0.113699731851 0.0
0.0 1.65290002441 0.113595280555 0.0
0.0 1.65390002441 0.113491358196 0.0
0.0 1.65490002441 0.113385905633 0.0
0.0 1.65590002441 0.113282859054 0.0
0.0 1.65690002441 0.113178693345 0.0
0.0 1.65790002441 0.11307610711 0.0
0.0 1.65890002441 0.112972821719 0.0
0.0 1.65990002441 0.112870853877 0.0
0.0 1.66090002441 0.112768337307 0.0
0.0 1.66190002441 0.112667351905 0.0
0.0 1.66290002441 0.112564943074 0.0
0.0 1.66390002441 0.112464079468 0.0
0.0 1.66490002441 0.11236275043 0.0
0.0 1.66590002441 0.112263073214 0.0
0.0 1.66690002441 0.112162359727 0.0
0.0 1.66790002441 0.112061906472 0.0
0.0 1.66890002441 0.111963211086 0.0
0.0 1.66990002441 0.111863047007 0.0
0.0 1.67090002441 0.111765171208 0.0
0.0 1.67190002441 0.111666055562 0.0
0.0 1.67290002441 0.111567815879 0.0
0.0 1.67390002441 0.11146945089 0.0
0.0 1.67490002441 0.111371703592 0.0
0.0 1.67590002441 0.111274987559 0.0
0.0 1.67690002441 0.11117791836 0.0
0.0 1.67790002441 0.111081752166 0.0
0.0 1.67890002441 0.110985075588 0.0
0.0 1.67990002441 0.110888997684 0.0
0.0 1.68090002441 0.110793297285 0.0
0.0 1.68190002441 0.110698278605 0.0
0.0 1.68290002441 0.110602329034 0.0
0.0 1.68390002441 0.110507839762 0.0
0.0 1.68490002441 0.110413970233 0.0
0.0 1.68590002441 0.110319608019 0.0
0.0 1.68690002441 0.110227462833 0.0
0.0 1.68790002441 0.110133198873 0.0
0.0 1.68890002441 0.110040183921 0.0
0.0 1.68990002441 0.109947364617 0.0
0.0 1.69090002441 0.109855331667 0.0
0.0 1.69190002441 0.109762873396 0.0
0.0 1.69290002441 0.109671564551 0.0
0.0 1.69390002441 0.109579550735 0.0
0.0 1.69490002441 0.109488692012 0.0
0.0 1.69590002441 0.109398148283 0.0
0.0 1.69690002441 0.109308024705 0.0
0.0 1.69790002441 0.109218293746 0.0
0.0 1.69890002441 0.109128174178 0.0
0.0 1.69990002441 0.109038775702 0.0
0.0 1.70090002441 0.108950469393 0.0
0.0 1.70190002441 0.108861532569 0.0
0.0 1.70290002441 0.108773325424 0.0
0.0 1.70390002441 0.108684861499 0.0
0.0 1.70490002441 0.108597209587 0.0
0.0 1.70590002441 0.108510957385 0.0
0.0 1.70690002441 0.108423133737 0.0
0.0 1.70790002441 0.108336410411 0.0
0.0 1.70890002441 0.108250376412 0.0
0.0 1.70990002441 0.108164871045 0.0
0.0 1.71090002441 0.108079019955 0.0
0.0 1.71190002441 0.107993876486 0.0
0.0 1.71290002441 0.107909136163 0.0
0.0 1.71390002441 0.107824829781 0.0
0.0 1.71490002441 0.107740524196 0.0
0.0 1.71590002441 0.107657221577 0.0
0.0 1.71690002441 0.107573277365 0.0
0.0 1.71790002441 0.107489662144 0.0
0.0 1.71890002441 0.107407792787 0.0
0.0 1.71990002441 0.107324902398 0.0
0.0 1.72090002441 0.107243016294 0.0
0.0 1.72190002441 0.107161342601 0.0
0.0 1.72290002441 0.107079803371 0.0
0.0 1.72390002441 0.106999166264 0.0
0.0 1.72490002441 0.106919199688 0.0
0.0 1.72590002441 0.106837517971 0.0
0.0 1.72690002441 0.10675799941 0.0
0.0 1.72790002441 0.106678402002 0.0
0.0 1.72890002441 0.106598872611 0.0
0.0 1.72990002441 0.106520356252 0.0
0.0 1.73090002441 0.106441754999 0.0
0.0 1.73190002441 0.106363553654 0.0
0.0 1.73290002441 0.106285394433 0.0
0.0 1.73390002441 0.106208283584 0.0
0.0 1.73490002441 0.106131523557 0.0
0.0 1.73590002441 0.106054468652 0.0
0.0 1.73690002441 0.105978075984 0.0
0.0 1.73790002441 0.10590272392 0.0
0.0 1.73890002441 0.105826603217 0.0
0.0 1.73990002441 0.105751325006 0.0
0.0 1.74090002441 0.105676543369 0.0
0.0 1.74190002441 0.105601447717 0.0
0.0 1.74290002441 0.105528319605 0.0
0.0 1.74390002441 0.105453088826 0.0
0.0 1.74490002441 0.105381428218 0.0
0.0 1.74590002441 0.105306853697 0.0
0.0 1.74690002441 0.105234171933 0.0
0.0 1.74790002441 0.105162083956 0.0
0.0 1.74890002441 0.105089617405 0.0
0.0 1.74990002441 0.105017685943 0.0
0.0 1.75090002441 0.104947061731 0.0
0.0 1.75190002441 0.104875273064 0.0
0.0 1.75290002441 0.104805274707 0.0
0.0 1.75390002441 0.104735097335 0.0
0.0 1.75490002441 0.104665530351 0.0
0.0 1.75590002441 0.104595249031 0.0
0.0 1.75690002441 0.104526451861 0.0
0.0 1.75790002441 0.104458698468 0.0
0.0 1.75890002441 0.104389217351 0.0
0.0 1.75990002441 0.104321957391 0.0
0.0 1.76090002441 0.104253727407 0.0
0.0 1.76190002441 0.104186630019 0.0
0.0 1.76290002441 0.104120509434 0.0
0.0 1.76390002441 0.104053406884 0.0
0.0 1.76490002441 0.103986758305 0.0
0.0 1.76590002441 0.103921288187 0.0
0.0 1.76690002441 0.103855453215 0.0
0.0 1.76790002441 0.103790950898 0.0
0.0 1.76890002441 0.103725774025 0.0
0.0 1.76990002441 0.103663299728 0.0
0.0 1.77090002441 0.103597231501 0.0
0.0 1.77190002441 0.103534019412 0.0
0.0 1.77290002441 0.103471200651 0.0
0.0 1.77390002441 0.103408087103 0.0
0.0 1.77490002441 0.103346243171 0.0
0.0 1.77590002441 0.103283815017 0.0
0.0 1.77690002441 0.103222305362 0.0
0.0 1.77790002441 0.103160794095 0.0
0.0 1.77890002441 0.103099682192 0.0
0.0 1.77990002441 0.103039721824 0.0
0.0 1.78090002441 0.10297936165 0.0
0.0 1.78190002441 0.102919687569 0.0
0.0 1.78290002441 0.10286026487 0.0
0.0 1.78390002441 0.102801013153 0.0
0.0 1.78490002441 0.102742450965 0.0
0.0 1.78590002441 0.102684650261 0.0
0.0 1.78690002441 0.102626344814 0.0
0.0 1.78790002441 0.102569572622 0.0
0.0 1.78890002441 0.10251238511 0.0
0.0 1.78990002441 0.10245508007 0.0
0.0 1.79090002441 0.102399576833 0.0
0.0 1.79190002441 0.102343570545 0.0
0.0 1.79290002441 0.102288151007 0.0
0.0 1.79390002441 0.102233023412 0.0
0.0 1.79490002441 0.102177670493 0.0
0.0 1.79590002441 0.102123452656 0.0
0.0 1.79690002441 0.102069759537 0.0
0.0 1.79790002441 0.102015803191 0.0
0.0 1.79890002441 0.101962829842 0.0
0.0 1.79990002441 0.101910123767 0.0
0.0 1.80090002441 0.101858131302 0.0
0.0 1.80190002441 0.101805855549 0.0
0.0 1.80290002441 0.101753944653 0.0
0.0 1.80390002441 0.101703013913 0.0
0.0 1.80490002441 0.101652345526 0.0
0.0 1.80590002441 0.101602922513 0.0
0.0 1.80690002441 0.101550546949 0.0
0.0 1.80790002441 0.101502383507 0.0
0.0 1.80890002441 0.101452882991 0.0
0.0 1.80990002441 0.101403680278 0.0
0.0 1.81090002441 0.101355264183 0.0
0.0 1.81190002441 0.101307677266 0.0
0.0 1.81290002441 0.101258913734 0.0
0.0 1.81390002441 0.101212805328 0.0
0.0 1.81490002441 0.101166640757 0.0
0.0 1.81590002441 0.101119130267 0.0
0.0 1.81690002441 0.101073894681 0.0
0.0 1.81790002441 0.101028994907 0.0
0.0 1.81890002441 0.100984004 0.0
0.0 1.81990002441 0.100940223044 0.0
0.0 1.82090002441 0.100897543696 0.0
0.0 1.82190002441 0.100855338685 0.0
0.0 1.82290002441 0.100814367992 0.0
0.0 1.82390002441 0.100773638113 0.0
0.0 1.82490002441 0.100734365682 0.0
0.0 1.82590002441 0.100695205532 0.0
0.0 1.82690002441 0.100658651651 0.0
0.0 1.82790002441 0.100623020057 0.0
0.0 1.82890002441 0.100588913208 0.0
0.0 1.82990002441 0.10055673448 0.0
0.0 1.83090002441 0.100526748496 0.0
0.0 1.83190002441 0.10049925158 0.0
0.0 1.83290002441 0.100477258519 0.0
0.0 1.83390002441 0.100456456228 0.0
0.0 1.83490002441 0.100443829273 0.0
0.0 1.83590002441 0.100444336184 0.0
0.0 1.83690002441 0.100452089383 0.0
0.0 1.83790002441 0.10048141395 0.0
0.0 1.83890002441 0.100548410654 0.0
0.0 1.83990002441 0.10068018451 0.0
0.0 1.84090002441 0.100916458817 0.0
0.0 1.84190002441 0.101312226908 0.0
0.0 1.84290002441 0.102063340173 0.0
0.0 1.84390002441 0.103254958396 0.0
0.0 1.84490002441 0.10510701821 0.0
0.0 1.84590002441 0.107784558147 0.0
0.0 1.84690002441 0.111298540266 0.0
0.0 1.84790002441 0.113935094438 0.0
0.0 1.84890002441 0.116150916019 0.0
0.0 1.84990002441 0.11724479773 0.0
0.0 1.85090002441 0.118829840857 0.0
0.0 1.85190002441 0.121490965091 0.0
0.0 1.85290002441 0.124654435928 0.0
0.0 1.85390002441 0.127744299572 0.0
0.0 1.85490002441 0.132828443964 0.0
0.0 1.85590002441 0.13903041753 0.0
0.0 1.85690002441 0.147014942478 0.0
0.0 1.85790002441 0.157611493782 0.0
0.0 1.85890002441 0.171108609124 0.0
0.0 1.85990002441 0.190144151823 0.0
0.0 1.86090002441 0.216218888028 0.0
0.0 1.86190002441 0.253359025742 0.0
0.0 1.86290002441 0.299084568363 0.0
0.0 1.86390002441 0.358152764815 0.0
0.0 1.86490002441 0.42219325803 0.0
0.0 1.86590002441 0.477266806283 0.0
0.0 1.86690002441 0.519136483515 0.0
0.0 1.86790002441 0.54097958066 0.0
0.0 1.86890002441 0.551434376776 0.0
0.0 1.86990002441 0.556626864908 0.0
0.0 1.87090002441 0.559074574531 0.0
0.0 1.87190002441 0.559847212893 0.0
0.0 1.87290002441 0.560137641624 0.0
0.0 1.87390002441 0.558206976686 0.0
0.0 1.87490002441 0.561144751172 0.0
0.0 1.87590002441 0.558176044238 0.0
0.0 1.87690002441 0.554892885663 0.0
0.0 1.87790002441 0.552114693592 0.0
0.0 1.87890002441 0.544474839315 0.0
0.0 1.87990002441 0.534052367489 0.0
0.0 1.88090002441 0.504470919247 0.0
0.0 1.88190002441 0.46608564289 0.0
0.0 1.88290002441 0.414068205022 0.0
0.0 1.88390002441 0.358770528442 0.0
0.0 1.88490002441 0.307758898127 0.0
0.0 1.88590002441 0.262463676731 0.0
0.0 1.88690002441 0.228473828288 0.0
0.0 1.88790002441 0.202752230807 0.0
0.0 1.88890002441 0.18345110558 0.0
0.0 1.88990002441 0.167736236266 0.0
0.0 1.89090002441 0.157582461879 0.0
0.0 1.89190002441 0.14863010902 0.0
0.0 1.89290002441 0.141288015887 0.0
0.0 1.89390002441 0.135383924195 0.0
0.0 1.89490002441 0.13084638428 0.0
0.0 1.89590002441 0.126917060941 0.0
0.0 1.89690002441 0.123727188991 0.0
0.0 1.89790002441 0.120828091653 0.0
0.0 1.89890002441 0.116686066624 0.0
0.0 1.89990002441 0.112046420947 0.0
0.0 1.90090002441 0.108215572029 0.0
0.0 1.90190002441 0.105160888736 0.0
0.0 1.90290002441 0.103009207341 0.0
0.0 1.90390002441 0.101499986246 0.0
0.0 1.90490002441 0.10045396137 0.0
0.0 1.90590002441 0.0998221028164 0.0
0.0 1.90690002441 0.0994329644356 0.0
0.0 1.90790002441 0.0991678110537 0.0
0.0 1.90890002441 0.0990030031327 0.0
0.0 1.90990002441 0.0988872224426 0.0
0.0 1.91090002441 0.0988090204234 0.0
0.0 1.91190002441 0.0987515277402 0.0
0.0 1.91290002441 0.0987086203118 0.0
0.0 1.91390002441 0.0986753241304 0.0
0.0 1.91490002441 0.0986495610559 0.0
0.0 1.91590002441 0.0986295046123 0.0
0.0 1.91690002441 0.0986126197366 0.0
0.0 1.91790002441 0.0985976053038 0.0
0.0 1.91890002441 0.0985867953309 0.0
0.0 1.91990002441 0.098577007902 0.0
0.0 1.92090002441 0.0985696928649 0.0
0.0 1.92190002441 0.0985629670018 0.0
0.0 1.92290002441 0.0985588738376 0.0
0.0 1.92390002441 0.0985547334222 0.0
0.0 1.92490002441 0.0985507307998 0.0
0.0 1.92590002441 0.0985510219414 0.0
0.0 1.92690002441 0.0985499164918 0.0
0.0 1.92790002441 0.0985502827721 0.0
0.0 1.92890002441 0.0985509227974 0.0
0.0 1.92990002441 0.0985509819575 0.0
0.0 1.93090002441 0.0985547955226 0.0
0.0 1.93190002441 0.0985568757056 0.0
0.0 1.93290002441 0.0985599923675 0.0
0.0 1.93390002441 0.0985624930263 0.0
0.0 1.93490002441 0.098569157913 0.0
0.0 1.93590002441 0.0985730328067 0.0
0.0 1.93690002441 0.0985793474302 0.0
0.0 1.93790002441 0.0985837006847 0.0
0.0 1.93890002441 0.098590282446 0.0
0.0 1.93990002441 0.0985960860213 0.0
0.0 1.94090002441 0.0986034052495 0.0
0.0 1.94190002441 0.0986107985396 0.0
0.0 1.94290002441 0.0986184622097 0.0
0.0 1.94390002441 0.0986272764566 0.0
0.0 1.94490002441 0.0986360396304 0.0
0.0 1.94590002441 0.0986469778242 0.0
0.0 1.94690002441 0.0986569571059 0.0
0.0 1.94790002441 0.0986655840414 0.0
0.0 1.94890002441 0.0986767056219 0.0
0.0 1.94990002441 0.0986895573754 0.0
0.0 1.95090002441 0.0986993302867 0.0
0.0 1.95190002441 0.0987117837249 0.0
0.0 1.95290002441 0.098724870515 0.0
0.0 1.95390002441 0.0987379152811 0.0
0.0 1.95490002441 0.0987516567411 0.0
0.0 1.95590002441 0.0987655721549 0.0
0.0 1.95690002441 0.0987796131217 0.0
0.0 1.95790002441 0.0987950128714 0.0
0.0 1.95890002441 0.0988113955101 0.0
0.0 1.95990002441 0.0988262279296 0.0
0.0 1.96090002441 0.098842643049 0.0
0.0 1.96190002441 0.0988601282274 0.0
0.0 1.96290002441 0.0988770143547 0.0
0.0 1.96390002441 0.0988958420348 0.0
0.0 1.96490002441 0.0989135077229 0.0
0.0 1.96590002441 0.0989325314289 0.0
0.0 1.96690002441 0.0989513850578 0.0
0.0 1.96790002441 0.0989710133737 0.0
0.0 1.96890002441 0.0989921970724 0.0
0.0 1.96990002441 0.0990121137911 0.0
0.0 1.97090002441 0.0990331127626 0.0
0.0 1.97190002441 0.0990551179081 0.0
0.0 1.97290002441 0.0990769080675 0.0
0.0 1.97390002441 0.0990999357478 0.0
0.0 1.97490002441 0.099122610664 0.0
0.0 1.97590002441 0.0991463798841 0.0
0.0 1.97690002441 0.0991710340852 0.0
0.0 1.97790002441 0.0991949252001 0.0
0.0 1.97890002441 0.099220037449 0.0
0.0 1.97990002441 0.0992454563607 0.0
0.0 1.98090002441 0.0992712159784 0.0
0.0 1.98190002441 0.099297647539 0.0
0.0 1.98290002441 0.0993250267065 0.0
0.0 1.98390002441 0.099352037423 0.0
0.0 1.98490002441 0.0993802881233 0.0
0.0 1.98590002441 0.0994091745925 0.0
0.0 1.98690002441 0.0994371173187 0.0
0.0 1.98790002441 0.0994664445778 0.0
0.0 1.98890002441 0.0994964094108 0.0
0.0 1.98990002441 0.0995265796167 0.0
0.0 1.99090002441 0.0995574447985 0.0
0.0 1.99190002441 0.0995891357492 0.0
0.0 1.99290002441 0.0996205220368 0.0
0.0 1.99390002441 0.0996528624384 0.0
0.0 1.99490002441 0.0996864040068 0.0
0.0 1.99590002441 0.0997189840222 0.0
0.0 1.99690002441 0.0997523667625 0.0
0.0 1.99790002441 0.0997878934847 0.0
0.0 1.99890002441 0.0998220145778 0.0
0.0 1.99990002441 0.0998566665818 0.0
0.0 2.00090002441 0.0998931031687 0.0
0.0 2.00190002441 0.0999286651606 0.0
0.0 2.00290002441 0.0999651690273 0.0
0.0 2.00390002441 0.100002135597 0.0
0.0 2.00490002441 0.10003975005 0.0
0.0 2.00590002441 0.100079394763 0.0
0.0 2.00690002441 0.100116857589 0.0
0.0 2.00790002441 0.100155637111 0.0
0.0 2.00890002441 0.10019618911 0.0
0.0 2.00990002441 0.100235624268 0.0
0.0 2.01090002441 0.100275973393 0.0
0.0 2.01190002441 0.100317076541 0.0
0.0 2.01290002441 0.100359556845 0.0
0.0 2.01390002441 0.100401496425 0.0
0.0 2.01490002441 0.100444380082 0.0
0.0 2.01590002441 0.100486515624 0.0
0.0 2.01690002441 0.10053004773 0.0
0.0 2.01790002441 0.100574136564 0.0
0.0 2.01890002441 0.100619294522 0.0
0.0 2.01990002441 0.100664442843 0.0
0.0 2.02090002441 0.100711164463 0.0
0.0 2.02190002441 0.100755490591 0.0
0.0 2.02290002441 0.100803141824 0.0
0.0 2.02390002441 0.100849794829 0.0
0.0 2.02490002441 0.100897631817 0.0
0.0 2.02590002441 0.1009461633 0.0
0.0 2.02690002441 0.100993617038 0.0
0.0 2.02790002441 0.101043066837 0.0
0.0 2.02890002441 0.101092527591 0.0
0.0 2.02990002441 0.101142536914 0.0
0.0 2.03090002441 0.101193537061 0.0
0.0 2.03190002441 0.101244041832 0.0
0.0 2.03290002441 0.101296174579 0.0
0.0 2.03390002441 0.101348270076 0.0
0.0 2.03490002441 0.10140048923 0.0
0.0 2.03590002441 0.101455099152 0.0
0.0 2.03690002441 0.101507567139 0.0
0.0 2.03790002441 0.101562618192 0.0
0.0 2.03890002441 0.101616390688 0.0
0.0 2.03990002441 0.101672595659 0.0
0.0 2.04090002441 0.101727143618 0.0
0.0 2.04190002441 0.101783932822 0.0
0.0 2.04290002441 0.101840830969 0.0
0.0 2.04390002441 0.101898823755 0.0
0.0 2.04490002441 0.101957052029 0.0
0.0 2.04590002441 0.102013197955 0.0
0.0 2.04690002441 0.102072271872 0.0
0.0 2.04790002441 0.102132244192 0.0
0.0 2.04889990234 0.102191880914 0.0
0.0 2.04989990234 0.102251978091 0.0
0.0 2.05089990234 0.102313037232 0.0
0.0 2.05189990234 0.102373552367 0.0
0.0 2.05289990234 0.102436575273 0.0
0.0 2.05389990234 0.102498216879 0.0
0.0 2.05489990234 0.102560939167 0.0
0.0 2.05589990234 0.102624717235 0.0
0.0 2.05689990234 0.102689235797 0.0
0.0 2.05789990234 0.10275278098 0.0
0.0 2.05889990234 0.102817837402 0.0
0.0 2.05989990234 0.102883905274 0.0
0.0 2.06089990234 0.102949280542 0.0
0.0 2.06189990234 0.10301667017 0.0
0.0 2.06289990234 0.103082576866 0.0
0.0 2.06389990234 0.103150220596 0.0
0.0 2.06489990234 0.103219613184 0.0
0.0 2.06589990234 0.103287309955 0.0
0.0 2.06689990234 0.103357340998 0.0
0.0 2.06789990234 0.103425697162 0.0
0.0 2.06889990234 0.103497564446 0.0
0.0 2.06989990234 0.103567515348 0.0
0.0 2.07089990234 0.103638661849 0.0
0.0 2.07189990234 0.103710669594 0.0
0.0 2.07289990234 0.103782451431 0.0
0.0 2.07389990234 0.103855359241 0.0
0.0 2.07489990234 0.103928935027 0.0
0.0 2.07589990234 0.104002967077 0.0
0.0 2.07689990234 0.104076394105 0.0
0.0 2.07789990234 0.104153152442 0.0
0.0 2.07889990234 0.104227359943 0.0
0.0 2.07989990234 0.104303784624 0.0
0.0 2.08089990234 0.104379733727 0.0
0.0 2.08189990234 0.104457823662 0.0
0.0 2.08289990234 0.104533971231 0.0
0.0 2.08389990234 0.104612712751 0.0
0.0 2.08489990234 0.104691265581 0.0
0.0 2.08589990234 0.104772551799 0.0
0.0 2.08689990234 0.104849792746 0.0
0.0 2.08789990234 0.104930898643 0.0
0.0 2.08889990234 0.105011167543 0.0
0.0 2.08989990234 0.105092335102 0.0
0.0 2.09089990234 0.105175261067 0.0
0.0 2.09189990234 0.105256276203 0.0
0.0 2.09289990234 0.105341822788 0.0
0.0 2.09389990234 0.105422904703 0.0
0.0 2.09489990234 0.105507105048 0.0
0.0 2.09589990234 0.105591560259 0.0
0.0 2.09689990234 0.105676378818 0.0
0.0 2.09789990234 0.105762461802 0.0
0.0 2.09889990234 0.105848126165 0.0
0.0 2.09989990234 0.105935414264 0.0
0.0 2.10089990234 0.106022511733 0.0
0.0 2.10189990234 0.106110064086 0.0
0.0 2.10289990234 0.106198138736 0.0
0.0 2.10389990234 0.106287217595 0.0
0.0 2.10489990234 0.106376913523 0.0
0.0 2.10589990234 0.106466667961 0.0
0.0 2.10689990234 0.106557611366 0.0
0.0 2.10789990234 0.106648058274 0.0
0.0 2.10889990234 0.106740790769 0.0
0.0 2.10989990234 0.106831714301 0.0
0.0 2.11089990234 0.106925309983 0.0
0.0 2.11189990234 0.107017607266 0.0
0.0 2.11289990234 0.107112696954 0.0
0.0 2.11389990234 0.107206357322 0.0
0.0 2.11489990234 0.107300765608 0.0
0.0 2.11589990234 0.107397552622 0.0
0.0 2.11689990234 0.107493761374 0.0
0.0 2.11789990234 0.10758871091 0.0
0.0 2.11889990234 0.107686138616 0.0
0.0 2.11989990234 0.107783540494 0.0
0.0 2.12089990234 0.10788186245 0.0
0.0 2.12189990234 0.10798061669 0.0
0.0 2.12289990234 0.108079665394 0.0
0.0 2.12389990234 0.108181229931 0.0
0.0 2.12489990234 0.108279655925 0.0
0.0 2.12589990234 0.10838153906 0.0
0.0 2.12689990234 0.108483679213 0.0
0.0 2.12789990234 0.108585177576 0.0
0.0 2.12889990234 0.108688108058 0.0
0.0 2.12989990234 0.108790222718 0.0
0.0 2.13089990234 0.108895261437 0.0
0.0 2.13189990234 0.108998666462 0.0
0.0 2.13289990234 0.109105082778 0.0
0.0 2.13389990234 0.109208068257 0.0
0.0 2.13489990234 0.109316493648 0.0
0.0 2.13589990234 0.109421503449 0.0
0.0 2.13689990234 0.109528559585 0.0
0.0 2.13789990234 0.10963654904 0.0
0.0 2.13889990234 0.109744518282 0.0
0.0 2.13989990234 0.109853704816 0.0
0.0 2.14089990234 0.109963278857 0.0
0.0 2.14189990234 0.110070432664 0.0
0.0 2.14289990234 0.110181752365 0.0
0.0 2.14389990234 0.110294119078 0.0
0.0 2.14489990234 0.110405612156 0.0
0.0 2.14589990234 0.110516738303 0.0
0.0 2.14689990234 0.110629470729 0.0
0.0 2.14789990234 0.110741883258 0.0
0.0 2.14889990234 0.110856948874 0.0
0.0 2.14989990234 0.110970866788 0.0
0.0 2.15089990234 0.111085440849 0.0
0.0 2.15189990234 0.11120020668 0.0
0.0 2.15289990234 0.111318677704 0.0
0.0 2.15389990234 0.111433596879 0.0
0.0 2.15489990234 0.111552448918 0.0
0.0 2.15589990234 0.111669665183 0.0
0.0 2.15689990234 0.111787024372 0.0
0.0 2.15789990234 0.111906636579 0.0
0.0 2.15889990234 0.112026303346 0.0
0.0 2.15989990234 0.112146184332 0.0
0.0 2.16089990234 0.11226599013 0.0
0.0 2.16189990234 0.112386286285 0.0
0.0 2.16289990234 0.112508811767 0.0
0.0 2.16389990234 0.112631190697 0.0
0.0 2.16489990234 0.112752615114 0.0
0.0 2.16589990234 0.112877926538 0.0
0.0 2.16689990234 0.113003868844 0.0
0.0 2.16789990234 0.113124588068 0.0
0.0 2.16889990234 0.113250966565 0.0
0.0 2.16989990234 0.113375932351 0.0
0.0 2.17089990234 0.113503012924 0.0
0.0 2.17189990234 0.113628708761 0.0
0.0 2.17289990234 0.113758200238 0.0
0.0 2.17389990234 0.113886170531 0.0
0.0 2.17489990234 0.114014995952 0.0
0.0 2.17589990234 0.114142253667 0.0
0.0 2.17689990234 0.114273467359 0.0
0.0 2.17789990234 0.114402988051 0.0
0.0 2.17889990234 0.114536390578 0.0
0.0 2.17989990234 0.114665537153 0.0
0.0 2.18089990234 0.114796814082 0.0
0.0 2.18189990234 0.114930351191 0.0
0.0 2.18289990234 0.115063283889 0.0
0.0 2.18389990234 0.115197748282 0.0
0.0 2.18489990234 0.115333621909 0.0
0.0 2.18589990234 0.115466606654 0.0
0.0 2.18689990234 0.115602616856 0.0
0.0 2.18789990234 0.115738742084 0.0
0.0 2.18889990234 0.115876423397 0.0
0.0 2.18989990234 0.116012947615 0.0
0.0 2.19089990234 0.116151805579 0.0
0.0 2.19189990234 0.116288958515 0.0
0.0 2.19289990234 0.116429290223 0.0
0.0 2.19389990234 0.116568760926 0.0
0.0 2.19489990234 0.116708574316 0.0
0.0 2.19589990234 0.116850450414 0.0
0.0 2.19689990234 0.116990407642 0.0
0.0 2.19789990234 0.117133662724 0.0
0.0 2.19889990234 0.117275459334 0.0
0.0 2.19989990234 0.117418756567 0.0
0.0 2.20089990234 0.117561773181 0.0
0.0 2.20189990234 0.117706674727 0.0
0.0 2.20289990234 0.117853560782 0.0
0.0 2.20389990234 0.11799770048 0.0
0.0 2.20489990234 0.118143443847 0.0
0.0 2.20589990234 0.118290148932 0.0
0.0 2.20689990234 0.118439462177 0.0
0.0 2.20789990234 0.118586723052 0.0
0.0 2.20889990234 0.118733809651 0.0
0.0 2.20989990234 0.118884093388 0.0
0.0 2.21089990234 0.119033570462 0.0
0.0 2.21189990234 0.119183215528 0.0
0.0 2.21289990234 0.119335833513 0.0
0.0 2.21389990234 0.119485378118 0.0
0.0 2.21489990234 0.119637810095 0.0
0.0 2.21589990234 0.11979198497 0.0
0.0 2.21689990234 0.119944406377 0.0
0.0 2.21789990234 0.120097927749 0.0
0.0 2.21889990234 0.120253017316 0.0
0.0 2.21989990234 0.120408002375 0.0
0.0 2.22089990234 0.120563965863 0.0
0.0 2.22189990234 0.120719741552 0.0
0.0 2.22289990234 0.12087815034 0.0
0.0 2.22389990234 0.12103492385 0.0
0.0 2.22489990234 0.121193390767 0.0
0.0 2.22589990234 0.121352758589 0.0
0.0 2.22689990234 0.121510572881 0.0
0.0 2.22789990234 0.121670471083 0.0
0.0 2.22889990234 0.121830761981 0.0
0.0 2.22989990234 0.121993237429 0.0
0.0 2.23089990234 0.122155303643 0.0
0.0 2.23189990234 0.122316673879 0.0
0.0 2.23289990234 0.122481559919 0.0
0.0 2.23389990234 0.122641960768 0.0
0.0 2.23489990234 0.122806575031 0.0
0.0 2.23589990234 0.122972201919 0.0
0.0 2.23689990234 0.123136364623 0.0
0.0 2.23789990234 0.123303938816 0.0
0.0 2.23889990234 0.123470547217 0.0
0.0 2.23989990234 0.123637357607 0.0
0.0 2.24089990234 0.123804414253 0.0
0.0 2.24189990234 0.123974329157 0.0
0.0 2.24289990234 0.124141631205 0.0
0.0 2.24389990234 0.124311748972 0.0
0.0 2.24489990234 0.124482013191 0.0
0.0 2.24589990234 0.124653075015 0.0
0.0 2.24689990234 0.124825724769 0.0
0.0 2.24789990234 0.12499829345 0.0
0.0 2.24889990234 0.125169885621 0.0
0.0 2.24989990234 0.125342991112 0.0
0.0 2.25089990234 0.125519890575 0.0
0.0 2.25189990234 0.125691936854 0.0
0.0 2.25289990234 0.125867315699 0.0
0.0 2.25389990234 0.126045722272 0.0
0.0 2.25489990234 0.126218378614 0.0
0.0 2.25589990234 0.12639694583 0.0
0.0 2.25689990234 0.126574118297 0.0
0.0 2.25789990234 0.126752342397 0.0
0.0 2.25889990234 0.126930638495 0.0
0.0 2.25989990234 0.127113330093 0.0
0.0 2.26089990234 0.127290728326 0.0
0.0 2.26189990234 0.127474733606 0.0
0.0 2.26289990234 0.127652271834 0.0
0.0 2.26389990234 0.127835111547 0.0
0.0 2.26489990234 0.128020498632 0.0
0.0 2.26589990234 0.128200657886 0.0
0.0 2.26689990234 0.128384755518 0.0
0.0 2.26789990234 0.128569467641 0.0
0.0 2.26889990234 0.128754233867 0.0
0.0 2.26989990234 0.128941547957 0.0
0.0 2.27089990234 0.129128103666 0.0
0.0 2.27189990234 0.129315354028 0.0
0.0 2.27289990234 0.129500716467 0.0
0.0 2.27389990234 0.129689641125 0.0
0.0 2.27489990234 0.129880592334 0.0
0.0 2.27589990234 0.130069311162 0.0
0.0 2.27689990234 0.130259034171 0.0
0.0 2.27789990234 0.130449456086 0.0
0.0 2.27889990234 0.13064200647 0.0
0.0 2.27989990234 0.130833390004 0.0
0.0 2.28089990234 0.13102789305 0.0
0.0 2.28189990234 0.131219612307 0.0
0.0 2.28289990234 0.131412831539 0.0
0.0 2.28389990234 0.131607293652 0.0
0.0 2.28489990234 0.131801546971 0.0
0.0 2.28589990234 0.131998699978 0.0
0.0 2.28689990234 0.132196522379 0.0
0.0 2.28789990234 0.132391710203 0.0
0.0 2.28889990234 0.132589831214 0.0
0.0 2.28989990234 0.132787936585 0.0
0.0 2.29089990234 0.132987312878 0.0
0.0 2.29189990234 0.133185944462 0.0
0.0 2.29289990234 0.133388198468 0.0
0.0 2.29389990234 0.133587180451 0.0
0.0 2.29489990234 0.133790212455 0.0
0.0 2.29589990234 0.133991525459 0.0
0.0 2.29689990234 0.13419390507 0.0
0.0 2.29789990234 0.134398177496 0.0
0.0 2.29889990234 0.134601751149 0.0
0.0 2.29989990234 0.13480772232 0.0
0.0 2.30089990234 0.135012270073 0.0
0.0 2.30189990234 0.135217896614 0.0
0.0 2.30289990234 0.135425384483 0.0
0.0 2.30389990234 0.135632184853 0.0
0.0 2.30489990234 0.135840148673 0.0
0.0 2.30589990234 0.136049716689 0.0
0.0 2.30689990234 0.136257561048 0.0
0.0 2.30789990234 0.136467744698 0.0
0.0 2.30889990234 0.136678517585 0.0
0.0 2.30989990234 0.136889921485 0.0
0.0 2.31089990234 0.137101487127 0.0
0.0 2.31189990234 0.137313296389 0.0
0.0 2.31289990234 0.137527305231 0.0
0.0 2.31389990234 0.137741112925 0.0
0.0 2.31489990234 0.137956286814 0.0
0.0 2.31589990234 0.13816999097 0.0
0.0 2.31689990234 0.138386658087 0.0
0.0 2.31789990234 0.138602773297 0.0
0.0 2.31889990234 0.138819540226 0.0
0.0 2.31989990234 0.139037438911 0.0
0.0 2.32089990234 0.139255565749 0.0
0.0 2.32189990234 0.139474773075 0.0
0.0 2.32289990234 0.139693787382 0.0
0.0 2.32389990234 0.139914010904 0.0
0.0 2.32489990234 0.140134973479 0.0
0.0 2.32589990234 0.14035639748 0.0
0.0 2.32689990234 0.140579055752 0.0
0.0 2.32789990234 0.14080205551 0.0
0.0 2.32889990234 0.141025426533 0.0
0.0 2.32989990234 0.141249505199 0.0
0.0 2.33089990234 0.141474198223 0.0
0.0 2.33189990234 0.141700038596 0.0
0.0 2.33289990234 0.141926262536 0.0
0.0 2.33389990234 0.142152670838 0.0
0.0 2.33489990234 0.142380312894 0.0
0.0 2.33589990234 0.142608012708 0.0
0.0 2.33689990234 0.142837306189 0.0
0.0 2.33789990234 0.14306631495 0.0
0.0 2.33889990234 0.143296805251 0.0
0.0 2.33989990234 0.143527434991 0.0
0.0 2.34089990234 0.143758663848 0.0
0.0 2.34189990234 0.14399091267 0.0
0.0 2.34289990234 0.144224056545 0.0
0.0 2.34389990234 0.144457102482 0.0
0.0 2.34489990234 0.144691159863 0.0
0.0 2.34589990234 0.144926162793 0.0
0.0 2.34689990234 0.145161616582 0.0
0.0 2.34789990234 0.145397311117 0.0
0.0 2.34889990234 0.145634086115 0.0
0.0 2.34989990234 0.14587193755 0.0
0.0 2.35089990234 0.146109602993 0.0
0.0 2.35189990234 0.146348651655 0.0
0.0 2.35289990234 0.14658759493 0.0
0.0 2.35389990234 0.146827933658 0.0
0.0 2.35489990234 0.147068698739 0.0
0.0 2.35589990234 0.147310035217 0.0
0.0 2.35689990234 0.147551804205 0.0
0.0 2.35789990234 0.147795066462 0.0
0.0 2.35889990234 0.148038159605 0.0
0.0 2.35989990234 0.148282464971 0.0
0.0 2.36089990234 0.148526995325 0.0
0.0 2.36189990234 0.148772493325 0.0
0.0 2.36289990234 0.149018429259 0.0
0.0 2.36389990234 0.149265127731 0.0
0.0 2.36489990234 0.149512767102 0.0
0.0 2.36589990234 0.149760806708 0.0
0.0 2.36689990234 0.150009531349 0.0
0.0 2.36789990234 0.150258943591 0.0
0.0 2.36889990234 0.150509198344 0.0
0.0 2.36989990234 0.150760004346 0.0
0.0 2.37089990234 0.151011503708 0.0
0.0 2.37189990234 0.151263597823 0.0
0.0 2.37289990234 0.151516489211 0.0
0.0 2.37389990234 0.151769972233 0.0
0.0 2.37489990234 0.152024112547 0.0
0.0 2.37589990234 0.152279041143 0.0
0.0 2.37689990234 0.152534572373 0.0
0.0 2.37789990234 0.152790785737 0.0
0.0 2.37889990234 0.153047730125 0.0
0.0 2.37989990234 0.153305313372 0.0
0.0 2.38089990234 0.226407816096 0.0
0.0 2.38189990234 0.300238981068 0.0
0.0 2.38289990234 0.36702433367 0.0
0.0 2.38389990234 0.427436184789 0.0
0.0 2.38489990234 0.482082755421 0.0
0.0 2.38589990234 0.531514186865 0.0
0.0 2.38689990234 0.576228108999 0.0
0.0 2.38789990234 0.616674691807 0.0
0.0 2.38889990234 0.653261234815 0.0
0.0 2.38989990234 0.686356045418 0.0
0.0 2.39089990234 0.716292347305 0.0
0.0 2.39189990234 0.743371570637 0.0
0.0 2.39289990234 0.767866347891 0.0
0.0 2.39389990234 0.790023327462 0.0
0.0 2.39489990234 0.810065629922 0.0
0.0 2.39589990234 0.828195026686 0.0
0.0 2.39689990234 0.844594125943 0.0
0.0 2.39789990234 0.859428005608 0.0
0.0 2.39889990234 0.872846089465 0.0
0.0 2.39989990234 0.884983459221 0.0
0.0 2.40089990234 0.895962371664 0.0
0.0 2.40189990234 0.905893390247 0.0
0.0 2.40289990234 0.914876502723 0.0
0.0 2.40389990234 0.92300219305 0.0
0.0 2.40489990234 0.930352270241 0.0
0.0 2.40589990234 0.937000798963 0.0
0.0 2.40689990234 0.943014712322 0.0
0.0 2.40789990234 0.948454583215 0.0
0.0 2.40889990234 0.953375199497 0.0
0.0 2.40989990234 0.957826132484 0.0
0.0 2.41089990234 0.961852196189 0.0
0.0 2.41189990234 0.965493954185 0.0
0.0 2.41289990234 0.968788081099 0.0
0.0 2.41389990234 0.971767760545 0.0
0.0 2.41489990234 0.974463005126 0.0
0.0 2.41589990234 0.976900965256 0.0
0.0 2.41689990234 0.979106199964 0.0
0.0 2.41789990234 0.981100921131 0.0
0.0 2.41889990234 0.982905222597 0.0
0.0 2.41989990234 0.984537283631 0.0
0.0 2.42089990234 0.986013540707 0.0
0.0 2.42189990234 0.987348869769 0.0
0.0 2.42289990234 0.988556721099 0.0
0.0 2.42389990234 0.989649265527 0.0
0.0 2.42489990234 0.990637507455 0.0
0.0 2.42589990234 0.99153140495 0.0
0.0 2.42689990234 0.99233996393 0.0
0.0 2.42789990234 0.99307133003 0.0
0.0 2.42889990234 0.993732873054 0.0
0.0 2.42989990234 0.99433125775 0.0
0.0 2.43089990234 0.994872514186 0.0
0.0 2.43189990234 0.995362095014 0.0
0.0 2.43289990234 0.995804934171 0.0
0.0 2.43389990234 0.996205493583 0.0
0.0 2.43489990234 0.996567809554 0.0
0.0 2.43589990234 0.996895533254 0.0
0.0 2.43689990234 0.997191966591 0.0
0.0 2.43789990234 0.997460097362 0.0
0.0 2.43889990234 0.997702627262 0.0
0.0 2.43989990234 0.997922000682 0.0
0.0 2.44089990234 0.998120428131 0.0
0.0 2.44189990234 0.998299909559 0.0
0.0 2.44289990234 0.998462253669 0.0
0.0 2.44389990234 0.998609096706 0.0
0.0 2.44489990234 0.998741918595 0.0
0.0 2.44589990234 0.998862058049 0.0
0.0 2.44689990234 0.99897072597 0.0
0.0 2.44789990234 0.999069017475 0.0
0.0 2.44889990234 0.999157923362 0.0
0.0 2.44989990234 0.999238339854 0.0
0.0 2.45089990234 0.999311077347 0.0
0.0 2.45189990234 0.999376869187 0.0
0.0 2.45289990234 0.99943637855 0.0
0.0 2.45389990234 0.999490205143 0.0
0.0 2.45489990234 0.999538891744 0.0
0.0 2.45589990234 0.999582929097 0.0
0.0 2.45689990234 0.999622761097 0.0
0.0 2.45789990234 0.999658789325 0.0
0.0 2.45889990234 0.999691377011 0.0
0.0 2.45989990234 0.999720852634 0.0
0.0 2.46089990234 0.999747513399 0.0
0.0 2.46189990234 0.999771628076 0.0
0.0 2.46289990234 0.99979343981 0.0
0.0 2.46389990234 0.999813168508 0.0
0.0 2.46489990234 0.999831013069 0.0
0.0 2.46589990234 0.99984715343 0.0
0.0 2.46689990234 0.999861752331 0.0
0.0 2.46789990234 0.999874956966 0.0
0.0 2.46889990234 0.999886900486 0.0
0.0 2.46989990234 0.999897703325 0.0
0.0 2.47089990234 0.999907474414 0.0
0.0 2.47189990234 0.999916312282 0.0
0.0 2.47289990234 0.999924306059 0.0
0.0 2.47389990234 0.999931536338 0.0
0.0 2.47489990234 0.99993807605 0.0
0.0 2.47589990234 0.999943991142 0.0
0.0 2.47689990234 0.999949341268 0.0
0.0 2.47789990234 0.99995418038 0.0
0.0 2.47889990234 0.999958557287 0.0
0.0 2.47989990234 0.999962516131 0.0
0.0 2.48089990234 0.999966096838 0.0
0.0 2.48189990234 0.999969335525 0.0
0.0 2.48289990234 0.999972264859 0.0
0.0 2.48389990234 0.999974914383 0.0
0.0 2.48489990234 0.999977310824 0.0
0.0 2.48589990234 0.999979478353 0.0
0.0 2.48689990234 0.999981438835 0.0
0.0 2.48789990234 0.999983212048 0.0
0.0 2.48889990234 0.999984815872 0.0
0.0 2.48989990234 0.999986266492 0.0
0.0 2.49089990234 0.999987578541 0.0
0.0 2.49189990234 0.999988765252 0.0
0.0 2.49289990234 0.9999898386 0.0
0.0 2.49389990234 0.999990809412 0.0
0.0 2.49489990234 0.999991687483 0.0
0.0 2.49589990234 0.99999248167 0.0
0.0 2.49689990234 0.999993199987 0.0
0.0 2.49789990234 0.999993849682 0.0
0.0 2.49889990234 0.999994437308 0.0
0.0 2.49989990234 0.999994968796 0.0
0.0 2.50089990234 0.999995449508 0.0
0.0 2.50189990234 0.999995884294 0.0
0.0 2.50289990234 0.999996277542 0.0
0.0 2.50389990234 0.999996633219 0.0
0.0 2.50489990234 0.999996954915 0.0
0.0 2.50589990234 0.999997245877 0.0
0.0 2.50689990234 0.999997509039 0.0
0.0 2.50789990234 0.999997747058 0.0
0.0 2.50889990234 0.999997962335 0.0
0.0 2.50989990234 0.999998157045 0.0
0.0 2.51089990234 0.99999833315 0.0
0.0 2.51189990234 0.999998492429 0.0
0.0 2.51289990234 0.99999863649 0.0
0.0 2.51389990234 0.999998766786 0.0
0.0 2.51489990234 0.999998884632 0.0
0.0 2.51589990234 0.999998991218 0.0
0.0 2.51689990234 0.999999087619 0.0
0.0 2.51789990234 0.999999174809 0.0
0.0 2.51889990234 0.999999253668 0.0
0.0 2.51989990234 0.999999324991 0.0
0.0 2.52089990234 0.999999389499 0.0
0.0 2.52189990234 0.999999447843 0.0
0.0 2.52289990234 0.999999500612 0.0
0.0 2.52389990234 0.999999548338 0.0
0.0 2.52489990234 0.999999591503 0.0
0.0 2.52589990234 0.999999630544 0.0
0.0 2.52689990234 0.999999665854 0.0
0.0 2.52789990234 0.999999697789 0.0
0.0 2.52889990234 0.999999726673 0.0
0.0 2.52989990234 0.999999752796 0.0
0.0 2.53089990234 0.999999776423 0.0
0.0 2.53189990234 0.999999797792 0.0
0.0 2.53289990234 0.999999817119 0.0
0.0 2.53389990234 0.999999834599 0.0
0.0 2.53489990234 0.999999850408 0.0
0.0 2.53589990234 0.999999864706 0.0
0.0 2.53689990234 0.999999877638 0.0
0.0 2.53789990234 0.999999889334 0.0
0.0 2.53889990234 0.999999899912 0.0
0.0 2.53989990234 0.999999909479 0.0
0.0 2.54089990234 0.999999918131 0.0
0.0 2.54189990234 0.999999925957 0.0
0.0 2.54289990234 0.999999933035 0.0
0.0 2.54389990234 0.999999939436 0.0
0.0 2.54489990234 0.999999945225 0.0
0.0 2.54589990234 0.999999950461 0.0
0.0 2.54689990234 0.999999955197 0.0
0.0 2.54789990234 0.99999995948 0.0
0.0 2.54889990234 0.999999963354 0.0
0.0 2.54989990234 0.999999966857 0.0
0.0 2.55089990234 0.999999970025 0.0
0.0 2.55189990234 0.999999972891 0.0
0.0 2.55289990234 0.999999975482 0.0
0.0 2.55389990234 0.999999977826 0.0
0.0 2.55489990234 0.999999979946 0.0
0.0 2.55589990234 0.999999981863 0.0
0.0 2.55689990234 0.999999983597 0.0
0.0 2.55789990234 0.999999985166 0.0
0.0 2.55889990234 0.999999986584 0.0
0.0 2.55989990234 0.999999987866 0.0
0.0 2.56089990234 0.999999989027 0.0
0.0 2.56189990234 0.999999990076 0.0
0.0 2.56289990234 0.999999991025 0.0
0.0 2.56389990234 0.999999991883 0.0
0.0 2.56489990234 0.999999992659 0.0
0.0 2.56589990234 0.999999993361 0.0
0.0 2.56689990234 0.999999993996 0.0
0.0 2.56789990234 0.99999999457 0.0
0.0 2.56889990234 0.999999995089 0.0
0.0 2.56989990234 0.999999995559 0.0
0.0 2.57089990234 0.999999995983 0.0
0.0 2.57189990234 0.999999996367 0.0
0.0 2.57289990234 0.999999996715 0.0
0.0 2.57389990234 0.999999997029 0.0
0.0 2.57489990234 0.999999997313 0.0
0.0 2.57589990234 0.99999999757 0.0
0.0 2.57689990234 0.999999997802 0.0
0.0 2.57789990234 0.999999998012 0.0
0.0 2.57889990234 0.999999998203 0.0
0.0 2.57989990234 0.999999998374 0.0
0.0 2.58089990234 0.99999999853 0.0
0.0 2.58189990234 0.99999999867 0.0
0.0 2.58289990234 0.999999998798 0.0
0.0 2.58389990234 0.999999998913 0.0
0.0 2.58489990234 0.999999999017 0.0
0.0 2.58589990234 0.999999999111 0.0
0.0 2.58689990234 0.999999999196 0.0
0.0 2.58789990234 0.999999999273 0.0
0.0 2.58889990234 0.999999999342 0.0
0.0 2.58989990234 0.999999999405 0.0
0.0 2.59089990234 0.999999999462 0.0
0.0 2.59189990234 0.999999999513 0.0
0.0 2.59289990234 0.99999999956 0.0
0.0 2.59389990234 0.999999999602 0.0
0.0 2.59489990234 0.99999999964 0.0
0.0 2.59589990234 0.999999999675 0.0
0.0 2.59689990234 0.999999999706 0.0
