# approximate data for optimizations for each filter configuration (column 1)
# column 2 is the nominal wavelength of each band (microns)
# column 3 is the approximate plate scale (microns per degree)
# columns 4 5 6 are the x y z coordinates of the center of the image plane (microns)
# columns 7 8 9 are the Euler rotations of the image plane (degrees)
0   0.70  2.10048622366e6 0 0 0 0 0 0
1   0.70  2.10048622366e6 0 0 0 0 0 0
2   0.70  2.10048622366e6 0 0 0 0 0 0
3   0.90  2.10048622366e6 0 0 0 0 0 0
4   0.90  2.10048622366e6 0 0 0 0 0 0
5   0.90  2.10048622366e6 0 0 0 0 0 0
6   1.15  2.10048622366e6 0 0 0 0 0 0
7   1.15  2.10048622366e6 0 0 0 0 0 0
8   1.15  2.10048622366e6 0 0 0 0 0 0
9   1.40  2.10048622366e6 0 0 0 0 0 0
10  1.40  2.10048622366e6 0 0 0 0 0 0
11  1.40  2.10048622366e6 0 0 0 0 0 0
12  1.50  2.10048622366e6 0 0 0 0 0 0
13  1.50  2.10048622366e6 0 0 0 0 0 0
14  1.50  2.10048622366e6 0 0 0 0 0 0
15  1.50  2.10048622366e6 0 0 0 0 0 0
16  1.50  2.10048622366e6 0 0 0 0 0 0
17  1.50  2.10048622366e6 0 0 0 0 0 0
18  1.62  2.10048622366e6 0 0 0 0 0 0
19  1.62  2.10048622366e6 0 0 0 0 0 0
20  1.62  2.10048622366e6 0 0 0 0 0 0
21  1.64  2.10048622366e6 0 0 0 0 0 0
22  1.64  2.10048622366e6 0 0 0 0 0 0
23  1.64  2.10048622366e6 0 0 0 0 0 0
24  1.82  2.10048622366e6 0 0 0 0 0 0
25  1.82  2.10048622366e6 0 0 0 0 0 0
26  1.82  2.10048622366e6 0 0 0 0 0 0
27  1.87  2.10048622366e6 0 0 0 0 0 0
28  1.87  2.10048622366e6 0 0 0 0 0 0
29  1.87  2.10048622366e6 0 0 0 0 0 0
30  2.00  2.10048622366e6 0 0 0 0 0 0
31  2.00  2.10048622366e6 0 0 0 0 0 0
32  2.00  2.10048622366e6 0 0 0 0 0 0
33  2.10  2.10048622366e6 0 0 0 0 0 0
34  2.10  2.10048622366e6 0 0 0 0 0 0
35  2.10  2.10048622366e6 0 0 0 0 0 0
36  2.12  2.10048622366e6 0 0 0 0 0 0
37  2.12  2.10048622366e6 0 0 0 0 0 0
38  2.12  2.10048622366e6 0 0 0 0 0 0
